<script id = "race236b" class = "Lu_Inst">
	if(!myVars) {var myVars = {};}
	if(!myVars.races) {myVars.races= {};}
	myVars.races.race236={};
	myVars.races.race236.varName="Array[16128]$LEN";
	myVars.races.race236.varType="@varType@";
	myVars.races.race236.repairType = "@RepairType";
	myVars.races.race236.event1={};
	myVars.races.race236.event2={};
	myVars.races.race236.event1.id = "_script_event?d_nsid=0&amp;d_ld=_ts%3D1460842269719&amp;c_pageName=gm%3Ahome&amp;c_channel=home&amp;c_prop1=&amp;c_eVar1=&amp;c_prop2=&amp;c_eVar2=&amp;c_prop3=&amp;c_eVar3=&amp;c_prop4=&amp;c_eVar4=&amp;c_prop5=&amp;c_eVar5=&amp;c_prop6=&amp;c_eVar6=&amp;c_prop7=&amp;c_eVar7=&amp;c_prop8=&amp;c_eVar8=&amp;c_prop9=&amp;c_eVar9=5%3A30PM&amp;c_prop10=&amp;c_eVar10=Saturday&amp;c_prop11=&amp;c_eVar11=Weekend&amp;c_prop12=&amp;c_eVar12=New&amp;c_prop13=&amp;c_eVar13=&amp;c_prop14=&amp;c_eVar14=&amp;c_prop15=&amp;c_eVar15=&amp;c_prop16=&amp;c_eVar16=&amp;c_prop17=&amp;c_eVar17=&amp;c_prop18=&amp;c_eVar18=&amp;c_prop19=&amp;c_eVar19=&amp;c_prop20=&amp;c_eVar20=&amp;c_prop21=gm%3Ahome&amp;c_eVar21=&amp;c_prop22=1.8.gm.03282013&amp;c_eVar22=&amp;c_prop23=&amp;c_eVar23=&amp;c_prop24=&amp;c_eVar24=&amp;c_prop25=&amp;c_eVar25=&amp;c_prop26=&amp;c_eVar26=&amp;c_prop27=&amp;c_eVar27=&amp;c_prop28=&amp;c_eVar28=&amp;c_prop29=&amp;c_eVar29=&amp;c_prop30=&amp;c_eVar30=&amp;c_prop31=&amp;c_eVar31=&amp;c_prop32=gm%3Aglobal%20nav%3Avehicles&amp;c_eVar32=&amp;c_prop33=&amp;c_eVar33=&amp;c_prop34=&amp;c_eVar34=&amp;c_prop35=&amp;c_eVar35=&amp;c_prop36=&amp;c_eVar36=&amp;c_prop37=&amp;c_eVar37=gm%3Ahome&amp;c_prop38=&amp;c_eVar38=&amp;c_prop39=&amp;c_eVar39=&amp;c_prop40=&amp;c_eVar40=&amp;c_prop41=&amp;c_eVar41=&amp;c_prop42=&amp;c_eVar42=&amp;c_prop43=&amp;c_eVar43=&amp;c_prop44=&amp;c_eVar44=&amp;c_prop45=&amp;c_eVar45=&amp;c_prop46=&amp;c_eVar46=&amp;c_prop47=&amp;c_eVar47=&amp;c_prop48=&amp;c_eVar48=&amp;c_prop49=&amp;c_eVar49=&amp;c_prop50=&amp;c_eVar50=&amp;c_prop51=&amp;c_eVar51=&amp;c_prop52=&amp;c_eVar52=&amp;c_prop53=&amp;c_eVar53=&amp;c_prop54=&amp;c_eVar54=&amp;c_prop55=&amp;c_eVar55=&amp;c_prop56=&amp;c_eVar56=&amp;c_prop57=&amp;c_eVar57=&amp;c_prop58=&amp;c_eVar58=&amp;c_prop59=&amp;c_eVar59=&amp;c_prop60=&amp;c_eVar60=&amp;c_prop61=&amp;c_eVar61=&amp;c_prop62=&amp;c_eVar62=&amp;c_prop63=&amp;c_eVar63=&amp;c_prop64=&amp;c_eVar64=&amp;c_prop65=&amp;c_eVar65=&amp;c_prop66=&amp;c_eVar66=&amp;c_prop67=&amp;c_eVar67=&amp;c_prop68=&amp;c_eVar68=&amp;c_prop69=&amp;c_eVar69=&amp;c_prop70=&amp;c_eVar70=&amp;c_prop71=&amp;c_eVar71=&amp;c_prop72=&amp;c_eVar72=&amp;c_prop73=&amp;c_eVar73=&amp;c_prop74=&amp;c_eVar74=&amp;c_prop75=&amp;c_eVar75=&amp;d_rtbd=json&amp;d_jsonv=1&amp;d_dst=1&amp;d_cts=1&amp;d_cb=demdexRequestCallback1460842269719";
	myVars.races.race236.event1.type = "onclick";
	myVars.races.race236.event1.loc = "_script_event?d_nsid=0&amp;d_ld=_ts%3D1460842269719&amp;c_pageName=gm%3Ahome&amp;c_channel=home&amp;c_prop1=&amp;c_eVar1=&amp;c_prop2=&amp;c_eVar2=&amp;c_prop3=&amp;c_eVar3=&amp;c_prop4=&amp;c_eVar4=&amp;c_prop5=&amp;c_eVar5=&amp;c_prop6=&amp;c_eVar6=&amp;c_prop7=&amp;c_eVar7=&amp;c_prop8=&amp;c_eVar8=&amp;c_prop9=&amp;c_eVar9=5%3A30PM&amp;c_prop10=&amp;c_eVar10=Saturday&amp;c_prop11=&amp;c_eVar11=Weekend&amp;c_prop12=&amp;c_eVar12=New&amp;c_prop13=&amp;c_eVar13=&amp;c_prop14=&amp;c_eVar14=&amp;c_prop15=&amp;c_eVar15=&amp;c_prop16=&amp;c_eVar16=&amp;c_prop17=&amp;c_eVar17=&amp;c_prop18=&amp;c_eVar18=&amp;c_prop19=&amp;c_eVar19=&amp;c_prop20=&amp;c_eVar20=&amp;c_prop21=gm%3Ahome&amp;c_eVar21=&amp;c_prop22=1.8.gm.03282013&amp;c_eVar22=&amp;c_prop23=&amp;c_eVar23=&amp;c_prop24=&amp;c_eVar24=&amp;c_prop25=&amp;c_eVar25=&amp;c_prop26=&amp;c_eVar26=&amp;c_prop27=&amp;c_eVar27=&amp;c_prop28=&amp;c_eVar28=&amp;c_prop29=&amp;c_eVar29=&amp;c_prop30=&amp;c_eVar30=&amp;c_prop31=&amp;c_eVar31=&amp;c_prop32=gm%3Aglobal%20nav%3Avehicles&amp;c_eVar32=&amp;c_prop33=&amp;c_eVar33=&amp;c_prop34=&amp;c_eVar34=&amp;c_prop35=&amp;c_eVar35=&amp;c_prop36=&amp;c_eVar36=&amp;c_prop37=&amp;c_eVar37=gm%3Ahome&amp;c_prop38=&amp;c_eVar38=&amp;c_prop39=&amp;c_eVar39=&amp;c_prop40=&amp;c_eVar40=&amp;c_prop41=&amp;c_eVar41=&amp;c_prop42=&amp;c_eVar42=&amp;c_prop43=&amp;c_eVar43=&amp;c_prop44=&amp;c_eVar44=&amp;c_prop45=&amp;c_eVar45=&amp;c_prop46=&amp;c_eVar46=&amp;c_prop47=&amp;c_eVar47=&amp;c_prop48=&amp;c_eVar48=&amp;c_prop49=&amp;c_eVar49=&amp;c_prop50=&amp;c_eVar50=&amp;c_prop51=&amp;c_eVar51=&amp;c_prop52=&amp;c_eVar52=&amp;c_prop53=&amp;c_eVar53=&amp;c_prop54=&amp;c_eVar54=&amp;c_prop55=&amp;c_eVar55=&amp;c_prop56=&amp;c_eVar56=&amp;c_prop57=&amp;c_eVar57=&amp;c_prop58=&amp;c_eVar58=&amp;c_prop59=&amp;c_eVar59=&amp;c_prop60=&amp;c_eVar60=&amp;c_prop61=&amp;c_eVar61=&amp;c_prop62=&amp;c_eVar62=&amp;c_prop63=&amp;c_eVar63=&amp;c_prop64=&amp;c_eVar64=&amp;c_prop65=&amp;c_eVar65=&amp;c_prop66=&amp;c_eVar66=&amp;c_prop67=&amp;c_eVar67=&amp;c_prop68=&amp;c_eVar68=&amp;c_prop69=&amp;c_eVar69=&amp;c_prop70=&amp;c_eVar70=&amp;c_prop71=&amp;c_eVar71=&amp;c_prop72=&amp;c_eVar72=&amp;c_prop73=&amp;c_eVar73=&amp;c_prop74=&amp;c_eVar74=&amp;c_prop75=&amp;c_eVar75=&amp;d_rtbd=json&amp;d_jsonv=1&amp;d_dst=1&amp;d_cts=1&amp;d_cb=demdexRequestCallback1460842269719_LOC";
	myVars.races.race236.event1.isRead = "False";
	myVars.races.race236.event1.eventType = "@event1EventType@";
	myVars.races.race236.event2.id = "destination_publishing_iframe_gm_0";
	myVars.races.race236.event2.type = "onload";
	myVars.races.race236.event2.loc = "destination_publishing_iframe_gm_0_LOC";
	myVars.races.race236.event2.isRead = "False";
	myVars.races.race236.event2.eventType = "@event2EventType@";
	myVars.races.race236.event1.executed= false;// true to disable, false to enable
	myVars.races.race236.event2.executed= false;// true to disable, false to enable
</script>

