<?xml version="1.0" standalone="no"?>
<!DOCTYPE svg PUBLIC "-//W3C//DTD SVG 1.1//EN" "http://www.w3.org/Graphics/SVG/1.1/DTD/svg11.dtd" >
<svg xmlns="http://www.w3.org/2000/svg">
<metadata>
This is a custom SVG webfont generated by Font Squirrel.
Copyright   : c Copyright 1997 2001 Berthold LLC All rights reserved httpwwwbertholdtypescom
</metadata>
<defs>
<font id="NissanAGXBoldCnd" horiz-adv-x="1024" >
<font-face units-per-em="2048" ascent="1575" descent="-473" />
<missing-glyph horiz-adv-x="555" />
<glyph unicode=" "  horiz-adv-x="555" />
<glyph unicode="&#x09;" horiz-adv-x="555" />
<glyph unicode="&#xa0;" horiz-adv-x="555" />
<glyph unicode="!" horiz-adv-x="598" d="M186 0v315h303v-315h-303zM188 1247v199h304v-199q0 -94 -23 -346q-12 -131 -39 -432h-188q-10 158 -35 473q-19 229 -19 305z" />
<glyph unicode="&#x22;" horiz-adv-x="641" d="M29 1518h250l-89 -590h-73zM362 1518h250l-88 -590h-73z" />
<glyph unicode="#" horiz-adv-x="1148" d="M18 412v219h234l16 205h-221v219h240l35 391h221l-33 -391h184l33 391h223l-32 -391h210v-219h-229l-16 -205h223v-219h-244l-35 -412h-223l37 412h-186l-37 -412h-219l34 412h-215zM473 631h186l17 205h-184z" />
<glyph unicode="$" d="M53 465h346v-103q0 -70 23.5 -100.5t91.5 -30.5t90.5 29t22.5 96q0 55 -13.5 82t-58.5 64q-20 16 -113 80q-127 86 -188 133q-70 49 -100 82q-53 59 -67.5 121.5t-14.5 162.5q0 199 79.5 285t276.5 102v240h170v-240q92 -8 145.5 -20t106.5 -56t76 -124q16 -61 16 -168 v-99h-332v105q0 68 -20.5 93.5t-85.5 25.5q-55 0 -72.5 -31t-17.5 -90v-21q0 -59 13 -81.5t62 -59.5q31 -23 192 -125t214 -158q82 -86 82 -266q0 -209 -85 -299t-294 -112v-263h-170v263q-90 8 -149.5 23t-119 60.5t-85.5 120.5q-21 56 -21 279z" />
<glyph unicode="%" horiz-adv-x="1622" d="M55 784v414q0 152 69 210t226 58q141 0 212 -51t71 -184v-422q0 -143 -63.5 -210t-211.5 -67q-256 0 -297 168q-6 27 -6 84zM272 766q0 -37 15.5 -50.5t54.5 -13.5t58.5 14.5t19.5 51.5v469q0 43 -17.5 56.5t-60.5 13.5q-70 0 -70 -70v-471zM494 0l477 1446h145 l-477 -1446h-145zM987 236v421q0 152 68.5 210.5t226.5 58.5q231 0 274 -146q8 -27 9 -84v-430q0 -143 -62.5 -208.5t-210.5 -65.5q-145 0 -225 52.5t-80 191.5zM1206 223q0 -37 16.5 -50t55.5 -13q76 0 76 65v469q0 43 -17.5 57.5t-60.5 14.5q-70 0 -70 -70v-473z" />
<glyph unicode="&#x26;" horiz-adv-x="1236" d="M43 367q0 53 15.5 101t30.5 79t59.5 73t61.5 56t78.5 59t76.5 56q-4 8 -27 41.5t-29 45t-23.5 41t-23.5 47t-16 44t-13.5 51t-3.5 51.5q0 147 110 230t261 83q160 0 268.5 -77.5t108.5 -231.5q0 -80 -42 -152.5t-89 -113.5t-127 -98l149 -252q23 119 23 223h244 q-4 -168 -26 -262t-91 -217q10 -18 24.5 -30.5t26.5 -19t35.5 -9.5t33.5 -3h39h35v-182h-231q-70 0 -104.5 10t-79.5 51q-135 -86 -297 -86q-199 0 -328 99.5t-129 292.5zM340 393q0 -43 31.5 -99t68.5 -77q35 -23 78 -22q72 0 160 63l-189 320q-149 -83 -149 -185z M526 1133q0 -78 78 -183q4 2 20.5 13.5t21.5 15.5l21 16q15 12 21 19l19 18q12 12 17 21.5t11 21.5t9.5 24.5t3.5 24.5q0 49 -37 80t-86 31q-43 0 -71 -29.5t-28 -72.5z" />
<glyph unicode="'" horiz-adv-x="307" d="M29 1518h250l-89 -590h-73z" />
<glyph unicode="(" horiz-adv-x="724" d="M172 78v909q0 119 27.5 200t107.5 148q76 63 162 86t209 31v-127q-125 -12 -166 -56t-41 -167v-1176q0 -111 47 -155.5t160 -49.5v-122h-19q-172 0 -300 75.5t-171 233.5q-16 64 -16 170z" />
<glyph unicode=")" horiz-adv-x="724" d="M47 -274q125 12 166 56t41 167v1175q0 80 -23.5 125t-95.5 70q-20 8 -88 12v121h19q172 0 300 -76t171 -233q16 -63 16 -170v-910q0 -119 -27.5 -199.5t-107.5 -148.5q-117 -100 -371 -114v125z" />
<glyph unicode="*" horiz-adv-x="841" d="M33 1079l63 213l207 -61v215h221v-215l211 72l72 -209l-203 -70l125 -160l-174 -137l-135 174l-125 -174l-178 131l116 162z" />
<glyph unicode="+" horiz-adv-x="1142" d="M166 485v258h248v299h319v-299h244v-258h-244v-299h-319v299h-248z" />
<glyph unicode="," horiz-adv-x="512" d="M92 -311l111 311h-97v313h302v-313l-172 -311h-144z" />
<glyph unicode="-" horiz-adv-x="673" d="M57 481v250h559v-250h-559z" />
<glyph unicode="." horiz-adv-x="512" d="M104 0v311h304v-311h-304z" />
<glyph unicode="/" horiz-adv-x="641" d="M18 0l353 1446h254l-357 -1446h-250z" />
<glyph unicode="0" d="M68 369v688q0 104 18 168q76 248 412 248q348 0 432 -228q25 -63 24 -176v-674q0 -233 -108.5 -326.5t-347.5 -93.5q-211 0 -320.5 92.5t-109.5 301.5zM399 1092l2 -740q0 -68 21.5 -99.5t87.5 -31.5q63 0 87 32t24 97v748q0 111 -109 110q-113 1 -113 -116z" />
<glyph unicode="1" d="M174 961v292q100 16 159.5 59.5t102.5 133.5h266v-1446h-309v1063q-106 -63 -219 -102z" />
<glyph unicode="2" d="M78 0v55q0 152 20 238q8 31 22.5 63.5t28 57t41 57.5t41 50.5t49 51t47 45t52.5 47t47 42.5q141 129 164 165q14 25 22.5 58t9.5 49t0 63.5t-1 55.5q0 131 -113 131q-115 0 -115 -133v-203h-303v209q0 115 27 174q86 197 399 197q223 0 334 -109q49 -49 70 -100 q23 -57 22 -213q0 -131 -22.5 -202t-102.5 -151q-25 -25 -51.5 -49t-60 -55t-52.5 -47q-123 -111 -157 -164q-37 -53 -52 -109h494v-274h-860z" />
<glyph unicode="3" d="M84 315v185h319v-170q0 -119 109 -119q29 0 50.5 6t33.5 24.5t18.5 29t9.5 43t3 40.5v47v74q0 41 -3 63.5t-12.5 47t-34 35t-63.5 10.5h-143v248q2 0 41 -1t58 0t52 4t54.5 11t33.5 22q18 20 19 101v33v34q0 10 -1 33t-4 33t-8.5 26.5t-14.5 24.5t-21.5 17.5t-30 13.5 t-37.5 4q-111 0 -111 -115v-121h-305v152q0 82 19 129q74 193 395 193t397 -189q23 -55 23 -217q0 -127 -29 -182.5t-133 -122.5q47 -14 86 -45q41 -33 60.5 -77t22.5 -78t3 -99q0 -10 1 -65.5t0 -76t-5 -67.5t-13.5 -73.5t-27.5 -59.5t-43 -55q-104 -92 -342 -93 q-74 0 -129 7.5t-117.5 27t-105.5 63.5t-62 109q-12 43 -12 135z" />
<glyph unicode="4" d="M70 317v265l413 864h346v-875h152v-254h-152v-317h-292v317h-467zM281 571h256v537z" />
<glyph unicode="5" d="M74 377v94h317v-113q0 -70 24.5 -102.5t92.5 -32.5q63 0 85.5 37t22.5 105v256q0 74 -23.5 109.5t-92.5 35.5q-104 0 -109 -104h-299v784h811v-256h-512v-307q84 106 230 106q98 0 170 -39q43 -25 72.5 -59.5t44 -64t21.5 -83t8 -82t1 -92.5v-196q0 -80 -3 -118 t-25.5 -89t-69.5 -92q-109 -96 -332 -97q-330 0 -408 183q-26 63 -26 217z" />
<glyph unicode="6" d="M90 385v694q0 106 21 170q74 221 393 221q317 0 401 -188q25 -53 25 -170v-100h-299q0 8 1 38.5t0 42t-4 36t-10.5 35t-18.5 24.5t-31.5 19t-47.5 5q-117 0 -117 -125v-280q53 53 100.5 73.5t123.5 20.5q94 0 173 -39t115 -117q23 -53 23 -135v-293q0 -176 -119 -259 t-303 -83q-315 0 -399 213q-27 66 -27 197zM401 350q0 -121 115 -121q68 0 91.5 39t23.5 113q0 100 -2 151q0 39 -1 52.5t-7.5 43t-16.5 41t-32.5 22.5t-55.5 11t-56.5 -11t-34.5 -24.5t-16.5 -42t-6.5 -45t-1 -51.5v-16v-162z" />
<glyph unicode="7" d="M55 1004v442h893v-262q-51 -84 -82 -146q-78 -156 -159.5 -396.5t-108.5 -401.5q-16 -94 -20 -240h-347q14 199 88 429t139.5 371.5t194.5 395.5h-311v-192h-287z" />
<glyph unicode="8" d="M80 410v62v56q0 12 2 46t7 45.5t13.5 36t21.5 34.5t32.5 28.5t45 31t60.5 26.5q-55 8 -91 38t-51.5 80t-19.5 91t-4 100q0 145 39 220q92 168 381 168q315 0 393 -213q18 -51 19 -142q0 -164 -19 -213q-33 -88 -149 -129q115 -47 146.5 -100t31.5 -184v-168 q0 -113 -29 -170q-86 -174 -401 -174q-328 0 -404 200q-24 66 -24 230zM395 477q0 -154 6 -186q14 -82 103 -82q41 0 65.5 12t34.5 42t12 52.5t2 67.5v94v17q0 33 -1 50t-6 42.5t-15 38t-32.5 21.5t-53.5 9q-41 0 -66.5 -11t-35 -37.5t-11.5 -47t-2 -65.5v-17zM395 993 q0 -63 22.5 -97t82.5 -34q66 0 94.5 26.5t28.5 90.5v96q0 51 -4.5 78t-29 49.5t-73.5 22.5q-35 0 -59.5 -10.5t-36.5 -23.5t-17.5 -42t-6.5 -46.5t-1 -55.5v-54z" />
<glyph unicode="9" d="M70 438h311q0 -12 -1 -51t0 -53.5t6 -43t17.5 -40.5t37 -22.5t59.5 -10.5q61 0 86.5 27.5t25.5 87.5v313q-55 -49 -100 -68.5t-115 -19.5q-102 0 -178 47q-63 41 -97 108.5t-40 125t-6 149.5q0 211 37 291q94 197 409 197q145 0 250 -66t139 -201q12 -49 13 -153v-664 q0 -168 -52 -250q-100 -162 -376 -161q-135 0 -246 47t-156 153q-24 57 -24 258zM381 887q0 -59 28.5 -97t86.5 -38q72 0 96 46t24 124v88v18q0 45 -2 70.5t-11 62.5t-34.5 54.5t-66.5 17.5q-37 0 -60.5 -13.5t-35 -26.5t-17.5 -48t-6 -48v-59q0 -27 -1 -75.5t-1 -75.5z" />
<glyph unicode=":" horiz-adv-x="598" d="M186 0v311h301v-311h-301zM186 791v311h301v-311h-301z" />
<glyph unicode=";" horiz-adv-x="598" d="M168 -311l104 311h-92v313h301v-313l-172 -311h-141zM180 791v313h301v-313h-301z" />
<glyph unicode="&#x3c;" horiz-adv-x="1144" d="M176 551v272l733 400v-289l-454 -238l454 -223v-317z" />
<glyph unicode="=" horiz-adv-x="1144" d="M174 297v250h797v-250h-797zM174 731v250h797v-250h-797z" />
<glyph unicode="&#x3e;" horiz-adv-x="1144" d="M236 156v288l454 238l-454 223v318l733 -396v-272z" />
<glyph unicode="?" d="M168 1028v123q0 113 20 166q59 158 349 158q264 0 352 -115q51 -68 51 -238q0 -78 -17.5 -114.5t-76.5 -96.5l-111 -104q-12 -12 -40.5 -37t-41 -37t-30 -34.5t-23.5 -48t-6 -56.5v-123h-299v100q0 98 21.5 150.5t93.5 120.5l153 147q43 41 57.5 68.5t14.5 83.5 q0 109 -86 108q-88 0 -88 -106v-115h-293zM291 2v309h303v-309h-303z" />
<glyph unicode="@" horiz-adv-x="1708" d="M70 479q0 272 122.5 497.5t339 355.5t474.5 130q279 0 451.5 -160.5t172.5 -416.5q0 -291 -153.5 -518.5t-348.5 -227.5q-74 0 -122 37t-60 103q-115 -139 -258 -140q-127 0 -201.5 90t-74.5 246q0 238 136 418t314 180q47 0 90 -16q63 -25 113 -107l22 82h191l-72 -325 q-51 -229 -57 -289q-4 -29 -4 -39q0 -55 41 -55q37 0 86 55q74 82 122 218t48 267q0 205 -118 319.5t-329 114.5q-297 0 -515 -240.5t-218 -570.5q0 -262 150 -405q78 -76 195.5 -119t244.5 -43q358 0 664 289l98 -135q-133 -121 -260 -191q-252 -133 -520 -133 q-172 0 -322 56.5t-252 160.5q-190 190 -190 512zM633 498q0 -76 31.5 -118t87.5 -42q84 0 155 102q37 51 61.5 128t24.5 143q0 76 -34.5 121t-92.5 45q-90 0 -161.5 -117t-71.5 -262z" />
<glyph unicode="A" horiz-adv-x="1067" d="M8 0l293 1446h467l293 -1446h-342l-49 330h-269l-51 -330h-342zM440 573h195l-96 644z" />
<glyph unicode="B" horiz-adv-x="1067" d="M104 0v1446h476q125 0 172 -12q229 -57 229 -289q0 -176 -18 -230q-35 -98 -177 -149q63 -18 104.5 -45t63 -52.5t31.5 -75.5t12 -86t2 -112q0 -213 -77.5 -304t-280.5 -91h-537zM432 260h135q33 0 55.5 11.5t34 21.5t16.5 43t5 44v56v31v32q0 7 -1 28.5t-4 27.5 t-8.5 22.5t-13.5 21.5t-20.5 13.5t-27.5 11.5t-36 3h-135v-367zM432 881h143q29 0 48.5 10t29 21.5t14.5 39t5 39.5v47q0 53 -4 80t-29 49.5t-74 22.5h-133v-309z" />
<glyph unicode="C" horiz-adv-x="1067" d="M82 354v713q0 119 24 182q86 223 441 224q365 0 440 -234q16 -49 17 -137v-191h-345v181q0 72 -24.5 100.5t-95.5 28.5q-63 0 -86 -33t-23 -98v-719q0 -76 21.5 -110t93.5 -34q63 0 87.5 30t24.5 93v201h355v-129q0 -184 -53.5 -284.5t-219.5 -139.5q-66 -16 -209 -16 q-78 0 -137 7t-123.5 28.5t-108.5 68.5t-65 119q-14 49 -14 149z" />
<glyph unicode="D" horiz-adv-x="1110" d="M102 0v1446h529q72 0 126 -8t109.5 -30t93 -66t58.5 -111q14 -47 14 -146v-737q0 -201 -91 -274.5t-296 -73.5h-543zM442 250h109q72 0 100.5 25.5t28.5 97.5v692q0 72 -29.5 101.5t-101.5 29.5h-107v-946z" />
<glyph unicode="E" horiz-adv-x="894" d="M104 0v1446h748v-254h-397v-334h374v-254h-374v-348h397v-256h-748z" />
<glyph unicode="F" horiz-adv-x="811" d="M100 0v1446h711v-248h-358v-324h329v-253h-329v-621h-353z" />
<glyph unicode="G" horiz-adv-x="1067" d="M82 451v571q0 248 97 349.5t347 101.5q158 0 272.5 -39t164.5 -154q14 -31 20 -80t7 -80q1 -15 1 -38.5t-1 -55.5q-1 -63 -1 -74h-338v150q0 119 -110 119q-63 0 -86 -32t-23 -95v-750q0 -121 111 -121q109 0 108 115v186h-133v242h471v-766h-338v133 q-53 -76 -117.5 -106.5t-160.5 -30.5q-102 0 -178 61q-53 43 -80 120t-30 127.5t-3 146.5z" />
<glyph unicode="H" horiz-adv-x="1150" d="M104 0v1446h349v-584h243v584h351v-1446h-351v606h-243v-606h-349z" />
<glyph unicode="I" horiz-adv-x="555" d="M100 0v1446h351v-1446h-351z" />
<glyph unicode="J" horiz-adv-x="681" d="M33 0v250h117q59 0 78.5 25.5t19.5 86.5v1084h350v-1090q0 -129 -18 -182q-37 -104 -118 -139t-208 -35h-221z" />
<glyph unicode="K" horiz-adv-x="1067" d="M102 0v1446h347v-655l266 655h356l-291 -684l330 -762h-369l-292 707v-707h-347z" />
<glyph unicode="L" horiz-adv-x="854" d="M102 0v1446h353v-1190h360v-256h-713z" />
<glyph unicode="M" horiz-adv-x="1579" d="M106 0v1446h467q182 -883 220 -1104q20 176 38 262l173 842h473v-1446h-312v920q0 47 4 141l-227 -1061h-307l-227 1067q4 -160 4 -240v-827h-306z" />
<glyph unicode="N" horiz-adv-x="1150" d="M100 0v1446h346l304 -938v938h299v-1446h-353l-301 942v-942h-295z" />
<glyph unicode="O" horiz-adv-x="1110" d="M82 442v596q0 233 121 335t358 102q352 0 436 -246q25 -72 25 -197v-577q0 -127 -18 -203q-68 -270 -451 -270q-350 0 -440 229q-31 79 -31 231zM434 346q0 -63 26.5 -86.5t92.5 -23.5q63 0 92 25.5t29 86.5v750q0 70 -29 94.5t-98 24.5q-66 0 -89.5 -27t-23.5 -90v-754z " />
<glyph unicode="P" horiz-adv-x="1067" d="M102 0v1446h609q166 0 239.5 -66.5t73.5 -228.5v-307q0 -125 -36 -201t-142 -104q-37 -10 -141 -11h-254v-528h-349zM451 782h118q88 0 108.5 33t20.5 127v76q0 127 -20.5 154.5t-136.5 27.5h-90v-418z" />
<glyph unicode="Q" horiz-adv-x="1110" d="M82 442v596q0 233 121 335t358 102q352 0 436 -246q25 -72 25 -197v-577q0 -113 -10 -168q-25 -135 -105 -205t-217 -92v-76q0 -43 18.5 -58.5t61.5 -15.5h158v-219h-283q-41 0 -72.5 5t-56 11.5t-43 22.5t-31 27.5t-19.5 38t-12 41t-6.5 49t-1.5 52.5v61v63 q-186 41 -253.5 147t-67.5 303zM434 346q0 -63 26.5 -86.5t92.5 -23.5q63 0 92 25.5t29 86.5v750q0 70 -29 94.5t-98 24.5q-66 0 -89.5 -27t-23.5 -90v-754z" />
<glyph unicode="R" horiz-adv-x="1067" d="M102 0v1446h494q276 0 342 -158q33 -80 33 -250q0 -168 -38 -246.5t-145 -129.5l244 -662h-348l-197 616h-57v-616h-328zM430 864h109q70 0 95 32t25 118q0 41 -6 114q-12 68 -116 68h-107v-332z" />
<glyph unicode="S" horiz-adv-x="980" d="M37 377q0 57 2 86h346v-115q0 -115 102 -115q111 0 111 101q0 27 -2 46t-3 33.5t-9.5 28t-10.5 20.5t-18 21.5t-21.5 18.5t-31 22.5t-35.5 24.5l-209 151q-88 63 -124 98.5t-57.5 95.5t-21.5 161q0 242 103.5 330t349.5 88q227 0 317 -81t90 -307q0 -55 -2 -84h-329v103 q0 63 -18.5 92t-80.5 29q-41 0 -60 -21.5t-22.5 -43t-3.5 -64.5q0 -59 11.5 -88t54.5 -60l297 -207q119 -82 152.5 -147.5t33.5 -214.5q0 -223 -112.5 -311t-341.5 -88q-356 0 -431 198q-26 76 -26 199z" />
<glyph unicode="T" horiz-adv-x="980" d="M27 1194v252h929v-252h-288v-1194h-355v1194h-286z" />
<glyph unicode="U" horiz-adv-x="1110" d="M98 381v1065h348v-1090q0 -129 115 -129q98 0 98 119v1100h351v-1038q0 -123 -19 -195q-63 -236 -422 -236q-375 0 -450 226q-21 63 -21 178z" />
<glyph unicode="V" d="M-6 1446h354l154 -1120h16l150 1120h352l-258 -1446h-498z" />
<glyph unicode="W" horiz-adv-x="1662" d="M4 1446h332l104 -1116h17l168 1116h403l199 -1116h12l80 1116h336l-174 -1446h-453l-197 1130l-188 -1130h-455z" />
<glyph unicode="X" horiz-adv-x="980" d="M-2 1446h352l144 -465l139 465h348l-256 -680l256 -766h-356l-131 553l-134 -553h-352l250 766z" />
<glyph unicode="Y" horiz-adv-x="1067" d="M8 1446h344l176 -639l177 639h350l-361 -938v-508h-342v508z" />
<glyph unicode="Z" horiz-adv-x="894" d="M-2 0v283l502 909h-439v254h801v-285l-502 -905h514v-256h-876z" />
<glyph unicode="[" horiz-adv-x="724" d="M178 -422v1868h520v-131h-219v-1600h219v-137h-520z" />
<glyph unicode="\" horiz-adv-x="641" d="M18 1446h250l357 -1446h-254z" />
<glyph unicode="]" horiz-adv-x="724" d="M29 -289h217v1600h-217v135h520v-1872h-520v137z" />
<glyph unicode="^" horiz-adv-x="1144" d="M82 735l352 711h281l346 -711h-311l-172 441l-181 -441h-315z" />
<glyph unicode="_" d="M-20 -231h1064v-261h-1064v261z" />
<glyph unicode="`" horiz-adv-x="555" d="M2 1507h356l195 -260h-262z" />
<glyph unicode="a" d="M63 252q0 78 13.5 133t32 90t64.5 65.5t84 47t120 47.5q147 57 219 92v66q0 104 -98 104q-23 0 -38.5 -5t-25.5 -17.5t-16 -21.5t-8 -30.5t-3 -30t0 -35t1 -30.5h-314q-2 16 -2 49q0 117 33 180q86 162 367 162q352 0 417 -207q12 -37 13 -127v-614q0 -61 8 -96t39 -74 h-373v92q-76 -66 -133 -94.5t-139 -28.5q-261 0 -261 283zM399 295q0 -39 3.5 -59.5t21.5 -39t53 -18.5q72 0 95.5 34t23.5 107v228q-66 -33 -96 -51q-39 -23 -58.5 -38.5t-30 -42t-11.5 -46t-1 -74.5z" />
<glyph unicode="b" d="M92 0v1446h326v-445q111 117 252 117q160 0 216 -90t56 -256v-463q0 -109 -26.5 -184.5t-104.5 -120.5q-57 -33 -129 -33q-133 0 -264 121v-92h-326zM418 309q0 -119 96 -119q104 0 104 117v479q0 104 -94 105q-106 0 -106 -119v-463z" />
<glyph unicode="c" horiz-adv-x="937" d="M74 303v463q0 197 107.5 273.5t310.5 76.5q174 0 290.5 -70.5t116.5 -232.5v-141h-324v123q0 102 -83 102q-92 0 -93 -96v-527q0 -94 90 -94q86 0 86 94v109h324v-115q0 -109 -58.5 -178.5t-141.5 -95t-191 -25.5q-344 0 -416 197q-18 49 -18 137z" />
<glyph unicode="d" d="M76 336v436q0 158 55 252t201 94q172 0 272 -147v475h326v-1446h-326v117q-94 -147 -262 -148q-84 0 -139.5 29t-82 84t-35.5 113.5t-9 140.5zM399 317q0 -109 107 -108q98 0 98 123v452q0 109 -106 109q-98 0 -99 -105v-471z" />
<glyph unicode="e" horiz-adv-x="980" d="M76 356v338q0 236 94 330t332 94q297 0 375 -176q25 -57 24 -166v-305h-495v-186q0 -96 92 -97q20 0 37.5 4.5t27.5 10.5t18.5 19.5t11.5 20.5t5 26.5t2 27.5v33v30h313v-28q0 -129 -34 -197q-88 -166 -375 -166q-152 0 -248 45q-106 49 -143 131t-37 211zM406 678h188 v127q0 104 -92 104q-96 0 -96 -108v-123z" />
<glyph unicode="f" horiz-adv-x="641" d="M10 885v202h144q0 182 10 228q29 111 162 127q29 4 65 4h232v-205q-111 0 -128.5 -18.5t-17.5 -135.5h146v-202h-146v-885h-323v885h-144z" />
<glyph unicode="g" d="M74 -174q0 39 2 59h325q0 -6 -1 -32.5t0 -37t3.5 -32t8.5 -31.5t16 -22.5t27.5 -17.5t40.5 -5q104 0 104 113v270q-72 -119 -242 -119q-283 0 -282 299v516q0 168 61.5 250t222.5 82q84 0 139.5 -30.5t100.5 -102.5v102h330v-1181q0 -121 -21 -189q-61 -215 -407 -215 q-96 0 -166 12.5t-133.5 45t-96 99.5t-32.5 167zM401 293q0 -104 97 -105q102 0 102 115v483q0 104 -98 105q-100 0 -101 -113v-485z" />
<glyph unicode="h" d="M90 0v1446h324v-457q49 70 101 100.5t134 30.5q106 0 170 -45q72 -49 91.5 -114.5t19.5 -174.5v-786h-326v766q0 117 -92 117q-98 0 -98 -123v-760h-324z" />
<glyph unicode="i" horiz-adv-x="512" d="M92 0v1087h326v-1087h-326zM92 1196v250h326v-250h-326z" />
<glyph unicode="j" horiz-adv-x="512" d="M-61 -172q47 0 64 1t43 10t33 32t7 61v1155h324v-1220q0 -143 -65.5 -199.5t-207.5 -56.5h-198v217zM84 1198v248h326v-248h-326z" />
<glyph unicode="k" d="M92 0v1446h324v-770l227 411h365l-293 -466l315 -621h-364l-250 555v-555h-324z" />
<glyph unicode="l" horiz-adv-x="512" d="M92 0v1446h328v-1446h-328z" />
<glyph unicode="m" horiz-adv-x="1536" d="M94 0v1087h326v-114q82 145 248 145q164 0 250 -145q55 80 108 112.5t145 32.5q264 0 265 -301v-817h-326v784q0 109 -88 109q-94 0 -94 -105v-788h-328v786q0 109 -90 109t-90 -107v-788h-326z" />
<glyph unicode="n" d="M92 0v1087h326v-100q111 131 246 131q90 0 159 -49q113 -80 113 -272v-797h-324v774q0 119 -96 119q-98 0 -98 -113v-780h-326z" />
<glyph unicode="o" horiz-adv-x="980" d="M74 340v410q0 131 35 198q82 168 378 168q418 0 418 -332v-442q0 -121 -22 -176q-80 -199 -391 -199q-291 0 -381 168q-37 70 -37 205zM395 305q0 -106 97 -106q92 0 92 123v448v16q0 106 -92 107q-96 0 -97 -115v-473z" />
<glyph unicode="p" d="M94 -383v1470h326v-116q53 80 113.5 113.5t154.5 33.5q190 0 246 -160q16 -47 16 -129q0 -84 1 -249.5t1 -249.5q0 -170 -57 -264.5t-215 -94.5q-88 0 -145.5 30t-114.5 99v-483h-326zM420 324q0 -121 104.5 -121t104.5 121v442q0 113 -107 113q-102 0 -102 -123v-418 v-14z" />
<glyph unicode="q" d="M76 319v408q0 88 5 137t33.5 112.5t86.5 100.5q63 39 153 39q180 0 250 -135v106h326v-1472h-326v481q-92 -127 -239 -127q-96 0 -167 45t-100 131q-22 68 -22 174zM399 338q0 -131 103 -131q63 0 82.5 33.5t19.5 101.5v436q0 109 -100 109q-104 0 -105 -115v-16v-418z " />
<glyph unicode="r" horiz-adv-x="724" d="M94 0v1087h328v-159q49 102 112.5 138t186.5 46v-283h-35q-61 0 -90 -1t-70 -11t-59 -30.5t-31.5 -60.5t-13.5 -101v-625h-328z" />
<glyph unicode="s" horiz-adv-x="894" d="M43 309v27h313q-2 -12 -2 -39q0 -106 92 -107q39 0 64 23t25 61q0 27 -16.5 49.5t-30 30.5t-46.5 27l-151 84q-74 41 -106.5 62.5t-69.5 59.5t-49.5 86t-12.5 120v6q0 121 47 186q92 133 355 133q307 0 376 -190q20 -53 21 -162h-309q0 41 -4 65.5t-24.5 46t-59.5 21.5 t-62.5 -23.5t-23.5 -64.5q0 -18 7 -34.5t14 -27t25.5 -22.5t26.5 -16l33 -17l29 -14l188 -94q100 -51 136 -101.5t36 -156.5q0 -129 -33 -191q-90 -166 -385 -166q-313 0 -383 185q-20 49 -20 153z" />
<glyph unicode="t" horiz-adv-x="641" d="M0 885v202h145v359h324v-359h145v-202h-145v-563q0 -39 8 -61.5t31.5 -32t42 -10.5t63.5 -1v-217h-186q-156 0 -219.5 59.5t-63.5 208.5v617h-145z" />
<glyph unicode="u" d="M86 311v776h324v-765q0 -100 96 -101q100 0 100 111v755h324v-1087h-324v119q-45 -76 -103.5 -112t-144.5 -36q-100 0 -163 47q-70 49 -89.5 116.5t-19.5 176.5z" />
<glyph unicode="v" horiz-adv-x="894" d="M8 1087h318l118 -811h23l98 811h324l-221 -1087h-435z" />
<glyph unicode="w" horiz-adv-x="1449" d="M0 1087h332l82 -790l135 790h366l129 -790l86 790h328l-229 -1087h-336l-164 754l-166 -754h-336z" />
<glyph unicode="x" horiz-adv-x="894" d="M-2 0l256 565l-242 522h340l101 -319l90 319h331l-233 -522l254 -565h-340l-102 334l-119 -334h-336z" />
<glyph unicode="y" horiz-adv-x="894" d="M-4 1087h319l131 -854l121 854h326l-260 -1118q-20 -86 -35.5 -132t-47.5 -97t-84 -78t-130 -41q-53 -10 -164 -10h-158v211h144q63 0 88.5 22.5t32.5 83.5z" />
<glyph unicode="z" horiz-adv-x="811" d="M20 0v209l402 672h-328v206h694v-206l-403 -672h371v-209h-736z" />
<glyph unicode="{" horiz-adv-x="724" d="M63 449v153q41 4 72 18.5t48.5 44t27.5 52t14 71t4 65.5v69v174q0 133 40 214t155 120q27 10 57.5 13t77.5 5t59 2q20 2 60 2v-143q-113 0 -144.5 -46t-31.5 -163v-234q0 -145 -47 -230t-181 -106v-12q70 -10 117 -38.5t70.5 -77t32 -99.5t8.5 -121v-207q0 -55 1 -80.5 t10 -62.5t26.5 -51t52.5 -26.5t86 -12.5v-143q-172 0 -227 14q-72 18 -118 52t-67.5 85t-29 101.5t-7.5 128.5v167q0 51 -1 81t-10 75t-25.5 71.5t-49.5 48.5t-80 26z" />
<glyph unicode="|" horiz-adv-x="468" d="M104 -408v1856h261v-1856h-261z" />
<glyph unicode="}" horiz-adv-x="724" d="M63 -258q113 0 145 46t32 161v231q0 70 8 121t31.5 99.5t69.5 78t116 39.5v12q-47 6 -84 24.5t-60.5 38t-40 56.5t-24.5 60.5t-12 75t-4 73.5v80v188q0 102 -38 142.5t-139 40.5v143q172 0 228 -14q94 -23 145 -79t63.5 -119.5t12.5 -166.5v-211q0 -113 33 -181.5 t133 -78.5v-153q-41 -4 -72 -18.5t-48 -44.5t-27.5 -52.5t-14.5 -70.5t-4 -65v-69v-168q0 -143 -44 -227t-169 -119q-59 -16 -236 -16v143z" />
<glyph unicode="~" horiz-adv-x="1148" d="M121 684q57 63 94 90q74 57 162 57q61 0 166 -47l94 -43q82 -37 123 -36q78 0 172 100l96 -238q-139 -145 -264 -145q-68 0 -180 55l-52 25q-92 43 -147 43q-66 0 -109 -41q-25 -18 -61 -62z" />
<glyph unicode="&#xa1;" horiz-adv-x="598" d="M100 0v203q0 72 25 346q20 209 37 432h190q20 -315 33 -473q18 -229 18 -305v-203h-303zM100 1135v311h303v-311h-303z" />
<glyph unicode="&#xa2;" horiz-adv-x="937" d="M74 303v488q0 231 217 301q23 8 64.5 14t50.5 8v219h169v-221q145 -14 234.5 -89t89.5 -214v-137h-324v123q0 102 -83 102q-92 0 -93 -96v-527q0 -94 90 -94q86 0 86 94v109h324v-115q0 -84 -25 -131q-39 -74 -123.5 -118t-175.5 -46v-264h-169v266q-168 18 -250 92 t-82 236z" />
<glyph unicode="&#xa3;" horiz-adv-x="1193" d="M57 182q0 94 60.5 147.5t154.5 53.5q66 0 166 -31q-2 82 -22.5 140.5t-69.5 154.5h-283v164h203q-39 96 -54 155.5t-15 141.5q0 133 41 203q98 164 421 164q322 0 379 -218q16 -66 17 -176q0 -55 -2 -84h-283v40v44q0 12 -2 41t-7 41.5t-14.5 33t-22.5 29.5t-34.5 16 t-48.5 7q-129 0 -129 -137q0 -109 78 -301h332v-164h-267q49 -135 50 -227q0 -72 -29 -152q82 -35 121 -35q80 0 80 97v153h280v-77q0 -207 -27 -283q-53 -141 -233 -141q-53 0 -122.5 20.5t-101.5 34.5t-114 51q-125 -113 -262 -113q-104 0 -172 53.5t-68 153.5zM258 188 q0 -25 17.5 -39t41.5 -14q49 0 84 60q-55 43 -92 43q-23 0 -37 -15t-14 -35z" />
<glyph unicode="&#xa4;" horiz-adv-x="1390" d="M41 219l164 168q-86 131 -86 303q0 166 84 314l-160 163l190 195l160 -164q131 88 303 88q154 0 299 -88l162 166l191 -197l-160 -163q84 -154 84 -308q0 -162 -86 -313l160 -168l-191 -195l-162 168q-143 -86 -297 -86q-166 0 -303 91l-162 -168zM416 692 q0 -129 81 -218t199 -89q117 0 198 90t81 217q0 131 -81 222.5t-198 91.5q-119 0 -199.5 -91.5t-80.5 -222.5z" />
<glyph unicode="&#xa5;" horiz-adv-x="1067" d="M8 1446h344l178 -635l175 635h350l-256 -664h180v-178h-248l-35 -88v-24h283v-177h-285v-315h-342v315h-282v177h280v24l-33 88h-247v178h184z" />
<glyph unicode="&#xa6;" horiz-adv-x="468" d="M104 375h261v-783h-261v783zM104 664v784h261v-784h-261z" />
<glyph unicode="&#xa7;" horiz-adv-x="894" d="M8 106l129 224q215 -131 293 -131q35 0 59.5 20.5t24.5 52.5q0 29 -27 56q-8 8 -223 129q-100 57 -150.5 112.5t-50.5 151.5q0 143 156 244q-68 45 -101.5 95t-33.5 126q0 143 104.5 216t253.5 73q111 0 201 -27t215 -82l-119 -219q-217 109 -278 108q-31 0 -51.5 -17 t-20.5 -48q0 -43 71.5 -87t159 -81t159 -112.5t71.5 -174.5q0 -125 -131 -252q117 -82 117 -194q0 -150 -125 -231t-283 -81q-117 0 -204 29.5t-216 99.5zM289 788q0 -35 24 -65q14 -18 271 -160q61 47 61 99q0 35 -27 61q-12 12 -65 45t-124 72t-77 43q-63 -40 -63 -95z " />
<glyph unicode="&#xa8;" horiz-adv-x="555" d="M-96 1247v254h295v-254h-295zM360 1247v254h291v-254h-291z" />
<glyph unicode="&#xa9;" horiz-adv-x="1636" d="M90 723q0 305 213 517t516 212q305 0 517 -211t212 -516q0 -309 -211 -520t-520 -211q-303 0 -515 213t-212 516zM195 723q0 -266 181 -452.5t441 -186.5t443.5 186.5t183.5 450.5q0 270 -181.5 455.5t-443.5 185.5q-258 0 -441 -187.5t-183 -451.5zM510 567v324 q0 160 61 229q76 88 250 88q162 0 229.5 -66.5t67.5 -223.5v-72h-211v82q0 59 -21.5 84.5t-68.5 25.5q-59 0 -82 -41q-14 -29 -14 -100v-332q0 -74 14 -100q18 -41 82 -41q47 0 68.5 25.5t21.5 85.5v88h211v-80q0 -160 -67.5 -226.5t-231.5 -66.5q-86 0 -151 22 q-84 27 -121 96.5t-37 198.5z" />
<glyph unicode="&#xaa;" horiz-adv-x="724" d="M68 928q0 70 21.5 112.5t76.5 75.5q10 6 23.5 11.5t32 10.5t26.5 9q119 41 176 63v39q0 66 -68 66q-14 0 -24 -3t-17.5 -5t-11.5 -10.5t-7 -11.5t-4 -16.5t-1 -16.5v-20v-22h-205v39q0 68 14 99q51 111 248 110q195 0 252 -78q12 -16 23 -45q12 -33 12 -125v-342 q0 -72 31 -108h-242v47q-113 -70 -193 -70q-92 0 -127.5 48.5t-35.5 142.5zM285 938q0 -68 67 -68q72 0 72 88v132q-14 -4 -42 -13.5t-36 -12.5t-23.5 -11.5t-19.5 -15.5t-10 -21.5t-7 -32.5t-1 -45z" />
<glyph unicode="&#xab;" horiz-adv-x="811" d="M63 518v248l291 238v-259l-118 -98l118 -104v-262zM434 520v246l289 240v-263l-119 -98l119 -106v-256z" />
<glyph unicode="&#xac;" horiz-adv-x="1144" d="M106 487v254h865v-635h-322v381h-543z" />
<glyph unicode="&#xad;" horiz-adv-x="673" d="M57 481v250h559v-250h-559z" />
<glyph unicode="&#xae;" horiz-adv-x="1636" d="M90 723q0 305 213 517t516 212q305 0 517 -211t212 -516q0 -309 -211 -520t-520 -211q-303 0 -515 213t-212 516zM195 723q0 -266 181 -452.5t441 -186.5t443.5 186.5t183.5 450.5q0 270 -181.5 455.5t-443.5 185.5q-258 0 -441 -187.5t-183 -451.5zM557 266v920h311 q135 0 192.5 -43t57.5 -144v-155q0 -131 -112 -185l161 -393h-223l-137 375h-37v-375h-213zM770 821h45q53 0 73.5 21.5t20.5 75.5v28q0 72 -86 72h-53v-197z" />
<glyph unicode="&#xaf;" horiz-adv-x="555" d="M-41 1247v185h637v-185h-637z" />
<glyph unicode="&#xb0;" horiz-adv-x="724" d="M10 1174q0 147 102.5 249.5t250 102.5t250 -102.5t102.5 -249.5q0 -145 -103.5 -250t-249 -105t-249 105t-103.5 250zM250 1177.5q0 -47.5 33.5 -81t78.5 -33.5q47 0 81 33.5t34 81t-33.5 80t-81 32.5t-80 -32.5t-32.5 -80z" />
<glyph unicode="&#xb1;" horiz-adv-x="1144" d="M168 0v258h811v-258h-811zM168 680v258h248v299h317v-299h246v-258h-246v-297h-317v297h-248z" />
<glyph unicode="&#xb2;" horiz-adv-x="681" d="M59 541v69q0 113 37 180.5t131 155.5l111 96q55 45 65 64q12 20 13 94q0 33 -3 51.5t-20.5 33.5t-50.5 15q-82 0 -82 -88v-120h-201v120q0 90 27 142.5t102 83.5q57 23 144 22q215 0 274 -125q16 -35 17 -116v-21q0 -92 -18.5 -141t-80.5 -105q-12 -10 -47 -40.5t-50 -45 t-42 -41t-45 -52t-33 -52.5h314v-180h-562z" />
<glyph unicode="&#xb3;" horiz-adv-x="681" d="M53 758v106h203v-90q0 -47 16.5 -68.5t63.5 -21.5q33 0 50 16.5t19.5 33t2.5 52.5q0 12 1 36t1 36q0 43 -20.5 58.5t-65.5 15.5q-16 0 -50 -1t-51 -1v166h90q49 0 73 13t24 56v15q0 84 -13 100q-18 25 -78 25q-23 0 -38 -8.5t-20 -29t-6 -32.5t0 -41t1 -35h-203v92 q0 117 67.5 162t194.5 45q66 0 111 -7t90 -26.5t67.5 -61.5t22.5 -108v-69q0 -123 -94 -168q59 -20 79.5 -60t20.5 -108v-107q0 -123 -70.5 -169t-201.5 -46h-12q-152 0 -213.5 44.5t-61.5 185.5z" />
<glyph unicode="&#xb4;" horiz-adv-x="555" d="M16 1249l179 256h344l-281 -256h-242z" />
<glyph unicode="&#xb5;" d="M86 -383v1470h324v-765q0 -100 96 -101q100 0 100 111v755h324v-917q0 -70 8 -100.5t39 -69.5h-361l-10 119q-20 -74 -49 -102.5t-78 -28.5q-43 0 -69 28v-399h-324z" />
<glyph unicode="&#xb6;" horiz-adv-x="1177" d="M96 1018q0 176 109 289q72 76 170 107.5t258 31.5h424v-180h-74v-1610h-192v1610h-170v-1608h-199v958q-326 85 -326 402z" />
<glyph unicode="&#xb7;" horiz-adv-x="512" d="M104 573v312h304v-312h-304z" />
<glyph unicode="&#xb8;" horiz-adv-x="555" d="M70 -170l184 211h180l-137 -160q188 -16 188 -160q0 -100 -90 -150t-198 -50q-45 0 -68 2l-37 98q41 -4 60 -4q49 0 85.5 24.5t36.5 69.5q0 70 -86 70q-39 0 -84 -23z" />
<glyph unicode="&#xb9;" horiz-adv-x="681" d="M129 1126v193q123 20 168 125h170v-903h-203v647q-57 -39 -135 -62z" />
<glyph unicode="&#xba;" horiz-adv-x="681" d="M66 1026v119v39v42q0 9 2 36.5t5 39t10 34t17.5 33.5t24.5 26.5t35 25.5q61 35 168 35q207 0 266 -104q25 -43 24 -244v-139q0 -129 -67.5 -182.5t-202.5 -53.5q-125 0 -192 45q-43 29 -63.5 73t-23.5 76.5t-3 98.5zM276 954q0 -70 68 -69q66 0 66 61v293q0 74 -68 74 q-39 0 -52.5 -19.5t-13.5 -60.5v-279z" />
<glyph unicode="&#xbb;" horiz-adv-x="811" d="M86 285v262l115 96l-115 107v258l289 -240v-246zM455 289v256l116 96l-116 104v263l290 -240v-242z" />
<glyph unicode="&#xbc;" horiz-adv-x="1622" d="M129 1126v193q123 20 168 125h170v-903h-203v647q-57 -39 -135 -62zM489 0l492 1446h147l-491 -1446h-148zM981 188v174l254 543h252v-543h92v-174h-92v-188h-195v188h-311zM1130 362h162v347z" />
<glyph unicode="&#xbd;" horiz-adv-x="1622" d="M129 1126v193q123 20 168 125h170v-903h-203v647q-57 -39 -135 -62zM440 0l492 1446h149l-491 -1446h-150zM997 -2v70q0 35 3.5 66.5t15.5 61t18 50t29.5 49.5t32 41t41 42t41 38t49.5 42t49 40q59 45 70 67q10 20 10 84q0 37 -3 55.5t-20.5 36t-52.5 17.5 q-45 0 -62.5 -21.5t-17.5 -66.5v-121h-203v117q0 92 26 145t105 84q55 23 142 23q225 0 278 -136q14 -39 14.5 -127t-17 -137t-75.5 -102q-18 -16 -60 -53t-64.5 -58.5t-52 -56.5t-48.5 -70h314v-180h-562z" />
<glyph unicode="&#xbe;" horiz-adv-x="1622" d="M53 758v106h203v-90q0 -47 16.5 -68.5t63.5 -21.5q33 0 50 16.5t19.5 33t2.5 52.5q0 12 1 36t1 36q0 43 -20.5 58.5t-65.5 15.5q-16 0 -50 -1t-51 -1v166h90q49 0 73 13t24 56v15q0 84 -13 100q-18 25 -78 25q-23 0 -38 -8.5t-20 -29t-6 -32.5t0 -41t1 -35h-203v92 q0 117 67.5 162t194.5 45q66 0 111 -7t90 -26.5t67.5 -61.5t22.5 -108v-69q0 -123 -94 -168q59 -20 79.5 -60t20.5 -108v-107q0 -123 -70.5 -169t-201.5 -46h-12q-152 0 -213.5 44.5t-61.5 185.5zM524 0l492 1446h149l-491 -1446h-150zM981 188v174l254 543h252v-543h92 v-174h-92v-188h-195v188h-311zM1130 362h162v347z" />
<glyph unicode="&#xbf;" d="M80 328q0 78 17.5 115.5t76.5 97.5l111 104q12 12 40.5 37t41 37t29 34.5t23.5 47t7 55.5v125h301v-102q0 -98 -22.5 -149.5t-94.5 -121.5l-153 -147q-43 -43 -57.5 -68.5t-14.5 -81.5q0 -111 88 -110.5t88 108.5v113h293v-111q0 -119 -23 -176q-63 -160 -346 -160 q-266 0 -354 115q-51 68 -51 238zM426 1137v309h303v-309h-303z" />
<glyph unicode="&#xc0;" horiz-adv-x="1067" d="M8 0l293 1446h467l293 -1446h-342l-49 330h-269l-51 -330h-342zM162 1860h330l198 -291h-223zM440 573h195l-96 644z" />
<glyph unicode="&#xc1;" horiz-adv-x="1067" d="M8 0l293 1446h467l293 -1446h-342l-49 330h-269l-51 -330h-342zM397 1573l193 291h334l-310 -291h-217zM440 573h195l-96 644z" />
<glyph unicode="&#xc2;" horiz-adv-x="1067" d="M8 0l293 1446h467l293 -1446h-342l-49 330h-269l-51 -330h-342zM166 1567l196 291h343l217 -291h-267l-120 170l-119 -170h-250zM440 573h195l-96 644z" />
<glyph unicode="&#xc3;" horiz-adv-x="1067" d="M8 0l293 1446h467l293 -1446h-342l-49 330h-269l-51 -330h-342zM195 1599q12 119 57 183.5t158 64.5q53 0 146 -35.5t130 -35.5q68 0 78 65h104q-16 -119 -62 -185.5t-155 -66.5q-63 0 -160.5 39t-123.5 39q-59 0 -70 -68h-102zM440 573h195l-96 644z" />
<glyph unicode="&#xc4;" horiz-adv-x="1067" d="M6 0l295 1446h465l293 -1446h-342l-47 330h-271l-49 -330h-344zM197 1610v229h276v-229h-276zM440 573h193l-94 641zM590 1610v229h276v-229h-276z" />
<glyph unicode="&#xc5;" horiz-adv-x="1067" d="M6 0l295 1446h467l291 -1446h-342l-47 330h-271l-49 -330h-344zM328 1696q0 82 59 142t143 60t143.5 -60t59.5 -142t-59.5 -142.5t-143.5 -60.5t-143 60.5t-59 142.5zM440 571h193l-94 646zM455 1695.5q0 -30.5 22.5 -53t53 -22.5t53 22.5t22.5 53t-22.5 53.5t-53 23 t-53 -23t-22.5 -53.5z" />
<glyph unicode="&#xc6;" horiz-adv-x="1579" d="M4 0l559 1446h969v-260h-385v-322h358v-258h-358v-348h385v-258h-733v391h-299l-131 -391h-365zM586 637h213v549h-25z" />
<glyph unicode="&#xc7;" horiz-adv-x="1067" d="M82 354v713q0 123 24 182q88 223 441 224q362 0 440 -234q16 -49 17 -154v-174h-345v181q0 72 -24.5 100.5t-95.5 28.5q-63 0 -86 -33t-23 -98v-719q0 -76 21.5 -110t93.5 -34q63 0 87.5 30t24.5 93v201h355v-129q0 -176 -49.5 -277.5t-202.5 -142.5q-43 -10 -129 -18 l-86 -103q184 -16 184 -160q0 -100 -90 -150t-199 -50q-43 0 -65 2l-37 98q41 -4 59 -4q49 0 86 23.5t37 70.5q0 70 -88 70q-43 0 -82 -23l-33 72l134 154q-113 -2 -209.5 47t-135.5 147q-24 63 -24 176z" />
<glyph unicode="&#xc8;" horiz-adv-x="894" d="M96 1860h332l199 -291h-224zM104 0v1446h748v-254h-397v-334h374v-254h-374v-348h397v-256h-748z" />
<glyph unicode="&#xc9;" horiz-adv-x="894" d="M104 0v1446h748v-254h-397v-334h374v-254h-374v-348h397v-256h-748zM334 1573l192 291h332l-307 -291h-217z" />
<glyph unicode="&#xca;" horiz-adv-x="894" d="M102 1567l197 291h342l217 -291h-266l-123 170l-119 -170h-248zM104 0v1446h748v-254h-397v-334h374v-254h-374v-348h397v-256h-748z" />
<glyph unicode="&#xcb;" horiz-adv-x="894" d="M104 0v1446h748v-254h-397v-334h374v-254h-374v-348h397v-256h-748zM133 1606v231h277v-231h-277zM526 1606v231h277v-231h-277z" />
<glyph unicode="&#xcc;" horiz-adv-x="555" d="M-94 1860h330l198 -291h-223zM100 0v1446h351v-1446h-351z" />
<glyph unicode="&#xcd;" horiz-adv-x="555" d="M100 0v1446h351v-1446h-351zM141 1573l193 291h334l-310 -291h-217z" />
<glyph unicode="&#xce;" horiz-adv-x="555" d="M-90 1567l196 291h343l217 -291h-267l-120 170l-119 -170h-250zM100 0v1446h351v-1446h-351z" />
<glyph unicode="&#xcf;" horiz-adv-x="555" d="M-59 1606v231h278v-231h-278zM100 0v1446h351v-1446h-351zM336 1606v231h274v-231h-274z" />
<glyph unicode="&#xd0;" horiz-adv-x="1110" d="M2 682v209h100v555h529q72 0 126 -8t109.5 -30t93 -66t58.5 -111q14 -47 14 -146v-737q0 -201 -91 -274.5t-296 -73.5h-543v682h-100zM442 250h109q72 0 100.5 25.5t28.5 97.5v692q0 72 -29.5 101.5t-101.5 29.5h-107v-305h131v-209h-131v-432z" />
<glyph unicode="&#xd1;" horiz-adv-x="1150" d="M100 0v1446h346l304 -938v938h299v-1446h-353l-301 942v-942h-295zM238 1599q12 119 57 183.5t158 64.5q57 0 149 -35.5t127 -35.5q68 0 78 65h104q-16 -119 -62 -185.5t-155 -66.5q-63 0 -160.5 39t-125.5 39q-61 0 -68 -68h-102z" />
<glyph unicode="&#xd2;" horiz-adv-x="1110" d="M82 442v596q0 233 121 335t358 102q352 0 436 -246q25 -72 25 -197v-577q0 -127 -18 -203q-68 -270 -451 -270q-350 0 -440 229q-31 79 -31 231zM182 1860h332l197 -291h-224zM434 346q0 -63 26.5 -86.5t92.5 -23.5q63 0 92 25.5t29 86.5v750q0 70 -29 94.5t-98 24.5 q-66 0 -89.5 -27t-23.5 -90v-754z" />
<glyph unicode="&#xd3;" horiz-adv-x="1110" d="M82 442v596q0 233 121 335t358 102q352 0 436 -246q25 -72 25 -197v-577q0 -127 -18 -203q-68 -270 -451 -270q-350 0 -440 229q-31 79 -31 231zM420 1573l190 291h334l-307 -291h-217zM434 346q0 -63 26.5 -86.5t92.5 -23.5q63 0 92 25.5t29 86.5v750q0 70 -29 94.5 t-98 24.5q-66 0 -89.5 -27t-23.5 -90v-754z" />
<glyph unicode="&#xd4;" horiz-adv-x="1110" d="M82 442v596q0 233 121 335t358 102q352 0 436 -246q25 -72 25 -197v-577q0 -127 -18 -203q-68 -270 -451 -270q-350 0 -440 229q-31 79 -31 231zM188 1567l195 291h342l219 -291h-266l-123 170l-119 -170h-248zM434 346q0 -63 26.5 -86.5t92.5 -23.5q63 0 92 25.5 t29 86.5v750q0 70 -29 94.5t-98 24.5q-66 0 -89.5 -27t-23.5 -90v-754z" />
<glyph unicode="&#xd5;" horiz-adv-x="1110" d="M82 442v596q0 233 121 335t358 102q352 0 436 -246q25 -72 25 -197v-577q0 -127 -18 -203q-68 -270 -451 -270q-350 0 -440 229q-31 79 -31 231zM215 1599q12 117 58 182.5t157 65.5q57 0 150.5 -35.5t128.5 -35.5q61 0 77 65h103q-16 -119 -62.5 -185.5t-154.5 -66.5 q-63 0 -159.5 39t-125.5 39q-59 0 -70 -68h-102zM434 346q0 -63 26.5 -86.5t92.5 -23.5q63 0 92 25.5t29 86.5v750q0 70 -29 94.5t-98 24.5q-66 0 -89.5 -27t-23.5 -90v-754z" />
<glyph unicode="&#xd6;" horiz-adv-x="1110" d="M82 442v596q0 233 121 335t358 102q352 0 436 -246q25 -72 25 -197v-577q0 -127 -18 -203q-68 -270 -451 -270q-350 0 -440 229q-31 79 -31 231zM217 1614v227h277v-227h-277zM434 346q0 -63 26.5 -86.5t92.5 -23.5q63 0 92 25.5t29 86.5v750q0 70 -29 94.5t-98 24.5 q-66 0 -89.5 -27t-23.5 -90v-754zM610 1614v227h277v-227h-277z" />
<glyph unicode="&#xd7;" horiz-adv-x="1142" d="M184 782l205 232l199 -189l157 191l185 -166l-162 -197l205 -194l-203 -234l-201 191l-161 -195l-187 162l168 203z" />
<glyph unicode="&#xd8;" horiz-adv-x="1110" d="M10 39l107 162q-37 96 -37 237v596q0 236 119.5 337.5t359.5 101.5q217 0 344 -107l80 113l109 -72l-109 -160q37 -92 37 -246v-550q0 -127 -19 -201q-70 -272 -452 -273q-113 0 -194 21.5t-158 83.5l-80 -115zM418 330q0 -121 123 -121q82 0 111.5 23.5t29.5 105.5v461 l-264 -387v-82zM418 649l264 389v62q0 66 -30.5 90t-98.5 24q-70 0 -102.5 -24.5t-32.5 -89.5v-451z" />
<glyph unicode="&#xd9;" horiz-adv-x="1110" d="M98 381v1065h348v-1090q0 -129 115 -129q98 0 98 119v1100h351v-1038q0 -123 -19 -195q-63 -236 -422 -236q-375 0 -450 226q-21 63 -21 178zM182 1860h332l197 -291h-224z" />
<glyph unicode="&#xda;" horiz-adv-x="1110" d="M98 381v1065h348v-1090q0 -129 115 -129q98 0 98 119v1100h351v-1038q0 -123 -19 -195q-63 -236 -422 -236q-375 0 -450 226q-21 63 -21 178zM420 1573l190 291h334l-307 -291h-217z" />
<glyph unicode="&#xdb;" horiz-adv-x="1110" d="M98 381v1065h348v-1090q0 -129 115 -129q98 0 98 119v1100h351v-1038q0 -123 -19 -195q-63 -236 -422 -236q-375 0 -450 226q-21 63 -21 178zM188 1567l195 291h342l219 -291h-266l-123 170l-119 -170h-248z" />
<glyph unicode="&#xdc;" horiz-adv-x="1110" d="M98 381v1065h348v-1090q0 -129 115 -129q98 0 98 119v1100h351v-1038q0 -123 -19 -195q-63 -236 -422 -236q-375 0 -450 226q-21 63 -21 178zM219 1608v229h275v-229h-275zM612 1608v229h275v-229h-275z" />
<glyph unicode="&#xdd;" horiz-adv-x="1067" d="M8 1446h344l176 -639l177 639h350l-361 -938v-508h-342v508zM397 1573l193 291h334l-310 -291h-217z" />
<glyph unicode="&#xde;" horiz-adv-x="1067" d="M102 0v1446h349v-240h235q178 0 258 -63.5t80 -233.5v-311q0 -174 -71.5 -242.5t-247.5 -68.5h-254v-287h-349zM451 543q20 0 63 -1t64 -1q45 0 70.5 9t35.5 35.5t12 47t2 69.5v76v38v35q0 7 -1 27.5t-4 24.5t-7 17.5t-11 15.5t-16.5 9t-23.5 8t-31.5 3t-40.5 2h-112 v-415z" />
<glyph unicode="&#xdf;" horiz-adv-x="1067" d="M92 0v1124q0 121 33 183q90 164 387 163q326 0 414 -184q29 -61 28 -215q0 -53 -1 -75.5t-7 -60.5t-20.5 -56.5t-40 -41t-66.5 -38.5q78 -31 105 -54q16 -14 29.5 -34.5t21.5 -49t12 -50t6 -57.5t2 -53v-56v-46q0 -199 -16 -243q-57 -156 -297 -156q-41 0 -180 14v160 q33 -12 69 -12q94 0 95 96v354q0 39 -9.5 61.5t-33 31t-42 10.5t-57.5 2h-16v198q29 -4 41 -4q84 0 84 88v152q0 104 -111 104q-63 0 -85.5 -31.5t-22.5 -97.5v-1126h-322z" />
<glyph unicode="&#xe0;" d="M63 252q0 78 13.5 133t32 90t64.5 65.5t84 47t120 47.5q147 57 219 92v66q0 104 -98 104q-23 0 -38.5 -5t-25.5 -17.5t-16 -21.5t-8 -30.5t-3 -30t0 -35t1 -30.5h-314q-2 16 -2 49q0 117 33 180q86 162 367 162q352 0 417 -207q12 -37 13 -127v-614q0 -61 8 -96t39 -74 h-373v92q-76 -66 -133 -94.5t-139 -28.5q-261 0 -261 283zM186 1507h357l192 -260h-262zM399 295q0 -39 3.5 -59.5t21.5 -39t53 -18.5q72 0 95.5 34t23.5 107v228q-66 -33 -96 -51q-39 -23 -58.5 -38.5t-30 -42t-11.5 -46t-1 -74.5z" />
<glyph unicode="&#xe1;" d="M63 252q0 78 13.5 133t32 90t64.5 65.5t84 47t120 47.5q147 57 219 92v66q0 104 -98 104q-23 0 -38.5 -5t-25.5 -17.5t-16 -21.5t-8 -30.5t-3 -30t0 -35t1 -30.5h-314q-2 16 -2 49q0 117 33 180q86 162 367 162q352 0 417 -207q12 -37 13 -127v-614q0 -61 8 -96t39 -74 h-373v92q-76 -66 -133 -94.5t-139 -28.5q-261 0 -261 283zM307 1249l176 256h344l-280 -256h-240zM399 295q0 -39 3.5 -59.5t21.5 -39t53 -18.5q72 0 95.5 34t23.5 107v228q-66 -33 -96 -51q-39 -23 -58.5 -38.5t-30 -42t-11.5 -46t-1 -74.5z" />
<glyph unicode="&#xe2;" d="M63 252q0 78 13.5 133t32 90t64.5 65.5t84 47t120 47.5q147 57 219 92v66q0 104 -98 104q-23 0 -38.5 -5t-25.5 -17.5t-16 -21.5t-8 -30.5t-3 -30t0 -35t1 -30.5h-314q-2 16 -2 49q0 117 33 180q86 162 367 162q352 0 417 -207q12 -37 13 -127v-614q0 -61 8 -96t39 -74 h-373v92q-76 -66 -133 -94.5t-139 -28.5q-261 0 -261 283zM178 1253l203 254h258l207 -254h-242l-94 121l-88 -121h-244zM399 295q0 -39 3.5 -59.5t21.5 -39t53 -18.5q72 0 95.5 34t23.5 107v228q-66 -33 -96 -51q-39 -23 -58.5 -38.5t-30 -42t-11.5 -46t-1 -74.5z" />
<glyph unicode="&#xe3;" d="M63 252q0 78 13.5 133t32 90t64.5 65.5t84 47t120 47.5q147 57 219 92v66q0 104 -98 104q-23 0 -38.5 -5t-25.5 -17.5t-16 -21.5t-8 -30.5t-3 -30t0 -35t1 -30.5h-314q-2 16 -2 49q0 117 33 180q86 162 367 162q352 0 417 -207q12 -37 13 -127v-614q0 -61 8 -96t39 -74 h-373v92q-76 -66 -133 -94.5t-139 -28.5q-261 0 -261 283zM172 1272q12 117 58 182.5t157 65.5q59 0 151.5 -36t127.5 -36q61 0 77 65h103q-20 -250 -217 -249q-63 0 -159.5 37.5t-125.5 37.5q-63 0 -68 -67h-104zM399 295q0 -39 3.5 -59.5t21.5 -39t53 -18.5q72 0 95.5 34 t23.5 107v228q-66 -33 -96 -51q-39 -23 -58.5 -38.5t-30 -42t-11.5 -46t-1 -74.5z" />
<glyph unicode="&#xe4;" d="M63 252q0 78 13.5 133t32 90t64.5 65.5t84 47t120 47.5q147 57 219 92v66q0 104 -98 104q-23 0 -38.5 -5t-25.5 -17.5t-16 -21.5t-8 -30.5t-3 -30t0 -35t1 -30.5h-314q-2 16 -2 49q0 117 33 180q86 162 367 162q352 0 417 -207q12 -37 13 -127v-614q0 -61 8 -96t39 -74 h-373v92q-76 -66 -133 -94.5t-139 -28.5q-261 0 -261 283zM158 1247v254h293v-254h-293zM399 295q0 -39 3.5 -59.5t21.5 -39t53 -18.5q72 0 95.5 34t23.5 107v228q-66 -33 -96 -51q-39 -23 -58.5 -38.5t-30 -42t-11.5 -46t-1 -74.5zM614 1247v254h289v-254h-289z" />
<glyph unicode="&#xe5;" d="M63 252q0 78 13.5 133t32 90t64.5 65.5t84 47t120 47.5q147 57 219 92v66q0 104 -98 104q-23 0 -38.5 -5t-25.5 -17.5t-16 -21.5t-8 -30.5t-3 -30t0 -35t1 -30.5h-314q-2 16 -2 49q0 117 33 180q86 162 367 162q352 0 417 -207q12 -37 13 -127v-614q0 -61 8 -96t39 -74 h-373v92q-76 -66 -133 -94.5t-139 -28.5q-261 0 -261 283zM328 1362q0 84 59 143.5t143 59.5t143.5 -59.5t59.5 -143.5t-59.5 -143.5t-143.5 -59.5t-143 59.5t-59 143.5zM399 295q0 -39 3.5 -59.5t21.5 -39t53 -18.5q72 0 95.5 34t23.5 107v228q-66 -33 -96 -51 q-39 -23 -58.5 -38.5t-30 -42t-11.5 -46t-1 -74.5zM455 1362q0 -33 21.5 -54.5t53.5 -21.5q31 0 53.5 22.5t22.5 53.5t-22.5 53.5t-53 22.5t-53 -22.5t-22.5 -53.5z" />
<glyph unicode="&#xe6;" horiz-adv-x="1492" d="M66 289q0 82 21.5 138t68.5 95t92 61.5t123 53.5q18 6 26 10l191 82v80q0 96 -88 96q-27 0 -45.5 -9t-27.5 -18.5t-13 -32t-5 -34.5t0 -43t1 -39h-310v19q0 137 27 194q43 92 142.5 134t215.5 42q154 0 267 -82q109 84 272 84q207 0 300 -93t93 -294v-254h-508v-205 q0 -98 92 -98q29 0 48.5 8.5t30 18.5t15.5 32.5t5 35t-1 45t-1 42.5h319q2 -18 2 -53q0 -117 -28 -170q-45 -84 -162 -125t-232 -41q-274 0 -383 162q-72 -88 -131 -126t-157 -38q-154 0 -207 80t-53 242zM395 328q0 -45 3 -68.5t24.5 -46.5t64.5 -23q55 0 78 24t23 81v248 q-125 -57 -166 -107q-27 -34 -27 -108zM909 674h189v139q0 94 -92 94q-96 0 -97 -96v-137z" />
<glyph unicode="&#xe7;" horiz-adv-x="937" d="M74 303v463q0 197 106.5 273.5t311.5 76.5q174 0 290.5 -70.5t116.5 -232.5v-141h-324v123q0 102 -83 102q-92 0 -93 -96v-527q0 -94 90 -94q86 0 86 94v109h324v-98q0 -92 -27 -148q-39 -78 -130 -122t-185 -44l-76 -90q184 -16 185 -160q0 -100 -90.5 -150t-198.5 -50 q-43 0 -66 2l-37 98q41 -4 60 -4q49 0 86 24.5t37 69.5q0 70 -88 70q-43 0 -82 -23l-35 72l131 147q-164 25 -236.5 97.5t-72.5 228.5z" />
<glyph unicode="&#xe8;" horiz-adv-x="980" d="M76 356v338q0 236 94 330t332 94q297 0 375 -176q25 -57 24 -166v-305h-495v-186q0 -96 92 -97q20 0 37.5 4.5t27.5 10.5t18.5 19.5t11.5 20.5t5 26.5t2 27.5v33v30h313v-28q0 -129 -34 -197q-88 -166 -375 -166q-152 0 -248 45q-106 49 -143 131t-37 211zM145 1507h355 l194 -260h-262zM406 678h188v127q0 104 -92 104q-96 0 -96 -108v-123z" />
<glyph unicode="&#xe9;" horiz-adv-x="980" d="M76 356v338q0 236 94 330t332 94q297 0 375 -176q25 -57 24 -166v-305h-495v-186q0 -96 92 -97q20 0 37.5 4.5t27.5 10.5t18.5 19.5t11.5 20.5t5 26.5t2 27.5v33v30h313v-28q0 -129 -34 -197q-88 -166 -375 -166q-152 0 -248 45q-106 49 -143 131t-37 211zM307 1249 l176 256h344l-280 -256h-240zM406 678h188v127q0 104 -92 104q-96 0 -96 -108v-123z" />
<glyph unicode="&#xea;" horiz-adv-x="980" d="M76 356v338q0 236 94 330t332 94q297 0 375 -176q25 -57 24 -166v-305h-495v-186q0 -96 92 -97q20 0 37.5 4.5t27.5 10.5t18.5 19.5t11.5 20.5t5 26.5t2 27.5v33v30h313v-28q0 -129 -34 -197q-88 -166 -375 -166q-152 0 -248 45q-106 49 -143 131t-37 211zM158 1253 l200 254h258l209 -254h-241l-95 121l-88 -121h-243zM406 678h188v127q0 104 -92 104q-96 0 -96 -108v-123z" />
<glyph unicode="&#xeb;" horiz-adv-x="980" d="M76 356v338q0 236 94 330t332 94q297 0 375 -176q25 -57 24 -166v-305h-495v-186q0 -96 92 -97q20 0 37.5 4.5t27.5 10.5t18.5 19.5t11.5 20.5t5 26.5t2 27.5v33v30h313v-28q0 -129 -34 -197q-88 -166 -375 -166q-152 0 -248 45q-106 49 -143 131t-37 211zM115 1247v254 h295v-254h-295zM406 678h188v127q0 104 -92 104q-96 0 -96 -108v-123zM571 1247v254h289v-254h-289z" />
<glyph unicode="&#xec;" horiz-adv-x="512" d="M-70 1507h357l194 -260h-264zM92 0v1087h326v-1087h-326z" />
<glyph unicode="&#xed;" horiz-adv-x="512" d="M51 1249l176 256h344l-280 -256h-240zM92 0v1087h326v-1087h-326z" />
<glyph unicode="&#xee;" horiz-adv-x="512" d="M-78 1253l203 254h258l207 -254h-242l-94 121l-88 -121h-244zM92 0v1087h326v-1087h-326z" />
<glyph unicode="&#xef;" horiz-adv-x="512" d="M-121 1247v254h295v-254h-295zM92 0v1087h326v-1087h-326zM336 1247v254h291v-254h-291z" />
<glyph unicode="&#xf0;" horiz-adv-x="980" d="M74 342v420q0 207 119 301q68 53 163 53q78 0 126 -29.5t91 -97.5q-25 127 -94 228l-250 -66l-41 115l203 53q-35 35 -117 96l299 80q78 -53 115 -96l139 39l45 -109l-102 -29q35 -43 64 -110q45 -100 58 -190.5t13 -227.5v-444q0 -104 -22 -164q-76 -197 -391 -197 q-291 0 -381 168q-37 72 -37 207zM395 305q0 -106 97 -106q92 0 92 123v448v16q0 106 -92 107q-96 0 -97 -115v-473z" />
<glyph unicode="&#xf1;" d="M92 0v1087h326v-100q111 131 246 131q90 0 159 -49q113 -80 113 -272v-797h-324v774q0 119 -96 119q-98 0 -98 -113v-780h-326zM172 1272q12 117 58 182.5t157 65.5q59 0 151.5 -36t127.5 -36q61 0 77 65h103q-20 -250 -217 -249q-63 0 -159.5 37.5t-125.5 37.5 q-63 0 -68 -67h-104z" />
<glyph unicode="&#xf2;" horiz-adv-x="980" d="M74 340v410q0 131 35 198q82 168 378 168q418 0 418 -332v-442q0 -121 -22 -176q-80 -199 -391 -199q-291 0 -381 168q-37 70 -37 205zM166 1507h356l193 -260h-262zM395 305q0 -106 97 -106q92 0 92 123v448v16q0 106 -92 107q-96 0 -97 -115v-473z" />
<glyph unicode="&#xf3;" horiz-adv-x="980" d="M74 340v410q0 131 35 198q82 168 378 168q418 0 418 -332v-442q0 -121 -22 -176q-80 -199 -391 -199q-291 0 -381 168q-37 70 -37 205zM287 1249l176 256h344l-281 -256h-239zM395 305q0 -106 97 -106q92 0 92 123v448v16q0 106 -92 107q-96 0 -97 -115v-473z" />
<glyph unicode="&#xf4;" horiz-adv-x="980" d="M74 340v410q0 131 35 198q82 168 378 168q418 0 418 -332v-442q0 -121 -22 -176q-80 -199 -391 -199q-291 0 -381 168q-37 70 -37 205zM158 1253l200 254h258l209 -254h-241l-95 121l-88 -121h-243zM395 305q0 -106 97 -106q92 0 92 123v448v16q0 106 -92 107 q-96 0 -97 -115v-473z" />
<glyph unicode="&#xf5;" horiz-adv-x="980" d="M74 340v410q0 131 35 198q82 168 378 168q418 0 418 -332v-442q0 -121 -22 -176q-80 -199 -391 -199q-291 0 -381 168q-37 70 -37 205zM152 1272q12 117 58 182.5t157 65.5q57 0 148 -36t130 -36q66 0 76 65h104q-16 -117 -62 -183t-155 -66q-63 0 -159.5 37.5 t-124.5 37.5q-35 0 -50.5 -16t-19.5 -51h-102zM395 305q0 -106 97 -106q92 0 92 123v448v16q0 106 -92 107q-96 0 -97 -115v-473z" />
<glyph unicode="&#xf6;" horiz-adv-x="980" d="M74 340v410q0 131 35 198q82 168 378 168q418 0 418 -332v-442q0 -121 -22 -176q-80 -199 -391 -199q-291 0 -381 168q-37 70 -37 205zM115 1253v254h295v-254h-295zM395 305q0 -106 97 -106q92 0 92 123v448v16q0 106 -92 107q-96 0 -97 -115v-473zM571 1253v254h291 v-254h-291z" />
<glyph unicode="&#xf7;" horiz-adv-x="1144" d="M143 485v258h858v-258h-858zM432 66v309h285v-309h-285zM432 854v307h285v-307h-285z" />
<glyph unicode="&#xf8;" horiz-adv-x="980" d="M37 29l78 112q-29 61 -36 101.5t-7 113.5v428q0 178 116.5 258t300.5 80q150 0 275 -59l63 88l107 -74l-72 -102q45 -76 45 -199v-397q0 -141 -28 -211q-80 -197 -387 -197q-180 0 -287 70l-62 -86zM383 289q8 -53 29.5 -74.5t76.5 -21.5q104 0 105 114v291zM383 520 l211 301q-14 82 -102 82q-109 0 -109 -123v-260z" />
<glyph unicode="&#xf9;" d="M86 311v776h324v-765q0 -100 96 -101q100 0 100 111v755h324v-1087h-324v119q-45 -76 -103.5 -112t-144.5 -36q-100 0 -163 47q-70 49 -89.5 116.5t-19.5 176.5zM186 1507h357l192 -260h-262z" />
<glyph unicode="&#xfa;" d="M86 311v776h324v-765q0 -100 96 -101q100 0 100 111v755h324v-1087h-324v119q-45 -76 -103.5 -112t-144.5 -36q-100 0 -163 47q-70 49 -89.5 116.5t-19.5 176.5zM307 1249l176 256h344l-280 -256h-240z" />
<glyph unicode="&#xfb;" d="M86 311v776h324v-765q0 -100 96 -101q100 0 100 111v755h324v-1087h-324v119q-45 -76 -103.5 -112t-144.5 -36q-100 0 -163 47q-70 49 -89.5 116.5t-19.5 176.5zM178 1253l203 254h258l207 -254h-242l-94 121l-88 -121h-244z" />
<glyph unicode="&#xfc;" d="M86 311v776h324v-765q0 -100 96 -101q100 0 100 111v755h324v-1087h-324v119q-45 -76 -103.5 -112t-144.5 -36q-100 0 -163 47q-70 49 -89.5 116.5t-19.5 176.5zM127 1251v254h295v-254h-295zM584 1251v254h288v-254h-288z" />
<glyph unicode="&#xfd;" horiz-adv-x="894" d="M-4 1087h319l131 -854l121 854h326l-260 -1118q-20 -86 -35.5 -132t-47.5 -97t-84 -78t-130 -41q-53 -10 -164 -10h-158v211h144q63 0 88.5 22.5t32.5 83.5zM244 1249l176 256h344l-281 -256h-239z" />
<glyph unicode="&#xfe;" d="M94 -383v1829h326v-475q53 80 113.5 113.5t154.5 33.5q190 0 246 -160q16 -47 16 -129q0 -84 1 -249.5t1 -249.5q0 -170 -57 -264.5t-215 -94.5q-88 0 -145.5 30t-114.5 99v-483h-326zM420 324q0 -121 104.5 -121t104.5 121v442q0 113 -107 113q-102 0 -102 -123v-418 v-14z" />
<glyph unicode="&#xff;" horiz-adv-x="894" d="M-4 1087h319l131 -854l121 854h326l-260 -1118q-20 -86 -35.5 -132t-47.5 -97t-84 -78t-130 -41q-53 -10 -164 -10h-158v211h144q63 0 88.5 22.5t32.5 83.5zM72 1247v254h295v-254h-295zM528 1247v254h289v-254h-289z" />
<glyph unicode="&#x152;" horiz-adv-x="1449" d="M86 440v592q0 440 332 441q143 0 250 -95v68h735v-256h-387v-324h356v-256h-356v-352h387v-258h-735v63q-125 -84 -246 -83q-336 -1 -336 460zM434 338q0 -121 119 -121q115 0 115 117v784q0 121 -115 121q-119 0 -119 -119v-782z" />
<glyph unicode="&#x153;" horiz-adv-x="1492" d="M72 373v391q0 78 12 127q57 225 397 225q166 0 271 -78q55 47 113.5 62.5t146.5 15.5q289 0 374 -176q33 -68 33 -192v-275h-510v-194q0 -55 22.5 -81t78.5 -26q29 0 48 9t29.5 20.5t15.5 36t5 37.5v47v26h315v-61q0 -84 -18 -129q-74 -188 -373 -189q-182 0 -280 72 q-72 -41 -129.5 -56.5t-141.5 -15.5q-317 0 -389 211q-20 64 -20 193zM393 268q0 -96 96 -96q94 0 95 98v537q0 106 -95 106q-96 0 -96 -90v-555zM909 670h195v135q0 96 -96 96q-98 0 -99 -98v-133z" />
<glyph unicode="&#x178;" horiz-adv-x="1067" d="M8 1446h344l176 -639l177 639h350l-361 -938v-508h-342v508zM197 1606v231h278v-231h-278zM592 1606v231h274v-231h-274z" />
<glyph unicode="&#x2c6;" horiz-adv-x="555" d="M-57 1253l202 254h258l209 -254h-241l-92 121l-89 -121h-247z" />
<glyph unicode="&#x2dc;" horiz-adv-x="555" d="M-59 1272q12 117 58 182.5t157 65.5q61 0 151 -36t127 -36q61 0 78 65h102q-20 -250 -217 -249q-63 0 -159.5 37.5t-124.5 37.5q-63 0 -68 -67h-104z" />
<glyph unicode="&#x3bc;" d="M86 -383v1470h324v-765q0 -100 96 -101q100 0 100 111v755h324v-917q0 -70 8 -100.5t39 -69.5h-361l-10 119q-20 -74 -49 -102.5t-78 -28.5q-43 0 -69 28v-399h-324z" />
<glyph unicode="&#x2000;" horiz-adv-x="948" />
<glyph unicode="&#x2001;" horiz-adv-x="1898" />
<glyph unicode="&#x2002;" horiz-adv-x="948" />
<glyph unicode="&#x2003;" horiz-adv-x="1898" />
<glyph unicode="&#x2004;" horiz-adv-x="632" />
<glyph unicode="&#x2005;" horiz-adv-x="473" />
<glyph unicode="&#x2006;" horiz-adv-x="315" />
<glyph unicode="&#x2007;" horiz-adv-x="315" />
<glyph unicode="&#x2008;" horiz-adv-x="235" />
<glyph unicode="&#x2009;" horiz-adv-x="378" />
<glyph unicode="&#x200a;" horiz-adv-x="104" />
<glyph unicode="&#x2010;" horiz-adv-x="673" d="M57 481v250h559v-250h-559z" />
<glyph unicode="&#x2011;" horiz-adv-x="673" d="M57 481v250h559v-250h-559z" />
<glyph unicode="&#x2012;" horiz-adv-x="673" d="M57 481v250h559v-250h-559z" />
<glyph unicode="&#x2013;" horiz-adv-x="1009" d="M57 481v250h895v-250h-895z" />
<glyph unicode="&#x2014;" horiz-adv-x="1359" d="M57 481v250h1246v-250h-1246z" />
<glyph unicode="&#x2018;" horiz-adv-x="512" d="M113 821v314l163 311h138l-95 -311h95v-314h-301z" />
<glyph unicode="&#x2019;" horiz-adv-x="512" d="M104 823l95 312h-95v311h302v-311l-164 -312h-138z" />
<glyph unicode="&#x201a;" horiz-adv-x="512" d="M84 -311l115 311h-93v311h297v-311l-180 -311h-139z" />
<glyph unicode="&#x201c;" horiz-adv-x="894" d="M98 821v309l183 316h141l-115 -316h88v-309h-297zM504 821v309l178 316h141l-112 -316h90v-309h-297z" />
<glyph unicode="&#x201d;" horiz-adv-x="894" d="M74 825l114 314h-94v307h299v-307l-178 -314h-141zM477 825l115 314h-92v307h299v-307l-183 -314h-139z" />
<glyph unicode="&#x201e;" horiz-adv-x="894" d="M74 -311l114 311h-94v311h297v-311l-176 -311h-141zM477 -311l115 311h-92v311h299v-311l-183 -311h-139z" />
<glyph unicode="&#x2022;" horiz-adv-x="681" d="M100 461v504h480v-504h-480z" />
<glyph unicode="&#x2026;" horiz-adv-x="2048" d="M219 0v272h246v-272h-246zM901 0v272h246v-272h-246zM1583 0v272h246v-272h-246z" />
<glyph unicode="&#x202f;" horiz-adv-x="378" />
<glyph unicode="&#x2039;" horiz-adv-x="425" d="M55 518v248l293 238v-259l-121 -98l121 -104v-262z" />
<glyph unicode="&#x203a;" horiz-adv-x="425" d="M78 285v262l117 96l-117 107v258l291 -240v-246z" />
<glyph unicode="&#x205f;" horiz-adv-x="473" />
<glyph unicode="&#x20ac;" horiz-adv-x="1064" d="M35 528l53 164h82v84h-135l53 164h80v98q0 195 96 305q72 80 170 105t236 25q236 0 381 -93l-93 -266q-96 106 -247 107q-57 0 -95 -15.5t-57.5 -36t-30 -63.5t-11.5 -74t-1 -92h383l-55 -164h-328v-84h299l-57 -164h-242v-47v-24v-27q0 -6 1 -24.5t3 -26.5t5 -23.5 t8.5 -24.5t12.5 -20.5t17 -19.5q53 -45 146 -45q139 0 262 106l2 -307q-164 -63 -359 -63q-264 0 -360 108q-18 20 -31.5 46t-23 48.5t-15.5 57t-10 56t-5 61.5t-1 58v59v52h-133z" />
<glyph unicode="&#x2122;" horiz-adv-x="1314" d="M16 1307v139h473v-139h-141v-541h-184v541h-148zM539 766v680h266l84 -375l82 375h250v-680h-166l2 518l-99 -518h-145l-108 526l6 -526h-172z" />
<glyph unicode="&#xe000;" horiz-adv-x="1085" d="M0 1085h1085v-1085h-1085v1085z" />
<glyph unicode="&#xfb01;" horiz-adv-x="1150" d="M10 885v202h144q0 182 10 228q29 111 162 127q29 4 65 4h232v-205q-111 0 -128.5 -18.5t-17.5 -135.5h146v-202h-146v-885h-323v885h-144zM733 0v1087h326v-1087h-326zM733 1196v250h326v-250h-326z" />
<glyph unicode="&#xfb02;" horiz-adv-x="1150" d="M10 885v202h144q0 182 10 228q29 111 162 127q29 4 65 4h232v-205q-111 0 -128.5 -18.5t-17.5 -135.5h146v-202h-146v-885h-323v885h-144zM733 0v1446h328v-1446h-328z" />
<glyph unicode="&#xfb03;" horiz-adv-x="1794" d="M1374 0v1087h326v-1087h-326zM1374 1196v250h326v-250h-326zM651 885v202h144q0 182 10 228q29 111 162 127q29 4 65 4h232v-205q-111 0 -128.5 -18.5t-17.5 -135.5h146v-202h-146v-885h-323v885h-144zM10 885v202h144q0 182 10 228q29 111 162 127q29 4 65 4h232v-205 q-111 0 -128.5 -18.5t-17.5 -135.5h146v-202h-146v-885h-323v885h-144z" />
<glyph unicode="&#xfb04;" horiz-adv-x="1794" d="M1374 0v1446h328v-1446h-328zM651 885v202h144q0 182 10 228q29 111 162 127q29 4 65 4h232v-205q-111 0 -128.5 -18.5t-17.5 -135.5h146v-202h-146v-885h-323v885h-144zM10 885v202h144q0 182 10 228q29 111 162 127q29 4 65 4h232v-205q-111 0 -128.5 -18.5 t-17.5 -135.5h146v-202h-146v-885h-323v885h-144z" />
</font>
</defs></svg> 