<?xml version="1.0" encoding="UTF-8" standalone="no"?>
<!DOCTYPE svg PUBLIC "-//W3C//DTD SVG 1.1//EN" "http://www.w3.org/Graphics/SVG/1.1/DTD/svg11.dtd" >
<svg xmlns="http://www.w3.org/2000/svg"
><metadata
></metadata
><defs
><font horiz-adv-x="1024"
><font-face font-family="Gotham Book" units-per-em="2048" ascent="1858" descent="-377"
></font-face
><missing-glyph horiz-adv-x="748" d="M68 0V1365H612V0H68ZM136 68H544V1297H136V68Z"
></missing-glyph
><glyph unicode="&#xd;" horiz-adv-x="614" d=""
></glyph
><glyph unicode=" " horiz-adv-x="614" d=""
></glyph
><glyph unicode="!" horiz-adv-x="555" d="M184 0V215H373V0H184ZM186 1317V1434H371V1317L322 406H233L186 1317Z"
></glyph
><glyph unicode="&quot;" horiz-adv-x="901" d="M133 877L195 1434H385V1423L219 877H133ZM532 877L596 1434H784V1423L618 877H532Z"
></glyph
><glyph unicode="#" horiz-adv-x="1433" d="M92 362V504H340L416 938H172V1079H438L500 1434H643L584 1079H973L1034 1434H1178L1118 1079H1339V938H1094L1018 504H1260V362H995L932 0H788L850 362H461L397 0H254L315 362H92ZM485 504H874L948 938H559L485 504Z"
></glyph
><glyph unicode="$" horiz-adv-x="1302" d="M115 215L207 338Q299 254 393 205T604 143V655Q377 708 272.5 800.5T168 1053V1057Q168 1137 199.5 1203.5T288.5 1320T425 1400T598 1434V1552H729V1430Q846 1420 938 1377.5T1120 1266L1032 1143Q958 1206 881.5 1241T723 1290V786Q956 733 1060.5 639T1165 389V385Q1165 303 1133.5 234.5T1044.5 116T906 36T729 0V-201H598V4Q461 16 342 69.5T115 215ZM326 1063Q326 1020 338 984T381 917.5T466 861.5T604 815V1296Q475 1292 400.5 1226.5T326 1067V1063ZM723 137Q854 143 931 208.5T1008 375V379Q1008 424 995.5 461T950.5 527.5T863.5 581.5T723 627V137Z"
></glyph
><glyph unicode="%" horiz-adv-x="1708" d="M106 1079V1083Q106 1157 130 1222.5T197 1339.5T300 1420.5T434 1450Q506 1450 565.5 1420.5T667 1340.5T732.5 1224.5T756 1087V1083Q756 1009 732.5 944T666 827.5T563.5 746.5T430 717Q356 717 297 746.5T196 826.5T130 942.5T106 1079ZM244 1083Q244 1030 258 984T299 904T359.5 850.5T434 831Q475 831 510 850.5T569.5 904T607.5 983T621 1079V1083Q621 1136 605.5 1182.5T564.5 1262.5T504 1315.5T430 1335Q387 1335 353 1315.5T294.5 1262.5T257 1184T244 1087V1083ZM254 0L1307 1434H1452L401 0H254ZM952 274T952 346V350Q952 424 975.5 489.5T1042 606T1144.5 687T1278 717Q1352 717 1411 687T1512 607T1576.5 491.5T1599 354V350Q1599 276 1575.5 210.5T1510 94T1408 13.5T1274 -16Q1202 -16 1142.5 13.5T1041 93T975.5 208.5ZM1087 350Q1087 297 1101.5 251T1142.5 171T1203 117.5T1278 98Q1321 98 1355 117.5T1413.5 171T1451 250T1464 346V350Q1464 403 1450 449.5T1409 529.5T1347.5 582.5T1274 602Q1233 602 1198 582.5T1138.5 529.5T1100.5 451T1087 354V350Z"
></glyph
><glyph unicode="&amp;" horiz-adv-x="1425" d="M92 381V385Q92 528 182 630.5T438 799Q364 885 329.5 956.5T295 1114V1118Q295 1188 322.5 1250.5T399.5 1359T518.5 1431.5T674 1458Q750 1458 813.5 1432.5T923 1363T995.5 1260.5T1022 1135V1130Q1022 993 932 903T684 758L1012 424Q1059 494 1102 573.5T1184 743L1317 682Q1270 580 1219.5 489.5T1110 322L1360 66L1237 -29L1012 203Q914 97 799 38.5T543 -20Q447 -20 364 8.5T220.5 90T126 217T92 381ZM256 387Q256 330 277.5 280.5T339 194.5T434 137.5T555 117Q657 117 746.5 167T913 303L530 698Q387 645 321.5 564T256 391V387ZM451 1114Q451 1083 458 1053.5T481.5 993.5T525.5 928T594 850Q731 897 800.5 963.5T870 1122V1126Q870 1212 813 1268.5T668 1325Q570 1325 510.5 1265.5T451 1118V1114Z"
></glyph
><glyph unicode="&#39;" horiz-adv-x="501" d="M133 877L195 1434H387V1423L221 877H133Z"
></glyph
><glyph unicode="(" horiz-adv-x="888" d="M139 588Q139 873 285.5 1092T707 1464L774 1360Q538 1210 418.5 1023T299 588Q299 340 419 152.5T774 -184L707 -289Q433 -135 286 84T139 588Z"
></glyph
><glyph unicode=")" horiz-adv-x="888" d="M115 -184Q351 -34 470.5 153T590 588Q590 836 470 1023T115 1360L182 1464Q456 1310 603 1091T750 588Q750 303 603.5 84T182 -289L115 -184Z"
></glyph
><glyph unicode="*" horiz-adv-x="880" d="M141 1016L379 1124L141 1235L197 1329L408 1182L387 1438H494L473 1182L684 1329L739 1235L502 1124L739 1016L684 920L473 1069L494 813H387L408 1069L197 920L141 1016Z"
></glyph
><glyph unicode="+" horiz-adv-x="1310" d="M154 647V795H580V1217H731V795H1157V647H731V225H580V647H154Z"
></glyph
><glyph unicode="," horiz-adv-x="501" d="M94 -178Q172 -149 205 -107.5T231 0H158V215H346V31Q346 -94 291 -158.5T119 -250L94 -178Z"
></glyph
><glyph unicode="-" horiz-adv-x="835" d="M133 532V698H702V532H133Z"
></glyph
><glyph unicode="." horiz-adv-x="501" d="M158 0V215H346V0H158Z"
></glyph
><glyph unicode="/" horiz-adv-x="1040" d="M-43 -262L907 1634H1053L102 -262H-43Z"
></glyph
><glyph unicode="0" horiz-adv-x="1464" d="M127 713V717Q127 867 170 1002T293 1238T484.5 1398.5T735 1458Q872 1458 984 1399.5T1174.5 1240T1295 1004.5T1337 721V717Q1337 565 1294 431T1172.5 195.5T981 34.5T731 -25Q592 -25 480.5 33.5T290 193.5T169 428T127 713ZM295 717Q295 600 325.5 492.5T413.5 303T553 172T735 123Q835 123 916 171T1053.5 300T1139.5 488.5T1169 713V717Q1169 834 1138.5 941.5T1050.5 1130.5T912 1261.5T731 1311Q631 1311 550 1262.5T412.5 1133.5T325.5 946.5T295 721V717Z"
></glyph
><glyph unicode="1" horiz-adv-x="733" d="M57 1323L408 1444H526V0H367V1276L96 1192L57 1323Z"
></glyph
><glyph unicode="2" horiz-adv-x="1226" d="M98 0V125L618 584Q700 658 757.5 717T850 828.5T901.5 931T918 1034Q918 1097 894 1147.5T831.5 1234T739.5 1289.5T629 1309Q506 1309 418 1246.5T244 1063L125 1149Q174 1221 225 1278T336.5 1374T472 1433.5T641 1454Q737 1454 819 1423.5T960.5 1338.5T1052.5 1210.5T1085 1049V1044Q1085 966 1063.5 900T998 769.5T885.5 637T723 487L340 147H1100V0H98Z"
></glyph
><glyph unicode="3" horiz-adv-x="1255" d="M102 231L219 336Q303 234 404.5 178.5T639 123Q705 123 762 142.5T861 199T927.5 287T952 401V406Q952 474 922.5 524.5T839.5 610T712.5 663.5T551 682H459L426 778L879 1288H178V1434H1094V1315L643 815Q737 807 822 780.5T972.5 704.5T1077 582.5T1116 412V408Q1116 312 1078 232T975.5 95.5T824 7T637 -25Q457 -25 323.5 46T102 231Z"
></glyph
><glyph unicode="4" horiz-adv-x="1374" d="M88 457L899 1444H1040V475H1264V340H1040V0H885V340H129L88 457ZM283 475H885V1214L283 475Z"
></glyph
><glyph unicode="5" horiz-adv-x="1253" d="M109 203L215 319Q309 227 410.5 175T623 123Q699 123 763 146.5T872.5 213T943.5 314.5T969 440V444Q969 512 942 567.5T868 662.5T755.5 723.5T612 745Q520 745 447.5 721.5T311 664L203 735L244 1434H1069V1284H385L354 825Q417 854 482 871.5T637 889Q741 889 831.5 859T989.5 772T1095 634T1133 451V446Q1133 342 1095 255T989.5 105.5T828 9T621 -25Q467 -25 337 39.5T109 203Z"
></glyph
><glyph unicode="6" horiz-adv-x="1325" d="M125 676V680Q125 844 165 986T281.5 1232.5T469 1397.5T721 1458Q850 1458 950.5 1415T1145 1294L1051 1169Q971 1237 891 1274T713 1311Q615 1311 537 1264T404.5 1133T321.5 933T293 678Q322 721 359.5 761T447.5 830.5T560.5 878.5T700 897Q800 897 890.5 866.5T1048.5 778.5T1156 639T1196 457V453Q1196 349 1156 261.5T1047.5 110.5T885 11T682 -25Q563 -25 468 14T305 121Q262 164 228.5 215T172.5 331.5T137.5 481T125 676ZM322 440Q322 372 348.5 313T423 211T537.5 143.5T684 119Q764 119 827.5 144.5T936 214T1005.5 318.5T1030 446V451Q1030 517 1004.5 573T933 670T822.5 734.5T680 758Q600 758 533.5 731.5T420 660.5T347.5 560T322 444V440Z"
></glyph
><glyph unicode="7" horiz-adv-x="1220" d="M139 1286V1434H1112V1313L461 0H281L928 1286H139Z"
></glyph
><glyph unicode="8" horiz-adv-x="1290" d="M106 385V389Q106 518 189 606T401 741Q352 764 307 795.5T228.5 867T175.5 958.5T156 1071V1075Q156 1157 196 1226.5T302.5 1347.5T458 1426.5T645 1454Q743 1454 832.5 1426.5T988.5 1347.5T1095 1226.5T1135 1075V1071Q1135 1010 1115.5 958.5T1062 867T983 795.5T889 741Q1016 694 1100 606T1184 391V387Q1184 295 1143 220T1029 92T858 9.5T645 -20Q530 -20 432 9.5T261 92T147 220T106 385ZM270 389Q270 334 296 286T370 201T487.5 142.5T645 121Q733 121 802.5 142.5T920.5 201T994.5 286T1020 389V393Q1020 452 990.5 502.5T910.5 589T791.5 645.5T645 666Q567 666 498.5 645.5T379 589T299 503T270 393V389ZM317 1061Q317 1002 343 953.5T413 871.5T517 818.5T645 799Q713 799 773.5 818.5T878 871.5T947.5 953T973 1061V1065Q973 1118 948.5 1163T880 1242T775.5 1294.5T645 1313Q575 1313 515 1294.5T411 1243T342 1164T317 1065V1061Z"
></glyph
><glyph unicode="9" horiz-adv-x="1325" d="M129 967V971Q129 1073 167 1162T272.5 1316.5T435 1420T645 1458Q768 1458 860 1419T1022 1311Q1104 1229 1152 1100T1200 756V752Q1200 582 1157 438.5T1035 192.5T846.5 32.5T604 -25Q463 -25 358.5 25.5T162 152L256 276Q344 198 428 160.5T608 123Q704 123 784 170T920.5 300T1006.5 498.5T1034 752Q975 658 876.5 590T629 522Q518 522 426 555T268.5 647.5T166 788.5T129 967ZM295 975Q295 907 320.5 849T392 750T503.5 685.5T647 662Q729 662 795.5 689.5T908 762T979 865.5T1004 985V989Q1004 1057 977 1116.5T902 1220T786.5 1289.5T639 1315Q559 1315 494.5 1287.5T386 1213.5T318.5 1107T295 979V975Z"
></glyph
><glyph unicode=":" horiz-adv-x="522" d="M168 0V215H356V0H168ZM168 844V1059H356V844H168Z"
></glyph
><glyph unicode=";" horiz-adv-x="522" d="M104 -178Q182 -149 215 -107.5T242 0H168V215H356V31Q356 -94 301 -158.5T129 -250L104 -178ZM168 844V1059H356V844H168Z"
></glyph
><glyph unicode="&lt;" horiz-adv-x="1310" d="M147 653V788L1108 1266V1108L319 723L1108 336V176L147 653Z"
></glyph
><glyph unicode="=" horiz-adv-x="1310" d="M184 406V557H1126V406H184ZM184 885V1036H1126V885H184Z"
></glyph
><glyph unicode="&gt;" horiz-adv-x="1310" d="M203 176V334L991 719L203 1106V1266L1163 788V653L203 176Z"
></glyph
><glyph unicode="?" horiz-adv-x="1099" d="M61 1214Q149 1320 264 1386T543 1452Q647 1452 731 1421.5T875.5 1336.5T968.5 1208.5T1001 1047V1042Q1001 946 967.5 873.5T875.5 750.5T740.5 669.5T575 627L555 406H451L420 737L430 748Q631 752 734.5 829.5T838 1036V1040Q838 1095 817.5 1143.5T758 1229T663.5 1286.5T539 1307Q424 1307 334 1256.5T166 1114L61 1214ZM408 0V215H596V0H408Z"
></glyph
><glyph unicode="@" horiz-adv-x="2007" d="M109 561Q109 745 178.5 908T368.5 1193T653 1386.5T1006 1458Q1194 1458 1357 1391.5T1640.5 1213.5T1829.5 954.5T1898 647Q1898 516 1864.5 422T1777.5 266.5T1654.5 175T1516 145Q1403 145 1330 192.5T1229 317Q1170 245 1088 195T891 145Q815 145 748.5 172T632 248T553 365.5T524 518Q524 627 565 720T673.5 881.5T826 989T997 1028Q1056 1028 1103.5 1013.5T1188 975.5T1251.5 921.5T1296 858L1323 999L1460 981L1378 516Q1370 473 1367 440.5T1364 391Q1364 313 1409 269T1538 225Q1593 225 1644.5 249.5T1736 326.5T1800.5 459T1825 647Q1825 788 1762.5 921.5T1590.5 1159.5T1331.5 1326.5T1006 1389Q830 1389 679 1323T417.5 1144.5T244.5 881.5T182 561Q182 389 244.5 239.5T417.5 -21.5T683 -197.5T1022 -262Q1176 -262 1294.5 -227.5T1532 -123L1565 -178Q1446 -250 1314 -291T1022 -332Q825 -332 658.5 -261T369 -68.5T177.5 215T109 561ZM672 528Q672 405 741.5 338.5T922 272Q988 272 1049 303T1156 385T1229.5 502.5T1257 641Q1257 696 1239 744.5T1187 827.5T1107 881.5T1008 901Q942 901 881.5 872.5T775 793.5T700.5 675.5T672 528Z"
></glyph
><glyph unicode="A" horiz-adv-x="1617" d="M80 0L733 1444H885L1538 0H1364L1196 379H416L246 0H80ZM479 524H1133L807 1255L479 524Z"
></glyph
><glyph unicode="B" horiz-adv-x="1478" d="M203 0V1434H813Q936 1434 1031 1400T1188 1307Q1280 1211 1280 1077V1073Q1280 1003 1260.5 949T1208.5 855T1136 787.5T1053 741Q1116 723 1172.5 693.5T1270 623T1335.5 525.5T1360 395V391Q1360 299 1323 226.5T1217.5 103.5T1052.5 26.5T840 0H203ZM362 145H844Q1008 145 1102 213T1196 401V406Q1196 523 1100 587T815 651H362V145ZM362 795H786Q933 795 1024.5 859.5T1116 1051V1055Q1116 1161 1034 1224.5T799 1288H362V795Z"
></glyph
><glyph unicode="C" horiz-adv-x="1511" d="M139 713V717Q139 869 193.5 1004T344 1240T573.5 1399.5T864 1458Q962 1458 1041 1441.5T1187.5 1395.5T1312.5 1324T1423 1231L1313 1112Q1221 1198 1115.5 1253.5T862 1309Q743 1309 642 1264T466 1139T349 951.5T307 721V717Q307 592 349 484.5T466 297T642 171T862 125Q1009 125 1116 179T1325 332L1432 227Q1377 170 1316 124T1185.5 45T1036 -6.5T858 -25Q702 -25 571 32.5T344 189.5T193.5 424T139 713Z"
></glyph
><glyph unicode="D" horiz-adv-x="1601" d="M203 0V1434H700Q868 1434 1008.5 1379.5T1250.5 1229T1407 1002.5T1462 721V717Q1462 565 1407 434T1250.5 207T1008.5 55.5T700 0H203ZM365 150H700Q835 150 946 193T1133.5 311.5T1252 490.5T1294 713V717Q1294 836 1252 939T1133.5 1119T946.5 1240T700 1284H365V150Z"
></glyph
><glyph unicode="E" horiz-adv-x="1372" d="M203 0V1434H1239V1286H365V797H1147V649H365V147H1249V0H203Z"
></glyph
><glyph unicode="F" horiz-adv-x="1343" d="M203 0V1434H1233V1284H365V772H1141V625H365V0H203Z"
></glyph
><glyph unicode="G" horiz-adv-x="1605" d="M139 713V717Q139 864 191.5 998.5T338 1235T564 1397.5T858 1458Q948 1458 1023 1446T1162.5 1409T1283 1348.5T1393 1268L1288 1145Q1247 1182 1202 1211.5T1105 1262.5T990.5 1296.5T852 1309Q733 1309 632.5 1261.5T460.5 1134.5T348 947.5T307 721V717Q307 588 347 479.5T461 291T639 166T874 121Q997 121 1105.5 163T1288 264V621H852V766H1444V195Q1344 105 1197 40T868 -25Q698 -25 564 32.5T335 190.5T189.5 425T139 713Z"
></glyph
><glyph unicode="H" horiz-adv-x="1556" d="M203 0V1434H365V797H1192V1434H1354V0H1192V645H365V0H203Z"
></glyph
><glyph unicode="I" horiz-adv-x="595" d="M217 0V1434H379V0H217Z"
></glyph
><glyph unicode="J" horiz-adv-x="1132" d="M63 233L180 334Q246 234 320.5 181.5T508 129Q629 129 708.5 216T788 473V1434H952V475Q952 348 917.5 254T821 98Q699 -20 506 -20Q344 -20 237.5 51.5T63 233Z"
></glyph
><glyph unicode="K" horiz-adv-x="1472" d="M203 0V1434H365V578L1188 1434H1397L782 807L1423 0H1221L670 694L365 385V0H203Z"
></glyph
><glyph unicode="L" horiz-adv-x="1267" d="M203 0V1434H365V150H1171V0H203Z"
></glyph
><glyph unicode="M" horiz-adv-x="1777" d="M203 0V1434H367L889 651L1411 1434H1575V0H1413V1161L891 393H883L360 1159V0H203Z"
></glyph
><glyph unicode="N" horiz-adv-x="1617" d="M203 0V1434H354L1257 285V1434H1415V0H1286L360 1176V0H203Z"
></glyph
><glyph unicode="O" horiz-adv-x="1740" d="M139 713V717Q139 864 192.5 999.5T342 1236T573.5 1397.5T872 1458Q1036 1458 1170.5 1398.5T1401 1238T1549.5 1002.5T1602 721Q1603 720 1603 719T1602 717Q1602 570 1548.5 434.5T1399 197.5T1167.5 35.5T868 -25Q704 -25 570 34.5T340 195.5T191.5 431T139 713ZM307 717Q307 594 349 486.5T467 299T646 172T872 125Q995 125 1098.5 171T1276 297T1392 483.5T1434 713V717Q1434 840 1392 947.5T1274 1134.5T1094.5 1261.5T868 1309Q745 1309 642 1263T465 1137T349 950.5T307 721V717Z"
></glyph
><glyph unicode="P" horiz-adv-x="1368" d="M203 0V1434H739Q860 1434 959.5 1402T1129.5 1311.5T1238 1169T1276 979V975Q1276 858 1231 771T1109 624.5T929.5 535.5T713 506H365V0H203ZM365 653H719Q807 653 879.5 675.5T1004.5 740T1084.5 839.5T1112 969V973Q1112 1127 1006.5 1205.5T727 1284H365V653Z"
></glyph
><glyph unicode="Q" horiz-adv-x="1740" d="M139 713V717Q139 864 192.5 999.5T342 1236T573.5 1397.5T872 1458Q1036 1458 1170.5 1398.5T1401 1238T1549.5 1002.5T1602 721Q1604 719 1602 717Q1602 582 1557.5 458T1430 236L1620 78L1509 -43L1321 129Q1229 57 1116.5 16T868 -25Q704 -25 570 34.5T340 195.5T191.5 431T139 713ZM307 717Q307 594 349 486.5T467 299T646 172T872 125Q968 125 1052.5 153.5T1202 233L936 461L1044 582L1309 342Q1368 418 1401 512T1434 713V717Q1434 840 1392 947.5T1274 1134.5T1094.5 1261.5T868 1309Q745 1309 642 1263T465 1137T349 950.5T307 721V717Z"
></glyph
><glyph unicode="R" horiz-adv-x="1480" d="M203 0V1434H819Q952 1434 1055.5 1396T1227 1290Q1280 1237 1308.5 1165.5T1337 1008V1004Q1337 914 1308.5 843T1228 720T1104 634T948 586L1389 0H1190L774 557H770H365V0H203ZM365 702H805Q885 702 952.5 722.5T1069 781T1146 873.5T1174 997V1001Q1174 1134 1077.5 1209T807 1284H365V702Z"
></glyph
><glyph unicode="S" horiz-adv-x="1310" d="M109 209L209 328Q322 226 436.5 175.5T700 125Q845 125 932.5 193.5T1020 369V373Q1020 422 1003.5 462T946 534.5T832.5 594T647 645Q524 672 433 706.5T282.5 790.5T194.5 905.5T166 1059V1063Q166 1147 201 1218.5T299 1342.5T448.5 1424.5T637 1454Q795 1454 912.5 1410T1141 1278L1047 1153Q947 1235 845 1272T633 1309Q492 1309 410 1242.5T328 1077V1073Q328 1022 344 982T403 908T522 846.5T717 795Q957 742 1070.5 647.5T1184 389V385Q1184 293 1147 218T1045.5 90T890.5 8.5T694 -20Q522 -20 380 36T109 209Z"
></glyph
><glyph unicode="T" horiz-adv-x="1327" d="M100 1284V1434H1227V1284H745V0H582V1284H100Z"
></glyph
><glyph unicode="U" horiz-adv-x="1554" d="M180 600V1434H342V610Q342 377 457.5 252T780 127Q979 127 1095.5 246T1212 600V1434H1374V612Q1374 454 1331 335.5T1209 137T1020.5 17T776 -23Q643 -23 533.5 17T345 136T223 332T180 600Z"
></glyph
><glyph unicode="V" horiz-adv-x="1536" d="M80 1434H260L770 199L1282 1434H1456L840 -10H696L80 1434Z"
></glyph
><glyph unicode="W" horiz-adv-x="2267" d="M92 1434H268L678 240L1071 1438H1204L1597 240L2007 1434H2177L1665 -10H1528L1135 1153L739 -10H604L92 1434Z"
></glyph
><glyph unicode="X" horiz-adv-x="1484" d="M94 0L645 731L115 1434H305L745 848L1182 1434H1370L840 733L1391 0H1198L739 616L281 0H94Z"
></glyph
><glyph unicode="Y" horiz-adv-x="1466" d="M55 1434H252L735 717L1223 1434H1411L815 569V0H651V567L55 1434Z"
></glyph
><glyph unicode="Z" horiz-adv-x="1419" d="M137 0V109L1065 1288H168V1434H1286V1325L356 145H1286V0H137Z"
></glyph
><glyph unicode="[" horiz-adv-x="899" d="M193 -266V1434H778V1311H342V-143H778V-266H193Z"
></glyph
><glyph unicode="\" horiz-adv-x="1040" d="M-12 1634H133L1083 -262H938L-12 1634Z"
></glyph
><glyph unicode="]" horiz-adv-x="899" d="M121 -143H559V1311H121V1434H707V-266H121V-143Z"
></glyph
><glyph unicode="^" horiz-adv-x="1024" d="M133 1010L451 1438H573L891 1010H752L510 1325L268 1010H133Z"
></glyph
><glyph unicode="_" horiz-adv-x="1228" d="M-4 -199H1233V-328H-4V-199Z"
></glyph
><glyph unicode="`" horiz-adv-x="1024" d="M295 1440L459 1516L653 1219H526L295 1440Z"
></glyph
><glyph unicode="a" horiz-adv-x="1185" d="M96 307V311Q96 397 129 461.5T222.5 569T366 634.5T549 657Q651 657 726 645T872 612V645Q872 786 790.5 859T559 932Q465 932 388 911.5T238 856L190 985Q278 1026 368.5 1050.5T575 1075Q800 1075 918 958Q1029 847 1028 647V0H872V158Q817 86 724 31.5T492 -23Q418 -23 346 -2.5T219 60T130 163.5T96 307ZM256 315Q256 266 277.5 226T336 159.5T421 118.5T522 104Q596 104 659.5 124.5T771 183T846.5 273.5T874 389V487Q815 503 739.5 517.5T565 532Q418 532 337 474T256 319V315Z"
></glyph
><glyph unicode="b" horiz-adv-x="1359" d="M176 0V1495H334V846Q367 893 406.5 936T495.5 1010.5T605.5 1061.5T739 1081Q833 1081 924.5 1044.5T1087.5 937T1202 765T1245 532V528Q1245 399 1202 297T1088.5 124T926.5 15T739 -23Q665 -23 604 -4.5T493.5 45T404.5 117T334 203V0H176ZM328 528Q328 436 359.5 360.5T445.5 231.5T568.5 148.5T711 119Q787 119 855.5 146.5T974 226.5T1053.5 354.5T1083 526V530Q1083 624 1053.5 700T973 829.5T854 911.5T711 940Q637 940 568.5 910.5T445.5 826.5T359.5 697.5T328 532V528Z"
></glyph
><glyph unicode="c" horiz-adv-x="1169" d="M111 524V528Q111 641 152 741.5T265.5 917.5T437.5 1037T653 1081Q729 1081 790.5 1067T903 1027T997 966.5T1077 893L973 782Q910 848 835 895T651 942Q571 942 501.5 910.5T381 823.5T301 693T272 532V528Q272 442 302 367.5T384 236.5T507 148.5T662 117Q764 117 843 162T985 274L1085 180Q1005 90 904 32.5T653 -25Q536 -25 437 19T265.5 138T152 313.5T111 524Z"
></glyph
><glyph unicode="d" horiz-adv-x="1359" d="M115 526V530Q115 659 158 761.5T272.5 935T434 1043.5T621 1081Q695 1081 756 1062.5T866 1013.5T955 942T1026 856V1495H1184V0H1026V213Q993 166 953 123T864 47T755 -4.5T621 -23Q525 -23 434.5 14T272.5 122T158 294T115 526ZM276 528Q276 434 306 358.5T387 229.5T505.5 147.5T649 119Q723 119 791.5 148.5T914.5 232.5T1000.5 361.5T1032 528V532Q1032 624 1000.5 699T914.5 827.5T791.5 910.5T649 940Q571 940 503.5 912.5T386 832.5T306 704.5T276 532V528Z"
></glyph
><glyph unicode="e" horiz-adv-x="1212" d="M111 528Q111 643 148.5 744.5T254 920.5T415 1038T618 1081Q735 1081 827.5 1037T983.5 917.5T1079.5 739.5T1112 520Q1112 510 1112 496.5T1110 465H270Q278 381 311 315.5T395 205T509.5 136.5T643 113Q754 113 832.5 154T977 262L1075 174Q995 84 893 29.5T639 -25Q530 -25 434 15T266.5 128T153 303.5T111 528ZM270 592H952Q946 664 921.5 728.5T855 842T752.5 919.5T614 948Q546 948 487 921.5T383 847T308.5 733.5T270 592Z"
></glyph
><glyph unicode="f" horiz-adv-x="751" d="M90 920V1057H236V1149Q236 1329 328 1421Q410 1503 555 1503Q610 1503 650 1497T729 1477V1339Q686 1351 651 1358.5T575 1366Q391 1366 391 1141V1055H727V920H393V0H236V920H90Z"
></glyph
><glyph unicode="g" horiz-adv-x="1359" d="M115 578V582Q115 699 157 791T268.5 947.5T428 1046.5T612 1081Q686 1081 748.5 1064T861 1018T952 950T1026 868V1059H1184V184Q1184 61 1149 -32T1049 -190Q977 -262 874.5 -297T645 -332Q512 -332 391 -295T164 -184L236 -61Q328 -127 428 -162T643 -197Q819 -197 923.5 -101.5T1028 180V305Q958 213 858 147.5T612 82Q516 82 427 117T268.5 216.5T157 372T115 578ZM276 582Q276 502 306 435.5T386 321.5T502.5 247.5T643 221Q719 221 788.5 246.5T912.5 320.5T999.5 434.5T1032 580V584Q1032 666 999.5 731.5T912.5 844T788.5 916.5T643 942Q567 942 500.5 916.5T384 845T305 733.5T276 586V582Z"
></glyph
><glyph unicode="h" horiz-adv-x="1261" d="M176 0V1495H334V874Q387 960 473 1020.5T696 1081Q792 1081 867 1050.5T994.5 963.5T1074.5 829.5T1102 657V0H944V618Q944 765 868.5 851.5T651 938Q583 938 525 914.5T424 847T357.5 741.5T334 606V0H176Z"
></glyph
><glyph unicode="i" horiz-adv-x="538" d="M180 1290V1464H360V1290H180ZM190 0V1059H348V0H190Z"
></glyph
><glyph unicode="j" horiz-adv-x="538" d="M-8 -195Q10 -199 31.5 -200T70 -201Q123 -201 156.5 -167T190 -59V1059H348V-61Q348 -202 279.5 -268T90 -334Q61 -334 39.5 -332T-8 -324V-195ZM180 1290V1464H360V1290H180Z"
></glyph
><glyph unicode="k" horiz-adv-x="1165" d="M176 0V1495H334V463L905 1059H1102L657 604L1116 0H928L549 494L334 276V0H176Z"
></glyph
><glyph unicode="l" horiz-adv-x="538" d="M190 0V1495H348V0H190Z"
></glyph
><glyph unicode="m" horiz-adv-x="1947" d="M176 0V1059H334V881Q361 920 392.5 956.5T465 1021T557 1065T676 1081Q805 1081 889 1021T1016 870Q1045 913 1080.5 952T1161 1020T1262.5 1065T1389 1081Q1573 1081 1677.5 967.5T1782 655V0H1624V618Q1624 772 1551.5 855T1350 938Q1291 938 1237.5 916.5T1144 853T1080.5 749.5T1057 610V0H901V623Q901 773 828.5 855.5T629 938Q566 938 512.5 913.5T419 844T356.5 738.5T334 604V0H176Z"
></glyph
><glyph unicode="n" horiz-adv-x="1261" d="M176 0V1059H334V874Q387 960 473 1020.5T696 1081Q792 1081 867 1050.5T994.5 963.5T1074.5 829.5T1102 657V0H944V618Q944 765 868.5 851.5T651 938Q583 938 525 914.5T424 847T357.5 741.5T334 606V0H176Z"
></glyph
><glyph unicode="o" horiz-adv-x="1323" d="M111 524V528Q111 641 152 741.5T266.5 917.5T441.5 1037T664 1081Q783 1081 884 1037T1059 918.5T1173.5 744.5T1214 532V528Q1214 415 1172 315T1056.5 139T880.5 19T659 -25Q540 -25 440 19T266.5 138T152 312.5T111 524ZM272 528Q272 442 302 367.5T384 237.5T508 149.5T664 117Q750 117 821.5 149.5T944 237.5T1024 366.5T1053 524V528Q1053 614 1023 689T940 820.5T815 909.5T659 942Q573 942 501.5 909.5T380 821.5T301 691T272 532V528Z"
></glyph
><glyph unicode="p" horiz-adv-x="1359" d="M176 -328V1059H334V846Q367 893 406.5 936T495.5 1010.5T605.5 1061.5T739 1081Q833 1081 924.5 1044.5T1087.5 937T1202 765T1245 532V528Q1245 399 1202 297T1088.5 124T927 15T739 -23Q665 -23 604 -4.5T493.5 45T404.5 117T334 203V-328H176ZM328 528Q328 436 359.5 360.5T445.5 231.5T568.5 148.5T711 119Q787 119 855.5 146.5T974 226.5T1053.5 354.5T1083 526V530Q1083 624 1053.5 700T973 829.5T854 911.5T711 940Q637 940 568.5 910.5T445.5 826.5T359.5 697.5T328 532V528Z"
></glyph
><glyph unicode="q" horiz-adv-x="1359" d="M115 526V530Q115 659 158 761.5T272.5 935T434 1043.5T621 1081Q695 1081 756 1062.5T866 1013.5T955 942T1026 856V1059H1184V-328H1026V213Q993 166 953 123T864 47T754.5 -4.5T621 -23Q525 -23 434.5 14T272.5 122T158 294T115 526ZM276 528Q276 434 306 358.5T387 229.5T505.5 147.5T649 119Q723 119 791.5 148.5T914.5 232.5T1000.5 361.5T1032 528V532Q1032 624 1000.5 699T914.5 827.5T791.5 910.5T649 940Q571 940 503.5 912.5T386 832.5T306 704.5T276 532V528Z"
></glyph
><glyph unicode="r" horiz-adv-x="829" d="M176 0V1059H334V782Q363 848 406 903T504 998Q558 1038 624 1058Q684 1077 753 1077Q760 1077 766 1077V907H754Q668 907 591 876.5T456.5 784.5T366.5 632T334 422V0H176Z"
></glyph
><glyph unicode="s" horiz-adv-x="1019" d="M88 135L168 248Q254 182 347 147.5T535 113Q631 113 692.5 158T754 281V285Q754 324 732.5 352.5T674 402.5T589 440.5T489 471Q428 489 365.5 510.5T253 565T171 647T139 770V774Q139 842 166 898T241 994T355.5 1055.5T500 1077Q598 1077 698.5 1045.5T881 961L809 842Q735 889 654 916.5T496 944Q402 944 346.5 900T291 791V786Q291 749 313.5 721.5T374 673.5T461 637T563 604Q624 586 684.5 563.5T794.5 506T873.5 422T903 301V297Q903 221 873.5 162.5T793.5 63.5T674.5 1.5T526 -20Q411 -20 294.5 21.5T88 135Z"
></glyph
><glyph unicode="t" horiz-adv-x="827" d="M84 920V1059H231V1378H389V1059H725V920H389V301Q389 203 438 164T567 125Q608 125 644 133T721 162V27Q680 4 633.5 -7T530 -18Q467 -18 411.5 -2T316 50T253.5 143.5T231 281V920H84Z"
></glyph
><glyph unicode="u" horiz-adv-x="1261" d="M160 401V1059H317V440Q317 293 393 207T610 121Q678 121 736.5 144.5T837 212T903.5 317.5T928 453V1059H1083V0H928V184Q875 98 788.5 37.5T565 -23Q469 -23 394 8T267 95.5T187.5 229.5T160 401Z"
></glyph
><glyph unicode="v" horiz-adv-x="1202" d="M72 1059H246L602 180L961 1059H1130L670 -8H530L72 1059Z"
></glyph
><glyph unicode="w" horiz-adv-x="1763" d="M86 1059H254L532 209L817 1063H948L1235 209L1513 1059H1677L1305 -8H1167L883 827L596 -8H457L86 1059Z"
></glyph
><glyph unicode="x" horiz-adv-x="1175" d="M80 0L496 539L96 1059H276L590 649L903 1059H1079L678 543L1096 0H913L586 432L256 0H80Z"
></glyph
><glyph unicode="y" horiz-adv-x="1210" d="M70 1059H244L629 176L969 1059H1137L692 -35Q624 -199 541.5 -266.5T340 -334Q274 -334 221 -320.5T115 -281L168 -156Q207 -176 245 -185.5T334 -195Q406 -195 455 -152T551 4L70 1059Z"
></glyph
><glyph unicode="z" horiz-adv-x="1138" d="M115 0V100L817 926H139V1059H1032V958L328 133H1032V0H115Z"
></glyph
><glyph unicode="{" horiz-adv-x="989" d="M115 526V649H168Q305 649 357.5 711.5T410 895Q410 907 410 928.5T409 973.5T408 1017.5T408 1051Q408 1131 425 1196.5T491.5 1313T627 1402T852 1464L877 1360Q768 1331 705.5 1302.5T609 1236T566 1149T557 1030Q557 999 558 954T559 877Q559 748 501.5 683T346 588Q397 572 437 548T503.5 490.5T544.5 409.5T559 299Q559 266 558 221T557 145Q557 75 566 26T609 -60.5T705.5 -128T877 -184L852 -289Q713 -264 627 -226T491.5 -137T425 -20.5T408 125Q408 137 408 157.5T409 200.5T410 245.5T410 281Q410 400 357.5 463T168 526H115Z"
></glyph
><glyph unicode="|" horiz-adv-x="620" d="M244 -262V1634H377V-262H244Z"
></glyph
><glyph unicode="}" horiz-adv-x="989" d="M111 -184Q220 -157 283 -127.5T380 -60.5T423 26.5T432 145Q432 176 431 221T430 299Q430 428 487.5 492.5T643 588Q541 621 485.5 684.5T430 877Q430 910 431 954.5T432 1030Q432 1100 423 1149T380 1236T282.5 1302.5T111 1360L137 1464Q274 1439 361.5 1401.5T498 1313T564.5 1196T582 1051Q582 1039 582 1018T581 973.5T580 928.5T580 895Q580 774 631 711.5T819 649H872V526H819Q682 526 631 463.5T580 281Q580 269 580 246T581 200.5T582 157.5T582 125Q582 45 564.5 -20.5T498 -137T361.5 -226T137 -289L111 -184Z"
></glyph
><glyph unicode="~" horiz-adv-x="968" d="M150 512Q181 629 225.5 679T344 729Q377 729 415 715.5T488.5 687T558 658.5T618 645Q659 645 680.5 667.5T725 748L819 721Q788 604 744 554T627 504Q592 504 555 517T481 545.5T411.5 574.5T352 588Q311 588 289.5 565.5T246 485L150 512Z"
></glyph
><glyph unicode="&#xa0;" horiz-adv-x="614" d=""
></glyph
><glyph unicode="&#xa1;" horiz-adv-x="555" d="M184 1219V1434H373V1219H184ZM186 0V117L233 1028H322L371 117V0H186Z"
></glyph
><glyph unicode="&#xa2;" horiz-adv-x="1189" d="M119 723V727Q119 840 161 940T275.5 1116T447.5 1236T662 1280H688L719 1446H852L815 1262Q901 1239 966.5 1193T1085 1090L983 983Q940 1028 891 1065T782 1120L625 317Q635 315 646 315T668 315Q770 315 850 360.5T993 473L1092 381Q1012 289 909.5 231.5T659 174Q645 174 631.5 174T604 176L567 -12H434L479 205Q399 234 332.5 285T219 403.5T145.5 552T119 723ZM279 727Q279 598 343.5 495.5T512 346L666 1139H657Q577 1139 507.5 1107T388 1020T308.5 891T279 731V727Z"
></glyph
><glyph unicode="&#xa3;" horiz-adv-x="1318" d="M137 0V94L309 137V604H137V745H309V967Q309 1082 342 1175T438 1331Q497 1390 578 1422T762 1454Q924 1454 1026 1390.5T1200 1233L1075 1135Q1016 1211 944 1258T760 1305Q639 1305 559 1229Q471 1137 471 967V745H1042V604H471V143H1198V0H137Z"
></glyph
><glyph unicode="&#xa4;" horiz-adv-x="1474" d="M115 485V614H281Q277 639 276.5 662.5T276 713V717Q276 748 278.5 778.5T285 836H115V963H307Q336 1069 389 1160T515 1317.5T678 1421T870 1458Q960 1458 1034 1436.5T1167.5 1378T1275 1290T1364 1178L1241 1090Q1202 1143 1163 1185T1079 1255.5T982 1298.5T864 1313Q727 1313 623.5 1215.5T473 963H999V836H446Q442 811 440 780.5T438 721V717Q438 688 439 663.5T442 614H999V485H469Q516 319 624.5 220T887 121Q1008 121 1093 184.5T1251 356L1368 274Q1325 211 1277 155.5T1169.5 60T1038.5 -2.5T881 -25Q772 -25 678 12T509 116.5T381 277.5T301 485H115Z"
></glyph
><glyph unicode="&#xa5;" horiz-adv-x="1404" d="M55 1434H248L705 733L1165 1434H1350L827 672H1200V545H780V365H1200V238H780V0H625V238H205V365H625V545H205V672H575L55 1434Z"
></glyph
><glyph unicode="&#xa7;" horiz-adv-x="1294" d="M127 733V737Q127 831 201.5 890.5T397 971Q327 1006 286.5 1059T246 1178V1182Q246 1305 348.5 1379.5T623 1454Q766 1454 886 1401T1092 1260L989 1161Q917 1231 824 1275T618 1319Q509 1319 458.5 1281T408 1184V1180Q408 1151 424 1126.5T478 1079.5T580.5 1035.5T741 991Q858 962 939 933.5T1071 871.5T1144.5 796T1167 700V696Q1167 604 1092.5 543.5T897 463Q967 428 1008 375T1049 256V252Q1049 129 946.5 54.5T672 -20Q529 -20 409 33T203 174L305 272Q377 202 470 158.5T676 115Q785 115 836 154T887 250V254Q887 283 870.5 307.5T815 354.5T711.5 398.5T553 442Q436 469 355 498.5T223 563T149.5 639T127 733ZM279 750Q279 725 292 701.5T339 656.5T429 613.5T569 571Q643 553 697.5 546T793 539Q893 539 954.5 581T1016 680V684Q1016 709 1002.5 732.5T955.5 777.5T865.5 820.5T725 862Q649 880 596 887.5T502 895Q402 895 340.5 853T279 754V750Z"
></glyph
><glyph unicode="&#xa8;" horiz-adv-x="1024" d="M240 1219V1413H424V1219H240ZM600 1219V1413H784V1219H600Z"
></glyph
><glyph unicode="&#xa9;" horiz-adv-x="1699" d="M109 713V717Q109 869 166 1003T323.5 1238T560 1398.5T852 1458Q1008 1458 1143 1399.5T1377.5 1241T1534 1006.5T1591 721V717Q1591 565 1534 431T1376.5 195.5T1140 34.5T848 -25Q692 -25 557 33.5T322.5 192.5T166 427T109 713ZM176 713Q176 574 227.5 451T369 236.5T582 92T848 39Q991 39 1115 93T1330 239.5T1472.5 455T1524 717V721Q1524 860 1472.5 983T1331 1197T1118 1341.5T852 1395Q707 1395 584 1340.5T370 1194T227.5 979T176 717V713ZM477 725V729Q477 809 506 879.5T587 1004.5T708.5 1089.5T862 1120Q966 1120 1033 1085.5T1157 997L1081 915Q1036 958 982 988T860 1018Q803 1018 754 995.5T669 933T612.5 840.5T592 731V727Q592 668 612.5 615.5T670 523T756 460.5T862 438Q934 438 985 466T1087 541L1161 469Q1102 408 1032 371T858 334Q776 334 706.5 364.5T586 448.5T506 573.5T477 725Z"
></glyph
><glyph unicode="&#xaa;" horiz-adv-x="798" d="M119 592V688H651V592H119ZM125 1020V1024Q125 1116 195.5 1165T377 1214Q430 1214 468 1208T541 1192V1202Q541 1274 499 1311T381 1348Q334 1348 292 1335.5T205 1303L174 1389Q227 1412 276.5 1426T391 1440Q512 1440 582 1374Q641 1315 641 1202V848H541V926Q506 885 458 860.5T344 836Q303 836 264 847T194.5 881.5T144.5 939T125 1020ZM231 1024Q231 975 270 948.5T362 922Q434 922 487.5 960.5T541 1065V1114Q510 1124 472 1130.5T385 1137Q313 1137 272 1106T231 1028V1024Z"
></glyph
><glyph unicode="&#xab;" horiz-adv-x="1126" d="M98 522V539L430 975L551 907L274 532L551 154L430 84L98 522ZM555 522V539L887 975L1006 907L729 532L1006 154L887 84L555 522Z"
></glyph
><glyph unicode="&#xad;" horiz-adv-x="835" d="M133 532V698H702V532H133Z"
></glyph
><glyph unicode="&#xae;" horiz-adv-x="1699" d="M109 713V717Q109 869 166 1003T323.5 1238T560 1398.5T852 1458Q1008 1458 1143 1399.5T1377.5 1241T1534 1006.5T1591 721V717Q1591 565 1534 431T1376.5 195.5T1140 34.5T848 -25Q692 -25 557 33.5T322.5 192.5T166 427T109 713ZM176 713Q176 574 227.5 451T369 236.5T582 92T848 39Q991 39 1115 93T1330 239.5T1472.5 455T1524 717V721Q1524 860 1472.5 983T1331 1197T1118 1341.5T852 1395Q707 1395 584 1340.5T370 1194T227.5 979T176 717V713ZM559 358V1118H899Q971 1118 1029 1096.5T1124 1038Q1153 1011 1169.5 974.5T1186 891V887Q1186 795 1130.5 739.5T989 664L1225 358H1085L866 645H862H672V358H559ZM672 745H889Q969 745 1019 780T1069 881V885Q1069 944 1023 980T895 1016H672V745Z"
></glyph
><glyph unicode="&#xaf;" horiz-adv-x="1024" d="M188 1229V1366H836V1229H188Z"
></glyph
><glyph unicode="&#xb0;" horiz-adv-x="937" d="M147 1130V1135Q147 1198 174 1254.5T245 1354T347.5 1421.5T469 1446Q532 1446 589.5 1421.5T692 1354T764 1254.5T791 1135V1130Q791 1069 764 1012.5T692 913T589.5 844.5T469 819Q406 819 347.5 844.5T245 913T174 1012.5T147 1130ZM266 1130Q266 1089 281.5 1052.5T323.5 988.5T388 943.5T469 926Q512 926 550 943.5T614.5 988.5T656.5 1053T672 1130V1135Q672 1174 656.5 1211.5T614.5 1277T550 1322T469 1339Q426 1339 388 1322T323.5 1277T281.5 1211.5T266 1135V1130Z"
></glyph
><glyph unicode="&#xb1;" horiz-adv-x="1236" d="M88 233L207 336Q285 238 389.5 180.5T631 123Q701 123 760 141.5T862 194.5T929.5 278.5T954 389V393Q954 516 854 584.5T571 653H424V793H575Q649 793 711.5 811T819 863T889.5 946T915 1057V1061Q915 1170 832.5 1240.5T608 1311Q487 1311 399 1257.5T238 1106L119 1192Q205 1313 323.5 1385.5T612 1458Q714 1458 800.5 1429.5T948.5 1349.5T1044.5 1227.5T1079 1075V1071Q1079 999 1057.5 945T1001.5 851T922 782.5T829 735Q890 715 943.5 685T1035 613T1095.5 516T1118 393V389Q1118 303 1082.5 227.5T982.5 96.5T828 8T627 -25Q453 -25 315.5 48T88 233Z"
></glyph
><glyph unicode="&#xb4;" horiz-adv-x="1024" d="M371 1219L565 1516L729 1440L498 1219H371Z"
></glyph
><glyph unicode="&#xb6;" horiz-adv-x="1044" d="M98 985V989Q98 1093 138 1176.5T250 1316T421 1403T639 1434H856V0H692V541H670Q549 541 444.5 569.5T263 655.5T142 795T98 985Z"
></glyph
><glyph unicode="&#xb7;" horiz-adv-x="501" d="M158 508V723H346V508H158Z"
></glyph
><glyph unicode="&#xb8;" horiz-adv-x="1024" d="M307 -248L492 20H616L461 -317L307 -248Z"
></glyph
><glyph unicode="&#xba;" horiz-adv-x="798" d="M98 1135V1139Q98 1200 120.5 1256.5T184 1354T280.5 1419.5T401 1444Q464 1444 519.5 1420.5T615 1355T677.5 1258.5T700 1143V1139Q700 1078 677.5 1021.5T614 924T518 858.5T397 834Q331 834 277 857.5T183 923T120.5 1019T98 1135ZM104 592V688H694V592H104ZM209 1139Q209 1053 263 992.5T401 932Q487 932 538.5 991.5T590 1135V1139Q590 1182 575.5 1219.5T535.5 1285T474 1329.5T397 1346Q311 1346 260 1286.5T209 1143V1139Z"
></glyph
><glyph unicode="&#xbb;" horiz-adv-x="1126" d="M121 152L397 528L121 905L240 975L571 539V522L240 84L121 152ZM575 152L852 528L575 905L696 975L1028 539V522L696 84L575 152Z"
></glyph
><glyph unicode="&#xbf;" horiz-adv-x="1099" d="M98 387V391Q98 487 132 560T224.5 683T359.5 764T524 807L543 1028H647L680 696L670 686Q469 682 365.5 604T262 397V393Q262 338 282.5 290T342 205T436.5 147.5T561 127Q674 127 764 177T932 319L1036 219Q948 113 834.5 47.5T557 -18Q453 -18 368 12.5T223.5 97.5T131 225.5T98 387ZM504 1219V1434H692V1219H504Z"
></glyph
><glyph unicode="&#xc0;" horiz-adv-x="1617" d="M80 0L733 1444H885L1538 0H1364L1196 379H416L246 0H80ZM479 524H1133L807 1255L479 524ZM512 1782L676 1858L870 1561H743L512 1782Z"
></glyph
><glyph unicode="&#xc1;" horiz-adv-x="1617" d="M80 0L733 1444H885L1538 0H1364L1196 379H416L246 0H80ZM479 524H1133L807 1255L479 524ZM748 1561L942 1858L1106 1782L874 1561H748Z"
></glyph
><glyph unicode="&#xc2;" horiz-adv-x="1617" d="M80 0L733 1444H885L1538 0H1364L1196 379H416L246 0H80ZM479 524H1133L807 1255L479 524ZM522 1554L739 1823H879L1096 1554H961L807 1692L653 1554H522Z"
></glyph
><glyph unicode="&#xc3;" horiz-adv-x="1617" d="M80 0L733 1444H885L1538 0H1364L1196 379H416L246 0H80ZM473 1569Q504 1686 549 1735T668 1784Q703 1784 739.5 1770.5T813 1741.5T882.5 1714T942 1702Q983 1702 1004.5 1724.5T1049 1802L1145 1776Q1114 1659 1069 1610T950 1561Q915 1561 878.5 1573T805 1600.5T735 1629T676 1642Q635 1642 613.5 1619.5T569 1542L473 1569ZM479 524H1133L807 1255L479 524Z"
></glyph
><glyph unicode="&#xc4;" horiz-adv-x="1617" d="M80 0L733 1444H885L1538 0H1364L1196 379H416L246 0H80ZM479 524H1133L807 1255L479 524ZM537 1561V1755H721V1561H537ZM897 1561V1755H1081V1561H897Z"
></glyph
><glyph unicode="&#xc5;" horiz-adv-x="1617" d="M80 0L709 1393Q660 1420 628 1465.5T596 1569V1573Q596 1614 613.5 1651T660.5 1715.5T728 1759.5T809 1776Q852 1776 890 1759.5T957.5 1715.5T1004.5 1651T1022 1573V1569Q1022 1512 990 1465.5T909 1393L1538 0H1364L1196 379H416L246 0H80ZM479 524H1133L807 1255L479 524ZM682 1569Q682 1518 720 1481T809 1444Q860 1444 898 1481T936 1569V1573Q936 1624 899 1661T809 1698Q756 1698 719 1661T682 1573V1569Z"
></glyph
><glyph unicode="&#xc6;" horiz-adv-x="2140" d="M35 0L877 1434H2007V1286H1169V797H1915V649H1169V147H2017V0H1006V379H428L205 0H35ZM510 524H1006V1290H956L510 524Z"
></glyph
><glyph unicode="&#xc7;" horiz-adv-x="1511" d="M139 713V717Q139 869 193.5 1004T344 1240T573.5 1399.5T864 1458Q962 1458 1041 1441.5T1187.5 1395.5T1312.5 1324T1423 1231L1313 1112Q1221 1198 1115.5 1253.5T862 1309Q743 1309 642 1264T466 1139T349 951.5T307 721V717Q307 592 349 484.5T466 297T642 171T862 125Q1009 125 1116 179T1325 332L1432 227Q1379 172 1321.5 128T1198.5 51T1057 -1T891 -25L756 -317L602 -248L760 -18Q625 0 510 62.5T313 222T185 445T139 713Z"
></glyph
><glyph unicode="&#xc8;" horiz-adv-x="1372" d="M203 0V1434H1239V1286H365V797H1147V649H365V147H1249V0H203ZM465 1782L629 1858L823 1561H696L465 1782Z"
></glyph
><glyph unicode="&#xc9;" horiz-adv-x="1372" d="M203 0V1434H1239V1286H365V797H1147V649H365V147H1249V0H203ZM608 1561L803 1858L967 1782L735 1561H608Z"
></glyph
><glyph unicode="&#xca;" horiz-adv-x="1372" d="M203 0V1434H1239V1286H365V797H1147V649H365V147H1249V0H203ZM426 1561L643 1829H782L999 1561H864L711 1698L557 1561H426Z"
></glyph
><glyph unicode="&#xcb;" horiz-adv-x="1372" d="M203 0V1434H1239V1286H365V797H1147V649H365V147H1249V0H203ZM440 1561V1755H625V1561H440ZM801 1561V1755H985V1561H801Z"
></glyph
><glyph unicode="&#xcc;" horiz-adv-x="595" d="M4 1782L168 1858L362 1561H236L4 1782ZM217 0V1434H379V0H217Z"
></glyph
><glyph unicode="&#xcd;" horiz-adv-x="595" d="M217 0V1434H379V0H217ZM233 1561L428 1858L592 1782L360 1561H233Z"
></glyph
><glyph unicode="&#xce;" horiz-adv-x="595" d="M12 1561L229 1829H369L586 1561H451L297 1698L143 1561H12ZM217 0V1434H379V0H217Z"
></glyph
><glyph unicode="&#xcf;" horiz-adv-x="595" d="M27 1561V1755H211V1561H27ZM217 0V1434H379V0H217ZM387 1561V1755H571V1561H387Z"
></glyph
><glyph unicode="&#xd0;" horiz-adv-x="1662" d="M111 647V795H264V1434H762Q930 1434 1070 1379.5T1311.5 1229T1468.5 1002.5T1524 721V717Q1524 565 1468.5 434T1311.5 207T1070 55.5T762 0H264V647H111ZM426 150H762Q897 150 1007.5 193T1195 311.5T1314 490.5T1356 713V717Q1356 836 1314 939T1195 1119T1007.5 1240T762 1284H426V795H856V647H426V150Z"
></glyph
><glyph unicode="&#xd1;" horiz-adv-x="1617" d="M203 0V1434H354L1257 285V1434H1415V0H1286L360 1176V0H203ZM473 1569Q504 1686 549 1735T668 1784Q703 1784 739.5 1770.5T813 1741.5T882.5 1714T942 1702Q983 1702 1004.5 1724.5T1049 1802L1145 1776Q1114 1659 1069 1610T950 1561Q915 1561 878.5 1573T805 1600.5T735 1629T676 1642Q635 1642 613.5 1619.5T569 1542L473 1569Z"
></glyph
><glyph unicode="&#xd2;" horiz-adv-x="1740" d="M139 713V717Q139 864 192.5 999.5T342 1236T573.5 1397.5T872 1458Q1036 1458 1170.5 1398.5T1401 1238T1549.5 1002.5T1602 721Q1604 719 1602 717Q1602 570 1548.5 434.5T1399 197.5T1167.5 35.5T868 -25Q704 -25 570 34.5T340 195.5T191.5 431T139 713ZM307 717Q307 594 349 486.5T467 299T646 172T872 125Q995 125 1098.5 171T1276 297T1392 483.5T1434 713V717Q1434 840 1392 947.5T1274 1134.5T1094.5 1261.5T868 1309Q745 1309 642 1263T465 1137T349 950.5T307 721V717ZM565 1782L729 1858L924 1561H797L565 1782Z"
></glyph
><glyph unicode="&#xd3;" horiz-adv-x="1740" d="M139 713V717Q139 864 192.5 999.5T342 1236T573.5 1397.5T872 1458Q1036 1458 1170.5 1398.5T1401 1238T1549.5 1002.5T1602 721Q1604 719 1602 717Q1602 570 1548.5 434.5T1399 197.5T1167.5 35.5T868 -25Q704 -25 570 34.5T340 195.5T191.5 431T139 713ZM307 717Q307 594 349 486.5T467 299T646 172T872 125Q995 125 1098.5 171T1276 297T1392 483.5T1434 713V717Q1434 840 1392 947.5T1274 1134.5T1094.5 1261.5T868 1309Q745 1309 642 1263T465 1137T349 950.5T307 721V717ZM817 1561L1012 1858L1176 1782L944 1561H817Z"
></glyph
><glyph unicode="&#xd4;" horiz-adv-x="1740" d="M139 713V717Q139 864 192.5 999.5T342 1236T573.5 1397.5T872 1458Q1036 1458 1170.5 1398.5T1401 1238T1549.5 1002.5T1602 721Q1604 719 1602 717Q1602 570 1548.5 434.5T1399 197.5T1167.5 35.5T868 -25Q704 -25 570 34.5T340 195.5T191.5 431T139 713ZM307 717Q307 594 349 486.5T467 299T646 172T872 125Q995 125 1098.5 171T1276 297T1392 483.5T1434 713V717Q1434 840 1392 947.5T1274 1134.5T1094.5 1261.5T868 1309Q745 1309 642 1263T465 1137T349 950.5T307 721V717ZM584 1561L801 1829H940L1157 1561H1022L868 1698L715 1561H584Z"
></glyph
><glyph unicode="&#xd5;" horiz-adv-x="1740" d="M139 713V717Q139 864 192.5 999.5T342 1236T573.5 1397.5T872 1458Q1036 1458 1170.5 1398.5T1401 1238T1549.5 1002.5T1602 721Q1604 719 1602 717Q1602 570 1548.5 434.5T1399 197.5T1167.5 35.5T868 -25Q704 -25 570 34.5T340 195.5T191.5 431T139 713ZM307 717Q307 594 349 486.5T467 299T646 172T872 125Q995 125 1098.5 171T1276 297T1392 483.5T1434 713V717Q1434 840 1392 947.5T1274 1134.5T1094.5 1261.5T868 1309Q745 1309 642 1263T465 1137T349 950.5T307 721V717ZM535 1569Q566 1686 610.5 1735T729 1784Q764 1784 801 1770.5T874.5 1741.5T944 1714T1004 1702Q1045 1702 1066 1724.5T1110 1802L1206 1776Q1175 1659 1130 1610T1012 1561Q977 1561 940 1573T866 1600.5T796.5 1629T737 1642Q696 1642 674.5 1619.5T631 1542L535 1569Z"
></glyph
><glyph unicode="&#xd6;" horiz-adv-x="1740" d="M139 713V717Q139 864 192.5 999.5T342 1236T573.5 1397.5T872 1458Q1036 1458 1170.5 1398.5T1401 1238T1549.5 1002.5T1602 721Q1604 719 1602 717Q1602 570 1548.5 434.5T1399 197.5T1167.5 35.5T868 -25Q704 -25 570 34.5T340 195.5T191.5 431T139 713ZM307 717Q307 594 349 486.5T467 299T646 172T872 125Q995 125 1098.5 171T1276 297T1392 483.5T1434 713V717Q1434 840 1392 947.5T1274 1134.5T1094.5 1261.5T868 1309Q745 1309 642 1263T465 1137T349 950.5T307 721V717ZM598 1561V1755H782V1561H598ZM958 1561V1755H1143V1561H958Z"
></glyph
><glyph unicode="&#xd8;" horiz-adv-x="1740" d="M123 -10L326 211Q236 311 187.5 440T139 713V717Q139 864 192.5 999.5T342 1236T573.5 1397.5T872 1458Q1005 1458 1118 1418T1321 1307L1448 1444H1618L1415 1223Q1505 1123 1553.5 993.5T1602 721Q1604 719 1602 717Q1602 570 1548.5 434.5T1399 197.5T1167.5 35.5T868 -25Q735 -25 622.5 14T420 125L293 -10H123ZM307 717Q307 606 341 509T436 334L1217 1186Q1147 1245 1059 1278T868 1311Q745 1311 642 1265T465 1139T349 951.5T307 721V717ZM524 248Q594 189 682 156T872 123Q995 123 1098.5 169T1276 295T1392 482.5T1434 713V717Q1434 828 1400 925T1305 1100L524 248Z"
></glyph
><glyph unicode="&#xd9;" horiz-adv-x="1554" d="M180 600V1434H342V610Q342 377 457.5 252T780 127Q979 127 1095.5 246T1212 600V1434H1374V612Q1374 454 1331 335.5T1209 137T1020.5 17T776 -23Q643 -23 533.5 17T345 136T223 332T180 600ZM494 1772L657 1847L852 1550H725L494 1772Z"
></glyph
><glyph unicode="&#xda;" horiz-adv-x="1554" d="M180 600V1434H342V610Q342 377 457.5 252T780 127Q979 127 1095.5 246T1212 600V1434H1374V612Q1374 454 1331 335.5T1209 137T1020.5 17T776 -23Q643 -23 533.5 17T345 136T223 332T180 600ZM702 1550L897 1847L1061 1772L829 1550H702Z"
></glyph
><glyph unicode="&#xdb;" horiz-adv-x="1554" d="M180 600V1434H342V610Q342 377 457.5 252T780 127Q979 127 1095.5 246T1212 600V1434H1374V612Q1374 454 1331 335.5T1209 137T1020.5 17T776 -23Q643 -23 533.5 17T345 136T223 332T180 600ZM489 1554L707 1823H846L1063 1554H928L774 1692L621 1554H489Z"
></glyph
><glyph unicode="&#xdc;" horiz-adv-x="1554" d="M180 600V1434H342V610Q342 377 457.5 252T780 127Q979 127 1095.5 246T1212 600V1434H1374V612Q1374 454 1331 335.5T1209 137T1020.5 17T776 -23Q643 -23 533.5 17T345 136T223 332T180 600ZM504 1554V1749H688V1554H504ZM864 1554V1749H1049V1554H864Z"
></glyph
><glyph unicode="&#xdd;" horiz-adv-x="1466" d="M55 1434H252L735 717L1223 1434H1411L815 569V0H651V567L55 1434ZM674 1550L868 1847L1032 1772L801 1550H674Z"
></glyph
><glyph unicode="&#xde;" horiz-adv-x="1378" d="M203 0V1434H365V1188H739Q860 1188 959.5 1156T1129.5 1066T1238 923T1276 733V729Q1276 612 1231 524T1109 376.5T929.5 287.5T713 258H365V0H203ZM365 406H719Q807 406 879.5 429.5T1004.5 494T1084.5 593T1112 723V727Q1112 881 1006.5 959.5T727 1038H365V406Z"
></glyph
><glyph unicode="&#xdf;" horiz-adv-x="1269" d="M176 0V1026Q176 1135 209 1224T302 1376.5T448.5 1474.5T641 1509Q737 1509 815 1480.5T948.5 1403T1033.5 1286.5T1063 1141V1137Q1063 1065 1038.5 1005.5T974 900T882.5 819T778 762Q850 746 917.5 717T1037.5 643T1120.5 537.5T1151 397V393Q1151 297 1112 223.5T1001.5 98.5T827.5 20.5T598 -4V123Q780 127 884.5 195.5T989 393V397Q989 520 883.5 589.5T598 678V795Q661 820 717.5 850.5T814 922T877.5 1013T901 1126V1130Q901 1236 827.5 1303T633 1370Q502 1370 418 1278T334 1028V0H176Z"
></glyph
><glyph unicode="&#xe0;" horiz-adv-x="1185" d="M96 307V311Q96 397 129 461.5T222.5 569T366 634.5T549 657Q651 657 726 645T872 612V645Q872 786 790.5 859T559 932Q465 932 388 911.5T238 856L190 985Q278 1026 368.5 1050.5T575 1075Q800 1075 918 958Q1029 847 1028 647V0H872V158Q817 86 724 31.5T492 -23Q418 -23 346 -2.5T219 60T130 163.5T96 307ZM256 315Q256 266 277.5 226T336 159.5T421 118.5T522 104Q596 104 659.5 124.5T771 183T846.5 273.5T874 389V487Q815 503 739.5 517.5T565 532Q418 532 337 474T256 319V315ZM303 1440L467 1516L662 1219H535L303 1440Z"
></glyph
><glyph unicode="&#xe1;" horiz-adv-x="1185" d="M96 307V311Q96 397 129 461.5T222.5 569T366 634.5T549 657Q651 657 726 645T872 612V645Q872 786 790.5 859T559 932Q465 932 388 911.5T238 856L190 985Q278 1026 368.5 1050.5T575 1075Q800 1075 918 958Q1029 847 1028 647V0H872V158Q817 86 724 31.5T492 -23Q418 -23 346 -2.5T219 60T130 163.5T96 307ZM256 315Q256 266 277.5 226T336 159.5T421 118.5T522 104Q596 104 659.5 124.5T771 183T846.5 273.5T874 389V487Q815 503 739.5 517.5T565 532Q418 532 337 474T256 319V315ZM508 1219L702 1516L866 1440L635 1219H508Z"
></glyph
><glyph unicode="&#xe2;" horiz-adv-x="1185" d="M96 307V311Q96 397 129 461.5T222.5 569T366 634.5T549 657Q651 657 726 645T872 612V645Q872 786 790.5 859T559 932Q465 932 388 911.5T238 856L190 985Q278 1026 368.5 1050.5T575 1075Q800 1075 918 958Q1029 847 1028 647V0H872V158Q817 86 724 31.5T492 -23Q418 -23 346 -2.5T219 60T130 163.5T96 307ZM256 315Q256 266 277.5 226T336 159.5T421 118.5T522 104Q596 104 659.5 124.5T771 183T846.5 273.5T874 389V487Q815 503 739.5 517.5T565 532Q418 532 337 474T256 319V315ZM309 1219L526 1487H666L883 1219H748L594 1356L440 1219H309Z"
></glyph
><glyph unicode="&#xe3;" horiz-adv-x="1185" d="M96 307V311Q96 397 129 461.5T222.5 569T366 634.5T549 657Q651 657 726 645T872 612V645Q872 786 790.5 859T559 932Q465 932 388 911.5T238 856L190 985Q278 1026 368.5 1050.5T575 1075Q800 1075 918 958Q1029 847 1028 647V0H872V158Q817 86 724 31.5T492 -23Q418 -23 346 -2.5T219 60T130 163.5T96 307ZM256 315Q256 266 277.5 226T336 159.5T421 118.5T522 104Q596 104 659.5 124.5T771 183T846.5 273.5T874 389V487Q815 503 739.5 517.5T565 532Q418 532 337 474T256 319V315ZM262 1227Q293 1344 338 1393T457 1442Q492 1442 528.5 1428.5T602 1399.5T672 1372T731 1360Q772 1360 793.5 1382.5T838 1460L934 1434Q903 1317 858 1268T739 1219Q704 1219 667.5 1231T594 1258.5T524.5 1287T465 1300Q424 1300 402.5 1277.5T358 1200L262 1227Z"
></glyph
><glyph unicode="&#xe4;" horiz-adv-x="1185" d="M96 307V311Q96 397 129 461.5T222.5 569T366 634.5T549 657Q651 657 726 645T872 612V645Q872 786 790.5 859T559 932Q465 932 388 911.5T238 856L190 985Q278 1026 368.5 1050.5T575 1075Q800 1075 918 958Q1029 847 1028 647V0H872V158Q817 86 724 31.5T492 -23Q418 -23 346 -2.5T219 60T130 163.5T96 307ZM256 315Q256 266 277.5 226T336 159.5T421 118.5T522 104Q596 104 659.5 124.5T771 183T846.5 273.5T874 389V487Q815 503 739.5 517.5T565 532Q418 532 337 474T256 319V315ZM324 1219V1413H508V1219H324ZM684 1219V1413H868V1219H684Z"
></glyph
><glyph unicode="&#xe5;" horiz-adv-x="1185" d="M96 307V311Q96 397 129 461.5T222.5 569T366 634.5T549 657Q651 657 726 645T872 612V645Q872 786 790.5 859T559 932Q465 932 388 911.5T238 856L190 985Q278 1026 368.5 1050.5T575 1075Q800 1075 918 958Q1029 847 1028 647V0H872V158Q817 86 724 31.5T492 -23Q418 -23 346 -2.5T219 60T130 163.5T96 307ZM256 315Q256 266 277.5 226T336 159.5T421 118.5T522 104Q596 104 659.5 124.5T771 183T846.5 273.5T874 389V487Q815 503 739.5 517.5T565 532Q418 532 337 474T256 319V315ZM383 1417V1421Q383 1462 400.5 1499T447.5 1563.5T515 1607.5T596 1624Q639 1624 677 1607.5T744.5 1563.5T791.5 1499T809 1421V1417Q809 1376 791.5 1339.5T744.5 1275T677 1230.5T596 1214Q553 1214 515 1230.5T447.5 1275T400.5 1339.5T383 1417ZM469 1417Q469 1366 507 1329T596 1292Q647 1292 685 1329T723 1417V1421Q723 1472 686 1509T596 1546Q543 1546 506 1509.5T469 1421V1417Z"
></glyph
><glyph unicode="&#xe6;" horiz-adv-x="1951" d="M96 307V311Q96 397 129 461.5T221.5 569T362.5 634.5T541 657Q635 657 705.5 645T854 612V645Q854 788 773 860T551 932Q465 932 388 911.5T238 856L190 985Q278 1026 367.5 1050.5T567 1075Q710 1075 811.5 1018T954 846Q1017 952 1123 1016.5T1360 1081Q1477 1081 1568 1037T1722.5 917.5T1818.5 739.5T1851 520Q1851 510 1851 496.5T1849 465H1010Q1018 381 1050.5 315.5T1134.5 205T1249.5 136.5T1382 113Q1493 113 1572 154T1716 262L1815 174Q1735 84 1632.5 29.5T1378 -25Q1249 -25 1139.5 31.5T958 188Q915 145 861 106.5T744.5 39T615.5 -6.5T483 -23Q411 -23 342.5 -2.5T219 60T130 163.5T96 307ZM256 315Q256 266 277.5 226T335 159.5T418 118.5T514 104Q584 104 638 118.5T737 157.5T820 217T895 293Q858 385 852 492Q793 508 720 520T557 532Q416 532 336 474T256 319V315ZM1010 592H1692Q1686 664 1661 728.5T1594 842T1492 919.5T1354 948Q1286 948 1226.5 921.5T1122 847T1047.5 733.5T1010 592Z"
></glyph
><glyph unicode="&#xe7;" horiz-adv-x="1169" d="M111 524V528Q111 641 152 741.5T265.5 917.5T437.5 1037T653 1081Q729 1081 790.5 1067T903 1027T997 966.5T1077 893L973 782Q910 848 835 895T651 942Q571 942 501.5 910.5T381 823.5T301 693T272 532V528Q272 442 302 367.5T384 236.5T507 148.5T662 117Q764 117 843 162T985 274L1085 180Q1007 94 914 39T684 -25L549 -317L395 -248L555 -14Q459 2 377 51T235.5 172T143.5 334T111 524Z"
></glyph
><glyph unicode="&#xe8;" horiz-adv-x="1212" d="M111 528Q111 643 148.5 744.5T254 920.5T415 1038T618 1081Q735 1081 827.5 1037T983.5 917.5T1079.5 739.5T1112 520Q1112 510 1112 496.5T1110 465H270Q278 381 311 315.5T395 205T509.5 136.5T643 113Q754 113 832.5 154T977 262L1075 174Q995 84 893 29.5T639 -25Q530 -25 434 15T266.5 128T153 303.5T111 528ZM270 592H952Q946 664 921.5 728.5T855 842T752.5 919.5T614 948Q546 948 487 921.5T383 847T308.5 733.5T270 592ZM334 1440L498 1516L692 1219H565L334 1440Z"
></glyph
><glyph unicode="&#xe9;" horiz-adv-x="1212" d="M111 528Q111 643 148.5 744.5T254 920.5T415 1038T618 1081Q735 1081 827.5 1037T983.5 917.5T1079.5 739.5T1112 520Q1112 510 1112 496.5T1110 465H270Q278 381 311 315.5T395 205T509.5 136.5T643 113Q754 113 832.5 154T977 262L1075 174Q995 84 893 29.5T639 -25Q530 -25 434 15T266.5 128T153 303.5T111 528ZM270 592H952Q946 664 921.5 728.5T855 842T752.5 919.5T614 948Q546 948 487 921.5T383 847T308.5 733.5T270 592ZM520 1219L715 1516L879 1440L647 1219H520Z"
></glyph
><glyph unicode="&#xea;" horiz-adv-x="1212" d="M111 528Q111 643 148.5 744.5T254 920.5T415 1038T618 1081Q735 1081 827.5 1037T983.5 917.5T1079.5 739.5T1112 520Q1112 510 1112 496.5T1110 465H270Q278 381 311 315.5T395 205T509.5 136.5T643 113Q754 113 832.5 154T977 262L1075 174Q995 84 893 29.5T639 -25Q530 -25 434 15T266.5 128T153 303.5T111 528ZM270 592H952Q946 664 921.5 728.5T855 842T752.5 919.5T614 948Q546 948 487 921.5T383 847T308.5 733.5T270 592ZM326 1219L543 1487H682L899 1219H764L610 1356L457 1219H326Z"
></glyph
><glyph unicode="&#xeb;" horiz-adv-x="1212" d="M111 528Q111 643 148.5 744.5T254 920.5T415 1038T618 1081Q735 1081 827.5 1037T983.5 917.5T1079.5 739.5T1112 520Q1112 510 1112 496.5T1110 465H270Q278 381 311 315.5T395 205T509.5 136.5T643 113Q754 113 832.5 154T977 262L1075 174Q995 84 893 29.5T639 -25Q530 -25 434 15T266.5 128T153 303.5T111 528ZM270 592H952Q946 664 921.5 728.5T855 842T752.5 919.5T614 948Q546 948 487 921.5T383 847T308.5 733.5T270 592ZM340 1219V1413H524V1219H340ZM700 1219V1413H885V1219H700Z"
></glyph
><glyph unicode="&#xec;" horiz-adv-x="538" d="M-23 1440L141 1516L336 1219H209L-23 1440ZM190 0V1059H348V0H190Z"
></glyph
><glyph unicode="&#xed;" horiz-adv-x="538" d="M190 0V1059H348V0H190ZM205 1219L399 1516L563 1440L332 1219H205Z"
></glyph
><glyph unicode="&#xee;" horiz-adv-x="538" d="M-18 1219L199 1487H338L555 1219H420L266 1356L113 1219H-18ZM190 0V1059H348V0H190Z"
></glyph
><glyph unicode="&#xef;" horiz-adv-x="538" d="M-4 1219V1413H180V1219H-4ZM190 0V1059H348V0H190ZM356 1219V1413H541V1219H356Z"
></glyph
><glyph unicode="&#xf0;" horiz-adv-x="1296" d="M111 502V506Q111 617 149.5 707T255 861.5T410 960.5T596 995Q707 995 783.5 962.5T928 883L659 1260L397 1130L324 1227L592 1352L489 1495H678L731 1415L934 1513L1006 1417L797 1321L1004 1016Q1088 895 1136 778.5T1184 518V514Q1184 405 1146 308T1037.5 137T865.5 19T639 -25Q524 -25 428 17T261 131T150.5 298T111 502ZM270 496Q270 422 298 353.5T377 231.5T496.5 146.5T649 115Q733 115 801.5 145.5T919.5 229.5T995.5 351.5T1022 498V502Q1022 578 992.5 644.5T910.5 761T787.5 840.5T633 870Q549 870 482.5 841.5T369 763T296 645.5T270 500V496Z"
></glyph
><glyph unicode="&#xf1;" horiz-adv-x="1261" d="M176 0V1059H334V874Q387 960 473 1020.5T696 1081Q792 1081 867 1050.5T994.5 963.5T1074.5 829.5T1102 657V0H944V618Q944 765 868.5 851.5T651 938Q583 938 525 914.5T424 847T357.5 741.5T334 606V0H176ZM303 1227Q334 1344 379 1393T498 1442Q533 1442 569.5 1428.5T643 1399.5T712.5 1372T772 1360Q813 1360 834.5 1382.5T879 1460L975 1434Q944 1317 899 1268T780 1219Q745 1219 708.5 1231T635 1258.5T565 1287T506 1300Q465 1300 443.5 1277.5T399 1200L303 1227Z"
></glyph
><glyph unicode="&#xf2;" horiz-adv-x="1323" d="M111 524V528Q111 641 152 741.5T266.5 917.5T441.5 1037T664 1081Q783 1081 884 1037T1059 918.5T1173.5 744.5T1214 532V528Q1214 415 1172 315T1056.5 139T880.5 19T659 -25Q540 -25 440 19T266.5 138T152 312.5T111 524ZM272 528Q272 442 302 367.5T384 237.5T508 149.5T664 117Q750 117 821.5 149.5T944 237.5T1024 366.5T1053 524V528Q1053 614 1023 689T940 820.5T815 909.5T659 942Q573 942 501.5 909.5T380 821.5T301 691T272 532V528ZM367 1440L530 1516L725 1219H598L367 1440Z"
></glyph
><glyph unicode="&#xf3;" horiz-adv-x="1323" d="M111 524V528Q111 641 152 741.5T266.5 917.5T441.5 1037T664 1081Q783 1081 884 1037T1059 918.5T1173.5 744.5T1214 532V528Q1214 415 1172 315T1056.5 139T880.5 19T659 -25Q540 -25 440 19T266.5 138T152 312.5T111 524ZM272 528Q272 442 302 367.5T384 237.5T508 149.5T664 117Q750 117 821.5 149.5T944 237.5T1024 366.5T1053 524V528Q1053 614 1023 689T940 820.5T815 909.5T659 942Q573 942 501.5 909.5T380 821.5T301 691T272 532V528ZM600 1219L795 1516L958 1440L727 1219H600Z"
></glyph
><glyph unicode="&#xf4;" horiz-adv-x="1323" d="M111 524V528Q111 641 152 741.5T266.5 917.5T441.5 1037T664 1081Q783 1081 884 1037T1059 918.5T1173.5 744.5T1214 532V528Q1214 415 1172 315T1056.5 139T880.5 19T659 -25Q540 -25 440 19T266.5 138T152 312.5T111 524ZM272 528Q272 442 302 367.5T384 237.5T508 149.5T664 117Q750 117 821.5 149.5T944 237.5T1024 366.5T1053 524V528Q1053 614 1023 689T940 820.5T815 909.5T659 942Q573 942 501.5 909.5T380 821.5T301 691T272 532V528ZM375 1219L592 1487H731L948 1219H813L659 1356L506 1219H375Z"
></glyph
><glyph unicode="&#xf5;" horiz-adv-x="1323" d="M111 524V528Q111 641 152 741.5T266.5 917.5T441.5 1037T664 1081Q783 1081 884 1037T1059 918.5T1173.5 744.5T1214 532V528Q1214 415 1172 315T1056.5 139T880.5 19T659 -25Q540 -25 440 19T266.5 138T152 312.5T111 524ZM272 528Q272 442 302 367.5T384 237.5T508 149.5T664 117Q750 117 821.5 149.5T944 237.5T1024 366.5T1053 524V528Q1053 614 1023 689T940 820.5T815 909.5T659 942Q573 942 501.5 909.5T380 821.5T301 691T272 532V528ZM326 1227Q357 1344 401.5 1393T520 1442Q555 1442 592 1428.5T665.5 1399.5T735 1372T795 1360Q836 1360 857.5 1382.5T901 1460L997 1434Q966 1317 921.5 1268T803 1219Q768 1219 731 1231T657.5 1258.5T588 1287T528 1300Q487 1300 465.5 1277.5T422 1200L326 1227Z"
></glyph
><glyph unicode="&#xf6;" horiz-adv-x="1323" d="M111 524V528Q111 641 152 741.5T266.5 917.5T441.5 1037T664 1081Q783 1081 884 1037T1059 918.5T1173.5 744.5T1214 532V528Q1214 415 1172 315T1056.5 139T880.5 19T659 -25Q540 -25 440 19T266.5 138T152 312.5T111 524ZM272 528Q272 442 302 367.5T384 237.5T508 149.5T664 117Q750 117 821.5 149.5T944 237.5T1024 366.5T1053 524V528Q1053 614 1023 689T940 820.5T815 909.5T659 942Q573 942 501.5 909.5T380 821.5T301 691T272 532V528ZM389 1219V1413H573V1219H389ZM750 1219V1413H934V1219H750Z"
></glyph
><glyph unicode="&#xf8;" horiz-adv-x="1323" d="M80 -10L242 164Q181 236 146 329T111 524V528Q111 641 152 741.5T266.5 917.5T441.5 1037T664 1081Q760 1081 844 1052.5T993 971L1085 1071H1245Q1206 1030 1171 993Q1142 962 1116 933.5T1081 895Q1144 823 1179 730T1214 532V528Q1214 415 1172 315T1056.5 139T880.5 19T659 -25Q563 -25 480 4T330 84L238 -10H80ZM270 528Q270 456 290.5 394T348 279L897 858Q848 899 788.5 921.5T659 944Q573 944 501.5 911.5T379 822.5T299 691T270 532V528ZM428 199Q475 158 535.5 136.5T664 115Q750 115 822.5 147.5T946 235.5T1026 365.5T1055 524V528Q1055 600 1033.5 663.5T975 778L428 199Z"
></glyph
><glyph unicode="&#xf9;" horiz-adv-x="1261" d="M160 401V1059H317V440Q317 293 393 207T610 121Q678 121 736.5 144.5T837 212T903.5 317.5T928 453V1059H1083V0H928V184Q875 98 788.5 37.5T565 -23Q469 -23 394 8T267 95.5T187.5 229.5T160 401ZM350 1432L514 1507L709 1210H582L350 1432Z"
></glyph
><glyph unicode="&#xfa;" horiz-adv-x="1261" d="M160 401V1059H317V440Q317 293 393 207T610 121Q678 121 736.5 144.5T837 212T903.5 317.5T928 453V1059H1083V0H928V184Q875 98 788.5 37.5T565 -23Q469 -23 394 8T267 95.5T187.5 229.5T160 401ZM545 1210L739 1507L903 1432L672 1210H545Z"
></glyph
><glyph unicode="&#xfb;" horiz-adv-x="1261" d="M160 401V1059H317V440Q317 293 393 207T610 121Q678 121 736.5 144.5T837 212T903.5 317.5T928 453V1059H1083V0H928V184Q875 98 788.5 37.5T565 -23Q469 -23 394 8T267 95.5T187.5 229.5T160 401ZM346 1219L563 1487H702L920 1219H784L631 1356L477 1219H346Z"
></glyph
><glyph unicode="&#xfc;" horiz-adv-x="1261" d="M160 401V1059H317V440Q317 293 393 207T610 121Q678 121 736.5 144.5T837 212T903.5 317.5T928 453V1059H1083V0H928V184Q875 98 788.5 37.5T565 -23Q469 -23 394 8T267 95.5T187.5 229.5T160 401ZM360 1219V1413H545V1219H360ZM721 1219V1413H905V1219H721Z"
></glyph
><glyph unicode="&#xfd;" horiz-adv-x="1210" d="M70 1059H244L629 176L969 1059H1137L692 -35Q624 -199 541.5 -266.5T340 -334Q274 -334 221 -320.5T115 -281L168 -156Q207 -176 245 -185.5T334 -195Q406 -195 455 -152T551 4L70 1059ZM547 1210L741 1507L905 1432L674 1210H547Z"
></glyph
><glyph unicode="&#xfe;" horiz-adv-x="1359" d="M176 -328V1495H334V846Q367 893 406.5 936T495.5 1010.5T605.5 1061.5T739 1081Q833 1081 924.5 1044.5T1087.5 937T1202 765T1245 532V528Q1245 399 1202 297T1088.5 124T927 15T739 -23Q665 -23 604 -4.5T493.5 45T404.5 117T334 203V-328H176ZM328 528Q328 436 359.5 360.5T445.5 231.5T568.5 148.5T711 119Q787 119 855.5 146.5T974 226.5T1053.5 354.5T1083 526V530Q1083 624 1053.5 700T973 829.5T854 911.5T711 940Q637 940 568.5 910.5T445.5 826.5T359.5 697.5T328 532V528Z"
></glyph
><glyph unicode="&#xff;" horiz-adv-x="1210" d="M70 1059H244L629 176L969 1059H1137L692 -35Q624 -199 541.5 -266.5T340 -334Q274 -334 221 -320.5T115 -281L168 -156Q207 -176 245 -185.5T334 -195Q406 -195 455 -152T551 4L70 1059ZM334 1219V1413H518V1219H334ZM694 1219V1413H879V1219H694Z"
></glyph
><glyph unicode="&#x152;" horiz-adv-x="2316" d="M139 713V717Q139 869 194.5 999.5T351.5 1226.5T592 1378.5T901 1434H2183V1286H1346V797H2091V649H1346V147H2193V0H901Q731 0 592 54.5T351.5 205T194.5 431T139 713ZM307 717Q307 598 349 494.5T468 314.5T655.5 194T901 150H1184V1284H901Q766 1284 655.5 1241T468 1122.5T349 943.5T307 721V717Z"
></glyph
><glyph unicode="&#x153;" horiz-adv-x="2148" d="M111 524V528Q111 641 153 741.5T268.5 917.5T442.5 1037T659 1081Q815 1081 936 1003.5T1122 801Q1181 928 1295 1004.5T1556 1081Q1673 1081 1764 1037T1918.5 917.5T2015 739.5T2048 520Q2048 510 2048 496.5T2046 465H1206Q1214 381 1247 315.5T1331 205T1445.5 136.5T1579 113Q1690 113 1768.5 154T1913 262L2011 174Q1933 84 1829.5 29.5T1577 -25Q1430 -25 1308 51T1120 260Q1054 135 932.5 55T653 -25Q538 -25 439 19T267.5 138T153 312.5T111 524ZM272 528Q272 442 302 367.5T384 237.5T507 149.5T662 117Q748 117 818.5 149.5T939 237.5T1018 366.5T1047 524V528Q1047 614 1017 689T935 820.5T811 909.5T657 942Q571 942 500.5 909.5T380 821.5T301 691T272 532V528ZM1206 592H1888Q1882 664 1857.5 728.5T1791 842T1688.5 919.5T1550 948Q1482 948 1423 921.5T1319 847T1244 733.5T1206 592Z"
></glyph
><glyph unicode="&#x178;" horiz-adv-x="1466" d="M55 1434H252L735 717L1223 1434H1411L815 569V0H651V567L55 1434ZM461 1554V1749H645V1554H461ZM821 1554V1749H1006V1554H821Z"
></glyph
><glyph unicode="&#x2c6;" horiz-adv-x="1024" d="M225 1219L442 1487H582L799 1219H664L510 1356L356 1219H225Z"
></glyph
><glyph unicode="&#x2dc;" horiz-adv-x="1024" d="M176 1227Q207 1344 252 1393T371 1442Q406 1442 442.5 1428.5T516 1399.5T585.5 1372T645 1360Q686 1360 707.5 1382.5T752 1460L848 1434Q817 1317 772 1268T653 1219Q618 1219 581.5 1231T508 1258.5T438.5 1287T379 1300Q338 1300 316.5 1277.5T272 1200L176 1227Z"
></glyph
><glyph unicode="&#x2000;" horiz-adv-x="929" d=""
></glyph
><glyph unicode="&#x2001;" horiz-adv-x="1858" d=""
></glyph
><glyph unicode="&#x2002;" horiz-adv-x="929" d=""
></glyph
><glyph unicode="&#x2003;" horiz-adv-x="1858" d=""
></glyph
><glyph unicode="&#x2004;" horiz-adv-x="619" d=""
></glyph
><glyph unicode="&#x2005;" horiz-adv-x="464" d=""
></glyph
><glyph unicode="&#x2006;" horiz-adv-x="309" d=""
></glyph
><glyph unicode="&#x2007;" horiz-adv-x="309" d=""
></glyph
><glyph unicode="&#x2008;" horiz-adv-x="232" d=""
></glyph
><glyph unicode="&#x2009;" horiz-adv-x="371" d=""
></glyph
><glyph unicode="&#x200a;" horiz-adv-x="103" d=""
></glyph
><glyph unicode="&#x2010;" horiz-adv-x="835" d="M133 532V698H702V532H133Z"
></glyph
><glyph unicode="&#x2011;" horiz-adv-x="835" d="M133 532V698H702V532H133Z"
></glyph
><glyph unicode="&#x2012;" horiz-adv-x="835" d="M133 532V698H702V532H133Z"
></glyph
><glyph unicode="&#x2013;" horiz-adv-x="1081" d="M133 537V694H948V537H133Z"
></glyph
><glyph unicode="&#x2014;" horiz-adv-x="1839" d="M133 537V694H1706V537H133Z"
></glyph
><glyph unicode="&#x2018;" horiz-adv-x="501" d="M147 979V1163Q147 1288 201.5 1352.5T373 1444L397 1372Q319 1343 287.5 1301.5T260 1194H336V979H147Z"
></glyph
><glyph unicode="&#x2019;" horiz-adv-x="501" d="M104 1040Q182 1069 215 1111T242 1219H168V1434H356V1249Q356 1124 301 1059.5T129 969L104 1040Z"
></glyph
><glyph unicode="&#x201a;" horiz-adv-x="501" d="M94 -178Q172 -149 205 -107.5T231 0H158V215H346V31Q346 -94 291 -158.5T119 -250L94 -178Z"
></glyph
><glyph unicode="&#x201c;" horiz-adv-x="911" d="M147 979V1163Q147 1288 201.5 1352.5T373 1444L397 1372Q319 1343 287.5 1301.5T260 1194H336V979H147ZM557 979V1163Q557 1288 611.5 1352.5T782 1444L807 1372Q729 1343 697.5 1301.5T670 1194H743V979H557Z"
></glyph
><glyph unicode="&#x201d;" horiz-adv-x="911" d="M104 1040Q182 1069 215 1111T242 1219H168V1434H356V1249Q356 1124 301 1059.5T129 969L104 1040ZM514 1040Q592 1069 624.5 1111T651 1219H578V1434H764V1249Q764 1124 709.5 1059.5T539 969L514 1040Z"
></glyph
><glyph unicode="&#x201e;" horiz-adv-x="911" d="M94 -178Q172 -149 205 -107.5T231 0H158V215H346V31Q346 -94 291 -158.5T119 -250L94 -178ZM504 -178Q582 -149 614.5 -107.5T641 0H567V215H754V31Q754 -94 699.5 -158.5T528 -250L504 -178Z"
></glyph
><glyph unicode="&#x2022;" horiz-adv-x="978" d="M221 719V723Q221 778 242.5 826T301 911T387 968.5T489 989Q542 989 590.5 968.5T676 911T735.5 826T758 723V719Q758 664 736.5 615.5T679 530.5T593.5 473.5T489 453Q434 453 385 473.5T300 530.5T242.5 615.5T221 719Z"
></glyph
><glyph unicode="&#x2026;" horiz-adv-x="1480" d="M158 0V211H340V0H158ZM649 0V211H831V0H649ZM1141 0V211H1325V0H1141Z"
></glyph
><glyph unicode="&#x202f;" horiz-adv-x="371" d=""
></glyph
><glyph unicode="&#x2039;" horiz-adv-x="671" d="M98 522V539L430 975L551 907L274 532L551 154L430 84L98 522Z"
></glyph
><glyph unicode="&#x203a;" horiz-adv-x="671" d="M121 152L397 528L121 905L240 975L571 539V522L240 84L121 152Z"
></glyph
><glyph unicode="&#x205f;" horiz-adv-x="464" d=""
></glyph
><glyph unicode="&#x2122;" horiz-adv-x="1413" d="M53 1348V1434H549V1348H346V803H256V1348H53ZM688 803V1434H784L1010 1087L1233 1434H1327V803H1239V1286L1014 944H1001L778 1286V803H688Z"
></glyph
><glyph unicode="&#xe000;" horiz-adv-x="1054" d="M0 0V1055H1055V0H0Z"
></glyph
><glyph unicode="&#xfb01;" horiz-adv-x="1292" d="M90 920V1057H236V1149Q236 1329 328 1421Q410 1503 555 1503Q610 1503 650 1497T729 1477V1339Q686 1351 651 1358.5T575 1366Q391 1366 391 1141V1055H727V920H393V0H236V920H90ZM932 1290V1464H1112V1290H932ZM944 0V1059H1100V0H944Z"
></glyph
><glyph unicode="&#xfb02;" horiz-adv-x="1292" d="M90 920V1057H236V1149Q236 1329 328 1421Q410 1503 555 1503Q610 1503 650 1497T729 1477V1339Q686 1351 651 1358.5T575 1366Q391 1366 391 1141V1055H727V920H393V0H236V920H90ZM944 0V1495H1100V0H944Z"
></glyph
></font
></defs
><g style="font-family: &quot;Gotham Book&quot;; font-size:50;fill:black"
><text x="20" y="50"
>!&quot;#$%&amp;&#39;()*+,-./0123456789:;&#229;&lt;&gt;?</text
><text x="20" y="100"
>@ABCDEFGHIJKLMNOPQRSTUVWXYZ[\]^_</text
><text x="20" y="150"
>` abcdefghijklmnopqrstuvwxyz|{}~</text
></g
></svg
>