<?xml version="1.0" encoding="utf-8"?>
<!-- Generator: Adobe Illustrator 18.1.1, SVG Export Plug-In . SVG Version: 6.00 Build 0)  -->
<!DOCTYPE svg PUBLIC "-//W3C//DTD SVG 1.1//EN" "http://www.w3.org/Graphics/SVG/1.1/DTD/svg11.dtd">
<svg version="1.1" id="Layer_1" xmlns="http://www.w3.org/2000/svg" xmlns:xlink="http://www.w3.org/1999/xlink" x="0px" y="0px"
	 width="35px" height="35px" viewBox="-288 379 35 35" enable-background="new -288 379 35 35" xml:space="preserve">
<g>
	<g>
		<g>
			<defs>
				<rect id="SVGID_1_" x="-288" y="379" width="35" height="35"/>
			</defs>
			<clipPath id="SVGID_2_">
				<use xlink:href="#SVGID_1_"  overflow="visible"/>
			</clipPath>
			<path clip-path="url(#SVGID_2_)" fill="#FFB81C" d="M-255,400.9L-255,400.9c0-0.1,0-0.2,0-0.3l-1.7-13c0-0.1-0.1-0.2-0.1-0.3
				c-0.1-0.1-1.4-2.4-4.4-2.4c-0.2,0-0.4,0-0.7,0c-0.5,0.1-0.9,0.5-0.8,1c0.1,0.5,0.5,0.8,0.9,0.8c0,0,0.1,0,0.1,0
				c0.1,0,0.3,0,0.4,0c1.6,0,2.4,0.9,2.7,1.3l1.1,8.2l-0.2-0.1c-1.2-0.9-2.7-1.4-4.2-1.4c-2.4,0-4.6,1.2-5.8,3.3l0,0.1l-0.1,0
				c-0.8-0.3-1.7-0.4-2.8-0.4c-1.2,0-2.3,0.2-3,0.4l-0.1,0l0-0.1c-1.3-2-3.4-3.2-5.8-3.2c-1.5,0-3,0.5-4.2,1.4l-0.2,0.1l1.1-8.2l0,0
				c0.3-0.4,1.2-1.3,2.7-1.3c0.1,0,0.3,0,0.4,0c0.5,0.1,1-0.3,1-0.8c0-0.2,0-0.5-0.2-0.7c-0.2-0.2-0.4-0.3-0.6-0.3
				c-0.2,0-0.5,0-0.7,0c-3,0-4.4,2.3-4.4,2.4c-0.1,0.1-0.1,0.2-0.1,0.3l-1.7,13c0,0.1,0,0.2,0,0.3l0,0l0,0c0,0.2,0,0.4,0,0.6
				c0,3.7,3,6.8,6.8,6.8c3.7,0,6.8-3,6.8-6.8c0-0.5-0.1-1.1-0.2-1.7l0-0.1l0.1,0c1.6-0.3,3.1-0.3,4.2,0.1l0.1,0l0,0.1
				c-0.1,0.6-0.2,1.1-0.2,1.6c0,3.7,3.1,6.8,6.8,6.8s6.8-3,6.8-6.8C-254.9,401.2-254.9,401.1-255,400.9L-255,400.9z M-256.8,401.4
				c0,2.7-2.2,4.9-4.9,4.9s-4.9-2.2-4.9-4.9s2.2-4.9,4.9-4.9S-256.8,398.7-256.8,401.4 M-274.3,401.4c0,2.7-2.2,4.9-4.9,4.9
				s-4.9-2.2-4.9-4.9s2.2-4.9,4.9-4.9S-274.3,398.7-274.3,401.4"/>
		</g>
	</g>
</g>
</svg>
