<?xml version="1.0" encoding="utf-8"?>
<!-- Generator: Adobe Illustrator 18.1.1, SVG Export Plug-In . SVG Version: 6.00 Build 0)  -->
<!DOCTYPE svg PUBLIC "-//W3C//DTD SVG 1.1//EN" "http://www.w3.org/Graphics/SVG/1.1/DTD/svg11.dtd">
<svg version="1.1" id="Layer_1" xmlns="http://www.w3.org/2000/svg" xmlns:xlink="http://www.w3.org/1999/xlink" x="0px" y="0px"
	 width="45px" height="45px" viewBox="-283 374 45 45" enable-background="new -283 374 45 45" xml:space="preserve">
<g>
	<g>
		<defs>
			<rect id="SVGID_1_" x="-283" y="374" width="45" height="45"/>
		</defs>
		<clipPath id="SVGID_2_">
			<use xlink:href="#SVGID_1_"  overflow="visible"/>
		</clipPath>
		<path clip-path="url(#SVGID_2_)" fill="#FFFFFF" d="M-240.6,396.5c0,11-8.9,19.9-19.9,19.9c-11,0-19.9-8.9-19.9-19.9
			s8.9-19.9,19.9-19.9C-249.5,376.6-240.6,385.5-240.6,396.5"/>
	</g>
	<g>
		<defs>
			<rect id="SVGID_3_" x="-283" y="374" width="45" height="45"/>
		</defs>
		<clipPath id="SVGID_4_">
			<use xlink:href="#SVGID_3_"  overflow="visible"/>
		</clipPath>
		<path clip-path="url(#SVGID_4_)" fill="#FDB71D" d="M-253.3,400.7c2.1-1.5,3.6-4.7,3.6-8.3c0-5.1-3-9.3-6.6-9.3
			c-3.6,0-6.6,4.2-6.6,9.3c0,2.2,0.5,4.2,1.4,5.8c0.4,0.7,1,1.3,1.5,1.7l1,0.8l-1.2,0.5c-2.7,1.2-5.5,3.1-6.6,4.7
			c-0.2,0.4-0.4,0.9-0.4,1.3h21.4C-245.6,407.3-245.1,404.5-253.3,400.7"/>
	</g>
	<g>
		<defs>
			<rect id="SVGID_5_" x="-283" y="374" width="45" height="45"/>
		</defs>
		<clipPath id="SVGID_6_">
			<use xlink:href="#SVGID_5_"  overflow="visible"/>
		</clipPath>
		<path clip-path="url(#SVGID_6_)" fill="#FDB71D" d="M-268.8,407.3c0-3,4.5-5.7,6.9-7c-1.8-1.9-2.8-4.8-2.8-7.9
			c0-1.8,0.3-3.6,0.9-5.1c-0.6-0.3-1.3-0.5-2-0.5c-3.1,0-5.6,3.5-5.6,7.9c0,3,1.2,5.6,2.9,6.9c-0.8,0.4-6.4,3-6.4,5.7h6.3H-268.8z"
			/>
	</g>
</g>
</svg>
