<?xml version="1.0" encoding="utf-8"?>
<!-- Generator: Adobe Illustrator 18.1.1, SVG Export Plug-In . SVG Version: 6.00 Build 0)  -->
<!DOCTYPE svg PUBLIC "-//W3C//DTD SVG 1.1//EN" "http://www.w3.org/Graphics/SVG/1.1/DTD/svg11.dtd">
<svg version="1.1" id="Layer_1" xmlns="http://www.w3.org/2000/svg" xmlns:xlink="http://www.w3.org/1999/xlink" x="0px" y="0px"
	 width="35px" height="35px" viewBox="-288 379 35 35" enable-background="new -288 379 35 35" xml:space="preserve">
<g>
	<g>
		<g>
			<defs>
				<rect id="SVGID_1_" x="-288" y="379" width="35" height="35"/>
			</defs>
			<clipPath id="SVGID_2_">
				<use xlink:href="#SVGID_1_"  overflow="visible"/>
			</clipPath>
			<path clip-path="url(#SVGID_2_)" fill="#FFB81C" d="M-270.5,413.6c6.7,0,12-2.7,12-6.2c0-2.4-2.6-4.6-6.7-5.6l-0.2-0.1l-0.1,0.2
				c-0.2,0.4-0.5,0.7-0.7,1.1l-0.3,0.4l0.5,0.1c3.4,0.7,5.7,2.3,5.7,3.8c0,2.3-4.7,4.3-10.1,4.3s-10.1-2-10.1-4.3
				c0-1.5,2.2-3.1,5.6-3.8l0.5-0.1l-0.3-0.4c-0.2-0.4-0.5-0.7-0.7-1.1l-0.1-0.2l-0.2,0.1c-4.1,1-6.6,3.1-6.6,5.5
				C-282.5,410.9-277.2,413.6-270.5,413.6"/>
		</g>
	</g>
	<g>
		<g>
			<defs>
				<rect id="SVGID_3_" x="-288" y="379" width="35" height="35"/>
			</defs>
			<clipPath id="SVGID_4_">
				<use xlink:href="#SVGID_3_"  overflow="visible"/>
			</clipPath>
			<path clip-path="url(#SVGID_4_)" fill="#FFB81C" d="M-280.2,388.7L-280.2,388.7c0,0.6,0,1.1,0.1,1.5l0,0.1c0.2,1,0.5,1.9,1,2.7
				l0,0.1c1.9,4.4,4.3,8.1,7.2,12.3l1.3,2l1.7-2.6c2.4-3.7,4.5-6.9,6.6-11.2l0.1-0.1c0.5-0.8,0.9-1.6,1.1-2.5l0,0
				c0.1-0.4,0.2-0.8,0.2-1l0-0.1c0-0.4,0.1-0.7,0.1-1c0-4-2.8-7.5-6.9-8.7l-0.1,0c-0.9-0.3-1.9-0.4-2.8-0.4c-2.6,0-5,0.9-6.9,2.6
				C-279.2,383.8-280.3,386.1-280.2,388.7L-280.2,388.7z M-278.4,388.5c0-1.9,0.8-3.7,2.3-5.1c1.5-1.4,3.5-2.1,5.6-2.1
				c0.8,0,1.6,0.1,2.3,0.3l0,0c3.3,1,5.5,3.7,5.5,6.9c0,0.3,0,0.5-0.1,0.8l0,0.2c0,0,0,0.2-0.1,0.5l0,0.1c-0.2,0.7-0.5,1.4-0.9,2
				l-0.2,0.3c-2,4.3-4.1,7.4-6.5,11l-0.2,0.2c-2.7-4-5-7.5-6.7-11.6l-0.1-0.2c-0.4-0.7-0.7-1.4-0.8-2.1l-0.1-0.3
				c0-0.1-0.1-0.3-0.1-0.8l0-0.1C-278.4,388.6-278.4,388.5-278.4,388.5"/>
		</g>
	</g>
	<g>
		<g>
			<defs>
				<rect id="SVGID_5_" x="-288" y="379" width="35" height="35"/>
			</defs>
			<clipPath id="SVGID_6_">
				<use xlink:href="#SVGID_5_"  overflow="visible"/>
			</clipPath>
			<path clip-path="url(#SVGID_6_)" fill="#FFB81C" d="M-270.4,392.2c2.3,0,4.1-1.9,4.1-4.1c0-2.3-1.9-4.1-4.1-4.1s-4.1,1.9-4.1,4.1
				C-274.6,390.4-272.7,392.2-270.4,392.2 M-270.4,385.8c1.2,0,2.3,1,2.3,2.3c0,1.2-1,2.3-2.3,2.3c-1.2,0-2.3-1-2.3-2.3
				C-272.7,386.9-271.7,385.8-270.4,385.8"/>
		</g>
	</g>
</g>
</svg>
