<script id = "race2b" class = "Lu_Inst">
	if(!myVars) {var myVars = {};}
	if(!myVars.races) {myVars.races= {};}
	myVars.races.race2={};
	myVars.races.race2.varName="DOMNode[0x7fa01cfeece0].cookie";
	myVars.races.race2.varType="@varType@";
	myVars.races.race2.repairType = "@RepairType";
	myVars.races.race2.event1={};
	myVars.races.race2.event2={};
	myVars.races.race2.event1.id = "Lu_Id_script_13";
	myVars.races.race2.event1.type = "Lu_Id_script_13__parsed";
	myVars.races.race2.event1.loc = "Lu_Id_script_13_LOC";
	myVars.races.race2.event1.isRead = "True";
	myVars.races.race2.event1.eventType = "@event1EventType@";
	myVars.races.race2.event2.id = "_script_e.gif?info=%7Bn%3Ac%7Cc%3A90586379881828%7Cd%3A1%7Ca%3AD4E191%7Ch%3A1%7Ce%3A%7Cb%3A%7Cl%3Afile%24*%24%2F%2F%2Fhome%2Fjack%2F500%2Fzhanglu623-seperate%2Fwww.metlife.com%2Findex-1.htm_init0.html%7Cm%3A1916%7Co%3A927%7Cp%3ALinux%20x86_64%7Cg%3AChrome%7Cf%3A19.0.1055.1%7D%7Bn%3Au%7Ce%3A1%7D&amp;a=D4E191&amp;r=1&amp;s=1";
	myVars.races.race2.event2.type = "onclick";
	myVars.races.race2.event2.loc = "_script_e.gif?info=%7Bn%3Ac%7Cc%3A90586379881828%7Cd%3A1%7Ca%3AD4E191%7Ch%3A1%7Ce%3A%7Cb%3A%7Cl%3Afile%24*%24%2F%2F%2Fhome%2Fjack%2F500%2Fzhanglu623-seperate%2Fwww.metlife.com%2Findex-1.htm_init0.html%7Cm%3A1916%7Co%3A927%7Cp%3ALinux%20x86_64%7Cg%3AChrome%7Cf%3A19.0.1055.1%7D%7Bn%3Au%7Ce%3A1%7D&amp;a=D4E191&amp;r=1&amp;s=1_LOC";
	myVars.races.race2.event2.isRead = "False";
	myVars.races.race2.event2.eventType = "@event2EventType@";
	myVars.races.race2.event1.executed= false;// true to disable, false to enable
	myVars.races.race2.event2.executed= false;// true to disable, false to enable
</script>

