<?xml version="1.0" encoding="utf-8"?>
<!-- Generator: Adobe Illustrator 16.0.4, SVG Export Plug-In . SVG Version: 6.00 Build 0)  -->
<!DOCTYPE svg PUBLIC "-//W3C//DTD SVG 1.1//EN" "http://www.w3.org/Graphics/SVG/1.1/DTD/svg11.dtd">
<svg version="1.1" id="Layer_1" xmlns="http://www.w3.org/2000/svg" xmlns:xlink="http://www.w3.org/1999/xlink" x="0px" y="0px"
	 width="18px" height="14.951px" viewBox="0 0 18 14.951" enable-background="new 0 0 18 14.951" xml:space="preserve">
<g id="Layer_2" display="none">
	<rect x="-365.918" y="-163.362" display="inline" fill="#E6E7E8" width="1920" height="1080"/>
</g>
<g id="Layer_1_1_">
	<g>
		<path fill="#00C0FF" d="M10.523,14.951H7.34l6.33-6.291H0V6.271h13.67L7.34,0h3.184L18,7.476L10.523,14.951z"/>
	</g>
</g>
</svg>
