<?xml version="1.0" encoding="utf-8"?>
<!-- Generator: Adobe Illustrator 16.0.4, SVG Export Plug-In . SVG Version: 6.00 Build 0)  -->
<!DOCTYPE svg PUBLIC "-//W3C//DTD SVG 1.1//EN" "http://www.w3.org/Graphics/SVG/1.1/DTD/svg11.dtd">
<svg version="1.1" xmlns="http://www.w3.org/2000/svg" xmlns:xlink="http://www.w3.org/1999/xlink" x="0px" y="0px"
	 width="119.129px" height="26.839px" viewBox="0 0 119.129 26.839" enable-background="new 0 0 119.129 26.839"
	 xml:space="preserve">
<g id="Layer_2" display="none">
	<rect x="-789.002" y="-179.309" display="inline" fill="#E6E7E8" width="1920" height="1080"/>
</g>
<g id="Layer_1">
	<g>
		<g>
			<polygon fill="#FB4F14" points="20.662,12.99 26.812,6.844 26.812,0 20.662,0 20.662,7.045 12.978,7.045 7.028,12.99 			"/>
			<polygon fill="#FB4F14" points="20.683,13.846 20.683,20.664 7.081,20.664 13.241,26.837 26.833,26.837 26.833,13.846 			"/>
		</g>
		<g>
			<polygon fill="#004165" points="6.149,12.992 6.149,6.174 19.752,6.174 13.591,0 0,0 0,12.994 			"/>
			<polygon fill="#004165" points="0,20.001 0,26.839 6.147,26.839 6.147,19.74 13.012,19.74 13.012,13.85 6.152,13.85 			"/>
		</g>
		<g>
			<rect x="45.723" y="10.281" fill="#231F20" width="2.395" height="10.326"/>
			<path fill="#231F20" d="M55.304,12.504c0,0-0.182-0.037-0.309-0.062c-0.211-0.037-0.474-0.055-0.721-0.055
				c-1.158,0-2.356,0.621-2.356,2.583v5.639h-2.397V10.281h2.397v1.396c0.41-0.768,1.425-1.645,2.808-1.645
				c0.186,0,0.434,0.02,0.578,0.062V12.504z"/>
			<path fill="#231F20" d="M61.887,12.967c-0.559-0.496-1.43-0.826-2.093-0.826c-0.959,0-1.438,0.475-1.438,1.033
				c0,0.455,0.196,0.998,1.665,1.381c2.692,0.683,3.601,1.46,3.601,3.224c0,1.775-1.248,3.078-3.934,3.078
				c-1.561,0-2.993-0.475-4.175-1.51l1.327-1.818c0.809,0.869,1.87,1.221,2.848,1.221c1.041,0,1.495-0.442,1.495-1.033
				c0-0.536-0.447-0.95-1.89-1.321c-2.507-0.655-3.324-1.683-3.324-3.324c0-1.363,1.057-3.037,3.824-3.037
				c1.267,0,2.484,0.414,3.374,1.156L61.887,12.967z"/>
			<path fill="#231F20" d="M70.168,18.439l0.783,1.922c-0.476,0.311-1.279,0.496-2.023,0.496c-2.334,0-3.449-1.199-3.449-3.408
				v-5.103h-1.443v-2.064h1.443V8.09l2.396,0.002v2.189h2.354v2.063h-2.354v5.124c0,0.887,0.455,1.303,1.156,1.303
				C69.506,18.771,69.795,18.667,70.168,18.439"/>
			<path fill="#231F20" d="M103.648,18.439l0.782,1.922c-0.477,0.311-1.28,0.496-2.021,0.496c-2.334,0-3.451-1.199-3.451-3.408
				v-5.103h-1.443v-2.064h1.443V8.09l2.397,0.002v2.189h2.353v2.063h-2.353v5.124c0,0.887,0.453,1.303,1.151,1.303
				C102.986,18.771,103.276,18.667,103.648,18.439"/>
			<path fill="#231F20" d="M91.938,18.98c1.318,0,2.561-1.201,2.561-2.688c-0.703-0.271-1.715-0.414-2.584-0.414
				c-1.506,0-2.213,0.83-2.213,1.594C89.702,18.464,90.678,18.98,91.938,18.98 M88.45,10.99c0,0,0.166-0.094,0.326-0.18
				c1.006-0.492,2.165-0.777,3.243-0.777c3.306,0,4.873,1.221,4.873,4.214v6.359h-2.396v-1.193c-0.66,0.974-1.633,1.443-3.141,1.443
				c-2.539,0-3.883-1.385-3.883-3.369c0-2.023,1.447-3.449,4.09-3.449c1.115,0,2.334,0.226,2.975,0.433v-0.183
				c0-1.426-0.701-2.085-2.582-2.085c-0.951,0-1.817,0.248-2.623,0.742L88.45,10.99z"/>
			<path fill="#231F20" d="M109.107,18.98c1.322,0,2.562-1.201,2.562-2.688c-0.703-0.271-1.715-0.414-2.582-0.414
				c-1.51,0-2.215,0.83-2.215,1.594C106.874,18.464,107.849,18.98,109.107,18.98 M105.62,10.99c0,0,0.168-0.094,0.328-0.18
				c1.004-0.492,2.163-0.777,3.241-0.777c3.306,0,4.875,1.221,4.875,4.214v6.359h-2.396v-1.193
				c-0.662,0.974-1.633,1.443-3.141,1.443c-2.541,0-3.883-1.385-3.883-3.369c0-2.023,1.447-3.449,4.09-3.449
				c1.113,0,2.332,0.226,2.975,0.433v-0.183c0-1.426-0.703-2.085-2.584-2.085c-0.947,0-1.815,0.248-2.621,0.742L105.62,10.99z"/>
			<path fill="#231F20" d="M79.708,18.343c3.045,0,5.03-2.051,5.03-4.886v-0.041c0-2.836-1.985-4.926-5.03-4.926h-2.856v9.853
				H79.708z M74.305,6.172h5.402c4.555,0,7.701,3.123,7.701,7.201v0.043c0,4.078-3.146,7.246-7.701,7.246h-5.402V6.172z"/>
			<polygon fill="#231F20" points="34.792,6.18 44.944,6.18 44.944,8.496 37.338,8.496 37.338,12.449 44.011,12.449 44.011,14.765 
				37.338,14.765 37.338,20.664 34.792,20.664 			"/>
		</g>
		<g>
			<path fill="#231F20" d="M114.972,18.628h1.596v0.312h-0.625v1.663h-0.356v-1.663h-0.613L114.972,18.628L114.972,18.628z
				 M117.774,20.604l-0.533-1.627l-0.033-0.101l0.008,0.125v1.603h-0.366v-1.976h0.61l0.525,1.664l0.533-1.664h0.611v1.976h-0.365
				v-1.603l0.012-0.125l-0.031,0.101l-0.545,1.627H117.774z"/>
		</g>
	</g>
</g>
</svg>
