<?xml version="1.0" encoding="utf-8"?>
<!-- Generator: Adobe Illustrator 16.0.4, SVG Export Plug-In . SVG Version: 6.00 Build 0)  -->
<!DOCTYPE svg PUBLIC "-//W3C//DTD SVG 1.1//EN" "http://www.w3.org/Graphics/SVG/1.1/DTD/svg11.dtd">
<svg version="1.1" xmlns="http://www.w3.org/2000/svg" xmlns:xlink="http://www.w3.org/1999/xlink" x="0px" y="0px"
	 width="26.833px" height="26.839px" viewBox="0 0 26.833 26.839" enable-background="new 0 0 26.833 26.839" xml:space="preserve">
<g id="Layer_2" display="none">
	<rect x="-789.002" y="-250.341" display="inline" fill="#E6E7E8" width="1920" height="1080"/>
</g>
<g id="Layer_1">
	<g>
		<g>
			<polygon fill="#FB4F14" points="20.662,12.99 26.812,6.844 26.812,0 20.662,0 20.662,7.045 12.978,7.045 7.028,12.99 			"/>
			<polygon fill="#FB4F14" points="20.683,13.846 20.683,20.664 7.081,20.664 13.241,26.837 26.833,26.837 26.833,13.846 			"/>
		</g>
		<g>
			<polygon fill="#004165" points="6.149,12.992 6.149,6.174 19.752,6.174 13.591,0 0,0 0,12.994 			"/>
			<polygon fill="#004165" points="0,20.001 0,26.839 6.147,26.839 6.147,19.74 13.012,19.74 13.012,13.85 6.152,13.85 			"/>
		</g>
	</g>
</g>
</svg>
