<?xml version="1.0" encoding="utf-8"?>
<!-- Generator: Adobe Illustrator 16.0.4, SVG Export Plug-In . SVG Version: 6.00 Build 0)  -->
<!DOCTYPE svg PUBLIC "-//W3C//DTD SVG 1.1//EN" "http://www.w3.org/Graphics/SVG/1.1/DTD/svg11.dtd">
<svg version="1.1" xmlns="http://www.w3.org/2000/svg" xmlns:xlink="http://www.w3.org/1999/xlink" x="0px" y="0px" width="20px"
	 height="20px" viewBox="0 0 20 20" enable-background="new 0 0 20 20" xml:space="preserve">
<g id="Layer_2" display="none">
	<rect x="-382.407" y="-683.666" display="inline" fill="#E6E7E8" width="1920" height="1080"/>
</g>
<g id="Layer_1">
	<g>
		<rect fill="#00A9E0" width="5.001" height="5.001"/>
		<rect x="7.5" fill="#00A9E0" width="5.001" height="5.001"/>
		<rect x="14.999" fill="#00A9E0" width="5.001" height="5.001"/>
		<rect y="7.5" fill="#00A9E0" width="5.001" height="5"/>
		<rect x="7.5" y="7.5" fill="#00A9E0" width="5.001" height="5"/>
		<rect x="14.999" y="7.5" fill="#00A9E0" width="5.001" height="5"/>
		<rect y="14.999" fill="#00A9E0" width="5.001" height="5.001"/>
		<rect x="7.5" y="14.999" fill="#00A9E0" width="5.001" height="5.001"/>
		<rect x="14.999" y="14.999" fill="#00A9E0" width="5.001" height="5.001"/>
	</g>
</g>
</svg>
