<?xml version="1.0" encoding="utf-8"?>
<!-- Generator: Adobe Illustrator 16.0.1, SVG Export Plug-In . SVG Version: 6.00 Build 0)  -->
<!DOCTYPE svg PUBLIC "-//W3C//DTD SVG 1.1//EN" "http://www.w3.org/Graphics/SVG/1.1/DTD/svg11.dtd">
<svg version="1.1" id="Layer_1" xmlns="http://www.w3.org/2000/svg" xmlns:xlink="http://www.w3.org/1999/xlink" x="0px" y="0px"
	 width="30px" height="2500px" viewBox="0 0 30 2500" enable-background="new 0 0 30 2500" xml:space="preserve">
<g id="Layer_1_10_">
	<g id="Layer_2" display="none">
		<rect x="-330.32" y="238.81" display="inline" fill="#E6E7E8" width="1920" height="1079.999"/>
	</g>
	<g id="Layer_1_1_">
		<g>
			<path fill="#00A9E0" d="M17.32,7.875l-2,1.999L7.327,1.879L9.326-0.12L17.32,7.875z"/>
			<path fill="#00A9E0" d="M21.328-0.12l1.998,1.999l-7.994,7.995l-1.999-1.999L21.328-0.12z"/>
		</g>
	</g>
	<g id="Layer_1_9_">
		<g>
			<path fill="#00A9E0" d="M13.333,51.879l1.998-1.999l7.995,7.995l-1.998,1.999L13.333,51.879z"/>
			<path fill="#00A9E0" d="M9.326,59.875l-1.999-1.999l7.993-7.995l2,1.999L9.326,59.875z"/>
		</g>
	</g>
	<g id="Layer_1_2_">
		<g>
			<path fill="#00A9E0" d="M13.804,99.88h3.186l-6.331,6.291h13.67v2.39H10.658l6.331,6.271h-3.188l-7.479-7.476L13.804,99.88z"/>
		</g>
	</g>
	<g id="Layer_1_4_">
		<g>
			<path fill="#00A9E0" d="M16.85,164.832h-3.183l6.33-6.291H6.327v-2.389h13.669l-6.33-6.271h3.184l7.479,7.476L16.85,164.832z"/>
		</g>
	</g>
	<g id="Layer_1_3_">
		<g>
			<path fill="#00C0FF" d="M16.85,214.833h-3.183l6.33-6.291H6.327v-2.391h13.669l-6.33-6.271h3.184l7.479,7.477L16.85,214.833z"/>
		</g>
	</g>
	<g id="Layer_1_5_">
		<g>
			<path fill="#00A9E0" d="M15.32,262.876l-2.999,2.998l-7.995-7.994l2.999-3L15.32,262.876z"/>
			<path fill="#00A9E0" d="M23.328,249.88l2.998,3l-13.994,12.994l-2.999-2.998L23.328,249.88z"/>
		</g>
	</g>
	<g id="Layer_1_6_">
		<g>
			<path fill="#00A9E0" d="M9.76,299.88l5.566,5.566l5.566-5.566l2.436,2.434l-5.568,5.566l5.566,5.566l-2.434,2.434l-5.565-5.566
				L9.76,315.88l-2.434-2.434l5.566-5.566l-5.566-5.566L9.76,299.88z"/>
		</g>
	</g>
	<g id="Layer_1_7_">
		<g>
			
				<line fill="none" stroke="#00A9E0" stroke-width="2" stroke-linecap="round" stroke-miterlimit="10" x1="2.327" y1="351.047" x2="28.326" y2="351.047"/>
			
				<line fill="none" stroke="#00A9E0" stroke-width="2" stroke-linecap="round" stroke-miterlimit="10" x1="2.327" y1="358.991" x2="28.326" y2="358.991"/>
			
				<line fill="none" stroke="#00A9E0" stroke-width="2" stroke-linecap="round" stroke-miterlimit="10" x1="2.327" y1="366.937" x2="28.326" y2="366.937"/>
		</g>
	</g>
	<g id="Layer_1_8_">
		<g id="search_2_">
			<path id="search_3_" fill="#00A9E0" d="M26.5,422.708c1.264-1.266,0.336-2.321,0.336-2.321l-5.877-5.879
				c0.955-1.479,1.521-3.24,1.521-5.134c-0.002-5.234-4.271-9.494-9.5-9.494c-5.236,0-9.494,4.26-9.494,9.493
				c0,5.236,4.258,9.496,9.494,9.496c1.891,0,3.646-0.562,5.133-1.521l5.877,5.877C23.992,423.23,25.234,423.973,26.5,422.708z
				 M6.504,409.375c0-3.569,2.906-6.479,6.479-6.479c3.576,0,6.479,2.899,6.479,6.479s-2.903,6.479-6.479,6.479
				C9.411,415.855,6.504,412.946,6.504,409.375z"/>
		</g>
	</g>
</g>
<g id="Layer_1_copy">
	<g id="Layer_2_1_" display="none">
		<rect x="-330.32" y="238.81" display="inline" fill="#E6E7E8" width="1920" height="1079.999"/>
	</g>
	<g id="Layer_1_27_">
		<g>
			<path fill="#FFFFFF" d="M17.32,457.875l-2,1.999l-7.993-7.995l1.999-1.999L17.32,457.875z"/>
			<path fill="#FFFFFF" d="M21.328,449.88l1.998,1.999l-7.994,7.995l-1.999-1.999L21.328,449.88z"/>
		</g>
	</g>
	<g id="Layer_1_26_">
		<g>
			<path fill="#FFFFFF" d="M13.333,501.879l1.998-1.999l7.995,7.995l-1.998,1.999L13.333,501.879z"/>
			<path fill="#FFFFFF" d="M9.326,509.875l-1.999-1.999l7.993-7.995l2,1.999L9.326,509.875z"/>
		</g>
	</g>
	<g id="Layer_1_25_">
		<g>
			<path fill="#FFFFFF" d="M13.804,549.88h3.186l-6.331,6.291h13.67v2.396H10.658l6.331,6.271h-3.188l-7.479-7.476L13.804,549.88z"
				/>
		</g>
	</g>
	<g id="Layer_1_24_">
		<g>
			<path fill="#FFFFFF" d="M16.85,614.832h-3.183l6.33-6.291H6.327v-2.389h13.669l-6.33-6.271h3.184l7.479,7.479L16.85,614.832z"/>
		</g>
	</g>
	<g id="Layer_1_23_">
		<g>
			<path fill="#FFFFFF" d="M16.85,664.833h-3.183l6.33-6.291H6.327v-2.391h13.669l-6.33-6.271h3.184l7.479,7.479L16.85,664.833z"/>
		</g>
	</g>
	<g id="Layer_1_22_">
		<g>
			<path fill="#FFFFFF" d="M15.32,712.876l-2.999,2.998l-7.995-7.994l2.999-3L15.32,712.876z"/>
			<path fill="#FFFFFF" d="M23.328,699.88l2.998,3l-13.994,12.994l-2.999-2.998L23.328,699.88z"/>
		</g>
	</g>
	<g id="Layer_1_21_">
		<g>
			<path fill="#FFFFFF" d="M9.76,749.88l5.566,5.566l5.566-5.566l2.436,2.438l-5.568,5.562l5.566,5.566l-2.434,2.434l-5.565-5.562
				L9.76,765.88l-2.434-2.434l5.566-5.566l-5.566-5.562L9.76,749.88z"/>
		</g>
	</g>
	<g id="Layer_1_20_">
		<g>
			
				<line fill="none" stroke="#FFFFFF" stroke-width="2" stroke-linecap="round" stroke-miterlimit="10" x1="2.327" y1="799.88" x2="28.326" y2="799.88"/>
			
				<line fill="none" stroke="#FFFFFF" stroke-width="2" stroke-linecap="round" stroke-miterlimit="10" x1="2.327" y1="807.824" x2="28.326" y2="807.824"/>
			
				<line fill="none" stroke="#FFFFFF" stroke-width="2" stroke-linecap="round" stroke-miterlimit="10" x1="2.327" y1="815.77" x2="28.326" y2="815.77"/>
		</g>
	</g>
	<g id="Layer_1_19_">
		<g id="search_5_">
			<path id="search_6_" fill="#FFFFFF" d="M26.5,872.708c1.264-1.266,0.336-2.322,0.336-2.322l-5.877-5.879
				c0.955-1.479,1.521-3.238,1.521-5.133c-0.002-5.232-4.271-9.494-9.5-9.494c-5.236,0-9.494,4.26-9.494,9.494
				c0,5.236,4.258,9.496,9.494,9.496c1.891,0,3.647-0.562,5.134-1.521l5.877,5.877C23.992,873.229,25.234,873.973,26.5,872.708z
				 M6.504,859.375c0-3.57,2.906-6.479,6.479-6.479c3.576,0,6.479,2.899,6.479,6.479s-2.903,6.479-6.479,6.479
				C9.411,865.854,6.504,862.946,6.504,859.375z"/>
		</g>
	</g>
</g>
<g id="Layer_1_copy_2">
	<g id="Layer_2_2_" display="none">
		<rect x="-330.32" y="238.81" display="inline" fill="#E6E7E8" width="1920" height="1079.999"/>
	</g>
	<g id="Layer_1_36_">
		<g>
			<path fill="#A9A9A9" d="M17.32,907.876l-2,1.998l-7.993-7.994l1.999-2L17.32,907.876z"/>
			<path fill="#A9A9A9" d="M21.328,899.88l1.998,2l-7.994,7.994l-1.999-1.998L21.328,899.88z"/>
		</g>
	</g>
	<g id="Layer_1_35_">
		<g>
			<path fill="#A9A9A9" d="M13.333,951.88l1.998-2l7.996,7.996l-1.998,1.998L13.333,951.88z"/>
			<path fill="#A9A9A9" d="M9.326,959.875l-1.999-1.998l7.993-7.996l2,2L9.326,959.875z"/>
		</g>
	</g>
	<g id="Layer_1_34_">
		<g>
			<path fill="#A9A9A9" d="M13.804,999.88h3.186l-6.331,6.291h13.67v2.396H10.658l6.331,6.271h-3.188l-7.479-7.478L13.804,999.88z"
				/>
		</g>
	</g>
	<g id="Layer_1_33_">
		<g>
			<path fill="#A9A9A9" d="M16.85,1064.832h-3.183l6.33-6.291H6.327v-2.389h13.669l-6.33-6.271h3.184l7.479,7.479L16.85,1064.832z"
				/>
		</g>
	</g>
	<g id="Layer_1_32_">
		<g>
			<path fill="#A9A9A9" d="M16.85,1114.833h-3.183l6.33-6.291H6.327v-2.391h13.669l-6.33-6.271h3.184l7.479,7.479L16.85,1114.833z"
				/>
		</g>
	</g>
	<g id="Layer_1_31_">
		<g>
			<path fill="#A9A9A9" d="M15.32,1162.876l-2.999,2.998l-7.995-7.994l2.999-3L15.32,1162.876z"/>
			<path fill="#A9A9A9" d="M23.328,1149.88l2.998,3l-13.994,12.994l-2.999-2.998L23.328,1149.88z"/>
		</g>
	</g>
	<g id="Layer_1_30_">
		<g>
			<path fill="#A9A9A9" d="M9.76,1199.88l5.566,5.566l5.566-5.566l2.434,2.438l-5.566,5.562l5.566,5.566l-2.434,2.434l-5.565-5.562
				l-5.567,5.562l-2.434-2.434l5.566-5.566l-5.566-5.562L9.76,1199.88z"/>
		</g>
	</g>
	<g id="Layer_1_29_">
		<g>
			
				<line fill="none" stroke="#A9A9A9" stroke-width="2" stroke-linecap="round" stroke-miterlimit="10" x1="2.327" y1="1251.88" x2="28.326" y2="1251.88"/>
			
				<line fill="none" stroke="#A9A9A9" stroke-width="2" stroke-linecap="round" stroke-miterlimit="10" x1="2.327" y1="1259.824" x2="28.326" y2="1259.824"/>
			
				<line fill="none" stroke="#A9A9A9" stroke-width="2" stroke-linecap="round" stroke-miterlimit="10" x1="2.327" y1="1267.77" x2="28.326" y2="1267.77"/>
		</g>
	</g>
	<g id="Layer_1_28_">
		<g id="search_7_">
			<path id="search_8_" fill="#A9A9A9" d="M26.5,1322.709c1.264-1.268,0.336-2.32,0.336-2.32l-5.877-5.881
				c0.955-1.479,1.521-3.238,1.521-5.133c-0.002-5.232-4.271-9.494-9.5-9.494c-5.236,0-9.494,4.262-9.494,9.494
				c0,5.234,4.258,9.496,9.494,9.496c1.891,0,3.647-0.562,5.134-1.521l5.877,5.877C23.992,1323.23,25.234,1323.973,26.5,1322.709z
				 M6.504,1309.375c0-3.568,2.906-6.48,6.479-6.48c3.576,0,6.479,2.906,6.479,6.48c0,3.572-2.903,6.479-6.479,6.479
				C9.411,1315.855,6.504,1312.947,6.504,1309.375z"/>
		</g>
	</g>
</g>
<g id="Layer_1_12_">
	<g>
		<path fill="#00A9E0" d="M16.428,1360.754h-2.299l4.573-4.543H8.828v-1.725H18.7l-4.572-4.529h2.298l5.4,5.4L16.428,1360.754z"/>
	</g>
</g>
<g id="Layer_1_11_">
	<g>
		<path fill="#00C0FF" d="M16.428,1410.756h-2.299l4.573-4.543H8.828v-1.727H18.7l-4.572-4.529h2.298l5.4,5.4L16.428,1410.756z"/>
	</g>
</g>
<g id="Layer_1_14_">
	<g>
		<path fill="#FFFFFF" d="M16.891,1460.754h-2.298l4.572-4.543H9.292v-1.725h9.873l-4.573-4.529h2.299l5.4,5.4L16.891,1460.754z"/>
	</g>
</g>
<g id="Layer_1_13_">
	<g>
		<path fill="#FFFFFF" d="M14.691,1499.957h2.299l-4.572,4.543h9.873v1.727h-9.873l4.573,4.529h-2.3l-5.4-5.396L14.691,1499.957z"/>
	</g>
</g>
<g id="Layer_1_15_">
	<g>
		<rect x="5.75" y="1549.875" fill="#00A9E0" width="5.001" height="5.002"/>
		<rect x="13.25" y="1549.875" fill="#00A9E0" width="5.001" height="5.002"/>
		<rect x="20.749" y="1549.875" fill="#00A9E0" width="5.001" height="5.002"/>
		<rect x="5.75" y="1557.375" fill="#00A9E0" width="5.001" height="5"/>
		<rect x="13.25" y="1557.375" fill="#00A9E0" width="5.001" height="5"/>
		<rect x="20.749" y="1557.375" fill="#00A9E0" width="5.001" height="5"/>
		<rect x="5.75" y="1564.875" fill="#00A9E0" width="5.001" height="5"/>
		<rect x="13.25" y="1564.875" fill="#00A9E0" width="5.001" height="5"/>
		<rect x="20.749" y="1564.875" fill="#00A9E0" width="5.001" height="5"/>
	</g>
</g>
<g id="Layer_1_16_">
	<g id="search_1_">
		<path id="search_4_" fill="#004165" d="M21.796,1612.729c0.694-0.692,0.185-1.271,0.185-1.271l-3.227-3.229
			c0.523-0.812,0.836-1.776,0.836-2.816c-0.001-2.873-2.344-5.213-5.216-5.213c-2.873,0-5.212,2.34-5.212,5.213
			c0,2.874,2.338,5.214,5.212,5.214c1.039,0,2.002-0.309,2.819-0.836l3.228,3.227C20.42,1613.014,21.102,1613.422,21.796,1612.729z
			 M10.818,1605.407c0-1.959,1.596-3.562,3.557-3.562c1.963,0,3.559,1.6,3.559,3.562c0,1.961-1.596,3.557-3.559,3.557
			C12.414,1608.965,10.818,1607.368,10.818,1605.407z"/>
	</g>
</g>
<g id="Layer_1_44_">
	<g>
		<path fill="#FB4F14" d="M16.994,1657.959l-2.001,1.998L7,1651.963l1.999-2L16.994,1657.959z"/>
		<path fill="#FB4F14" d="M21.002,1649.963l1.998,2l-7.994,7.994l-2-1.998L21.002,1649.963z"/>
	</g>
</g>
<g id="Layer_1_43_">
	<g>
		<path fill="#FB4F14" d="M13.006,1701.963l1.998-2l7.996,7.996l-1.998,1.998L13.006,1701.963z"/>
		<path fill="#FB4F14" d="M9,1709.958l-2-1.998l7.993-7.996l2.001,2L9,1709.958z"/>
	</g>
</g>
<g id="Layer_1_42_">
	<g>
		<path fill="#FB4F14" d="M13.478,1749.963h3.187l-6.332,6.291h13.669v2.396h-13.67l6.331,6.271h-3.186l-7.479-7.478
			L13.478,1749.963z"/>
	</g>
</g>
<g id="Layer_1_41_">
	<g>
		<path fill="#FB4F14" d="M16.523,1814.915H13.34l6.33-6.291H6v-2.389h13.67l-6.331-6.271h3.185l7.479,7.479L16.523,1814.915z"/>
	</g>
</g>
<g id="Layer_1_40_">
	<g>
		<path fill="#FB4F14" d="M16.523,1864.916H13.34l6.33-6.291H6v-2.391h13.67l-6.331-6.271h3.185l7.479,7.479L16.523,1864.916z"/>
	</g>
</g>
<g id="Layer_1_39_">
	<g>
		<path fill="#FB4F14" d="M14.993,1912.959l-2.999,2.998L4,1907.963l2.999-3L14.993,1912.959z"/>
		<path fill="#FB4F14" d="M23.002,1899.963l2.998,3l-13.995,12.994l-2.999-2.998L23.002,1899.963z"/>
	</g>
</g>
<g id="Layer_1_38_">
	<g>
		<path fill="#FB4F14" d="M9.433,1949.963l5.567,5.566l5.566-5.566l2.434,2.438l-5.566,5.562l5.566,5.566l-2.434,2.434L15,1960.401
			l-5.567,5.562L7,1963.529l5.566-5.566L7,1952.401L9.433,1949.963z"/>
	</g>
</g>
<g id="Layer_1_37_">
	<g>
		
			<line fill="none" stroke="#FB4F14" stroke-width="2" stroke-linecap="round" stroke-miterlimit="10" x1="2" y1="1999.963" x2="28" y2="1999.963"/>
		
			<line fill="none" stroke="#FB4F14" stroke-width="2" stroke-linecap="round" stroke-miterlimit="10" x1="2" y1="2007.907" x2="28" y2="2007.907"/>
		
			<line fill="none" stroke="#FB4F14" stroke-width="2" stroke-linecap="round" stroke-miterlimit="10" x1="2" y1="2015.854" x2="28" y2="2015.854"/>
	</g>
</g>
<g id="Layer_1_18_">
	<g id="search_9_">
		<path id="search_10_" fill="#FB4F14" d="M26.174,2072.792c1.264-1.269,0.336-2.32,0.336-2.32l-5.877-5.881
			c0.955-1.479,1.521-3.238,1.521-5.133c-0.002-5.232-4.271-9.494-9.501-9.494c-5.236,0-9.494,4.262-9.494,9.494
			c0,5.231,4.258,9.496,9.494,9.496c1.892,0,3.647-0.562,5.134-1.521l5.877,5.877C23.666,2073.312,24.908,2074.056,26.174,2072.792z
			 M6.177,2059.458c0-3.568,2.906-6.479,6.479-6.479c3.576,0,6.479,2.905,6.479,6.479c0,3.572-2.902,6.479-6.479,6.479
			C9.084,2065.938,6.177,2063.03,6.177,2059.458z"/>
	</g>
</g>
<g id="Layer_1_17_">
	<g>
		<path fill="#00A9E0" d="M13.899,2100.123h2.299l-4.573,4.543h9.874v1.725h-9.872l4.572,4.529h-2.298l-5.4-5.399L13.899,2100.123z"
			/>
	</g>
</g>
<g id="Layer_1_45_">
	<g>
		<path fill="#FB4F14" d="M15.937,2164.002h-2.652l5.273-5.242H7.168v-1.992h11.389l-5.275-5.224h2.654l6.231,6.231L15.937,2164.002
			z"/>
	</g>
</g>
</svg>
