<?xml version="1.0" standalone="no"?> <!DOCTYPE svg PUBLIC "-//W3C//DTD SVG 1.0//EN" "http://www.w3.org/TR/2001/REC-SVG-20010904/DTD/svg10.dtd" > 
<svg xmlns="http://www.w3.org/2000/svg" width="100%" height="100%">
<metadata version="1.0"><uniqueid id="com.myfonts.marksimonson.proxima-nova.s-regular.wfkit2.dttj"/><vendor name="MyFonts" url="http://www.myfonts.com/"/><credits><credit name="Mark Simonson" url="http://www.myfonts.com/person/simonson/mark/"/></credits><description><text lang="en">This is a Webfont from MyFonts. Full information about this font:
http://www.myfonts.com/fonts/marksimonson/proxima-nova/
</text></description><copyright><text lang="en">Copyright (c) Mark Simonson, 2005. All rights reserved.</text></copyright><trademark><text lang="en">Proxima Nova is a trademark of Mark Simonson.</text></trademark></metadata>
<defs >
<font id="wf" horiz-adv-x="493" ><font-face
    font-family="Proxima Nova ScOsf Rg"
    units-per-em="1000"
    panose-1="2 0 5 6 3 0 0 2 0 4"
    ascent="951"
    descent="-49"
    alphabetic="0" />
<missing-glyph horiz-adv-x="507" d="M429 -90H78V752H429V-90ZM397 -60V722H109V-60H397Z" />
<glyph unicode=" " glyph-name="space" horiz-adv-x="259" />
<glyph unicode="!" glyph-name="exclam" horiz-adv-x="184" d="M135 550L121 166H63L49 550H135ZM147 45Q147 22 131 6T92 -10T54 6T37 45Q37 67 53 83T92 100T130 84T147 45Z" />
<glyph unicode="&quot;" glyph-name="quotedbl" horiz-adv-x="344" d="M118 412H81Q54 617 54 631Q54 650 67 663T99 677T131 664T145 631L118 412ZM263 412H226Q199 617 199 631Q199 650 212 663T245 677T277 664T290 631L263 412Z" />
<glyph unicode="#" glyph-name="numbersign" horiz-adv-x="496" d="M475 394L461 347H373L326 206H415L400 159H310L257 0H200L253 159H163L110 0H53L106 159H22L37 206H123L170 347H83L97 394H185L238 550H295L242 394H331L385 550H442L388 394H475ZM315 347H227L179
206H269L315 347Z" />
<glyph unicode="$" glyph-name="dollar" horiz-adv-x="504" d="M225 -74V-11Q100 -2 32 74L74 133Q133 68 225 57V254Q185 264 160 273T107 299T64 343T50 406Q50 468 99 511T225 561V628H284V560Q388 550 455 483L414 428Q364 481 284 491V317Q325 306 351 297T408
269T453 221T468 153Q468 86 421 41T284 -11V-74H225ZM388 150Q388 185 362 204T284 239V57Q337 63 362 88T388 150ZM131 407Q131 378 155 362T225 332V492Q183 487 157 464T131 407Z" />
<glyph unicode="%" glyph-name="percent" horiz-adv-x="592" d="M288 484T288 425T252 328T156 289Q99 289 63 328T26 425T62 522T156 562Q214 562 251 523ZM566 125Q566 67 529 28T435 -11T341 28T304 125Q304 184 341 223T435 262T529 223T566 125ZM514 550L130
0H78L460 550H514ZM236 385T236 425T214 491T156 518Q122 518 100 491T77 425T99 360T156 333Q192 333 214 359ZM515 125Q515 165 493 191T435 218T377 192T355 125T377 59T435 33Q470 33 492 59T515 125Z" />
<glyph unicode="&amp;" glyph-name="ampersand" horiz-adv-x="556" d="M536 0H441Q437 3 377 58Q303 -11 209 -11Q129 -11 78 31T27 145Q27 204 60 241T153 309Q110 377 110 431Q110 488 152 525T258 562Q315 562 353 533T391 451Q391 421 380 397T344 354T299
323T244 295Q269 264 310 221Q342 185 378 149Q418 209 438 274L497 250Q461 163 420 107L536 0ZM216 44Q279 44 335 98Q283 150 258 179Q215 225 184 265Q100 217 100 150Q100 104 132 74T216 44ZM179 430Q179 391 214 338Q270 364 298 387T327 448Q327 477 309
493T260 509Q224 509 202 487T179 430Z" />
<glyph unicode="&apos;" glyph-name="quotesingle" horiz-adv-x="199" d="M118 412H81Q54 617 54 631Q54 650 67 663T99 677T131 664T145 631L118 412Z" />
<glyph unicode="(" glyph-name="parenleft" horiz-adv-x="248" d="M231 -164L185 -199Q44 -5 44 243T185 685L231 651Q178 547 152 454T126 243Q126 126 152 33T231 -164Z" />
<glyph unicode=")" glyph-name="parenright" horiz-adv-x="248" d="M63 -199L17 -164Q70 -61 96 32T122 243Q122 361 96 454T17 651L63 685Q204 491 204 243T63 -199Z" />
<glyph unicode="*" glyph-name="asterisk" horiz-adv-x="340" d="M193 389H147L153 504L56 442L34 481L136 533L34 585L56 625L153 562L147 677H193L187 562L283 625L306 585L204 533L306 481L283 442L187 504L193 389Z" />
<glyph unicode="+" glyph-name="plus" horiz-adv-x="499" d="M470 311H278V98H221V311H29V363H221V570H278V363H470V311Z" />
<glyph unicode="," glyph-name="comma" horiz-adv-x="230" d="M176 24Q176 -20 154 -60T95 -127L57 -96Q82 -80 100 -54T122 -3Q118 -5 108 -5Q88 -5 74 9T60 46T75 84T113 100Q140 100 158 80T176 24Z" />
<glyph unicode="-" glyph-name="hyphen" horiz-adv-x="300" d="M270 209H30V275H270V209Z" />
<glyph unicode="." glyph-name="period" horiz-adv-x="231" d="M138 -10T115 -10T76 6T60 45T76 84T115 100T154 84T170 45T154 6Z" />
<glyph unicode="/" glyph-name="slash" horiz-adv-x="296" d="M59 -20H0L237 687H296L59 -20Z" />
<glyph unicode="0" glyph-name="zero" horiz-adv-x="612" d="M561 275Q561 200 536 137T451 31T306 -12T162 31T77 137T51 275Q51 331 66 381T111 472T191 537T306 562T420 538T501 472T546 381T561 275ZM476 186T476 275T434 426T306 488Q222 488 179 426T136
275T179 124T306 62T433 124Z" />
<glyph unicode="1" glyph-name="one" horiz-adv-x="339" d="M261 0H178V441L71 327L21 378L188 550H261V0Z" />
<glyph unicode="2" glyph-name="two" horiz-adv-x="578" d="M491 0H60V67Q240 141 329 218T418 371Q418 422 379 455T282 488Q161 488 96 404L45 457Q83 507 147 534T284 562Q379 562 440 513T502 382Q502 294 421 212T213 74H491V0Z" />
<glyph unicode="3" glyph-name="three" horiz-adv-x="553" d="M262 -129Q182 -129 120 -98T25 -19L74 33Q104 -7 153 -31T260 -55Q332 -55 374 -21T416 70Q416 130 372 159T250 188Q191 188 181 187V263Q192 262 250 262Q318 262 361 289T405 372Q405 425 363
455T256 486Q155 486 80 405L34 457Q118 560 263 560Q362 560 425 513T488 383Q488 317 444 277T345 228Q400 222 449 179T499 63Q499 -22 435 -75T262 -129Z" />
<glyph unicode="4" glyph-name="four" horiz-adv-x="558" d="M526 55H432V-117H349V55H32V124L318 550H432V128H526V55ZM349 128V473L115 128H349Z" />
<glyph unicode="5" glyph-name="five" horiz-adv-x="590" d="M301 -129Q147 -129 66 -22L117 34Q186 -55 301 -55Q369 -55 412 -14T455 88Q455 153 413 192T302 232Q213 232 148 170L87 191V550H495V476H170V244Q232 304 326 304Q415 304 477 247T539 91T472 -68T301
-129Z" />
<glyph unicode="6" glyph-name="six" horiz-adv-x="591" d="M309 -12Q241 -12 190 16T110 93T66 202T51 333Q51 479 120 578T323 677Q439 677 507 597L465 535Q407 603 323 603Q232 603 184 526T135 341V315Q160 355 212 387T324 419Q419 419 480 364T542 206Q542
116 478 52T309 -12ZM305 62Q377 62 417 106T458 203Q458 273 415 310T305 347Q256 347 211 320T138 248Q144 174 185 118T305 62Z" />
<glyph unicode="7" glyph-name="seven" horiz-adv-x="515" d="M213 -117H121L390 476H31V550H486V493L213 -117Z" />
<glyph unicode="8" glyph-name="eight" horiz-adv-x="582" d="M393 -12T291 -12T121 37T52 169Q52 232 97 278T211 344Q147 362 105 402T63 504Q63 588 131 632T291 677T451 633T520 504Q520 443 478 403T371 344Q439 324 484 278T530 169Q530 87 462 38ZM291
378Q311 381 331 388T378 407T420 442T436 493Q436 543 395 573T291 603T188 574T147 493Q147 465 163 443T205 408T251 388T291 378ZM291 62Q355 62 400 94T446 178Q446 218 415 248T351 291T291 307Q264 304 232 292T168 249T136 178Q136 126 181 94T291 62Z"
/>
<glyph unicode="9" glyph-name="nine" horiz-adv-x="591" d="M269 -128Q155 -128 84 -48L126 14Q184 -54 269 -54Q333 -54 377 -14T439 83T457 208Q457 225 456 234Q431 194 379 162T268 130Q173 130 111 185T49 343Q49 433 113 497T283 561Q350 561 401 533T482
456T526 347T541 216Q541 122 513 47T422 -78T269 -128ZM287 202Q336 202 381 229T454 302Q451 335 441 366T411 425T360 470T286 487Q215 487 174 444T133 346Q133 276 176 239T287 202Z" />
<glyph unicode=":" glyph-name="colon" horiz-adv-x="225" d="M137 380T115 380T77 396T60 435Q60 458 76 474T115 490T154 474T170 435Q170 413 154 397ZM138 -10T115 -10T76 6T60 45T76 84T115 100T154 84T170 45T154 6Z" />
<glyph unicode=";" glyph-name="semicolon" horiz-adv-x="230" d="M137 380T115 380T77 396T60 435Q60 458 76 474T115 490T154 474T170 435Q170 413 154 397ZM176 26Q176 -19 154 -59T95 -125L57 -95Q81 -79 100 -52T122 -1Q118 -3 108 -3Q88 -3 74 11T60 48T75
86T113 102Q140 102 158 82T176 26Z" />
<glyph unicode="&lt;" glyph-name="less" horiz-adv-x="499" d="M470 90L29 308V361L470 580V517L93 334L470 153V90Z" />
<glyph unicode="=" glyph-name="equal" horiz-adv-x="499" d="M470 404H29V457H470V404ZM470 211H29V264H470V211Z" />
<glyph unicode="&gt;" glyph-name="greater" horiz-adv-x="499" d="M470 308L29 90V153L406 334L29 517V580L470 361V308Z" />
<glyph unicode="?" glyph-name="question" horiz-adv-x="396" d="M373 434Q373 393 347 361T289 312T232 272T205 225Q205 203 231 185L174 161Q138 189 138 227Q138 255 154 277T194 315T240 345T279 379T296 421Q296 454 269 474T194 495Q106 495 50 426L10
473Q80 561 200 561Q279 561 326 525T373 434ZM246 68T246 45T230 6T191 -10T152 6T136 45T152 84T191 100T230 84Z" />
<glyph unicode="@" glyph-name="at" horiz-adv-x="783" d="M352 -70Q216 -70 126 20T35 244Q35 404 154 521T432 638Q571 638 659 547T747 321Q747 211 695 148T574 85Q534 85 510 108T483 166V173Q456 134 413 110T324 85Q255 85 213 130T171 248Q171 350 243
424T406 499Q452 499 485 477T534 421L547 483H615L558 212Q556 200 556 191Q556 167 569 153T603 139Q641 139 676 184T712 321Q712 445 634 524T429 604Q285 604 178 496T70 246Q70 125 151 44T356 -37Q453 -37 542 19L560 -7Q462 -70 352 -70ZM345 141Q431 141
493 231L522 370Q512 398 486 420T419 443Q346 443 295 385T243 252Q243 203 270 172T345 141Z" />
<glyph unicode="A" glyph-name="A" horiz-adv-x="658" d="M649 0H554L495 149H163L104 0H9L278 667H381L649 0ZM471 222L329 582L188 222H471Z" />
<glyph unicode="B" glyph-name="B" horiz-adv-x="629" d="M382 0H78V667H375Q461 667 511 620T562 497Q562 437 528 396T445 344Q498 336 536 288T575 180Q575 99 524 50T382 0ZM361 378Q416 378 446 408T476 485T446 562T361 593H161V378H361ZM366 74Q424 74
456 105T489 189Q489 237 457 270T366 304H161V74H366Z" />
<glyph unicode="C" glyph-name="C" horiz-adv-x="676" d="M394 -12Q248 -12 150 84T51 333T149 581T394 678Q555 678 647 546L578 507Q549 551 500 577T394 604Q283 604 210 528T137 333Q137 215 210 139T394 62Q450 62 499 89T578 159L648 121Q551 -12 394 -12Z" />
<glyph unicode="D" glyph-name="D" horiz-adv-x="700" d="M306 0H78V667H306Q459 667 553 572T648 333Q648 188 554 94T306 0ZM306 74Q424 74 493 148T562 333Q562 445 494 519T306 593H161V74H306Z" />
<glyph unicode="E" glyph-name="E" horiz-adv-x="569" d="M515 0H78V667H515V593H161V378H508V304H161V74H515V0Z" />
<glyph unicode="F" glyph-name="F" horiz-adv-x="551" d="M161 0H78V667H515V593H161V378H508V304H161V0Z" />
<glyph unicode="G" glyph-name="G" horiz-adv-x="713" d="M394 -13Q249 -13 150 83T51 333T149 582T394 678Q553 678 653 554L587 512Q555 554 504 579T394 604Q283 604 210 528T137 333Q137 215 210 139T394 62Q449 62 497 83T574 134V269H344V343H656V103Q553
-13 394 -13Z" />
<glyph unicode="H" glyph-name="H" horiz-adv-x="712" d="M634 0H551V306H161V0H78V667H161V380H551V667H634V0Z" />
<glyph unicode="I" glyph-name="I" horiz-adv-x="239" d="M161 0H78V667H161V0Z" />
<glyph unicode="J" glyph-name="J" horiz-adv-x="475" d="M185 -12Q77 -12 11 65L55 128Q108 62 180 62Q241 62 277 100T314 202V667H397V201Q397 97 338 43T185 -12Z" />
<glyph unicode="K" glyph-name="K" horiz-adv-x="601" d="M585 0H481L228 300L161 224V0H78V667H161V323L456 667H560L282 351L585 0Z" />
<glyph unicode="L" glyph-name="L" d="M460 0H67V667H150V74H460V0Z" />
<glyph unicode="M" glyph-name="M" horiz-adv-x="809" d="M731 0H648V561L422 0H388L161 561V0H78V667H197L405 153L612 667H731V0Z" />
<glyph unicode="N" glyph-name="N" horiz-adv-x="708" d="M630 0H550L161 532V0H78V667H163L547 146V667H630V0Z" />
<glyph unicode="O" glyph-name="O" horiz-adv-x="765" d="M528 -12T382 -12T144 86T51 333T143 580T382 678T621 580T714 333T621 86ZM382 62Q492 62 560 138T628 333T560 527T382 604Q271 604 204 528T137 333Q137 215 204 139T382 62Z" />
<glyph unicode="P" glyph-name="P" horiz-adv-x="587" d="M161 0H78V667H346Q443 667 499 609T555 466T499 323T346 265H161V0ZM336 339Q395 339 432 374T469 466T432 557T336 593H161V339H336Z" />
<glyph unicode="Q" glyph-name="Q" horiz-adv-x="765" d="M382 -12Q236 -12 144 86T51 333T143 580T382 678T621 580T714 333T622 86L685 19L628 -31L563 38Q485 -12 382 -12ZM382 62Q453 62 509 96L414 199L472 248L566 146Q628 222 628 333Q628 451 560 527T382
604Q271 604 204 528T137 333Q137 215 204 139T382 62Z" />
<glyph unicode="R" glyph-name="R" horiz-adv-x="609" d="M562 0H464L295 265H161V0H78V667H346Q439 667 497 612T556 466Q556 380 506 329T382 272L562 0ZM336 338Q395 338 432 374T470 466Q470 523 433 558T336 593H161V338H336Z" />
<glyph unicode="S" glyph-name="S" horiz-adv-x="586" d="M294 -12Q132 -12 38 94L88 158Q171 62 297 62Q378 62 416 97T454 178Q454 218 425 244T352 283T257 310T162 343T89 398T59 492Q59 574 124 626T289 678Q436 678 525 584L475 523Q404 603 282 603Q222
603 184 574T145 497Q145 462 174 439T247 405T342 378T437 343T510 283T540 184Q540 103 480 46T294 -12Z" />
<glyph unicode="T" glyph-name="T" horiz-adv-x="570" d="M326 0H243V593H32V667H538V593H326V0Z" />
<glyph unicode="U" glyph-name="U" horiz-adv-x="701" d="M350 -12Q218 -12 148 60T78 259V667H162V261Q162 168 210 115T350 62T490 115T539 261V667H623V260Q623 133 553 61T350 -12Z" />
<glyph unicode="V" glyph-name="V" horiz-adv-x="658" d="M381 0H278L9 667H104L329 91L554 667H649L381 0Z" />
<glyph unicode="W" glyph-name="W" horiz-adv-x="883" d="M678 0H588L441 538L294 0H204L14 667H106L254 111L407 667H476L629 111L776 667H869L678 0Z" />
<glyph unicode="X" glyph-name="X" horiz-adv-x="652" d="M640 0H539L326 284L113 0H12L272 342L27 667H128L326 401L523 667H625L380 343L640 0Z" />
<glyph unicode="Y" glyph-name="Y" horiz-adv-x="626" d="M355 0H272V282L9 667H106L313 357L520 667H617L355 282V0Z" />
<glyph unicode="Z" glyph-name="Z" horiz-adv-x="585" d="M537 0H48V69L423 593H48V667H530V598L154 74H537V0Z" />
<glyph unicode="[" glyph-name="bracketleft" horiz-adv-x="243" d="M226 -190H40V678H226V623H99V-135H226V-190Z" />
<glyph unicode="\" glyph-name="backslash" horiz-adv-x="296" d="M237 -20L0 687H59L296 -20H237Z" />
<glyph unicode="]" glyph-name="bracketright" horiz-adv-x="243" d="M204 -190H17V-135H145V623H17V678H204V-190Z" />
<glyph unicode="^" glyph-name="asciicircum" horiz-adv-x="432" d="M413 333H351L216 612L81 333H19L188 667H245L413 333Z" />
<glyph unicode="_" glyph-name="underscore" horiz-adv-x="564" d="M567 -95H-3V-40H567V-95Z" />
<glyph unicode="`" glyph-name="grave" horiz-adv-x="226" d="M226 556H169L0 700H78L226 556Z" />
<glyph unicode="a" glyph-name="a" horiz-adv-x="572" d="M240 550H333L565 0H478L427 120H146L95 0H7L240 550ZM403 189L287 468L170 189H403Z" />
<glyph unicode="b" glyph-name="b" horiz-adv-x="554" d="M340 0H75V550H334Q410 550 454 511T498 409Q498 362 471 329T404 284Q449 273 479 235T510 149Q510 81 465 41T340 0ZM329 69Q375 69 401 92T428 157Q428 194 402 220T329 247H154V69H329ZM325 316Q369
316 393 339T417 398Q417 436 393 458T325 481H154V316H325Z" />
<glyph unicode="c" glyph-name="c" horiz-adv-x="582" d="M341 -12Q215 -12 131 69T47 276T131 482T341 562Q480 562 559 449L496 414Q471 450 430 471T341 493Q250 493 189 432T127 276Q127 181 188 119T341 57Q389 57 430 78T496 136L560 101Q477 -12 341 -12Z" />
<glyph unicode="d" glyph-name="d" horiz-adv-x="615" d="M275 0H75V550H275Q407 550 487 472T568 274T488 78T275 0ZM275 69Q374 69 430 127T487 274Q487 364 432 422T275 481H154V69H275Z" />
<glyph unicode="e" glyph-name="e" horiz-adv-x="509" d="M457 0H75V550H457V481H154V316H452V247H154V69H457V0Z" />
<glyph unicode="f" glyph-name="f" horiz-adv-x="491" d="M154 0H75V550H457V481H154V316H452V247H154V0Z" />
<glyph unicode="g" glyph-name="g" horiz-adv-x="626" d="M341 -12Q216 -12 132 68T47 275T131 481T341 562Q475 562 562 461L501 420Q441 492 341 492Q250 492 189 431T128 275Q128 181 189 119T341 57Q429 57 488 114V221H318V287H566V84Q477 -12 341 -12Z" />
<glyph unicode="h" glyph-name="h" horiz-adv-x="635" d="M560 0H483V248H154V0H75V550H154V317H483V550H560V0Z" />
<glyph unicode="i" glyph-name="i" horiz-adv-x="229" d="M154 0H75V550H154V0Z" />
<glyph unicode="j" glyph-name="j" horiz-adv-x="422" d="M158 -12Q64 -12 8 56L46 113Q89 57 153 57Q206 57 237 88T268 170V550H346V164Q346 77 294 33T158 -12Z" />
<glyph unicode="k" glyph-name="k" horiz-adv-x="534" d="M520 0H423L207 243L154 185V0H75V550H154V275L402 550H500L258 289L520 0Z" />
<glyph unicode="l" glyph-name="l" horiz-adv-x="458" d="M420 0H75V550H154V69H420V0Z" />
<glyph unicode="m" glyph-name="m" horiz-adv-x="719" d="M644 0H566V444L377 0H343L154 444V0H75V550H182L359 131L537 550H644V0Z" />
<glyph unicode="n" glyph-name="n" horiz-adv-x="632" d="M557 0H478L153 428V0H75V550H157L479 130V550H557V0Z" />
<glyph unicode="o" glyph-name="o" horiz-adv-x="662" d="M457 -12T331 -12T126 70T47 275T126 480T331 562T536 480T615 275T536 70ZM239 57T331 57T479 118T535 275T479 431T331 493T183 432T127 275T183 119Z" />
<glyph unicode="p" glyph-name="p" horiz-adv-x="523" d="M154 0H75V550H311Q396 550 444 502T492 382Q492 310 445 262T311 214H154V0ZM304 282Q356 282 384 309T412 382T384 454T304 481H154V282H304Z" />
<glyph unicode="q" glyph-name="q" horiz-adv-x="662" d="M331 -12Q205 -12 126 70T47 275T126 480T331 562T536 480T615 275Q615 150 535 68L586 12L537 -29L484 28Q418 -12 331 -12ZM331 57Q389 57 435 83L359 167L408 209L484 125Q535 186 535 275Q535 370
479 431T331 493T183 432T127 275T183 119T331 57Z" />
<glyph unicode="r" glyph-name="r" horiz-adv-x="545" d="M500 0H408L264 214H154V0H75V550H311Q396 550 444 503T493 382Q493 312 452 269T344 220L500 0ZM304 282Q356 282 384 309T412 382T384 454T304 481H154V282H304Z" />
<glyph unicode="s" glyph-name="s" horiz-adv-x="504" d="M252 -12Q182 -12 125 11T32 74L74 133Q104 100 151 78T254 56Q322 56 355 83T388 150Q388 183 363 204T301 234T219 255T138 282T75 327T50 406Q50 474 107 518T249 562Q378 562 455 483L414 428Q352
494 249 494Q197 494 164 470T131 407Q131 379 156 361T218 335T299 313T380 285T443 236T468 153Q468 80 413 34T252 -12Z" />
<glyph unicode="t" glyph-name="t" horiz-adv-x="472" d="M275 0H197V481H26V550H445V481H275V0Z" />
<glyph unicode="u" glyph-name="u" horiz-adv-x="623" d="M426 -12T311 -12T136 48T75 212V550H154V217Q154 142 195 100T311 57Q387 57 428 100T469 217V550H548V212Q548 108 487 48Z" />
<glyph unicode="v" glyph-name="v" horiz-adv-x="572" d="M333 0H240L7 550H96L287 87L478 550H565L333 0Z" />
<glyph unicode="w" glyph-name="w" horiz-adv-x="764" d="M588 0H506L381 431L258 0H175L10 550H97L220 107L349 550H415L543 106L667 550H753L588 0Z" />
<glyph unicode="x" glyph-name="x" horiz-adv-x="567" d="M559 0H465L283 229L103 0H9L234 282L22 550H116L283 335L451 550H545L334 283L559 0Z" />
<glyph unicode="y" glyph-name="y" horiz-adv-x="547" d="M314 0H236V233L7 550H98L276 300L450 550H540L314 233V0Z" />
<glyph unicode="z" glyph-name="z" horiz-adv-x="516" d="M477 0H40V59L365 481H40V550H470V491L145 69H477V0Z" />
<glyph unicode="{" glyph-name="braceleft" horiz-adv-x="261" d="M244 -190H182Q132 -190 95 -153T58 -56V150Q58 180 45 199T5 219V269Q31 269 44 288T58 338V543Q58 603 95 640T182 678H244V623H182Q155 623 136 601T116 544V332Q116 263 71 244Q116 225 116
156V-55Q116 -89 135 -112T182 -135H244V-190Z" />
<glyph unicode="|" glyph-name="bar" horiz-adv-x="211" d="M133 -20H78V687H133V-20Z" />
<glyph unicode="}" glyph-name="braceright" horiz-adv-x="261" d="M17 -190V-135H78Q105 -135 125 -112T145 -55V156Q145 225 190 244Q145 263 145 332V544Q145 578 126 600T78 623H17V678H78Q128 678 165 641T203 543V338Q203 308 216 289T255 269V219Q230 219
217 200T203 150V-56Q203 -115 166 -152T78 -190H17Z" />
<glyph unicode="~" glyph-name="asciitilde" horiz-adv-x="503" d="M420 667L475 661Q470 610 463 572T440 498T400 442T338 423Q303 423 280 442T245 490T224 546T200 593T165 613Q102 613 83 422L27 429Q32 479 40 517T63 592T104 647T165 666T223 647T258 599T279
542T303 495T338 475Q401 475 420 667Z" />
<glyph unicode="&#xa0;" glyph-name="uni00A0" horiz-adv-x="259" />
<glyph unicode="&#xa1;" glyph-name="exclamdown" horiz-adv-x="184" d="M49 0L63 384H121L135 0H49ZM37 505Q37 528 53 544T92 560T130 544T147 505Q147 483 131 467T92 450T54 466T37 505Z" />
<glyph unicode="&#xa2;" glyph-name="cent" horiz-adv-x="582" d="M309 -92V-10Q194 0 121 79T47 276Q47 393 120 471T309 560V619H368V560Q487 550 559 449L496 414Q450 479 368 491V59Q453 70 496 136L560 101Q485 0 368 -10V-92H309ZM127 276Q127 190 178 130T309
59V491Q229 480 178 421T127 276Z" />
<glyph unicode="&#xa3;" glyph-name="sterling" horiz-adv-x="425" d="M14 224V272H85Q37 339 37 397Q37 467 90 514T221 561Q276 561 321 537T388 471L329 439Q299 503 227 503Q180 503 147 474T114 397Q114 374 123 349T141 312T168 272H303V224H196Q208 197
208 173Q208 112 155 78Q164 81 177 81Q205 81 244 67T305 53Q359 53 383 84L417 28Q376 -11 301 -11Q264 -11 226 6T156 23T62 -8L35 46Q141 92 141 159Q141 188 119 224H14Z" />
<glyph unicode="&#xa5;" glyph-name="yen" horiz-adv-x="547" d="M314 0H236V113H24V161H236V232H24V279H203L7 550H98L276 300L450 550H540L347 279H522V232H314V161H522V113H314V0Z" />
<glyph unicode="&#xa6;" glyph-name="brokenbar" horiz-adv-x="211" d="M133 -20H78V296H133V-20ZM133 371H78V687H133V371Z" />
<glyph unicode="&#xa7;" glyph-name="section" horiz-adv-x="468" d="M418 315Q418 227 326 188Q418 152 418 66Q418 -3 366 -42T229 -81Q114 -81 34 -3L72 46Q131 -25 229 -25Q281 -25 313 -2T346 61Q346 95 315 114T240 144T153 168T78 211T47 291T79 372T161
418Q47 454 47 542Q47 599 95 638T226 677Q342 677 405 606L370 561Q320 621 229 621Q180 621 150 599T119 541Q119 515 141 499T196 475T268 456T340 432T396 389T418 315ZM344 306Q344 344 314 364T231 397Q169 381 144 357T119 298Q119 251 186 228Q204 221
261 207Q344 243 344 306Z" />
<glyph unicode="&#xa8;" glyph-name="dieresis" horiz-adv-x="272" d="M286 623T286 604T272 572T239 558T207 571T193 604T206 636T239 650Q259 650 272 637ZM79 623T79 604T66 572T33 558T0 571T-14 604T-1 636T33 650Q52 650 65 637Z" />
<glyph unicode="&#xa9;" glyph-name="copyright" horiz-adv-x="778" d="M734 477T734 334T633 90T389 -11T145 90T44 334Q44 477 145 578T389 679T633 578ZM703 334Q703 464 611 556T389 648Q260 648 168 556T75 334Q75 205 167 113T389 20Q519 20 611 112T703
334ZM512 212L538 187Q481 121 391 121Q304 121 244 183T183 336T243 487T391 548Q482 548 537 483L512 458Q493 484 460 499T391 515Q321 515 271 465T220 335Q220 258 271 206T391 154Q427 154 459 170T512 212Z" />
<glyph unicode="&#xaa;" glyph-name="ordfeminine" horiz-adv-x="378" d="M318 326H261V361Q220 318 153 318Q109 318 75 346T41 422Q41 471 74 498T153 525Q221 525 261 483V538Q261 568 238 585T181 603Q122 603 83 557L57 595Q109 648 188 648Q245 648 281
621T318 537V326ZM175 356Q231 356 261 394V450Q231 488 175 488Q142 488 121 470T99 422Q99 392 120 374T175 356Z" />
<glyph unicode="&#xab;" glyph-name="guillemotleft" horiz-adv-x="439" d="M265 63H190L30 243L190 420H265L105 243L265 63ZM409 63H334L174 243L334 420H409L249 243L409 63Z" />
<glyph unicode="&#xac;" glyph-name="logicalnot" horiz-adv-x="504" d="M470 457V211H415V404H29V457H470Z" />
<glyph unicode="&#xae;" glyph-name="registered" horiz-adv-x="494" d="M459 465Q459 377 397 315T247 253T97 315T35 465T97 615T247 677Q336 677 397 616T459 465ZM430 465Q430 542 377 595T247 648T118 595T64 465Q64 390 117 336T247 282T376 336T430 465ZM345
343H305L242 439H198V343H166V586H265Q297 586 319 566T342 512Q342 477 320 459T280 440L345 343ZM309 512Q309 531 296 544T265 558H198V468H265Q281 468 295 481T309 512Z" />
<glyph unicode="&#xaf;" glyph-name="overscore" horiz-adv-x="363" d="M363 591H0V639H363V591Z" />
<glyph unicode="&#xb0;" glyph-name="degree" horiz-adv-x="290" d="M267 555Q267 504 231 469T145 433Q94 433 59 468T23 555Q23 605 58 641T145 677Q195 677 231 641T267 555ZM219 525T219 555T197 607T145 629T94 607T72 555Q72 524 93 503T145 482Q175 482 197 503Z" />
<glyph unicode="&#xb1;" glyph-name="plusminus" horiz-adv-x="499" d="M470 324H278V111H221V324H29V376H221V583H278V376H470V324ZM470 0H29V53H470V0Z" />
<glyph unicode="&#xb2;" glyph-name="twosuperior" horiz-adv-x="388" d="M341 421H50V466Q175 556 227 607T279 705Q279 741 254 759T194 778T129 763T82 726L49 764Q99 827 196 827Q256 827 297 797T339 709Q339 654 289 599T138 470H341V421Z" />
<glyph unicode="&#xb3;" glyph-name="threesuperior" horiz-adv-x="388" d="M343 530Q343 478 303 446T192 414Q89 414 42 479L75 517Q118 463 191 463Q234 463 258 482T283 533Q283 602 179 602Q145 602 139 601V651Q146 650 179 650Q277 650 277 714Q277 744
252 761T187 778Q123 778 78 730L47 765Q102 827 193 827Q257 827 296 798T336 720Q336 680 309 657T247 628Q282 624 312 599T343 530Z" />
<glyph unicode="&#xb4;" glyph-name="acute" horiz-adv-x="226" d="M226 700L57 556H0L148 700H226Z" />
<glyph unicode="&#xb5;" glyph-name="mu" horiz-adv-x="551" d="M150 -184H75V483H150V165Q150 104 178 79T259 53Q300 53 339 75T401 128V483H476V0H401V68Q371 34 326 11T229 -12Q183 -12 150 2V-184Z" />
<glyph unicode="&#xb6;" glyph-name="paragraph" horiz-adv-x="449" d="M378 -100H333V622H244V-100H199V323Q128 323 78 373T27 495T77 616T199 667H378V-100Z" />
<glyph unicode="&#xb7;" glyph-name="middot" horiz-adv-x="231" d="M170 245Q170 222 154 206T115 190T76 206T60 245Q60 267 76 283T115 299T153 283T170 245Z" />
<glyph unicode="&#xb8;" glyph-name="cedilla" horiz-adv-x="205" d="M101 -191Q38 -191 0 -161L19 -123Q55 -152 99 -152Q125 -152 142 -141T160 -110Q160 -75 123 -75Q99 -75 85 -92L52 -73L83 11H128L102 -55Q116 -44 139 -44Q168 -44 186 -62T205 -111Q205
-147 176 -169T101 -191Z" />
<glyph unicode="&#xb9;" glyph-name="onesuperior" horiz-adv-x="235" d="M175 421H115V743L49 674L14 711L122 821H175V421Z" />
<glyph unicode="&#xba;" glyph-name="ordmasculine" horiz-adv-x="405" d="M202 318Q130 318 85 366T40 483Q40 553 84 600T202 648Q276 648 320 601T365 483T321 366T202 318ZM202 366Q250 366 278 399T306 483T278 566T202 599Q155 599 128 566T100 483Q100
432 127 399T202 366Z" />
<glyph unicode="&#xbb;" glyph-name="guillemotright" horiz-adv-x="439" d="M409 243L249 63H174L334 243L174 420H249L409 243ZM265 243L105 63H30L190 243L30 420H105L265 243Z" />
<glyph unicode="&#xbc;" glyph-name="onequarter" horiz-adv-x="770" d="M590 667L163 0H109L535 667H590ZM733 100H676V0H616V100H420V145L593 400H676V149H733V100ZM616 149V347L480 149H616ZM175 267H115V589L49 520L14 557L122 667H175V267Z" />
<glyph unicode="&#xbd;" glyph-name="onehalf" horiz-adv-x="807" d="M590 667L163 0H109L535 667H590ZM175 267H115V589L49 520L14 557L122 667H175V267ZM760 0H469V45Q594 135 646 186T698 284Q698 320 673 338T613 357T548 342T501 305L468 343Q518 406 615
406Q675 406 716 376T758 288Q758 233 708 178T557 49H760V0Z" />
<glyph unicode="&#xbe;" glyph-name="threequarters" horiz-adv-x="878" d="M698 667L271 0H217L643 667H698ZM842 100H785V0H725V100H529V145L702 400H785V149H842V100ZM725 149V347L589 149H725ZM343 376Q343 324 303 292T192 260Q89 260 42 325L75 363Q118
309 191 309Q234 309 258 328T283 379Q283 448 179 448Q145 448 139 447V497Q146 496 179 496Q277 496 277 560Q277 590 252 607T187 624Q123 624 78 576L47 611Q102 673 193 673Q257 673 296 644T336 566Q336 526 309 503T247 474Q282 470 312 445T343 376Z" />
<glyph unicode="&#xbf;" glyph-name="questiondown" horiz-adv-x="396" d="M23 116Q23 157 49 189T107 238T164 278T191 325Q191 347 165 365L222 389Q258 361 258 323Q258 295 242 273T202 235T156 205T117 171T100 129Q100 96 127 76T202 55Q290 55 346 124L386
77Q316 -11 196 -11Q117 -11 70 25T23 116ZM150 482T150 505T166 544T205 560T244 544T260 505T244 466T205 450T166 466Z" />
<glyph unicode="&#xc0;" glyph-name="Agrave" horiz-adv-x="658" d="M396 728H339L170 872H248L396 728ZM649 0H554L495 149H163L104 0H9L278 667H381L649 0ZM471 222L329 582L188 222H471Z" />
<glyph unicode="&#xc1;" glyph-name="Aacute" horiz-adv-x="658" d="M490 872L321 728H264L412 872H490ZM649 0H554L495 149H163L104 0H9L278 667H381L649 0ZM471 222L329 582L188 222H471Z" />
<glyph unicode="&#xc2;" glyph-name="Acircumflex" horiz-adv-x="658" d="M463 728H412L329 834L249 728H198L293 872H365L463 728ZM649 0H554L495 149H163L104 0H9L278 667H381L649 0ZM471 222L329 582L188 222H471Z" />
<glyph unicode="&#xc3;" glyph-name="Atilde" horiz-adv-x="658" d="M389 726Q365 726 347 740T319 772T296 803T266 818Q245 818 232 797T218 732H173Q173 792 198 829T270 866Q294 866 312 852T340 820T363 789T393 774Q414 774 427 795T441 860H486Q486 800
461 763T389 726ZM649 0H554L495 149H163L104 0H9L278 667H381L649 0ZM471 222L329 582L188 222H471Z" />
<glyph unicode="&#xc4;" glyph-name="Adieresis" horiz-adv-x="658" d="M480 792T480 773T466 741T433 727T401 740T387 773T400 805T433 819Q453 819 466 806ZM273 792T273 773T260 741T227 727T194 740T180 773T193 805T227 819Q246 819 259 806ZM649 0H554L495
149H163L104 0H9L278 667H381L649 0ZM471 222L329 582L188 222H471Z" />
<glyph unicode="&#xc5;" glyph-name="Aring" horiz-adv-x="658" d="M370 692T330 692T261 721T231 791T260 861T330 890T398 861T427 791T399 721ZM330 732Q354 732 371 749T388 791T371 832T330 850Q305 850 288 833T271 791T288 750T330 732ZM649 0H554L495
149H163L104 0H9L278 667H381L649 0ZM471 222L329 582L188 222H471Z" />
<glyph unicode="&#xc6;" glyph-name="AE" horiz-adv-x="948" d="M893 0H456V149H194L102 0H7L423 667H893V593H539V378H886V304H539V74H893V0ZM456 222V582L234 222H456Z" />
<glyph unicode="&#xc7;" glyph-name="Ccedilla" horiz-adv-x="676" d="M388 -187Q324 -187 287 -157L306 -119Q342 -148 386 -148Q412 -148 429 -137T447 -106Q447 -71 410 -71Q386 -71 372 -88L339 -69L360 -10Q226 1 139 95T51 333Q51 485 149 581T394 678Q555
678 647 546L578 507Q549 551 500 577T394 604Q283 604 210 528T137 333Q137 215 210 139T394 62Q450 62 499 89T578 159L648 121Q553 -8 404 -12L389 -51Q403 -40 426 -40Q455 -40 473 -58T492 -107Q492 -143 463 -165T388 -187Z" />
<glyph unicode="&#xc8;" glyph-name="Egrave" horiz-adv-x="569" d="M363 728H306L137 872H215L363 728ZM515 0H78V667H515V593H161V378H508V304H161V74H515V0Z" />
<glyph unicode="&#xc9;" glyph-name="Eacute" horiz-adv-x="569" d="M456 872L287 728H230L378 872H456ZM515 0H78V667H515V593H161V378H508V304H161V74H515V0Z" />
<glyph unicode="&#xca;" glyph-name="Ecircumflex" horiz-adv-x="569" d="M428 728H377L294 834L214 728H163L258 872H330L428 728ZM515 0H78V667H515V593H161V378H508V304H161V74H515V0Z" />
<glyph unicode="&#xcb;" glyph-name="Edieresis" horiz-adv-x="569" d="M446 792T446 773T432 741T399 727T367 740T353 773T366 805T399 819Q419 819 432 806ZM239 792T239 773T226 741T193 727T160 740T146 773T159 805T193 819Q212 819 225 806ZM515 0H78V667H515V593H161V378H508V304H161V74H515V0Z"
/>
<glyph unicode="&#xcc;" glyph-name="Igrave" horiz-adv-x="239" d="M161 0H78V667H161V0ZM185 728H128L-41 872H37L185 728Z" />
<glyph unicode="&#xcd;" glyph-name="Iacute" horiz-adv-x="239" d="M161 0H78V667H161V0ZM281 872L112 728H55L203 872H281Z" />
<glyph unicode="&#xce;" glyph-name="Icircumflex" horiz-adv-x="239" d="M161 0H78V667H161V0ZM252 728H201L118 834L38 728H-13L82 872H154L252 728Z" />
<glyph unicode="&#xcf;" glyph-name="Idieresis" horiz-adv-x="239" d="M161 0H78V667H161V0ZM269 792T269 773T255 741T222 727T190 740T176 773T189 805T222 819Q242 819 255 806ZM62 792T62 773T49 741T16 727T-17 740T-31 773T-18 805T16 819Q35 819 48 806Z" />
<glyph unicode="&#xd0;" glyph-name="Eth" horiz-adv-x="728" d="M334 0H106V299H10V360H106V667H334Q487 667 581 572T676 333Q676 188 582 94T334 0ZM358 299H189V74H334Q452 74 521 148T590 333Q590 445 522 519T334 593H189V360H358V299Z" />
<glyph unicode="&#xd1;" glyph-name="Ntilde" horiz-adv-x="708" d="M630 0H550L161 532V0H78V667H163L547 146V667H630V0ZM412 726Q388 726 370 740T342 772T319 803T289 818Q268 818 255 797T241 732H196Q196 792 221 829T293 866Q317 866 335 852T363 820T386
789T416 774Q437 774 450 795T464 860H509Q509 800 484 763T412 726Z" />
<glyph unicode="&#xd2;" glyph-name="Ograve" horiz-adv-x="765" d="M452 728H395L226 872H304L452 728ZM528 -12T382 -12T144 86T51 333T143 580T382 678T621 580T714 333T621 86ZM382 62Q492 62 560 138T628 333T560 527T382 604Q271 604 204 528T137 333Q137
215 204 139T382 62Z" />
<glyph unicode="&#xd3;" glyph-name="Oacute" horiz-adv-x="765" d="M544 872L375 728H318L466 872H544ZM528 -12T382 -12T144 86T51 333T143 580T382 678T621 580T714 333T621 86ZM382 62Q492 62 560 138T628 333T560 527T382 604Q271 604 204 528T137 333Q137
215 204 139T382 62Z" />
<glyph unicode="&#xd4;" glyph-name="Ocircumflex" horiz-adv-x="765" d="M517 728H466L383 834L303 728H252L347 872H419L517 728ZM528 -12T382 -12T144 86T51 333T143 580T382 678T621 580T714 333T621 86ZM382 62Q492 62 560 138T628 333T560 527T382 604Q271
604 204 528T137 333Q137 215 204 139T382 62Z" />
<glyph unicode="&#xd5;" glyph-name="Otilde" horiz-adv-x="765" d="M528 -12T382 -12T144 86T51 333T143 580T382 678T621 580T714 333T621 86ZM382 62Q492 62 560 138T628 333T560 527T382 604Q271 604 204 528T137 333Q137 215 204 139T382 62ZM442 726Q418
726 400 740T372 772T349 803T319 818Q298 818 285 797T271 732H226Q226 792 251 829T323 866Q347 866 365 852T393 820T416 789T446 774Q467 774 480 795T494 860H539Q539 800 514 763T442 726Z" />
<glyph unicode="&#xd6;" glyph-name="Odieresis" horiz-adv-x="765" d="M532 792T532 773T518 741T485 727T453 740T439 773T452 805T485 819Q505 819 518 806ZM325 792T325 773T312 741T279 727T246 740T232 773T245 805T279 819Q298 819 311 806ZM528 -12T382
-12T144 86T51 333T143 580T382 678T621 580T714 333T621 86ZM382 62Q492 62 560 138T628 333T560 527T382 604Q271 604 204 528T137 333Q137 215 204 139T382 62Z" />
<glyph unicode="&#xd7;" glyph-name="multiply" horiz-adv-x="499" d="M398 148L249 297L101 148L64 185L213 334L64 483L101 520L249 371L398 520L435 483L287 334L435 185L398 148Z" />
<glyph unicode="&#xd8;" glyph-name="Oslash" horiz-adv-x="765" d="M382 -12Q286 -12 210 33L188 0H121L165 65Q51 163 51 333Q51 482 143 580T382 678Q474 678 549 636L570 667H637L595 604Q651 557 682 487T714 333Q714 184 621 86T382 -12ZM382 62Q492 62
560 138T628 333Q628 462 550 538L253 97Q308 62 382 62ZM137 333Q137 208 210 132L506 572Q450 604 382 604Q271 604 204 528T137 333Z" />
<glyph unicode="&#xd9;" glyph-name="Ugrave" horiz-adv-x="701" d="M418 728H361L192 872H270L418 728ZM350 -12Q218 -12 148 60T78 259V667H162V261Q162 168 210 115T350 62T490 115T539 261V667H623V260Q623 133 553 61T350 -12Z" />
<glyph unicode="&#xda;" glyph-name="Uacute" horiz-adv-x="701" d="M510 872L341 728H284L432 872H510ZM350 -12Q218 -12 148 60T78 259V667H162V261Q162 168 210 115T350 62T490 115T539 261V667H623V260Q623 133 553 61T350 -12Z" />
<glyph unicode="&#xdb;" glyph-name="Ucircumflex" horiz-adv-x="701" d="M488 728H437L354 834L274 728H223L318 872H390L488 728ZM350 -12Q218 -12 148 60T78 259V667H162V261Q162 168 210 115T350 62T490 115T539 261V667H623V260Q623 133 553 61T350 -12Z" />
<glyph unicode="&#xdc;" glyph-name="Udieresis" horiz-adv-x="701" d="M350 -12Q218 -12 148 60T78 259V667H162V261Q162 168 210 115T350 62T490 115T539 261V667H623V260Q623 133 553 61T350 -12ZM501 792T501 773T487 741T454 727T422 740T408 773T421 805T454
819Q474 819 487 806ZM294 792T294 773T281 741T248 727T215 740T201 773T214 805T248 819Q267 819 280 806Z" />
<glyph unicode="&#xdd;" glyph-name="Yacute" horiz-adv-x="626" d="M477 872L308 728H251L399 872H477ZM355 0H272V282L9 667H106L313 357L520 667H617L355 282V0Z" />
<glyph unicode="&#xde;" glyph-name="Thorn" horiz-adv-x="587" d="M161 0H78V667H161V548H346Q443 548 499 490T555 346Q555 261 499 204T346 146H161V0ZM336 220Q395 220 432 255T469 346T432 438T336 474H161V220H336Z" />
<glyph unicode="&#xdf;" glyph-name="germandbls" horiz-adv-x="1008" d="M756 -12Q686 -12 629 11T536 74L578 133Q608 100 655 78T758 56Q826 56 859 83T892 150Q892 183 867 204T805 234T723 255T642 282T579 327T554 406Q554 474 611 518T753 562Q882 562
959 483L918 428Q856 494 753 494Q701 494 668 470T635 407Q635 379 660 361T722 335T803 313T884 285T947 236T972 153Q972 80 917 34T756 -12ZM252 -12Q182 -12 125 11T32 74L74 133Q104 100 151 78T254 56Q322 56 355 83T388 150Q388 183 363 204T301 234T219
255T138 282T75 327T50 406Q50 474 107 518T249 562Q378 562 455 483L414 428Q352 494 249 494Q197 494 164 470T131 407Q131 379 156 361T218 335T299 313T380 285T443 236T468 153Q468 80 413 34T252 -12Z" />
<glyph unicode="&#xe0;" glyph-name="agrave" horiz-adv-x="572" d="M353 606H296L127 750H205L353 606ZM240 550H333L565 0H478L427 120H146L95 0H7L240 550ZM403 189L287 468L170 189H403Z" />
<glyph unicode="&#xe1;" glyph-name="aacute" horiz-adv-x="572" d="M448 750L279 606H222L370 750H448ZM240 550H333L565 0H478L427 120H146L95 0H7L240 550ZM403 189L287 468L170 189H403Z" />
<glyph unicode="&#xe2;" glyph-name="acircumflex" horiz-adv-x="572" d="M420 606H369L286 712L206 606H155L250 750H322L420 606ZM240 550H333L565 0H478L427 120H146L95 0H7L240 550ZM403 189L287 468L170 189H403Z" />
<glyph unicode="&#xe3;" glyph-name="atilde" horiz-adv-x="572" d="M347 604Q323 604 305 618T277 650T254 681T224 696Q203 696 190 675T176 610H131Q131 670 156 707T228 744Q252 744 270 730T298 698T321 667T351 652Q372 652 385 673T399 738H444Q444 678
419 641T347 604ZM240 550H333L565 0H478L427 120H146L95 0H7L240 550ZM403 189L287 468L170 189H403Z" />
<glyph unicode="&#xe4;" glyph-name="adieresis" horiz-adv-x="572" d="M437 679T437 660T423 628T390 614T358 627T344 660T357 692T390 706Q410 706 423 693ZM230 679T230 660T217 628T184 614T151 627T137 660T150 692T184 706Q203 706 216 693ZM240 550H333L565
0H478L427 120H146L95 0H7L240 550ZM403 189L287 468L170 189H403Z" />
<glyph unicode="&#xe5;" glyph-name="aring" horiz-adv-x="572" d="M240 550H333L565 0H478L427 120H146L95 0H7L240 550ZM403 189L287 468L170 189H403ZM328 604T288 604T219 633T189 703T218 773T288 802T356 773T385 703T357 633ZM288 644Q312 644 329 661T346
703T329 744T288 762Q263 762 246 745T229 703T246 662T288 644Z" />
<glyph unicode="&#xe6;" glyph-name="ae" horiz-adv-x="821" d="M770 0H387V120H171L95 0H6L358 550H770V481H465V316H764V247H465V69H770V0ZM387 189V468L209 189H387Z" />
<glyph unicode="&#xe7;" glyph-name="ccedilla" horiz-adv-x="582" d="M340 -191Q276 -191 239 -161L258 -123Q294 -152 338 -152Q364 -152 381 -141T399 -110Q399 -75 362 -75Q338 -75 324 -92L291 -73L314 -11Q197 -2 122 77T47 276Q47 402 131 482T341 562Q480
562 559 449L496 414Q471 450 430 471T341 493Q250 493 189 432T127 276Q127 181 188 119T341 57Q389 57 430 78T496 136L560 101Q483 -4 358 -11L341 -55Q355 -44 378 -44Q407 -44 425 -62T444 -111Q444 -147 415 -169T340 -191Z" />
<glyph unicode="&#xe8;" glyph-name="egrave" horiz-adv-x="509" d="M336 606H279L110 750H188L336 606ZM457 0H75V550H457V481H154V316H452V247H154V69H457V0Z" />
<glyph unicode="&#xe9;" glyph-name="eacute" horiz-adv-x="509" d="M430 750L261 606H204L352 750H430ZM457 0H75V550H457V481H154V316H452V247H154V69H457V0Z" />
<glyph unicode="&#xea;" glyph-name="ecircumflex" horiz-adv-x="509" d="M403 606H352L269 712L189 606H138L233 750H305L403 606ZM457 0H75V550H457V481H154V316H452V247H154V69H457V0Z" />
<glyph unicode="&#xeb;" glyph-name="edieresis" horiz-adv-x="509" d="M416 679T416 660T402 628T369 614T337 627T323 660T336 692T369 706Q389 706 402 693ZM209 679T209 660T196 628T163 614T130 627T116 660T129 692T163 706Q182 706 195 693ZM457 0H75V550H457V481H154V316H452V247H154V69H457V0Z"
/>
<glyph unicode="&#xec;" glyph-name="igrave" horiz-adv-x="227" d="M154 0H75V550H154V0ZM180 606H123L-46 750H32L180 606Z" />
<glyph unicode="&#xed;" glyph-name="iacute" horiz-adv-x="227" d="M275 750L106 606H49L197 750H275ZM154 0H75V550H154V0Z" />
<glyph unicode="&#xee;" glyph-name="icircumflex" horiz-adv-x="227" d="M154 0H75V550H154V0ZM247 606H196L113 712L33 606H-18L77 750H149L247 606Z" />
<glyph unicode="&#xef;" glyph-name="idieresis" horiz-adv-x="227" d="M154 0H75V550H154V0ZM265 679T265 660T251 628T218 614T186 627T172 660T185 692T218 706Q238 706 251 693ZM58 679T58 660T45 628T12 614T-21 627T-35 660T-22 692T12 706Q31 706 44 693Z" />
<glyph unicode="&#xf0;" glyph-name="eth" horiz-adv-x="626" d="M273 0H73V251H10V303H73V550H273Q405 550 485 472T566 274T486 78T273 0ZM285 251H152V69H273Q372 69 428 127T485 274Q485 364 430 422T273 481H152V303H285V251Z" />
<glyph unicode="&#xf1;" glyph-name="ntilde" horiz-adv-x="632" d="M557 0H478L153 428V0H75V550H157L479 130V550H557V0ZM375 604Q351 604 333 618T305 650T282 681T252 696Q231 696 218 675T204 610H159Q159 670 184 707T256 744Q280 744 298 730T326 698T349
667T379 652Q400 652 413 673T427 738H472Q472 678 447 641T375 604Z" />
<glyph unicode="&#xf2;" glyph-name="ograve" horiz-adv-x="662" d="M397 606H340L171 750H249L397 606ZM457 -12T331 -12T126 70T47 275T126 480T331 562T536 480T615 275T536 70ZM239 57T331 57T479 118T535 275T479 431T331 493T183 432T127 275T183 119Z" />
<glyph unicode="&#xf3;" glyph-name="oacute" horiz-adv-x="662" d="M493 750L324 606H267L415 750H493ZM457 -12T331 -12T126 70T47 275T126 480T331 562T536 480T615 275T536 70ZM239 57T331 57T479 118T535 275T479 431T331 493T183 432T127 275T183 119Z" />
<glyph unicode="&#xf4;" glyph-name="ocircumflex" horiz-adv-x="662" d="M466 606H415L332 712L252 606H201L296 750H368L466 606ZM457 -12T331 -12T126 70T47 275T126 480T331 562T536 480T615 275T536 70ZM239 57T331 57T479 118T535 275T479 431T331 493T183
432T127 275T183 119Z" />
<glyph unicode="&#xf5;" glyph-name="otilde" horiz-adv-x="662" d="M457 -12T331 -12T126 70T47 275T126 480T331 562T536 480T615 275T536 70ZM239 57T331 57T479 118T535 275T479 431T331 493T183 432T127 275T183 119ZM394 604Q370 604 352 618T324 650T301
681T271 696Q250 696 237 675T223 610H178Q178 670 203 707T275 744Q299 744 317 730T345 698T368 667T398 652Q419 652 432 673T446 738H491Q491 678 466 641T394 604Z" />
<glyph unicode="&#xf6;" glyph-name="odieresis" horiz-adv-x="662" d="M483 679T483 660T469 628T436 614T404 627T390 660T403 692T436 706Q456 706 469 693ZM276 679T276 660T263 628T230 614T197 627T183 660T196 692T230 706Q249 706 262 693ZM457 -12T331
-12T126 70T47 275T126 480T331 562T536 480T615 275T536 70ZM239 57T331 57T479 118T535 275T479 431T331 493T183 432T127 275T183 119Z" />
<glyph unicode="&#xf7;" glyph-name="divide" horiz-adv-x="511" d="M302 546T302 527T289 494T256 480T224 494T210 527T223 559T256 572T288 559ZM482 311H29V363H482V311ZM302 163T302 144T289 112T256 98T224 111T210 144T223 176T256 190T288 177Z" />
<glyph unicode="&#xf8;" glyph-name="oslash" horiz-adv-x="662" d="M331 -12Q246 -12 180 27L160 0H93L136 59Q47 140 47 275Q47 398 126 480T331 562Q413 562 479 524L498 550H565L523 492Q615 410 615 275Q615 152 536 70T331 -12ZM331 57Q423 57 479 118T535
275T478 432L223 86Q269 57 331 57ZM127 370T127 275T181 120L436 466Q388 493 331 493Q239 493 183 432Z" />
<glyph unicode="&#xf9;" glyph-name="ugrave" horiz-adv-x="623" d="M377 606H320L151 750H229L377 606ZM426 -12T311 -12T136 48T75 212V550H154V217Q154 142 195 100T311 57Q387 57 428 100T469 217V550H548V212Q548 108 487 48Z" />
<glyph unicode="&#xfa;" glyph-name="uacute" horiz-adv-x="623" d="M474 750L305 606H248L396 750H474ZM426 -12T311 -12T136 48T75 212V550H154V217Q154 142 195 100T311 57Q387 57 428 100T469 217V550H548V212Q548 108 487 48Z" />
<glyph unicode="&#xfb;" glyph-name="ucircumflex" horiz-adv-x="623" d="M444 606H393L310 712L230 606H179L274 750H346L444 606ZM426 -12T311 -12T136 48T75 212V550H154V217Q154 142 195 100T311 57Q387 57 428 100T469 217V550H548V212Q548 108 487 48Z" />
<glyph unicode="&#xfc;" glyph-name="udieresis" horiz-adv-x="623" d="M462 679T462 660T448 628T415 614T383 627T369 660T382 692T415 706Q435 706 448 693ZM255 679T255 660T242 628T209 614T176 627T162 660T175 692T209 706Q228 706 241 693ZM426 -12T311
-12T136 48T75 212V550H154V217Q154 142 195 100T311 57Q387 57 428 100T469 217V550H548V212Q548 108 487 48Z" />
<glyph unicode="&#xfd;" glyph-name="yacute" horiz-adv-x="547" d="M436 750L267 606H210L358 750H436ZM314 0H236V233L7 550H98L276 300L450 550H540L314 233V0Z" />
<glyph unicode="&#xfe;" glyph-name="thorn" horiz-adv-x="523" d="M154 0H75V550H154V458H311Q396 458 444 410T492 290Q492 218 445 170T311 121H154V0ZM304 190Q356 190 384 217T412 290Q412 334 384 361T304 389H154V190H304Z" />
<glyph unicode="&#xff;" glyph-name="ydieresis" horiz-adv-x="547" d="M426 679T426 660T412 628T379 614T347 627T333 660T346 692T379 706Q399 706 412 693ZM219 679T219 660T206 628T173 614T140 627T126 660T139 692T173 706Q192 706 205 693ZM314 0H236V233L7
550H98L276 300L450 550H540L314 233V0Z" />
<glyph unicode="&#x131;" glyph-name="dotlessi" horiz-adv-x="229" d="M154 0H75V550H154V0Z" />
<glyph unicode="&#x141;" glyph-name="Lslash" horiz-adv-x="524" d="M10 221V293L98 344V667H181V392L277 447V375L181 320V74H491V0H98V272L10 221Z" />
<glyph unicode="&#x142;" glyph-name="lslash" horiz-adv-x="481" d="M10 171V243L98 294V550H177V339L271 394V322L177 267V69H443V0H98V222L10 171Z" />
<glyph unicode="&#x152;" glyph-name="OE" horiz-adv-x="1105" d="M1051 0H614V121Q578 57 513 23T375 -12Q231 -12 141 86T51 333T141 579T375 677Q448 677 513 643T614 546V667H1051V593H697V378H1044V304H697V74H1051V0ZM614 224V443Q585 521 525 562T385 603Q272
603 205 528T137 333Q137 215 204 139T385 62Q463 62 524 103T614 224Z" />
<glyph unicode="&#x153;" glyph-name="oe" horiz-adv-x="953" d="M902 0H519V99Q455 -12 320 -12Q198 -12 123 69T47 275T122 480T320 562Q455 562 519 452V550H902V481H597V316H896V247H597V69H902V0ZM519 194V358Q496 426 446 459T332 493Q240 493 184 432T127
275T183 119T332 57Q397 57 446 91T519 194Z" />
<glyph unicode="&#x160;" glyph-name="Scaron" horiz-adv-x="586" d="M323 728H251L153 872H204L287 766L367 872H418L323 728ZM294 -12Q132 -12 38 94L88 158Q171 62 297 62Q378 62 416 97T454 178Q454 218 425 244T352 283T257 310T162 343T89 398T59 492Q59
574 124 626T289 678Q436 678 525 584L475 523Q404 603 282 603Q222 603 184 574T145 497Q145 462 174 439T247 405T342 378T437 343T510 283T540 184Q540 103 480 46T294 -12Z" />
<glyph unicode="&#x161;" glyph-name="scaron" horiz-adv-x="504" d="M291 606H219L121 750H172L255 644L335 750H386L291 606ZM252 -12Q182 -12 125 11T32 74L74 133Q104 100 151 78T254 56Q322 56 355 83T388 150Q388 183 363 204T301 234T219 255T138 282T75
327T50 406Q50 474 107 518T249 562Q378 562 455 483L414 428Q352 494 249 494Q197 494 164 470T131 407Q131 379 156 361T218 335T299 313T380 285T443 236T468 153Q468 80 413 34T252 -12Z" />
<glyph unicode="&#x178;" glyph-name="Ydieresis" horiz-adv-x="626" d="M466 792T466 773T452 741T419 727T387 740T373 773T386 805T419 819Q439 819 452 806ZM259 792T259 773T246 741T213 727T180 740T166 773T179 805T213 819Q232 819 245 806ZM355 0H272V282L9
667H106L313 357L520 667H617L355 282V0Z" />
<glyph unicode="&#x17d;" glyph-name="Zcaron" horiz-adv-x="585" d="M330 728H258L160 872H211L294 766L374 872H425L330 728ZM537 0H48V69L423 593H48V667H530V598L154 74H537V0Z" />
<glyph unicode="&#x17e;" glyph-name="zcaron" horiz-adv-x="516" d="M293 606H221L123 750H174L257 644L337 750H388L293 606ZM477 0H40V59L365 481H40V550H470V491L145 69H477V0Z" />
<glyph unicode="&#x192;" glyph-name="florin" horiz-adv-x="367" d="M106 -119H23L97 215H47V272H109L139 407Q173 561 291 561Q344 561 377 529L344 469Q330 487 302 487Q243 487 222 397L194 272H300V215H181L106 -119Z" />
<glyph unicode="&#x2c6;" glyph-name="circumflex" horiz-adv-x="265" d="M265 556H214L131 662L51 556H0L95 700H167L265 556Z" />
<glyph unicode="&#x2c7;" glyph-name="caron" horiz-adv-x="265" d="M170 556H98L0 700H51L134 594L214 700H265L170 556Z" />
<glyph unicode="&#x2d8;" glyph-name="breve" horiz-adv-x="351" d="M351 651Q286 563 176 563Q67 563 0 651L38 683Q89 611 176 611Q264 611 315 683L351 651Z" />
<glyph unicode="&#x2d9;" glyph-name="dotaccent" horiz-adv-x="112" d="M56 573Q37 573 23 587T9 620T23 653T56 667Q76 667 89 654T103 620T90 587T56 573Z" />
<glyph unicode="&#x2da;" glyph-name="ring" horiz-adv-x="196" d="M99 554Q58 554 29 583T0 653T29 723T99 752Q139 752 167 723T196 653T168 583T99 554ZM99 594Q123 594 140 611T157 653T140 694T99 712Q74 712 57 695T40 653T57 612T99 594Z" />
<glyph unicode="&#x2db;" glyph-name="ogonek" horiz-adv-x="178" d="M141 -105L178 -126Q152 -186 90 -186Q52 -186 26 -164T0 -99Q0 -62 24 -30T88 23L121 0Q45 -38 45 -97Q45 -147 90 -147Q127 -147 141 -105Z" />
<glyph unicode="&#x2dc;" glyph-name="tilde" horiz-adv-x="313" d="M216 554Q192 554 174 568T146 600T123 631T93 646Q72 646 59 625T45 560H0Q0 620 25 657T97 694Q121 694 139 680T167 648T190 617T220 602Q241 602 254 623T268 688H313Q313 628 288 591T216 554Z" />
<glyph unicode="&#x2dd;" glyph-name="hungarumlaut" horiz-adv-x="305" d="M163 700L48 556H0L94 700H163ZM305 700L190 556H142L236 700H305Z" />
<glyph unicode="&#x3c0;" glyph-name="pi" horiz-adv-x="561" d="M452 0H376V433H185V0H109V433H32V500H529V433H452V0Z" />
<glyph unicode="&#x2013;" glyph-name="endash" horiz-adv-x="593" d="M563 209H30V275H563V209Z" />
<glyph unicode="&#x2014;" glyph-name="emdash" horiz-adv-x="833" d="M803 209H30V275H803V209Z" />
<glyph unicode="&#x2018;" glyph-name="quoteleft" horiz-adv-x="230" d="M48 527Q48 571 70 611T128 677L166 647Q142 631 123 605T101 554Q102 554 107 555T115 556Q135 556 149 542T163 505Q163 482 148 467T110 451Q84 451 66 471T48 527Z" />
<glyph unicode="&#x2019;" glyph-name="quoteright" horiz-adv-x="230" d="M176 601Q176 557 154 517T95 450L57 481Q81 497 100 523T122 574Q118 572 108 572Q88 572 74 586T60 623T75 661T113 677Q140 677 158 657T176 601Z" />
<glyph unicode="&#x201a;" glyph-name="quotesinglbase" horiz-adv-x="230" d="M176 24Q176 -20 154 -60T95 -127L57 -96Q82 -80 100 -54T122 -3Q118 -5 108 -5Q88 -5 74 9T60 46T75 84T113 100Q140 100 158 80T176 24Z" />
<glyph unicode="&#x201c;" glyph-name="quotedblleft" horiz-adv-x="390" d="M54 527Q54 571 76 611T135 677L172 647Q148 631 130 605T108 554L113 555Q118 556 121 556Q142 556 156 542T170 505Q170 482 154 467T116 451Q90 451 72 471T54 527ZM214 527Q214
571 236 611T295 677L332 647Q308 631 290 605T268 554Q269 554 274 555T281 556Q302 556 316 542T330 505Q330 482 314 467T276 451Q250 451 232 471T214 527Z" />
<glyph unicode="&#x201d;" glyph-name="quotedblright" horiz-adv-x="390" d="M336 601Q336 557 314 517T255 450L218 481Q242 497 260 523T282 574Q280 572 269 572Q248 572 234 586T220 623T236 661T274 677Q300 677 318 657T336 601ZM176 601Q176 557 154 517T95
450L57 481Q81 497 100 523T122 574Q118 572 108 572Q88 572 74 586T60 623T75 661T113 677Q140 677 158 657T176 601Z" />
<glyph unicode="&#x201e;" glyph-name="quotedblbase" horiz-adv-x="390" d="M176 24Q176 -20 154 -60T95 -127L57 -96Q82 -80 100 -54T122 -3Q118 -5 108 -5Q88 -5 74 9T60 46T75 84T113 100Q140 100 158 80T176 24ZM336 24Q336 -20 314 -60T255 -127L218 -96Q242
-80 260 -54T282 -3Q280 -5 269 -5Q248 -5 234 9T220 46T236 84T274 100Q300 100 318 80T336 24Z" />
<glyph unicode="&#x2020;" glyph-name="dagger" horiz-adv-x="263" d="M240 531L151 535L155 327H107L112 535L23 531V574L112 571L107 677H155L151 571L240 574V531Z" />
<glyph unicode="&#x2021;" glyph-name="daggerdbl" horiz-adv-x="263" d="M240 574V531L151 535V322L240 326V283L151 286L155 180H107L111 286L23 283V326L111 322V535L23 531V574L111 571L107 677H155L151 571L240 574Z" />
<glyph unicode="&#x2022;" glyph-name="bullet" horiz-adv-x="358" d="M288 286T288 242T256 167T180 135T104 166T72 242T104 318T180 350T256 318Z" />
<glyph unicode="&#x2026;" glyph-name="ellipsis" horiz-adv-x="691" d="M170 45Q170 23 154 7T115 -10T77 6T60 45Q60 68 76 84T115 100T154 84T170 45ZM400 45Q400 23 384 7T345 -10T307 6T290 45Q290 68 306 84T345 100T384 84T400 45ZM630 45Q630 23 614 7T576
-10T538 6T521 45Q521 68 537 84T576 100T614 84T630 45Z" />
<glyph unicode="&#x2030;" glyph-name="perthousand" horiz-adv-x="878" d="M288 484T288 425T252 328T156 289Q99 289 63 328T26 425T62 522T156 562Q214 562 251 523ZM566 125Q566 67 529 28T435 -11T341 28T304 125Q304 184 341 223T435 262T529 223T566 125ZM514
550L130 0H78L460 550H514ZM236 385T236 425T214 491T156 518Q122 518 100 491T77 425T99 360T156 333Q192 333 214 359ZM515 125Q515 165 493 191T435 218T377 192T355 125Q355 86 377 60T435 33T492 59T515 125ZM852 125Q852 67 816 28T721 -11Q664 -11 628 29T591
125Q591 184 627 223T721 262Q779 262 815 223T852 125ZM801 125Q801 165 779 191T721 218Q686 218 664 192T642 125Q642 86 664 60T721 33T778 59T801 125Z" />
<glyph unicode="&#x2039;" glyph-name="guilsinglleft" horiz-adv-x="295" d="M265 63H190L30 243L190 420H265L105 243L265 63Z" />
<glyph unicode="&#x203a;" glyph-name="guilsinglright" horiz-adv-x="295" d="M265 243L105 63H30L190 243L30 420H105L265 243Z" />
<glyph unicode="&#x2044;" glyph-name="fraction" horiz-adv-x="139" d="M310 667L-117 0H-171L255 667H310Z" />
<glyph unicode="&#x20ac;" glyph-name="Euro" horiz-adv-x="610" d="M410 311H157Q155 287 155 276Q155 250 157 238H410V190H171Q194 129 247 93T369 57Q417 57 458 78T524 136L588 101Q505 -12 369 -12Q266 -12 189 43T86 190H31V238H77Q75 250 75 276Q75 287
77 311H31V359H86Q112 451 189 506T369 562Q508 562 587 449L524 414Q499 450 458 471T369 493Q300 493 247 457T170 359H410V311Z" />
<glyph unicode="&#x2122;" glyph-name="trademark" horiz-adv-x="454" d="M419 447H391V629L316 447H308L233 629V447H205V667H248L312 507L376 667H419V447ZM169 641H107V447H79V641H17V667H169V641Z" />
<glyph unicode="&#x2126;" glyph-name="Omega" horiz-adv-x="765" d="M69 0V74H204Q51 174 51 348Q51 493 143 585T382 678Q530 678 622 586T714 348Q714 256 672 187T561 74H696V0H456V74Q527 92 577 161T628 334Q628 449 563 526T382 603Q268 603 203 526T137
334Q137 231 187 162T309 74V0H69Z" />
<glyph unicode="&#x2202;" glyph-name="partialdiff" horiz-adv-x="572" d="M286 -12Q178 -12 113 58T47 234Q47 338 109 408T267 479Q366 479 422 397Q392 465 328 527T173 634L229 681Q352 616 438 502T525 249Q525 134 460 61T286 -12ZM212 55T286 55T403 106T446
234Q446 309 403 360T286 412T169 361T126 234Q126 158 169 107Z" />
<glyph unicode="&#x2206;" glyph-name="increment" horiz-adv-x="658" d="M649 0H9L278 667H381L649 0ZM530 74L329 582L128 74H530Z" />
<glyph unicode="&#x220f;" glyph-name="product" horiz-adv-x="708" d="M566 -90H483V593H224V-90H141V593H32V667H676V593H566V-90Z" />
<glyph unicode="&#x2211;" glyph-name="summation" horiz-adv-x="576" d="M158 593L386 299L154 -16H522V-90H54V-16L285 298L55 594V667H522V593H158Z" />
<glyph unicode="&#x2212;" glyph-name="minus" horiz-adv-x="499" d="M470 308H29V360H470V308Z" />
<glyph unicode="&#x221a;" glyph-name="radical" horiz-adv-x="725" d="M427 0H369L239 327L84 266L66 316L272 395L399 78L634 667H693L427 0Z" />
<glyph unicode="&#x221e;" glyph-name="infinity" horiz-adv-x="656" d="M184 170Q109 170 69 219T29 335Q29 402 68 451T184 501Q231 501 268 470T328 391Q350 439 387 470T473 501Q549 501 588 452T627 335Q627 269 588 220T473 170Q425 170 388 201T328 280Q306
232 269 201T184 170ZM468 223Q516 223 543 254T571 335Q571 385 544 416T468 448Q396 448 353 335Q396 223 468 223ZM189 223Q261 223 304 335Q286 383 257 415T189 448Q141 448 113 417T85 335Q85 286 113 255T189 223Z" />
<glyph unicode="&#x222b;" glyph-name="integral'" horiz-adv-x="348" d="M78 -100H17V-45H78Q105 -45 125 -22T145 35V633Q145 693 182 730T270 768H331V713H270Q242 713 223 691T203 634V34Q203 -25 166 -62T78 -100Z" />
<glyph unicode="&#x2248;" glyph-name="approxequal" horiz-adv-x="499" d="M29 211V270Q76 237 139 237Q186 237 244 266T359 295Q419 295 470 268V209Q421 243 359 243Q312 243 254 214T139 184Q78 184 29 211ZM29 400V459Q76 426 139 426Q186 426 244 455T359
484Q419 484 470 457V398Q423 431 359 431Q312 431 254 402T139 373Q78 373 29 400Z" />
<glyph unicode="&#x2260;" glyph-name="notequal" horiz-adv-x="499" d="M123 93H69L144 211H29V264H177L266 404H29V457H300L375 574H430L355 457H470V404H321L232 264H470V211H198L123 93Z" />
<glyph unicode="&#x2264;" glyph-name="lessequal" horiz-adv-x="499" d="M470 99L29 317V370L470 589V526L93 343L470 162V99ZM470 0H29V53H470V0Z" />
<glyph unicode="&#x2265;" glyph-name="greaterequal" horiz-adv-x="499" d="M470 317L29 99V162L405 343L29 526V589L470 370V317ZM469 0H28V53H469V0Z" />
<glyph unicode="&#x25ca;" glyph-name="lozenge" horiz-adv-x="375" d="M198 0H177L19 334L177 667H198L356 334L198 0ZM188 41L320 334L187 626L55 334L188 41Z" />
<glyph unicode="&#xf8ff;" glyph-name="" horiz-adv-x="667" d="M226 154V228H152Q121 228 101 207T80 154T101 101T153 79T205 101T226 154ZM226 439V514Q226 545 206 566T154 588T102 567T80 514T101 461T154 439H226ZM265 265H402V402H265V265ZM587 123T587
154T567 206T515 228H441V154Q441 123 462 101T514 79T566 101ZM587 483T587 514T566 566T514 588T462 567T441 514V439H515Q545 439 566 461ZM625 200T625 154T593 75T514 42T435 75T402 154V228H265V154Q265 108 232 75T153 42T75 75T42 154T74 232T153 265H226V402H154Q108
402 75 435T42 514T75 592T154 625T232 593T265 514V439H402V514Q402 560 435 592T514 625T592 593T625 514T593 435T514 402H441V265H514Q560 265 592 233Z" />
<glyph unicode="&#xfb01;" glyph-name="fi" horiz-adv-x="720" d="M645 0H566V550H645V0ZM154 0H75V550H457V481H154V316H452V247H154V0Z" />
<glyph unicode="&#xfb02;" glyph-name="fl" horiz-adv-x="949" d="M911 0H566V550H645V69H911V0ZM154 0H75V550H457V481H154V316H452V247H154V0Z" />
</font>
</defs>
</svg>
