<?xml version="1.0" standalone="no"?> <!DOCTYPE svg PUBLIC "-//W3C//DTD SVG 1.0//EN" "http://www.w3.org/TR/2001/REC-SVG-20010904/DTD/svg10.dtd" > 
<svg xmlns="http://www.w3.org/2000/svg" width="100%" height="100%">
<metadata version="1.0"><uniqueid id="com.myfonts.marksimonson.proxima-nova.a-regular-it.wfkit2.dttj"/><vendor name="MyFonts" url="http://www.myfonts.com/"/><credits><credit name="Mark Simonson" url="http://www.myfonts.com/person/simonson/mark/"/></credits><description><text lang="en">This is a Webfont from MyFonts. Full information about this font:
http://www.myfonts.com/fonts/marksimonson/proxima-nova/
</text></description><copyright><text lang="en">Copyright (c) Mark Simonson, 2005. All rights reserved.</text></copyright><trademark><text lang="en">Proxima Nova is a trademark of Mark Simonson.</text></trademark></metadata>
<defs >
<font id="wf" horiz-adv-x="440" ><font-face
    font-family="Proxima Nova Alt Rg"
    units-per-em="1000"
    panose-1="2 0 5 6 3 0 0 2 0 4"
    ascent="775"
    descent="-225"
    alphabetic="0" />
<missing-glyph horiz-adv-x="507" d="M449 -90H98V752H449V-90ZM417 -60V722H129V-60H417Z" />
<glyph unicode=" " glyph-name="space" horiz-adv-x="259" />
<glyph unicode="!" glyph-name="exclam" horiz-adv-x="230" d="M133 187H71L161 667H255L133 187ZM66 -10Q45 -10 31 4T16 41Q16 65 33 82T76 100Q97 100 111 85T126 49Q126 24 109 7T66 -10Z" />
<glyph unicode="&quot;" glyph-name="quotedbl" horiz-adv-x="344" d="M153 412H116Q135 607 136 622Q138 646 153 661T190 677Q207 677 218 665T230 635Q230 631 229 627T227 619T225 612L153 412ZM300 412H263Q282 607 283 622Q285 646 300 661T337 677Q354
677 365 665T377 635Q377 627 371 612L300 412Z" />
<glyph unicode="#" glyph-name="numbersign" horiz-adv-x="591" d="M246 0H185L286 181H175L75 0H13L114 181H8L36 234H144L254 433H146L173 485H284L383 667H445L345 485H455L555 667H616L515 485H622L596 433H487L375 234H486L458 181H346L246 0ZM314 234L425
433H315L205 234H314Z" />
<glyph unicode="$" glyph-name="dollar" horiz-adv-x="593" d="M291 -12Q288 -12 283 -12T274 -11L255 -100H194L215 -5Q80 20 21 108L78 167Q131 92 231 69L285 310Q246 326 222 339T169 372T128 420T114 483Q114 562 181 620T351 678Q353 678 358 678T367 677L387
768H448L426 670Q537 646 591 572L535 514Q491 573 409 595L361 377Q400 360 425 347T478 313T520 263T534 199Q534 114 469 51T291 -12ZM445 186Q445 220 419 242T341 287L291 62H298Q370 62 407 100T445 186ZM203 495Q203 464 229 443T305 400L350 604H341Q283
604 243 572T203 495Z" />
<glyph unicode="%" glyph-name="percent" horiz-adv-x="732" d="M129 0H74L647 667H703L129 0ZM505 -12Q442 -12 399 25T355 123Q355 208 408 262T533 317Q596 317 639 280T683 182Q683 97 630 43T505 -12ZM506 39Q554 39 588 78T623 177Q623 215 597 240T531
266Q484 266 450 227T415 128Q415 90 440 65T506 39ZM236 348Q174 348 131 385T87 483Q87 568 140 622T265 677Q328 677 371 640T414 542Q414 457 362 403T236 348ZM238 399Q286 399 320 438T355 537Q355 575 329 600T263 626Q216 626 182 587T147 488Q147 450
172 425T238 399Z" />
<glyph unicode="&amp;" glyph-name="ampersand" horiz-adv-x="642" d="M538 0H443Q418 31 400 56Q310 -12 217 -12Q129 -12 73 31T16 155Q16 201 31 238T77 301T138 345T212 380Q189 446 189 496Q189 570 244 623T374 677Q438 677 480 646T522 558Q522 524 509
496T479 449T428 412T372 384T307 358Q330 308 358 263Q392 204 421 160Q487 232 528 307L585 272Q517 169 457 107L538 0ZM226 50Q291 50 364 108Q315 179 293 217Q264 266 234 328Q170 299 135 262T100 165Q100 110 136 80T226 50ZM267 496Q267 459 285 408Q325
423 349 434T400 462T438 501T450 550Q450 582 429 600T376 619Q335 619 301 586T267 496Z" />
<glyph unicode="&apos;" glyph-name="quotesingle" horiz-adv-x="199" d="M153 412H116Q135 607 136 622Q138 646 153 661T190 677Q207 677 218 665T230 635Q230 631 229 627T227 619T225 612L153 412Z" />
<glyph unicode="(" glyph-name="parenleft" horiz-adv-x="248" d="M141 -169L88 -199Q25 -75 25 91Q25 247 91 400T282 685L321 647Q104 364 104 63Q104 -42 141 -169Z" />
<glyph unicode=")" glyph-name="parenright" horiz-adv-x="248" d="M106 655L159 685Q222 561 222 395Q222 239 156 86T-35 -199L-74 -161Q143 122 143 423Q143 528 106 655Z" />
<glyph unicode="*" glyph-name="asterisk" horiz-adv-x="340" d="M224 389H178L210 506L100 456L86 496L200 537L110 599L141 635L223 564L242 677H289L257 560L367 611L380 570L268 529L357 467L326 431L243 502L224 389Z" />
<glyph unicode="+" glyph-name="plus" horiz-adv-x="499" d="M484 311H293L245 98H188L235 311H44L55 363H247L292 570H350L304 363H496L484 311Z" />
<glyph unicode="," glyph-name="comma" horiz-adv-x="230" d="M128 42Q128 -4 95 -50T13 -121L-18 -88Q49 -54 66 -4H58Q40 -4 28 8T15 41Q15 65 33 82T75 100Q98 100 113 85T128 42Z" />
<glyph unicode="-" glyph-name="hyphen" horiz-adv-x="300" d="M262 209H22L36 275H276L262 209Z" />
<glyph unicode="." glyph-name="period" horiz-adv-x="231" d="M66 -10Q45 -10 31 4T16 41Q16 65 33 82T76 100Q97 100 111 85T126 49Q126 24 109 7T66 -10Z" />
<glyph unicode="/" glyph-name="slash" horiz-adv-x="296" d="M2 -20H-60L333 687H396L2 -20Z" />
<glyph unicode="0" glyph-name="zero" horiz-adv-x="612" d="M278 -12Q174 -12 117 57T59 248Q59 351 96 448T207 611T374 677Q478 677 534 608T591 418Q591 315 555 218T445 55T278 -12ZM285 62Q351 62 403 121T480 261T506 423Q506 506 472 554T365 603Q300
603 248 545T169 406T143 243Q143 161 178 112T285 62Z" />
<glyph unicode="1" glyph-name="one" horiz-adv-x="339" d="M207 0H124L247 558L115 444L77 495L281 667H354L207 0Z" />
<glyph unicode="2" glyph-name="two" horiz-adv-x="588" d="M458 0H0L18 82Q112 139 170 177T294 262T395 346T455 421T479 498Q479 547 439 575T335 603Q234 603 164 538L125 597Q163 633 220 655T340 677Q435 677 501 632T567 502Q567 448 535 393T440 282T309
179T147 74H474L458 0Z" />
<glyph unicode="3" glyph-name="three" horiz-adv-x="557" d="M252 -12Q166 -12 95 26T-3 127L57 174Q82 122 135 92T251 62Q324 62 367 101T410 202Q410 249 371 277T262 305Q209 305 198 304L216 380Q226 379 306 379Q374 379 420 409T466 497Q466 543 425 573T314
603Q218 603 145 538L110 594Q195 677 320 677Q423 677 487 633T551 509Q551 438 496 391T370 338Q423 326 457 289T492 195Q492 108 424 48T252 -12Z" />
<glyph unicode="4" glyph-name="four" horiz-adv-x="558" d="M378 0H295L332 169H15L32 245L407 667H525L431 242H525L509 169H415L378 0ZM348 242L425 590L114 242H348Z" />
<glyph unicode="5" glyph-name="five" horiz-adv-x="590" d="M279 -12Q105 -12 35 121L98 171Q150 62 283 62Q353 62 401 108T449 222Q449 282 408 315T299 349Q224 349 160 301L106 328L180 667H588L572 593H247L198 373Q254 418 338 418T479 369T536 231Q536
130 464 59T279 -12Z" />
<glyph unicode="6" glyph-name="six" horiz-adv-x="591" d="M283 -12Q174 -12 115 52T55 234Q55 307 75 382T134 525T237 634T383 677Q521 677 584 577L528 521Q485 603 378 603Q317 603 269 564T194 472T151 353Q146 338 146 332Q176 365 229 391T338 418Q427
418 483 371T540 242Q540 139 465 64T283 -12ZM284 62Q356 62 405 112T454 231Q454 285 413 317T305 349Q212 349 137 266Q135 250 135 219Q135 148 174 105T284 62Z" />
<glyph unicode="7" glyph-name="seven" horiz-adv-x="515" d="M161 0H65L463 593H108L124 667H579L566 610L161 0Z" />
<glyph unicode="8" glyph-name="eight" horiz-adv-x="582" d="M272 -12Q167 -12 99 32T30 158Q30 231 84 282T232 353Q183 373 150 409T116 494Q116 582 188 629T353 677T513 633T581 513Q581 442 529 396T392 336Q444 312 480 273T517 178Q517 95 445 42T272
-12ZM320 378Q397 383 444 415T492 500Q492 543 450 572T348 602Q286 602 243 571T199 486Q199 448 237 418T320 378ZM274 62Q337 62 385 96T434 186Q434 230 394 262T305 307Q224 302 171 266T118 173Q118 120 162 91T274 62Z" />
<glyph unicode="9" glyph-name="nine" horiz-adv-x="591" d="M347 678Q456 678 515 614T575 432Q575 359 555 284T496 141T392 32T246 -11Q108 -11 45 89L101 145Q144 63 251 63Q298 63 337 85T403 144T448 223T478 313Q481 322 484 334Q453 300 400 274T292 248Q203
248 146 296T89 424Q89 527 164 602T347 678ZM345 604Q273 604 225 554T176 435Q176 381 217 349T324 317Q417 317 493 400Q495 418 495 447Q495 518 455 561T345 604Z" />
<glyph unicode=":" glyph-name="colon" horiz-adv-x="225" d="M66 -10Q45 -10 31 4T16 41Q16 65 33 82T76 100Q97 100 111 85T126 49Q126 24 109 7T66 -10ZM152 380Q131 380 117 395T102 431Q102 456 119 473T162 490Q183 490 197 476T212 440Q212 415 195 398T152 380Z" />
<glyph unicode=";" glyph-name="semicolon" horiz-adv-x="230" d="M128 42Q128 -4 95 -50T13 -121L-18 -88Q49 -54 66 -4H58Q40 -4 28 8T15 41Q15 65 33 82T75 100Q98 100 113 85T128 42ZM152 380Q131 380 117 395T102 431Q102 456 119 473T162 490Q183 490 197
476T212 440Q212 415 195 398T152 380Z" />
<glyph unicode="&lt;" glyph-name="less" horiz-adv-x="499" d="M435 90L42 308L55 361L544 580L529 514L112 331L448 150L435 90Z" />
<glyph unicode="=" glyph-name="equal" horiz-adv-x="499" d="M505 404H64L76 457H517L505 404ZM462 211H21L33 264H474L462 211Z" />
<glyph unicode="&gt;" glyph-name="greater" horiz-adv-x="499" d="M483 308L-6 90L9 156L427 337L90 520L103 580L495 361L483 308Z" />
<glyph unicode="?" glyph-name="question" horiz-adv-x="462" d="M257 212L190 185Q167 215 167 256Q167 296 191 326T251 374T320 411T379 456T404 517Q404 556 372 579T282 603Q193 603 129 539L91 595Q179 677 292 677Q380 677 436 637T493 531Q493 482 467
445T404 387T329 347T266 305T240 251Q240 229 257 212ZM174 -10Q153 -10 139 4T124 41Q124 65 142 82T185 100Q206 100 220 85T235 49Q235 24 217 7T174 -10Z" />
<glyph unicode="@" glyph-name="at" horiz-adv-x="783" d="M372 -70Q236 -70 146 20T55 244Q55 404 174 521T452 638Q591 638 679 547T767 321Q767 211 715 148T594 85Q554 85 530 108T503 166V173Q476 134 433 110T344 85Q275 85 233 130T191 248Q191 350 263
424T426 499Q472 499 505 477T554 421L567 483H635L578 212Q576 200 576 191Q576 167 589 153T623 139Q661 139 696 184T732 321Q732 445 654 524T449 604Q305 604 197 496T89 246Q89 125 170 44T376 -37Q473 -37 562 19L580 -7Q482 -70 372 -70ZM365 141Q451 141
513 231L542 370Q532 398 506 420T439 443Q366 443 315 385T263 252Q263 203 290 172T365 141Z" />
<glyph unicode="A" glyph-name="A" horiz-adv-x="658" d="M595 0H505L478 149H146L54 0H-45L371 667H474L595 0ZM470 222L408 582L187 222H470Z" />
<glyph unicode="B" glyph-name="B" horiz-adv-x="629" d="M333 0H24L171 667H448Q522 667 570 624T618 514Q618 445 573 394T464 335Q506 324 533 285T561 198Q561 117 503 59T333 0ZM397 378Q465 378 496 414T528 502Q528 541 499 567T427 593H238L190 378H397ZM331
74Q399 74 437 112T476 204Q476 248 447 276T369 304H174L123 74H331Z" />
<glyph unicode="C" glyph-name="C" horiz-adv-x="676" d="M368 -12Q234 -12 147 68T60 280Q60 368 91 443T175 570T295 649T435 678Q532 678 602 636T708 521L628 490Q600 547 548 575T431 604Q318 604 233 514T148 284Q148 185 209 124T373 62Q472 62 552 139L614
92Q514 -12 368 -12Z" />
<glyph unicode="D" glyph-name="D" horiz-adv-x="700" d="M251 0H24L171 667H394Q508 667 589 586T671 382Q671 312 646 246T571 124T438 34T251 0ZM238 593L123 74H265Q408 74 496 162T584 378Q584 471 526 532T378 593H238Z" />
<glyph unicode="E" glyph-name="E" horiz-adv-x="569" d="M461 0H24L171 667H608L592 593H238L190 378H538L521 304H174L123 74H477L461 0Z" />
<glyph unicode="F" glyph-name="F" horiz-adv-x="551" d="M107 0H24L171 667H608L592 593H238L190 378H538L521 304H174L107 0Z" />
<glyph unicode="G" glyph-name="G" horiz-adv-x="713" d="M355 -12Q226 -12 143 68T60 280Q60 455 174 566T448 678Q534 678 601 638T704 532L629 498Q603 549 551 576T436 604Q323 604 236 514T148 284Q148 184 208 123T366 62Q463 62 529 120T624 269H349L365
343H726Q695 174 600 81T355 -12Z" />
<glyph unicode="H" glyph-name="H" horiz-adv-x="712" d="M580 0H497L564 306H174L107 0H24L171 667H254L191 380H581L644 667H727L580 0Z" />
<glyph unicode="I" glyph-name="I" horiz-adv-x="239" d="M107 0H24L171 667H254L107 0Z" />
<glyph unicode="J" glyph-name="J" horiz-adv-x="475" d="M158 -12Q100 -12 52 9T-22 72L28 132Q67 62 154 62Q214 62 252 99T305 202L407 667H490L387 201Q340 -12 158 -12Z" />
<glyph unicode="K" glyph-name="K" horiz-adv-x="601" d="M531 0H433L243 304L156 224L107 0H24L171 667H254L179 330L544 667H653L305 351L531 0Z" />
<glyph unicode="L" glyph-name="L" horiz-adv-x="493" d="M406 0H13L160 667H243L112 74H422L406 0Z" />
<glyph unicode="M" glyph-name="M" horiz-adv-x="809" d="M677 0H594L718 561L368 0H334L231 561L107 0H24L171 667H287L380 153L701 667H824L677 0Z" />
<glyph unicode="N" glyph-name="N" horiz-adv-x="708" d="M576 0H496L226 537L107 0H24L171 667H256L523 141L640 667H723L576 0Z" />
<glyph unicode="O" glyph-name="O" horiz-adv-x="765" d="M368 -12Q235 -12 148 66T60 280Q60 447 169 562T435 678Q568 678 655 600T743 387Q743 219 634 104T368 -12ZM373 62Q489 62 572 153T655 382Q655 486 591 545T430 604Q313 604 231 513T148 284Q148 180
212 121T373 62Z" />
<glyph unicode="P" glyph-name="P" horiz-adv-x="587" d="M107 0H24L171 667H430Q504 667 554 616T605 495Q605 406 541 336T349 265H165L107 0ZM356 339H355Q431 339 474 382T518 488Q518 531 486 562T407 593H238L181 339H356Z" />
<glyph unicode="Q" glyph-name="Q" horiz-adv-x="765" d="M368 -12Q235 -12 148 66T60 280Q60 447 169 562T435 678Q568 678 655 600T743 387Q743 288 702 204T591 64L632 6L566 -31L527 24Q452 -12 368 -12ZM373 62Q430 62 483 87L404 199L470 235L546 128Q655
224 655 382Q655 486 591 545T430 604Q313 604 231 513T148 284Q148 180 212 121T373 62Z" />
<glyph unicode="R" glyph-name="R" horiz-adv-x="609" d="M508 0H416L304 265H165L107 0H24L171 667H416Q492 667 548 620T605 493Q605 400 545 338T388 269L508 0ZM355 338H357Q432 338 475 380T518 486Q518 532 484 562T404 593H238L181 338H355Z" />
<glyph unicode="S" glyph-name="S" horiz-adv-x="586" d="M286 -12Q198 -12 125 21T16 108L73 167Q108 118 166 90T293 62Q365 62 402 100T440 186Q440 216 416 240T354 279T275 313T195 351T134 404T109 483Q109 562 176 620T346 678Q422 678 486 650T586 572L530
514Q497 558 445 581T336 604Q278 604 238 572T198 495Q198 462 232 437T314 393T412 352T495 291T529 199Q529 114 464 51T286 -12Z" />
<glyph unicode="T" glyph-name="T" horiz-adv-x="570" d="M272 0H189L320 593H109L125 667H631L615 593H403L272 0Z" />
<glyph unicode="U" glyph-name="U" horiz-adv-x="701" d="M336 -12Q213 -12 145 48T76 210Q76 234 81 259L171 667H255L165 261Q160 226 160 219Q161 149 207 106T336 62Q424 62 472 112T542 261L632 667H716L626 260Q597 128 530 58T336 -12Z" />
<glyph unicode="V" glyph-name="V" horiz-adv-x="658" d="M327 0H224L102 667H193L291 91L643 667H742L327 0Z" />
<glyph unicode="W" glyph-name="W" horiz-adv-x="883" d="M624 0H534L506 538L240 0H150L107 667H197L222 111L497 667H567L597 111L867 667H962L624 0Z" />
<glyph unicode="X" glyph-name="X" horiz-adv-x="652" d="M586 0H491L337 282L65 0H-42L295 348L120 667H215L358 402L609 667H718L400 337L586 0Z" />
<glyph unicode="Y" glyph-name="Y" horiz-adv-x="626" d="M301 0H218L280 282L102 667H193L332 357L607 667H710L363 282L301 0Z" />
<glyph unicode="Z" glyph-name="Z" horiz-adv-x="585" d="M483 0H-6L9 69L494 593H125L141 667H623L608 598L121 74H499L483 0Z" />
<glyph unicode="[" glyph-name="bracketleft" horiz-adv-x="243" d="M129 -190H-56L136 678H322L310 623H182L14 -135H142L129 -190Z" />
<glyph unicode="\" glyph-name="backslash" horiz-adv-x="296" d="M178 -20L98 687H157L237 -20H178Z" />
<glyph unicode="]" glyph-name="bracketright" horiz-adv-x="243" d="M107 -190H-79L-66 -135H61L229 623H101L113 678H300L107 -190Z" />
<glyph unicode="^" glyph-name="asciicircum" horiz-adv-x="432" d="M432 333H373L300 612L103 333H38L281 667H338L432 333Z" />
<glyph unicode="_" glyph-name="underscore" horiz-adv-x="564" d="M491 -95H-78L-65 -40H504L491 -95Z" />
<glyph unicode="`" glyph-name="grave" horiz-adv-x="226" d="M295 556H238L101 700H179L295 556Z" />
<glyph unicode="a" glyph-name="a" horiz-adv-x="528" d="M403 0H328L340 52Q274 -12 190 -12Q122 -12 75 24T27 128Q27 210 79 258T208 307Q317 307 380 235L398 316Q401 328 401 345Q401 384 366 408T273 432Q195 432 131 375L107 429Q188 495 286 495Q369 495
423 461T478 358Q478 348 472 312L403 0ZM219 42Q295 42 350 100L371 190Q334 253 231 253Q175 253 141 220T106 134Q106 90 137 66T219 42Z" />
<glyph unicode="b" glyph-name="b" horiz-adv-x="575" d="M281 -12Q226 -12 182 11T113 76L96 0H21L168 667H243L188 414Q253 495 347 495Q432 495 483 442T534 296Q534 172 464 80T281 -12ZM271 55Q351 55 403 123T455 282Q455 349 418 388T320 428Q277 428 238
405T172 346L125 133Q144 99 182 77T271 55Z" />
<glyph unicode="c" glyph-name="c" horiz-adv-x="496" d="M262 -12Q163 -12 102 46T40 204Q40 324 119 409T312 495Q439 495 493 405L436 362Q399 428 314 428Q226 428 172 362T118 205Q118 133 160 94T269 55Q343 55 392 113L434 62Q362 -12 262 -12Z" />
<glyph unicode="d" glyph-name="d" horiz-adv-x="575" d="M293 495Q348 495 392 472T461 407L519 667H594L446 0H371L386 69Q321 -12 227 -12Q143 -12 92 41T40 187Q40 311 110 403T293 495ZM303 428Q223 428 171 360T119 201Q119 134 156 95T254 55Q297 55 336
78T402 137L449 350Q430 384 392 406T303 428Z" />
<glyph unicode="e" glyph-name="e" horiz-adv-x="563" d="M276 -12Q167 -12 104 46T40 202Q40 323 119 409T312 495Q407 495 463 436T520 284Q520 254 512 217H119Q117 209 117 194Q117 134 160 92T281 50Q362 50 420 98L446 45Q370 -12 276 -12ZM448 273H451Q451
275 451 281T452 291Q452 354 414 393T305 433Q240 433 189 386T126 273H448Z" />
<glyph unicode="f" glyph-name="f" horiz-adv-x="284" d="M117 0H42L134 417H54L69 483H149L157 520Q192 677 316 677Q365 677 402 654L373 600Q354 615 322 615Q253 615 232 520L224 483H322L307 417H209L117 0Z" />
<glyph unicode="g" glyph-name="g" horiz-adv-x="575" d="M212 -196Q64 -196 -4 -114L43 -63Q92 -134 210 -134Q338 -134 373 16L387 77Q323 -4 223 -4Q142 -4 91 46T39 195Q39 316 109 405T291 495Q339 495 386 471T460 407L477 483H553L448 16Q401 -196 212
-196ZM253 62Q293 62 333 84T401 140L447 348Q427 385 386 406T297 428Q218 428 168 362T118 207Q118 140 154 101T253 62Z" />
<glyph unicode="h" glyph-name="h" horiz-adv-x="552" d="M423 0H348L418 318Q423 338 423 351Q423 428 323 428Q248 428 174 352L97 0H22L169 667H243L187 413Q271 495 358 495Q423 495 462 464T502 376Q502 355 496 335L423 0Z" />
<glyph unicode="i" glyph-name="i" horiz-adv-x="225" d="M186 552Q166 552 153 565T140 596Q140 621 158 637T197 653Q216 653 229 640T243 609Q243 584 225 568T186 552ZM96 0H21L128 483H203L96 0Z" />
<glyph unicode="j" glyph-name="j" horiz-adv-x="225" d="M-68 -196Q-147 -196 -183 -154L-146 -101Q-120 -134 -78 -134Q-8 -134 11 -47L128 483H203L86 -47Q69 -121 32 -158T-68 -196ZM186 552Q166 552 153 565T140 596Q140 621 158 637T197 653Q216 653 229
640T243 609Q243 584 225 568T186 552Z" />
<glyph unicode="k" glyph-name="k" horiz-adv-x="514" d="M446 0H356L228 220L127 138L96 0H21L168 667H243L147 231L453 483H552L289 264L446 0Z" />
<glyph unicode="l" glyph-name="l" horiz-adv-x="269" d="M151 -12Q100 -12 70 9T40 70Q40 88 44 104L168 667H243L122 119Q119 107 119 96Q119 55 169 55Q195 55 215 71L223 11Q194 -12 151 -12Z" />
<glyph unicode="m" glyph-name="m" horiz-adv-x="808" d="M679 0H604L676 324Q679 339 679 351Q679 387 656 407T597 428Q530 428 465 352L387 0H312L384 324Q388 341 388 355Q388 388 366 408T304 428Q240 428 174 352L96 0H21L128 483H203L187 413Q258 495 339
495Q397 495 431 463T466 399V398Q543 495 631 495Q684 495 721 464T758 376Q758 365 753 335L679 0Z" />
<glyph unicode="n" glyph-name="n" horiz-adv-x="552" d="M422 0H348L418 317Q423 342 423 351Q423 428 323 428Q246 428 174 352L96 0H21L128 483H203L187 413Q271 495 358 495Q423 495 462 464T502 376Q502 357 496 335L422 0Z" />
<glyph unicode="o" glyph-name="o" horiz-adv-x="572" d="M261 -12Q159 -12 100 47T40 203Q40 320 117 407T309 495Q411 495 470 436T530 281Q530 163 453 76T261 -12ZM263 55Q343 55 397 122T451 278Q451 347 413 387T307 428Q227 428 173 361T119 205Q119 136
157 96T263 55Z" />
<glyph unicode="p" glyph-name="p" horiz-adv-x="572" d="M281 -12Q226 -12 182 11T113 76L55 -184H-20L128 483H203L188 414Q253 495 347 495Q432 495 483 442T534 296Q534 172 464 80T281 -12ZM271 55Q351 55 403 123T455 282Q455 349 418 388T320 428Q277 428
238 405T172 346L125 133Q144 99 182 77T271 55Z" />
<glyph unicode="q" glyph-name="q" horiz-adv-x="572" d="M293 495Q348 495 392 472T461 407L478 483H553L405 -184H330L386 69Q321 -12 227 -12Q143 -12 92 41T40 187Q40 311 110 403T293 495ZM303 428Q223 428 171 360T119 201Q119 134 156 95T254 55Q297 55
336 78T402 137L449 350Q430 384 392 406T303 428Z" />
<glyph unicode="r" glyph-name="r" horiz-adv-x="330" d="M96 0H21L128 483H203L186 410Q224 453 265 473T366 494L349 416Q337 420 311 420Q271 420 234 397T171 341L96 0Z" />
<glyph unicode="s" glyph-name="s" horiz-adv-x="465" d="M207 -12Q72 -12 3 74L51 125Q72 94 116 72T211 49Q261 49 291 74T322 134Q322 159 296 178T233 210T158 239T94 282T68 346Q68 409 117 452T251 495Q310 495 360 473T436 416L392 367Q375 395 334 414T247
434Q200 434 172 413T143 360Q143 337 169 319T232 288T307 259T371 215T397 147Q397 81 346 35T207 -12Z" />
<glyph unicode="t" glyph-name="t" horiz-adv-x="294" d="M167 -12Q56 -12 56 76Q56 88 59 104L129 417H49L64 483H144L173 615H247L218 483H317L302 417H204L137 119Q136 114 136 100Q136 55 184 55Q210 55 230 71L238 11Q208 -12 167 -12Z" />
<glyph unicode="u" glyph-name="u" horiz-adv-x="551" d="M128 483H203L133 166Q128 144 128 133Q128 55 228 55Q304 55 376 131L454 483H529L422 0H347L363 70Q279 -12 193 -12Q127 -12 88 19T49 107Q49 120 54 148L128 483Z" />
<glyph unicode="v" glyph-name="v" horiz-adv-x="490" d="M232 0H150L56 483H135L207 87L456 483H540L232 0Z" />
<glyph unicode="w" glyph-name="w" horiz-adv-x="734" d="M515 0H439L399 388L187 0H112L65 483H141L172 98L385 483H450L491 98L694 483H776L515 0Z" />
<glyph unicode="x" glyph-name="x" horiz-adv-x="487" d="M421 0H338L237 198L48 0H-42L197 248L76 483H158L252 299L427 483H517L289 248L421 0Z" />
<glyph unicode="y" glyph-name="y" horiz-adv-x="551" d="M189 -196Q42 -196 -27 -114L20 -63Q66 -134 187 -134Q315 -134 350 16L364 78Q276 -2 195 -2Q132 -2 92 27T51 116Q51 132 56 158L128 483H203L135 176Q130 153 130 141Q130 64 230 64Q306 64 378 140L454
483H529L425 16Q378 -196 189 -196Z" />
<glyph unicode="z" glyph-name="z" horiz-adv-x="472" d="M366 0H-2L10 59L352 417H90L105 483H469L456 426L112 66H380L366 0Z" />
<glyph unicode="{" glyph-name="braceleft" horiz-adv-x="261" d="M147 -190H99Q54 -190 21 -160T-13 -83Q-13 -68 -10 -56L36 150Q38 162 38 167Q38 190 28 204T-1 219L11 269Q63 269 78 338L124 543Q139 610 179 644T278 678H340L327 623H266Q234 623 212 603T182
544L134 326Q117 255 69 238Q98 223 98 184Q98 166 94 150L49 -55Q47 -67 47 -76Q47 -102 63 -118T104 -135H159L147 -190Z" />
<glyph unicode="|" glyph-name="bar" horiz-adv-x="211" d="M153 -20H98V687H153V-20Z" />
<glyph unicode="}" glyph-name="braceright" horiz-adv-x="261" d="M113 678H161Q206 678 239 648T273 571Q273 558 269 544L224 338Q222 326 222 321Q222 299 232 284T260 269L249 219Q197 219 182 150L136 -55Q121 -122 81 -156T-19 -190H-80L-68 -135H-6Q26
-135 48 -115T78 -56L126 162Q141 232 191 250Q162 265 162 304Q162 322 166 338L211 543Q213 555 213 564Q213 590 197 606T155 623H100L113 678Z" />
<glyph unicode="~" glyph-name="asciitilde" horiz-adv-x="503" d="M513 667L568 661Q513 423 389 423Q351 423 330 442T302 490T292 546T276 593T242 613Q206 613 175 562T122 422L68 429Q120 666 246 666Q284 666 305 647T333 599T343 542T358 495T392 475Q429
475 461 527T513 667Z" />
<glyph unicode="&#xa0;" glyph-name="uni00A0" horiz-adv-x="259" />
<glyph unicode="&#xa1;" glyph-name="exclamdown" horiz-adv-x="230" d="M95 296H157L67 -184H-27L95 296ZM162 493Q183 493 197 479T212 443Q212 418 195 401T152 383Q131 383 117 398T102 434Q102 459 119 476T162 493Z" />
<glyph unicode="&#xa2;" glyph-name="cent" horiz-adv-x="496" d="M262 -12H253L234 -100H175L196 -4Q124 14 82 68T40 204Q40 322 117 407T307 495L323 565H382L365 490Q451 474 493 405L436 362Q409 409 350 424L268 55H269Q343 55 392 113L434 62Q362 -12 262
-12ZM118 205Q118 150 143 114T211 64L292 426Q213 417 166 354T118 205Z" />
<glyph unicode="&#xa3;" glyph-name="sterling" horiz-adv-x="518" d="M25 268L36 322H152Q148 330 135 352T115 386T102 419T96 462Q96 548 167 612T339 677Q412 677 470 645T545 558L470 525Q461 561 425 584T342 607Q278 607 232 565T186 455Q186 429 194 407T217
360T238 322H385L373 268H252V260Q252 211 219 166T143 94Q164 102 190 102Q223 102 272 82T349 61Q399 61 441 101L461 34Q409 -13 344 -13Q298 -13 236 10T135 33Q87 33 20 -7L4 56Q76 85 125 138T174 245Q174 252 172 268H25Z" />
<glyph unicode="&#xa5;" glyph-name="yen" horiz-adv-x="626" d="M304 0H221L248 122H-5L7 175H259L283 282H30L42 334H259L105 667H196L335 357L610 667H713L413 334H624L613 282H366L342 175H589L577 122H331L304 0Z" />
<glyph unicode="&#xa6;" glyph-name="brokenbar" horiz-adv-x="211" d="M153 -20H98V296H153V-20ZM153 371H98V687H153V371Z" />
<glyph unicode="&#xa7;" glyph-name="section" horiz-adv-x="468" d="M436 322Q436 274 404 235T312 179Q381 141 381 76Q381 12 330 -34T194 -81Q54 -81 -21 0L27 46Q52 13 96 -6T193 -25Q242 -25 273 1T305 65Q305 92 279 111T216 144T143 173T80 217T54 285Q54
335 92 372T199 422Q109 459 109 532Q109 591 158 634T289 677Q420 677 484 602L440 561Q393 621 292 621Q244 621 214 598T183 541Q183 514 209 495T272 463T347 435T410 392T436 322ZM359 306Q359 339 334 359T265 394Q198 385 164 359T130 299T158 246T252 204Q307
219 333 247T359 306Z" />
<glyph unicode="&#xa8;" glyph-name="dieresis" horiz-adv-x="272" d="M365 609Q365 589 350 574T313 558Q296 558 284 570T272 599Q272 619 287 634T324 650Q341 650 353 638T365 609ZM159 609Q159 589 143 574T107 558Q90 558 78 570T66 599Q66 619 81 634T118
650Q135 650 147 638T159 609Z" />
<glyph unicode="&#xa9;" glyph-name="copyright" horiz-adv-x="778" d="M754 477T754 334T653 90T408 -11Q266 -11 165 90T64 334T164 578T408 679T652 578ZM723 334Q723 464 631 556T408 648Q279 648 187 556T95 334Q95 205 187 113T408 20Q538 20 630 112T723
334ZM505 201L525 173Q463 121 390 121Q302 121 250 174T198 307Q198 407 270 477T434 548Q541 548 590 468L559 446Q522 515 433 515Q358 515 297 455T235 308Q235 243 278 199T390 154Q458 154 505 201Z" />
<glyph unicode="&#xaa;" glyph-name="ordfeminine" horiz-adv-x="410" d="M268 602Q218 602 183 559T147 458Q147 413 170 389T234 365Q287 365 330 414L362 557Q349 577 324 589T268 602ZM380 640H437L368 326H310L320 372Q275 318 213 318Q159 318 123 353T87
452Q87 532 136 590T257 648Q335 648 370 594L380 640Z" />
<glyph unicode="&#xab;" glyph-name="guillemotleft" horiz-adv-x="439" d="M364 63H293L173 243L373 420H452L248 238L364 63ZM220 63H149L29 243L229 420H308L104 238L220 63Z" />
<glyph unicode="&#xac;" glyph-name="logicalnot" horiz-adv-x="504" d="M517 457L462 211H407L450 404H64L76 457H517Z" />
<glyph unicode="&#xae;" glyph-name="registered" horiz-adv-x="494" d="M508 465Q508 377 446 315T295 253T146 315T84 465T146 615T296 677T446 616T508 465ZM479 465Q479 542 425 595T295 648Q218 648 166 595T113 465Q113 390 166 336T295 282T425 336T479
465ZM367 343H329L287 439H241L220 343H188L241 586H333Q363 586 383 569T403 522Q403 488 378 464T323 440L367 343ZM369 519Q369 537 358 547T328 558H267L247 468H315Q338 468 353 482T369 519Z" />
<glyph unicode="&#xaf;" glyph-name="overscore" horiz-adv-x="363" d="M439 591H77L88 639H450L439 591Z" />
<glyph unicode="&#xb0;" glyph-name="degree" horiz-adv-x="290" d="M336 555Q336 504 300 469T213 433Q163 433 128 468T92 555Q92 605 127 641T213 677Q264 677 300 641T336 555ZM288 525T288 555T266 607T213 629Q183 629 162 607T140 555Q140 524 161 503T212
482Q243 482 265 503Z" />
<glyph unicode="&#xb1;" glyph-name="plusminus" horiz-adv-x="499" d="M487 324H295L248 111H191L238 324H46L58 376H250L295 583H353L307 376H499L487 324ZM416 0H-25L-14 53H427L416 0Z" />
<glyph unicode="&#xb2;" glyph-name="twosuperior" horiz-adv-x="388" d="M381 421H89L100 470Q256 564 319 614T382 715Q382 745 358 761T297 778Q228 778 185 732L157 771Q213 827 299 827Q358 827 400 800T443 718Q443 658 380 602T190 470H391L381 421Z" />
<glyph unicode="&#xb3;" glyph-name="threesuperior" horiz-adv-x="388" d="M407 535Q407 487 367 451T260 414Q205 414 163 433T100 487L140 522Q179 463 258 463Q299 463 323 486T347 543Q347 569 320 585T247 602Q224 602 217 601L228 651Q256 649 289 649Q331
649 356 667T381 717Q381 745 354 761T288 778Q230 778 180 735L157 774Q215 827 292 827Q357 827 399 801T442 725Q442 681 411 653T330 621Q362 615 384 592T407 535Z" />
<glyph unicode="&#xb4;" glyph-name="acute" horiz-adv-x="226" d="M327 700L126 556H67L247 700H327Z" />
<glyph unicode="&#xb5;" glyph-name="mu" horiz-adv-x="551" d="M55 -184H-20L128 483H203L128 146Q122 96 144 75T216 53Q257 53 301 75T375 128L454 483H529L422 0H347L362 68Q324 34 274 11T172 -12Q127 -12 96 2L55 -184Z" />
<glyph unicode="&#xb6;" glyph-name="paragraph" horiz-adv-x="449" d="M301 -100H256L417 622H328L167 -100H122L216 323Q159 323 119 367T79 479Q79 552 135 609T273 667H471L301 -100Z" />
<glyph unicode="&#xb7;" glyph-name="middot" horiz-adv-x="231" d="M110 190Q89 190 75 204T60 240Q60 265 77 282T120 300Q141 300 155 285T170 249Q170 224 153 207T110 190Z" />
<glyph unicode="&#xb8;" glyph-name="cedilla" horiz-adv-x="205" d="M19 -191Q-49 -191 -89 -153L-62 -117Q-29 -152 21 -152Q50 -152 66 -139T82 -105Q82 -75 46 -75Q25 -75 10 -92L-19 -73L31 11H76L36 -55Q48 -44 69 -44Q95 -44 111 -59T127 -102Q127 -142
97 -166T19 -191Z" />
<glyph unicode="&#xb9;" glyph-name="onesuperior" horiz-adv-x="235" d="M214 421H154L223 739L145 673L116 711L249 821H302L214 421Z" />
<glyph unicode="&#xba;" glyph-name="ordmasculine" horiz-adv-x="405" d="M239 318Q171 318 130 357T89 461Q89 538 142 593T271 648Q339 648 380 609T421 505Q421 428 368 373T239 318ZM240 366Q294 366 328 408T362 506Q362 548 337 573T270 599Q216 599 183
558T149 459Q149 418 174 392T240 366Z" />
<glyph unicode="&#xbb;" glyph-name="guillemotright" horiz-adv-x="439" d="M221 420H292L412 240L212 63H133L337 245L221 420ZM77 420H148L268 240L68 63H-11L193 245L77 420Z" />
<glyph unicode="&#xbc;" glyph-name="onequarter" horiz-adv-x="770" d="M683 667L109 0H55L628 667H683ZM701 100H644L622 0H562L584 100H388L397 145L627 400H710L654 149H711L701 100ZM594 149L638 343L459 149H594ZM180 267H120L189 585L111 519L82 557L215
667H268L180 267Z" />
<glyph unicode="&#xbd;" glyph-name="onehalf" horiz-adv-x="807" d="M683 667L109 0H55L628 667H683ZM707 0H415L426 49Q582 143 645 193T708 294Q708 324 684 340T623 357Q554 357 511 311L483 350Q539 406 625 406Q684 406 726 379T769 297Q769 237 706 181T516
49H717L707 0ZM180 267H120L189 585L111 519L82 557L215 667H268L180 267Z" />
<glyph unicode="&#xbe;" glyph-name="threequarters" horiz-adv-x="878" d="M791 667L217 0H163L736 667H791ZM810 100H753L731 0H671L693 100H497L506 145L736 400H819L763 149H820L810 100ZM703 149L747 343L568 149H703ZM373 381Q373 333 333 297T226 260Q171
260 129 279T66 333L106 368Q145 309 224 309Q265 309 289 332T313 389Q313 415 286 431T213 448Q190 448 183 447L194 497Q222 495 255 495Q297 495 322 513T347 563Q347 591 320 607T254 624Q196 624 146 581L123 620Q181 673 258 673Q323 673 365 647T408 571Q408
527 377 499T296 467Q328 461 350 438T373 381Z" />
<glyph unicode="&#xbf;" glyph-name="questiondown" horiz-adv-x="394" d="M204 271L270 298Q294 265 294 227Q294 187 270 157T210 108T140 71T81 27T56 -34Q56 -73 88 -97T178 -121Q265 -121 332 -56L369 -112Q283 -194 168 -194Q80 -194 24 -154T-33 -48Q-33
-6 -14 27T33 79T94 117T155 150T202 185T221 232Q221 254 204 271ZM286 493Q307 493 321 478T336 442Q336 418 318 401T276 383Q254 383 240 398T225 434Q225 459 243 476T286 493Z" />
<glyph unicode="&#xc0;" glyph-name="Agrave" horiz-adv-x="658" d="M503 728H446L309 872H387L503 728ZM595 0H505L478 149H146L54 0H-45L371 667H474L595 0ZM470 222L408 582L187 222H470Z" />
<glyph unicode="&#xc1;" glyph-name="Aacute" horiz-adv-x="658" d="M629 872L428 728H369L549 872H629ZM595 0H505L478 149H146L54 0H-45L371 667H474L595 0ZM470 222L408 582L187 222H470Z" />
<glyph unicode="&#xc2;" glyph-name="Acircumflex" horiz-adv-x="658" d="M570 728H521L461 834L358 728H305L432 872H504L570 728ZM595 0H505L478 149H146L54 0H-45L371 667H474L595 0ZM470 222L408 582L187 222H470Z" />
<glyph unicode="&#xc3;" glyph-name="Atilde" horiz-adv-x="658" d="M507 726Q482 726 465 740T441 772T420 803T389 818Q346 818 327 732H281Q308 866 395 866Q420 866 437 852T461 820T482 789T514 774Q556 774 576 860H622Q593 726 507 726ZM595 0H505L478
149H146L54 0H-45L371 667H474L595 0ZM470 222L408 582L187 222H470Z" />
<glyph unicode="&#xc4;" glyph-name="Adieresis" horiz-adv-x="658" d="M597 778Q597 758 582 743T545 727Q528 727 516 739T504 768Q504 788 519 803T556 819Q573 819 585 807T597 778ZM391 778Q391 758 375 743T339 727Q322 727 310 739T298 768Q298 788 313
803T350 819Q367 819 379 807T391 778ZM595 0H505L478 149H146L54 0H-45L371 667H474L595 0ZM470 222L408 582L187 222H470Z" />
<glyph unicode="&#xc5;" glyph-name="Aring" horiz-adv-x="658" d="M440 692Q401 692 376 717T351 781Q351 825 383 857T459 889Q499 889 523 865T548 800Q548 756 516 724T440 692ZM443 732Q469 732 488 751T508 796Q508 820 494 834T457 849Q431 849 411 830T391
785Q391 762 405 747T443 732ZM595 0H505L478 149H146L54 0H-45L371 667H474L595 0ZM470 222L408 582L187 222H470Z" />
<glyph unicode="&#xc6;" glyph-name="AE" horiz-adv-x="948" d="M839 0H402L434 149H176L52 0H-47L516 667H986L970 593H616L568 378H916L899 304H552L501 74H855L839 0ZM451 222L529 576L232 222H451Z" />
<glyph unicode="&#xc7;" glyph-name="Ccedilla" horiz-adv-x="676" d="M368 -12Q355 -12 349 -11L323 -55Q335 -44 356 -44Q382 -44 398 -59T414 -102Q414 -142 384 -166T306 -191Q238 -191 198 -153L225 -117Q258 -152 308 -152Q337 -152 353 -139T369 -105Q369
-75 333 -75Q312 -75 297 -92L268 -73L307 -7Q196 11 128 88T60 280Q60 368 91 443T175 570T295 649T435 678Q532 678 602 636T708 521L628 490Q600 547 548 575T431 604Q318 604 233 514T148 284Q148 185 209 124T373 62Q472 62 552 139L614 92Q514 -12 368 -12Z"
/>
<glyph unicode="&#xc8;" glyph-name="Egrave" horiz-adv-x="569" d="M470 728H413L276 872H354L470 728ZM461 0H24L171 667H608L592 593H238L190 378H538L521 304H174L123 74H477L461 0Z" />
<glyph unicode="&#xc9;" glyph-name="Eacute" horiz-adv-x="569" d="M595 872L394 728H335L515 872H595ZM461 0H24L171 667H608L592 593H238L190 378H538L521 304H174L123 74H477L461 0Z" />
<glyph unicode="&#xca;" glyph-name="Ecircumflex" horiz-adv-x="569" d="M535 728H486L426 834L323 728H270L397 872H469L535 728ZM461 0H24L171 667H608L592 593H238L190 378H538L521 304H174L123 74H477L461 0Z" />
<glyph unicode="&#xcb;" glyph-name="Edieresis" horiz-adv-x="569" d="M563 778Q563 758 548 743T511 727Q494 727 482 739T470 768Q470 788 485 803T522 819Q539 819 551 807T563 778ZM357 778Q357 758 341 743T305 727Q288 727 276 739T264 768Q264 788 279
803T316 819Q333 819 345 807T357 778ZM461 0H24L171 667H608L592 593H238L190 378H538L521 304H174L123 74H477L461 0Z" />
<glyph unicode="&#xcc;" glyph-name="Igrave" horiz-adv-x="239" d="M292 728H235L98 872H176L292 728ZM107 0H24L171 667H254L107 0Z" />
<glyph unicode="&#xcd;" glyph-name="Iacute" horiz-adv-x="239" d="M107 0H24L171 667H254L107 0ZM420 872L219 728H160L340 872H420Z" />
<glyph unicode="&#xce;" glyph-name="Icircumflex" horiz-adv-x="239" d="M359 728H310L250 834L147 728H94L221 872H293L359 728ZM107 0H24L171 667H254L107 0Z" />
<glyph unicode="&#xcf;" glyph-name="Idieresis" horiz-adv-x="239" d="M107 0H24L171 667H254L107 0ZM386 778Q386 758 371 743T334 727Q317 727 305 739T293 768Q293 788 308 803T345 819Q362 819 374 807T386 778ZM180 778Q180 758 164 743T128 727Q111 727
99 739T87 768Q87 788 102 803T139 819Q156 819 168 807T180 778Z" />
<glyph unicode="&#xd0;" glyph-name="Eth" horiz-adv-x="728" d="M279 0H52L118 300H22L38 368H133L199 667H422Q536 667 617 586T699 382Q699 312 674 246T599 124T466 34T279 0ZM370 300H201L151 74H293Q436 74 524 162T612 378Q612 471 554 532T406 593H266L216
368H385L370 300Z" />
<glyph unicode="&#xd1;" glyph-name="Ntilde" horiz-adv-x="708" d="M530 726Q505 726 488 740T464 772T443 803T412 818Q369 818 350 732H304Q331 866 418 866Q443 866 460 852T484 820T505 789T537 774Q579 774 599 860H645Q616 726 530 726ZM576 0H496L226
537L107 0H24L171 667H256L523 141L640 667H723L576 0Z" />
<glyph unicode="&#xd2;" glyph-name="Ograve" horiz-adv-x="765" d="M559 728H502L365 872H443L559 728ZM368 -12Q235 -12 148 66T60 280Q60 447 169 562T435 678Q568 678 655 600T743 387Q743 219 634 104T368 -12ZM373 62Q489 62 572 153T655 382Q655 486 591
545T430 604Q313 604 231 513T148 284Q148 180 212 121T373 62Z" />
<glyph unicode="&#xd3;" glyph-name="Oacute" horiz-adv-x="765" d="M683 872L482 728H423L603 872H683ZM368 -12Q235 -12 148 66T60 280Q60 447 169 562T435 678Q568 678 655 600T743 387Q743 219 634 104T368 -12ZM373 62Q489 62 572 153T655 382Q655 486 591
545T430 604Q313 604 231 513T148 284Q148 180 212 121T373 62Z" />
<glyph unicode="&#xd4;" glyph-name="Ocircumflex" horiz-adv-x="765" d="M624 728H575L515 834L412 728H359L486 872H558L624 728ZM368 -12Q235 -12 148 66T60 280Q60 447 169 562T435 678Q568 678 655 600T743 387Q743 219 634 104T368 -12ZM373 62Q489 62 572
153T655 382Q655 486 591 545T430 604Q313 604 231 513T148 284Q148 180 212 121T373 62Z" />
<glyph unicode="&#xd5;" glyph-name="Otilde" horiz-adv-x="765" d="M368 -12Q235 -12 148 66T60 280Q60 447 169 562T435 678Q568 678 655 600T743 387Q743 219 634 104T368 -12ZM373 62Q489 62 572 153T655 382Q655 486 591 545T430 604Q313 604 231 513T148
284Q148 180 212 121T373 62ZM560 726Q535 726 518 740T494 772T473 803T442 818Q399 818 380 732H334Q361 866 448 866Q473 866 490 852T514 820T535 789T567 774Q609 774 629 860H675Q646 726 560 726Z" />
<glyph unicode="&#xd6;" glyph-name="Odieresis" horiz-adv-x="765" d="M649 778Q649 758 634 743T597 727Q580 727 568 739T556 768Q556 788 571 803T608 819Q625 819 637 807T649 778ZM443 778Q443 758 427 743T391 727Q374 727 362 739T350 768Q350 788 365
803T402 819Q419 819 431 807T443 778ZM368 -12Q235 -12 148 66T60 280Q60 447 169 562T435 678Q568 678 655 600T743 387Q743 219 634 104T368 -12ZM373 62Q489 62 572 153T655 382Q655 486 591 545T430 604Q313 604 231 513T148 284Q148 180 212 121T373 62Z"
/>
<glyph unicode="&#xd7;" glyph-name="multiply" horiz-adv-x="499" d="M379 150L264 297L82 147L48 187L233 338L118 484L160 518L274 371L457 521L489 481L306 331L420 184L379 150Z" />
<glyph unicode="&#xd8;" glyph-name="Oslash" horiz-adv-x="765" d="M368 -12Q256 -12 174 45L134 0H67L136 78Q60 157 60 280Q60 447 169 562T435 678Q544 678 624 624L663 667H730L663 592Q743 514 743 387Q743 219 634 104T368 -12ZM373 62Q489 62 572 153T655
382Q655 471 606 528L229 106Q288 62 373 62ZM148 284Q148 199 193 141L569 562Q512 604 430 604Q313 604 231 513T148 284Z" />
<glyph unicode="&#xd9;" glyph-name="Ugrave" horiz-adv-x="701" d="M525 728H468L331 872H409L525 728ZM336 -12Q213 -12 145 48T76 210Q76 234 81 259L171 667H255L165 261Q160 226 160 219Q161 149 207 106T336 62Q424 62 472 112T542 261L632 667H716L626
260Q597 128 530 58T336 -12Z" />
<glyph unicode="&#xda;" glyph-name="Uacute" horiz-adv-x="701" d="M649 872L448 728H389L569 872H649ZM336 -12Q213 -12 145 48T76 210Q76 234 81 259L171 667H255L165 261Q160 226 160 219Q161 149 207 106T336 62Q424 62 472 112T542 261L632 667H716L626
260Q597 128 530 58T336 -12Z" />
<glyph unicode="&#xdb;" glyph-name="Ucircumflex" horiz-adv-x="701" d="M595 728H546L486 834L383 728H330L457 872H529L595 728ZM336 -12Q213 -12 145 48T76 210Q76 234 81 259L171 667H255L165 261Q160 226 160 219Q161 149 207 106T336 62Q424 62 472 112T542
261L632 667H716L626 260Q597 128 530 58T336 -12Z" />
<glyph unicode="&#xdc;" glyph-name="Udieresis" horiz-adv-x="701" d="M618 778Q618 758 603 743T566 727Q549 727 537 739T525 768Q525 788 540 803T577 819Q594 819 606 807T618 778ZM412 778Q412 758 396 743T360 727Q343 727 331 739T319 768Q319 788 334
803T371 819Q388 819 400 807T412 778ZM336 -12Q213 -12 145 48T76 210Q76 234 81 259L171 667H255L165 261Q160 226 160 219Q161 149 207 106T336 62Q424 62 472 112T542 261L632 667H716L626 260Q597 128 530 58T336 -12Z" />
<glyph unicode="&#xdd;" glyph-name="Yacute" horiz-adv-x="626" d="M616 872L415 728H356L536 872H616ZM301 0H218L280 282L102 667H193L332 357L607 667H710L363 282L301 0Z" />
<glyph unicode="&#xde;" glyph-name="Thorn" horiz-adv-x="587" d="M107 0H24L171 667H254L228 548H403Q477 548 527 498T578 375Q578 334 564 295T520 222T440 167T323 146H139L107 0ZM329 220Q406 220 448 263T491 369Q491 413 458 443T380 474H211L155 220H329Z" />
<glyph unicode="&#xdf;" glyph-name="germandbls" horiz-adv-x="597" d="M559 145Q559 82 509 35T372 -12Q303 -12 256 9T168 78L215 125Q273 50 374 50Q424 50 454 76T484 136Q484 161 459 178T399 208T329 234T268 274T243 337Q243 375 262 403T310 447T367
476T414 505T434 543Q434 573 404 591T336 610Q288 610 253 580T207 499L97 0H22L132 499Q150 578 203 627T338 677Q406 677 459 643T513 556Q513 520 493 494T444 452T386 424T337 393T317 349Q317 326 342 309T402 280T473 253T534 211T559 145Z" />
<glyph unicode="&#xe0;" glyph-name="agrave" horiz-adv-x="528" d="M407 556H350L213 700H291L407 556ZM403 0H328L340 52Q274 -12 190 -12Q122 -12 75 24T27 128Q27 210 79 258T208 307Q317 307 380 235L398 316Q401 328 401 345Q401 384 366 408T273 432Q195
432 131 375L107 429Q188 495 286 495Q369 495 423 461T478 358Q478 348 472 312L403 0ZM219 42Q295 42 350 100L371 190Q334 253 231 253Q175 253 141 220T106 134Q106 90 137 66T219 42Z" />
<glyph unicode="&#xe1;" glyph-name="aacute" horiz-adv-x="528" d="M534 700L333 556H274L454 700H534ZM403 0H328L340 52Q274 -12 190 -12Q122 -12 75 24T27 128Q27 210 79 258T208 307Q317 307 380 235L398 316Q401 328 401 345Q401 384 366 408T273 432Q195
432 131 375L107 429Q188 495 286 495Q369 495 423 461T478 358Q478 348 472 312L403 0ZM219 42Q295 42 350 100L371 190Q334 253 231 253Q175 253 141 220T106 134Q106 90 137 66T219 42Z" />
<glyph unicode="&#xe2;" glyph-name="acircumflex" horiz-adv-x="528" d="M476 556H427L367 662L264 556H211L338 700H410L476 556ZM403 0H328L340 52Q274 -12 190 -12Q122 -12 75 24T27 128Q27 210 79 258T208 307Q317 307 380 235L398 316Q401 328 401 345Q401
384 366 408T273 432Q195 432 131 375L107 429Q188 495 286 495Q369 495 423 461T478 358Q478 348 472 312L403 0ZM219 42Q295 42 350 100L371 190Q334 253 231 253Q175 253 141 220T106 134Q106 90 137 66T219 42Z" />
<glyph unicode="&#xe3;" glyph-name="atilde" horiz-adv-x="528" d="M411 554Q386 554 369 568T345 600T324 631T293 646Q250 646 231 560H185Q212 694 299 694Q324 694 341 680T365 648T386 617T418 602Q460 602 480 688H526Q497 554 411 554ZM403 0H328L340
52Q274 -12 190 -12Q122 -12 75 24T27 128Q27 210 79 258T208 307Q317 307 380 235L398 316Q401 328 401 345Q401 384 366 408T273 432Q195 432 131 375L107 429Q188 495 286 495Q369 495 423 461T478 358Q478 348 472 312L403 0ZM219 42Q295 42 350 100L371 190Q334
253 231 253Q175 253 141 220T106 134Q106 90 137 66T219 42Z" />
<glyph unicode="&#xe4;" glyph-name="adieresis" horiz-adv-x="528" d="M499 609Q499 589 484 574T447 558Q430 558 418 570T406 599Q406 619 421 634T458 650Q475 650 487 638T499 609ZM293 609Q293 589 277 574T241 558Q224 558 212 570T200 599Q200 619 215
634T252 650Q269 650 281 638T293 609ZM403 0H328L340 52Q274 -12 190 -12Q122 -12 75 24T27 128Q27 210 79 258T208 307Q317 307 380 235L398 316Q401 328 401 345Q401 384 366 408T273 432Q195 432 131 375L107 429Q188 495 286 495Q369 495 423 461T478 358Q478
348 472 312L403 0ZM219 42Q295 42 350 100L371 190Q334 253 231 253Q175 253 141 220T106 134Q106 90 137 66T219 42Z" />
<glyph unicode="&#xe5;" glyph-name="aring" horiz-adv-x="528" d="M351 554Q312 554 287 579T262 643Q262 687 294 719T370 751Q410 751 434 727T459 662Q459 618 427 586T351 554ZM354 594Q380 594 399 613T419 658Q419 682 405 696T368 711Q342 711 322 692T302
647Q302 624 316 609T354 594ZM403 0H328L340 52Q274 -12 190 -12Q122 -12 75 24T27 128Q27 210 79 258T208 307Q317 307 380 235L398 316Q401 328 401 345Q401 384 366 408T273 432Q195 432 131 375L107 429Q188 495 286 495Q369 495 423 461T478 358Q478 348
472 312L403 0ZM219 42Q295 42 350 100L371 190Q334 253 231 253Q175 253 141 220T106 134Q106 90 137 66T219 42Z" />
<glyph unicode="&#xe6;" glyph-name="ae" horiz-adv-x="895" d="M844 217H452V208Q451 200 451 195Q451 135 493 93T613 50Q695 50 752 98L778 45Q708 -12 614 -12Q465 -12 408 95Q362 46 313 17T195 -12Q124 -12 76 24T27 128Q27 211 80 259T208 307Q263 307
309 289T380 238L398 316Q400 325 400 345Q400 385 365 408T273 432Q198 432 131 375L106 429Q185 495 286 495Q440 495 452 380Q479 431 531 463T649 495Q738 495 795 439T852 284Q852 265 844 217ZM463 273H783Q784 279 784 291Q784 354 744 393T638 433Q568
433 524 386T463 273ZM376 132Q370 153 370 184V191Q354 220 315 236T230 253Q176 253 141 220T105 134Q105 90 136 66T219 42Q306 42 376 132Z" />
<glyph unicode="&#xe7;" glyph-name="ccedilla" horiz-adv-x="496" d="M208 -191Q140 -191 100 -153L127 -117Q160 -152 210 -152Q239 -152 255 -139T271 -105Q271 -75 235 -75Q214 -75 199 -92L170 -73L209 -7Q131 7 86 62T40 204Q40 324 119 409T312 495Q439
495 493 405L436 362Q399 428 314 428Q226 428 172 362T118 205Q118 133 160 94T269 55Q343 55 392 113L434 62Q362 -12 262 -12H251L225 -55Q237 -44 258 -44Q284 -44 300 -59T316 -102Q316 -142 286 -166T208 -191Z" />
<glyph unicode="&#xe8;" glyph-name="egrave" horiz-adv-x="563" d="M421 556H364L227 700H305L421 556ZM276 -12Q167 -12 104 46T40 202Q40 323 119 409T312 495Q407 495 463 436T520 284Q520 254 512 217H119Q117 209 117 194Q117 134 160 92T281 50Q362 50
420 98L446 45Q370 -12 276 -12ZM448 273H451Q451 275 451 281T452 291Q452 354 414 393T305 433Q240 433 189 386T126 273H448Z" />
<glyph unicode="&#xe9;" glyph-name="eacute" horiz-adv-x="563" d="M547 700L346 556H287L467 700H547ZM276 -12Q167 -12 104 46T40 202Q40 323 119 409T312 495Q407 495 463 436T520 284Q520 254 512 217H119Q117 209 117 194Q117 134 160 92T281 50Q362 50
420 98L446 45Q370 -12 276 -12ZM448 273H451Q451 275 451 281T452 291Q452 354 414 393T305 433Q240 433 189 386T126 273H448Z" />
<glyph unicode="&#xea;" glyph-name="ecircumflex" horiz-adv-x="563" d="M488 556H439L379 662L276 556H223L350 700H422L488 556ZM276 -12Q167 -12 104 46T40 202Q40 323 119 409T312 495Q407 495 463 436T520 284Q520 254 512 217H119Q117 209 117 194Q117
134 160 92T281 50Q362 50 420 98L446 45Q370 -12 276 -12ZM448 273H451Q451 275 451 281T452 291Q452 354 414 393T305 433Q240 433 189 386T126 273H448Z" />
<glyph unicode="&#xeb;" glyph-name="edieresis" horiz-adv-x="563" d="M515 609Q515 589 500 574T463 558Q446 558 434 570T422 599Q422 619 437 634T474 650Q491 650 503 638T515 609ZM309 609Q309 589 293 574T257 558Q240 558 228 570T216 599Q216 619 231
634T268 650Q285 650 297 638T309 609ZM276 -12Q167 -12 104 46T40 202Q40 323 119 409T312 495Q407 495 463 436T520 284Q520 254 512 217H119Q117 209 117 194Q117 134 160 92T281 50Q362 50 420 98L446 45Q370 -12 276 -12ZM448 273H451Q451 275 451 281T452
291Q452 354 414 393T305 433Q240 433 189 386T126 273H448Z" />
<glyph unicode="&#xec;" glyph-name="igrave" horiz-adv-x="225" d="M247 556H190L53 700H131L247 556ZM96 0H21L128 483H203L96 0Z" />
<glyph unicode="&#xed;" glyph-name="iacute" horiz-adv-x="225" d="M96 0H21L128 483H203L96 0ZM374 700L173 556H114L294 700H374Z" />
<glyph unicode="&#xee;" glyph-name="icircumflex" horiz-adv-x="225" d="M315 556H266L206 662L103 556H50L177 700H249L315 556ZM96 0H21L128 483H203L96 0Z" />
<glyph unicode="&#xef;" glyph-name="idieresis" horiz-adv-x="225" d="M96 0H21L128 483H203L96 0ZM342 609Q342 589 327 574T290 558Q273 558 261 570T249 599Q249 619 264 634T301 650Q318 650 330 638T342 609ZM136 609Q136 589 120 574T84 558Q67 558 55
570T43 599Q43 619 58 634T95 650Q112 650 124 638T136 609Z" />
<glyph unicode="&#xf0;" glyph-name="eth" horiz-adv-x="572" d="M178 511L169 552L301 591Q280 610 236 644L289 701Q346 657 386 617L503 652L511 611L417 583Q533 446 533 303Q533 171 457 80T264 -12Q164 -12 102 46T39 194Q39 313 112 396T289 479Q342 479
387 453T456 373Q424 468 336 558L178 511ZM265 55Q341 55 394 118T448 270Q448 327 411 369T300 412Q225 412 172 351T118 202Q118 136 157 96T265 55Z" />
<glyph unicode="&#xf1;" glyph-name="ntilde" horiz-adv-x="552" d="M416 554Q391 554 374 568T350 600T329 631T298 646Q255 646 236 560H190Q217 694 304 694Q329 694 346 680T370 648T391 617T423 602Q465 602 485 688H531Q502 554 416 554ZM425 0H351L421
317Q426 342 426 351Q426 428 326 428Q249 428 177 352L99 0H24L131 483H206L190 413Q274 495 361 495Q426 495 465 464T505 376Q505 357 499 335L425 0Z" />
<glyph unicode="&#xf2;" glyph-name="ograve" horiz-adv-x="572" d="M421 556H364L227 700H305L421 556ZM261 -12Q159 -12 100 47T40 203Q40 320 117 407T309 495Q411 495 470 436T530 281Q530 163 453 76T261 -12ZM263 55Q343 55 397 122T451 278Q451 347 413
387T307 428Q227 428 173 361T119 205Q119 136 157 96T263 55Z" />
<glyph unicode="&#xf3;" glyph-name="oacute" horiz-adv-x="572" d="M547 700L346 556H287L467 700H547ZM261 -12Q159 -12 100 47T40 203Q40 320 117 407T309 495Q411 495 470 436T530 281Q530 163 453 76T261 -12ZM263 55Q343 55 397 122T451 278Q451 347 413
387T307 428Q227 428 173 361T119 205Q119 136 157 96T263 55Z" />
<glyph unicode="&#xf4;" glyph-name="ocircumflex" horiz-adv-x="572" d="M489 556H440L380 662L277 556H224L351 700H423L489 556ZM261 -12Q159 -12 100 47T40 203Q40 320 117 407T309 495Q411 495 470 436T530 281Q530 163 453 76T261 -12ZM263 55Q343 55 397
122T451 278Q451 347 413 387T307 428Q227 428 173 361T119 205Q119 136 157 96T263 55Z" />
<glyph unicode="&#xf5;" glyph-name="otilde" horiz-adv-x="572" d="M261 -12Q159 -12 100 47T40 203Q40 320 117 407T309 495Q411 495 470 436T530 281Q530 163 453 76T261 -12ZM263 55Q343 55 397 122T451 278Q451 347 413 387T307 428Q227 428 173 361T119
205Q119 136 157 96T263 55ZM426 554Q401 554 384 568T360 600T339 631T308 646Q265 646 246 560H200Q227 694 314 694Q339 694 356 680T380 648T401 617T433 602Q475 602 495 688H541Q512 554 426 554Z" />
<glyph unicode="&#xf6;" glyph-name="odieresis" horiz-adv-x="572" d="M515 609Q515 589 500 574T463 558Q446 558 434 570T422 599Q422 619 437 634T474 650Q491 650 503 638T515 609ZM309 609Q309 589 293 574T257 558Q240 558 228 570T216 599Q216 619 231
634T268 650Q285 650 297 638T309 609ZM261 -12Q159 -12 100 47T40 203Q40 320 117 407T309 495Q411 495 470 436T530 281Q530 163 453 76T261 -12ZM263 55Q343 55 397 122T451 278Q451 347 413 387T307 428Q227 428 173 361T119 205Q119 136 157 96T263 55Z" />
<glyph unicode="&#xf7;" glyph-name="divide" horiz-adv-x="511" d="M497 311H44L55 363H508L497 311ZM229 99Q212 99 200 111T187 141Q187 161 202 175T237 190Q255 190 267 178T279 148Q279 127 265 113T229 99ZM313 480Q296 480 284 492T272 523Q272 543 286
557T322 572Q339 572 351 560T364 530Q364 509 349 495T313 480Z" />
<glyph unicode="&#xf8;" glyph-name="oslash" horiz-adv-x="572" d="M66 0H8L79 70Q40 124 40 203Q40 320 117 407T309 495Q400 495 460 446L497 483H555L487 416Q530 361 530 281Q530 163 453 76T261 -12Q166 -12 106 40L66 0ZM263 55Q343 55 397 122T451 278Q451
326 431 361L160 92Q197 55 263 55ZM119 205Q119 160 136 126L406 393Q368 428 307 428Q227 428 173 361T119 205Z" />
<glyph unicode="&#xf9;" glyph-name="ugrave" horiz-adv-x="551" d="M413 556H356L219 700H297L413 556ZM128 483H203L133 166Q128 144 128 133Q128 55 228 55Q304 55 376 131L454 483H529L422 0H347L363 70Q279 -12 193 -12Q127 -12 88 19T49 107Q49 120 54 148L128
483Z" />
<glyph unicode="&#xfa;" glyph-name="uacute" horiz-adv-x="551" d="M538 700L337 556H278L458 700H538ZM128 483H203L133 166Q128 144 128 133Q128 55 228 55Q304 55 376 131L454 483H529L422 0H347L363 70Q279 -12 193 -12Q127 -12 88 19T49 107Q49 120 54 148L128
483Z" />
<glyph unicode="&#xfb;" glyph-name="ucircumflex" horiz-adv-x="551" d="M478 556H429L369 662L266 556H213L340 700H412L478 556ZM128 483H203L133 166Q128 144 128 133Q128 55 228 55Q304 55 376 131L454 483H529L422 0H347L363 70Q279 -12 193 -12Q127 -12
88 19T49 107Q49 120 54 148L128 483Z" />
<glyph unicode="&#xfc;" glyph-name="udieresis" horiz-adv-x="551" d="M508 609Q508 589 493 574T456 558Q439 558 427 570T415 599Q415 619 430 634T467 650Q484 650 496 638T508 609ZM302 609Q302 589 286 574T250 558Q233 558 221 570T209 599Q209 619 224
634T261 650Q278 650 290 638T302 609ZM128 483H203L133 166Q128 144 128 133Q128 55 228 55Q304 55 376 131L454 483H529L422 0H347L363 70Q279 -12 193 -12Q127 -12 88 19T49 107Q49 120 54 148L128 483Z" />
<glyph unicode="&#xfd;" glyph-name="yacute" horiz-adv-x="551" d="M536 700L335 556H276L456 700H536ZM189 -196Q42 -196 -27 -114L20 -63Q66 -134 187 -134Q315 -134 350 16L364 78Q276 -2 195 -2Q132 -2 92 27T51 116Q51 132 56 158L128 483H203L135 176Q130
153 130 141Q130 64 230 64Q306 64 378 140L454 483H529L425 16Q378 -196 189 -196Z" />
<glyph unicode="&#xfe;" glyph-name="thorn" horiz-adv-x="572" d="M281 -12Q226 -12 182 11T113 76L55 -184H-20L168 667H243L188 414Q253 495 347 495Q432 495 483 442T534 296Q534 172 464 80T281 -12ZM271 55Q351 55 403 123T455 282Q455 349 418 388T320
428Q277 428 238 405T172 346L125 133Q144 99 182 77T271 55Z" />
<glyph unicode="&#xff;" glyph-name="ydieresis" horiz-adv-x="551" d="M501 609Q501 589 486 574T449 558Q432 558 420 570T408 599Q408 619 423 634T460 650Q477 650 489 638T501 609ZM295 609Q295 589 279 574T243 558Q226 558 214 570T202 599Q202 619 217
634T254 650Q271 650 283 638T295 609ZM189 -196Q42 -196 -27 -114L20 -63Q66 -134 187 -134Q315 -134 350 16L364 78Q276 -2 195 -2Q132 -2 92 27T51 116Q51 132 56 158L128 483H203L135 176Q130 153 130 141Q130 64 230 64Q306 64 378 140L454 483H529L425 16Q378
-196 189 -196Z" />
<glyph unicode="&#x131;" glyph-name="dotlessi" horiz-adv-x="225" d="M96 0H21L128 483H203L96 0Z" />
<glyph unicode="&#x141;" glyph-name="Lslash" horiz-adv-x="524" d="M5 221L21 293L120 344L191 667H274L213 391L321 447L306 375L197 319L143 74H453L437 0H44L104 271L5 221Z" />
<glyph unicode="&#x142;" glyph-name="lslash" horiz-adv-x="299" d="M6 228L20 288L126 342L198 667H273L210 384L320 440L306 380L197 325L152 119Q149 107 149 96Q149 55 199 55Q225 55 245 71L253 11Q224 -12 181 -12Q130 -12 100 9T70 70Q70 88 74 104L113
282L6 228Z" />
<glyph unicode="&#x152;" glyph-name="OE" horiz-adv-x="1105" d="M997 0H560L581 102Q495 -12 341 -12Q217 -12 139 70T60 280Q60 453 170 565T436 677Q619 677 675 523L707 667H1144L1128 593H774L726 378H1073L1057 304H709L658 74H1013L997 0ZM604 201L653
424Q639 509 581 556T436 603Q316 603 232 511T148 284Q148 183 208 123T366 62Q438 62 501 99T604 201Z" />
<glyph unicode="&#x153;" glyph-name="oe" horiz-adv-x="962" d="M912 217H523Q522 213 522 194Q522 133 564 92T684 50Q762 50 820 98L846 45Q776 -12 679 -12Q594 -12 539 32T472 126Q454 98 440 81T399 39T337 1T259 -12Q160 -12 100 45T40 203Q40 319 116
407T307 495Q388 495 438 451T499 357Q588 495 714 495Q805 495 863 439T921 284Q921 249 912 217ZM531 273H851Q853 281 853 291Q853 352 815 392T708 433Q640 433 590 383T531 273ZM447 278Q447 353 407 390T305 428Q228 428 174 362T119 205Q119 136 156 96T261
55Q339 55 393 121T447 278Z" />
<glyph unicode="&#x160;" glyph-name="Scaron" horiz-adv-x="586" d="M430 728H358L292 872H341L400 766L504 872H557L430 728ZM286 -12Q198 -12 125 21T16 108L73 167Q108 118 166 90T293 62Q365 62 402 100T440 186Q440 216 416 240T354 279T275 313T195 351T134
404T109 483Q109 562 176 620T346 678Q422 678 486 650T586 572L530 514Q497 558 445 581T336 604Q278 604 238 572T198 495Q198 462 232 437T314 393T412 352T495 291T529 199Q529 114 464 51T286 -12Z" />
<glyph unicode="&#x161;" glyph-name="scaron" horiz-adv-x="465" d="M335 556H263L197 700H246L305 594L409 700H462L335 556ZM207 -12Q72 -12 3 74L51 125Q72 94 116 72T211 49Q261 49 291 74T322 134Q322 159 296 178T233 210T158 239T94 282T68 346Q68 409
117 452T251 495Q310 495 360 473T436 416L392 367Q375 395 334 414T247 434Q200 434 172 413T143 360Q143 337 169 319T232 288T307 259T371 215T397 147Q397 81 346 35T207 -12Z" />
<glyph unicode="&#x178;" glyph-name="Ydieresis" horiz-adv-x="626" d="M583 778Q583 758 568 743T531 727Q514 727 502 739T490 768Q490 788 505 803T542 819Q559 819 571 807T583 778ZM377 778Q377 758 361 743T325 727Q308 727 296 739T284 768Q284 788 299
803T336 819Q353 819 365 807T377 778ZM301 0H218L280 282L102 667H193L332 357L607 667H710L363 282L301 0Z" />
<glyph unicode="&#x17d;" glyph-name="Zcaron" horiz-adv-x="585" d="M437 728H365L299 872H348L407 766L511 872H564L437 728ZM483 0H-6L9 69L494 593H125L141 667H623L608 598L121 74H499L483 0Z" />
<glyph unicode="&#x17e;" glyph-name="zcaron" horiz-adv-x="472" d="M336 556H264L198 700H247L306 594L410 700H463L336 556ZM366 0H-2L10 59L352 417H90L105 483H469L456 426L112 66H380L366 0Z" />
<glyph unicode="&#x192;" glyph-name="florin" horiz-adv-x="432" d="M55 -161H-29L63 254H-5V322H77L123 526Q157 677 281 677Q350 677 391 636L354 578Q335 603 296 603Q225 603 204 511L162 322H301V254H148L55 -161Z" />
<glyph unicode="&#x2c6;" glyph-name="circumflex" horiz-adv-x="265" d="M334 556H285L225 662L122 556H69L196 700H268L334 556Z" />
<glyph unicode="&#x2c7;" glyph-name="caron" horiz-adv-x="265" d="M239 556H167L101 700H150L209 594L313 700H366L239 556Z" />
<glyph unicode="&#x2d8;" glyph-name="breve" horiz-adv-x="351" d="M441 651Q356 563 247 563Q194 563 153 586T90 651L132 683Q168 611 255 611Q343 611 409 683L441 651Z" />
<glyph unicode="&#x2d9;" glyph-name="dotaccent" horiz-adv-x="112" d="M186 625Q186 604 170 588T134 572Q116 572 104 584T92 614Q92 635 107 650T144 666Q162 666 174 655T186 625Z" />
<glyph unicode="&#x2da;" glyph-name="ring" horiz-adv-x="196" d="M178 554Q139 554 114 579T89 643Q89 687 121 719T197 751Q237 751 261 727T286 662Q286 618 254 586T178 554ZM181 594Q207 594 226 613T246 658Q246 682 232 696T195 711Q169 711 149 692T129
647Q129 624 143 609T181 594Z" />
<glyph unicode="&#x2db;" glyph-name="ogonek" horiz-adv-x="178" d="M64 -106L96 -130Q60 -186 5 -186Q-31 -186 -54 -167T-77 -114Q-77 -26 36 23L68 0Q-34 -44 -34 -107Q-34 -147 9 -147Q44 -147 64 -106Z" />
<glyph unicode="&#x2dc;" glyph-name="tilde" horiz-adv-x="313" d="M296 554Q271 554 254 568T230 600T209 631T178 646Q135 646 116 560H70Q97 694 184 694Q209 694 226 680T250 648T271 617T303 602Q345 602 365 688H411Q382 554 296 554Z" />
<glyph unicode="&#x2dd;" glyph-name="hungarumlaut" horiz-adv-x="305" d="M264 700L117 556H67L193 700H264ZM406 700L259 556H209L335 700H406Z" />
<glyph unicode="&#x3c0;" glyph-name="pi" horiz-adv-x="561" d="M398 0H322L418 433H227L131 0H55L150 433H74L88 500H585L570 433H494L398 0Z" />
<glyph unicode="&#x2013;" glyph-name="endash" horiz-adv-x="593" d="M555 209H22L36 275H569L555 209Z" />
<glyph unicode="&#x2014;" glyph-name="emdash" horiz-adv-x="833" d="M795 209H22L36 275H809L795 209Z" />
<glyph unicode="&#x2018;" glyph-name="quoteleft" horiz-adv-x="230" d="M109 515Q109 561 142 607T224 677L255 645Q227 631 203 608T171 561H179Q197 561 209 549T222 516Q222 492 204 475T162 457Q139 457 124 472T109 515Z" />
<glyph unicode="&#x2019;" glyph-name="quoteright" horiz-adv-x="230" d="M256 619Q256 573 223 527T141 456L110 489Q138 503 162 526T194 573H186Q168 573 156 585T144 618Q144 642 161 659T203 677Q226 677 241 662T256 619Z" />
<glyph unicode="&#x201a;" glyph-name="quotesinglbase" horiz-adv-x="230" d="M128 42Q128 -4 95 -50T13 -121L-18 -88Q49 -54 66 -4H58Q40 -4 28 8T15 41Q15 65 33 82T75 100Q98 100 113 85T128 42Z" />
<glyph unicode="&#x201c;" glyph-name="quotedblleft" horiz-adv-x="390" d="M275 515Q275 561 309 607T391 677L422 645Q394 631 370 608T338 561H346Q364 561 376 549T388 516Q388 492 370 475T328 457Q306 457 291 472T275 515ZM116 515Q116 561 150 607T232
677L262 645Q234 631 210 608T178 561H186Q204 561 216 549T229 516Q229 492 211 475T169 457Q146 457 131 472T116 515Z" />
<glyph unicode="&#x201d;" glyph-name="quotedblright" horiz-adv-x="390" d="M256 619Q256 573 223 527T141 456L110 489Q138 503 162 526T194 573H186Q168 573 156 585T144 618Q144 642 161 659T203 677Q226 677 241 662T256 619ZM416 619Q416 573 382 527T300
456L270 489Q298 503 321 526T354 573H346Q328 573 316 585T303 618Q303 642 321 659T363 677Q386 677 401 662T416 619Z" />
<glyph unicode="&#x201e;" glyph-name="quotedblbase" horiz-adv-x="390" d="M128 42Q128 -4 95 -50T13 -121L-18 -88Q49 -54 66 -4H58Q40 -4 28 8T15 41Q15 65 33 82T75 100Q98 100 113 85T128 42ZM288 42Q288 -4 254 -50T172 -121L142 -88Q170 -74 193 -51T225
-4H217Q200 -4 188 8T175 41Q175 65 193 82T235 100Q258 100 273 85T288 42Z" />
<glyph unicode="&#x2020;" glyph-name="dagger" horiz-adv-x="263" d="M304 531L216 535L173 327H125L176 535L86 531L95 574L184 571L203 677H251L223 571L313 574L304 531Z" />
<glyph unicode="&#x2021;" glyph-name="daggerdbl" horiz-adv-x="263" d="M313 574L304 531L216 535L168 322L258 326L249 283L161 286L140 180H92L121 286L31 283L40 326L128 322L175 535L86 531L95 574L183 571L203 677H251L223 571L313 574Z" />
<glyph unicode="&#x2022;" glyph-name="bullet" horiz-adv-x="358" d="M288 253Q288 205 252 170T167 135Q126 135 98 163T70 232Q70 280 106 315T191 350Q232 350 260 322T288 253Z" />
<glyph unicode="&#x2026;" glyph-name="ellipsis" horiz-adv-x="691" d="M66 -10Q45 -10 31 4T16 41Q16 65 33 82T76 100Q97 100 111 85T126 49Q126 24 109 7T66 -10ZM296 -10Q275 -10 261 4T246 41Q246 65 263 82T306 100Q327 100 341 85T356 49Q356 24 339 7T296
-10ZM526 -10Q505 -10 491 4T476 41Q476 65 493 82T536 100Q558 100 572 85T587 49Q587 24 569 7T526 -10Z" />
<glyph unicode="&#x2030;" glyph-name="perthousand" horiz-adv-x="1084" d="M129 0H74L647 667H703L129 0ZM505 -12Q442 -12 399 25T355 123Q355 208 408 262T533 317Q596 317 639 280T683 182Q683 97 630 43T505 -12ZM506 39Q554 39 588 78T623 177Q623 215
597 240T531 266Q484 266 450 227T415 128Q415 90 440 65T506 39ZM236 348Q174 348 131 385T87 483Q87 568 140 622T265 677Q328 677 371 640T414 542Q414 457 362 403T236 348ZM238 399Q286 399 320 438T355 537Q355 575 329 600T263 626Q216 626 182 587T147
488Q147 450 172 425T238 399ZM857 -12Q794 -12 751 25T707 123Q707 208 760 262T886 317Q948 317 991 280T1035 182Q1035 97 982 43T857 -12ZM859 39Q906 39 940 78T975 177Q975 215 950 240T884 266Q836 266 802 227T767 128Q767 90 793 65T859 39Z" />
<glyph unicode="&#x2039;" glyph-name="guilsinglleft" horiz-adv-x="295" d="M220 63H149L29 243L229 420H308L104 238L220 63Z" />
<glyph unicode="&#x203a;" glyph-name="guilsinglright" horiz-adv-x="295" d="M77 420H148L268 240L68 63H-11L193 245L77 420Z" />
<glyph unicode="&#x2044;" glyph-name="fraction" horiz-adv-x="139" d="M403 667L-171 0H-225L348 667H403Z" />
<glyph unicode="&#x20ac;" glyph-name="Euro" horiz-adv-x="695" d="M392 -12Q269 -12 185 55T86 237H29L41 289H84Q86 338 94 379H60L72 432H110Q153 545 249 611T459 678Q556 678 626 636T732 521L652 490Q624 547 572 575T455 604Q377 604 308 558T203 432H517L505
379H184Q172 337 172 289H485L473 237H176Q190 157 248 110T397 62Q496 62 576 139L638 92Q538 -12 392 -12Z" />
<glyph unicode="&#x2122;" glyph-name="trademark" horiz-adv-x="454" d="M464 447H436L476 629L361 447H353L318 629L278 447H250L298 667H341L370 507L469 667H512L464 447ZM257 641H195L152 447H124L167 641H105L110 667H262L257 641Z" />
<glyph unicode="&#x2126;" glyph-name="Omega" horiz-adv-x="765" d="M15 0L31 74H183Q66 164 66 305Q66 376 92 443T165 562T282 646T435 678Q572 678 657 601T743 391Q743 285 685 205T532 74H658L642 0H402L418 74Q519 95 586 181T654 382Q654 483 594 543T432
603Q309 603 229 510T149 285Q149 140 271 74L261 26H260L255 0H15Z" />
<glyph unicode="&#x2202;" glyph-name="partialdiff" horiz-adv-x="572" d="M264 -12Q164 -12 101 46T38 194Q38 313 112 396T289 479Q342 479 387 453T456 373Q408 518 236 644L289 701Q404 616 468 513T533 303Q533 171 457 80T264 -12ZM265 55Q341 55 394 118T448
270Q448 327 411 369T300 412Q225 412 172 351T118 202Q118 136 157 96T265 55Z" />
<glyph unicode="&#x2206;" glyph-name="increment" horiz-adv-x="658" d="M595 0H-45L371 667H474L595 0ZM496 74L408 582L95 74H496Z" />
<glyph unicode="&#x220f;" glyph-name="product" horiz-adv-x="708" d="M492 -90H409L560 593H301L150 -90H67L218 593H109L125 667H769L753 593H643L492 -90Z" />
<glyph unicode="&#x2211;" glyph-name="summation" horiz-adv-x="576" d="M231 593L398 293L101 -16H463L448 -90H-20L-4 -16L297 298L133 594L148 667H615L599 593H231Z" />
<glyph unicode="&#x2212;" glyph-name="minus" horiz-adv-x="499" d="M483 308H43L54 360H495L483 308Z" />
<glyph unicode="&#x221a;" glyph-name="radical" horiz-adv-x="725" d="M373 0H315L257 327L89 266L82 316L303 395L360 78L725 667H786L373 0Z" />
<glyph unicode="&#x221e;" glyph-name="infinity" horiz-adv-x="656" d="M181 170Q118 170 82 207T46 306Q46 384 94 442T220 501Q270 501 307 471T359 389Q430 501 513 501Q576 501 612 464T649 365Q649 287 601 229T475 170Q424 170 387 199T335 280Q265 170
181 170ZM475 223Q527 223 560 262T593 360Q593 399 569 423T505 448Q434 448 373 332Q380 280 406 252T475 223ZM190 223Q261 223 324 338Q317 390 290 419T220 448Q168 448 135 409T102 312Q102 273 126 248T190 223Z" />
<glyph unicode="&#x222b;" glyph-name="integral'" horiz-adv-x="348" d="M1 -100H-59L-47 -45H14Q46 -45 67 -24T97 35L231 633Q261 768 386 768H447L434 713H373Q341 713 319 692T289 634L156 34Q126 -100 1 -100Z" />
<glyph unicode="&#x2248;" glyph-name="approxequal" horiz-adv-x="499" d="M21 211L34 270Q74 237 137 237Q184 237 248 266T369 295Q431 295 475 268L462 209Q421 243 358 243Q311 243 247 214T126 184Q65 184 21 211ZM63 400L76 459Q116 426 179 426Q225 426
289 455T411 484Q473 484 517 457L504 398Q464 431 400 431Q354 431 290 402T168 373Q107 373 63 400Z" />
<glyph unicode="&#x2260;" glyph-name="notequal" horiz-adv-x="499" d="M91 93H34L135 211H21L33 264H180L300 404H64L76 457H346L446 574H505L404 457H517L505 404H358L238 264H474L462 211H192L91 93Z" />
<glyph unicode="&#x2264;" glyph-name="lessequal" horiz-adv-x="499" d="M437 99L44 317L57 370L546 589L531 523L114 340L450 159L437 99ZM416 0H-25L-14 53H427L416 0Z" />
<glyph unicode="&#x2265;" glyph-name="greaterequal" horiz-adv-x="499" d="M485 317L-4 99L11 165L428 346L92 529L105 589L497 370L485 317ZM415 0H-26L-15 53H426L415 0Z" />
<glyph unicode="&#x25ca;" glyph-name="lozenge" horiz-adv-x="375" d="M144 0H123L39 334L270 667H291L376 334L144 0ZM142 45L339 338L272 622L76 330L142 45Z" />
<glyph unicode="&#xf8ff;" glyph-name="" horiz-adv-x="667" d="M206 153L223 228H140Q106 228 82 203T57 144Q57 116 75 98T121 79Q154 79 176 99T206 153ZM269 439L283 504Q285 511 285 524Q285 553 267 570T220 588Q185 588 161 565T137 507Q137 476 156 458T207
439H269ZM269 265H406L437 402H300L269 265ZM569 160Q569 191 550 209T499 228H437L422 163Q420 149 420 143Q420 114 438 97T486 79Q521 79 545 102T569 160ZM648 523Q648 551 631 569T585 588Q516 588 500 514L483 439H565Q599 439 623 464T648 523ZM607 160Q607
112 568 77T479 42Q437 42 409 70T381 140Q381 154 384 169L398 228H261L242 145Q231 99 197 71T117 42Q76 42 47 70T18 139Q18 188 56 226T143 265H230L261 402H199Q154 402 127 431T99 507Q99 555 137 590T226 625Q268 625 296 597T324 527Q324 513 321 498L308
439H444L463 522Q474 568 508 596T588 625Q630 625 659 597T688 528Q688 478 650 440T563 402H476L445 265H504Q550 265 578 236T607 160Z" />
<glyph unicode="&#xfb01;" glyph-name="fi" horiz-adv-x="509" d="M470 552Q450 552 437 565T424 596Q424 621 442 637T481 653Q500 653 513 640T527 609Q527 584 509 568T470 552ZM380 0H305L412 483H487L380 0ZM117 0H42L134 417H54L69 483H149L157 520Q192
677 316 677Q365 677 402 654L373 600Q354 615 322 615Q253 615 232 520L224 483H322L307 417H209L117 0Z" />
<glyph unicode="&#xfb02;" glyph-name="fl" horiz-adv-x="552" d="M435 -12Q384 -12 354 9T324 70Q324 88 328 104L452 667H527L406 119Q403 107 403 96Q403 55 453 55Q479 55 499 71L507 11Q478 -12 435 -12ZM117 0H42L134 417H54L69 483H149L157 520Q192 677
316 677Q365 677 402 654L373 600Q354 615 322 615Q253 615 232 520L224 483H322L307 417H209L117 0Z" />
</font>
</defs>
</svg>
