<?xml version="1.0" standalone="no"?> <!DOCTYPE svg PUBLIC "-//W3C//DTD SVG 1.0//EN" "http://www.w3.org/TR/2001/REC-SVG-20010904/DTD/svg10.dtd" > 
<svg xmlns="http://www.w3.org/2000/svg" width="100%" height="100%">
<metadata version="1.0"><uniqueid id="com.myfonts.marksimonson.proxima-nova.s-bold.wfkit2.dttj"/><vendor name="MyFonts" url="http://www.myfonts.com/"/><credits><credit name="Mark Simonson" url="http://www.myfonts.com/person/simonson/mark/"/></credits><description><text lang="en">This is a Webfont from MyFonts. Full information about this font:
http://www.myfonts.com/fonts/marksimonson/proxima-nova/
</text></description><copyright><text lang="en">Copyright (c) Mark Simonson, 2005. All rights reserved.</text></copyright><trademark><text lang="en">Proxima Nova is a trademark of Mark Simonson.</text></trademark></metadata>
<defs >
<font id="wf" horiz-adv-x="507" ><font-face
    font-family="Proxima Nova ScOsf Rg"
    units-per-em="1000"
    panose-1="2 0 5 6 3 0 0 2 0 4"
    ascent="943"
    descent="-57"
    alphabetic="0" />
<missing-glyph horiz-adv-x="483" d="M417 -90H66V752H417V-90ZM385 -60V722H97V-60H385Z" />
<glyph unicode=" " glyph-name="space" horiz-adv-x="257" />
<glyph unicode="!" glyph-name="exclam" horiz-adv-x="204" d="M172 550L154 205H52L33 550H172ZM183 70Q183 37 160 13T103 -11T46 13T22 70Q22 102 46 126T103 150T159 126T183 70Z" />
<glyph unicode="&quot;" glyph-name="quotedbl" horiz-adv-x="406" d="M141 375H85Q44 589 44 608Q44 636 64 656T113 677Q141 677 161 657T182 608L141 375ZM322 375H266Q225 589 225 608Q225 636 245 656T294 677T342 657T363 608L322 375Z" />
<glyph unicode="#" glyph-name="numbersign" horiz-adv-x="517" d="M500 402L479 334H400L361 220H442L420 150H338L288 0H203L253 150H177L128 0H43L93 150H17L38 220H117L155 334H76L97 402H178L228 550H313L262 402H338L389 550H474L423 402H500ZM314 334H239L201
220H276L314 334Z" />
<glyph unicode="$" glyph-name="dollar" horiz-adv-x="516" d="M217 -74V-10Q91 0 18 71L78 173Q131 120 217 105V227Q178 236 151 246T95 274T51 321T36 391Q36 455 85 502T217 559V628H308V559Q410 546 481 483L419 388Q376 428 308 443V335Q347 326 374 316T432
287T477 237T493 165Q493 94 445 48T308 -9V-74H217ZM358 160Q358 190 308 205V106Q358 119 358 160ZM171 395Q171 369 217 356V444Q171 431 171 395Z" />
<glyph unicode="%" glyph-name="percent" horiz-adv-x="613" d="M296 482T296 423T258 325T159 286Q99 286 62 325T24 423T61 522T159 562T257 522ZM589 187T589 128T551 30T453 -10T356 29T319 128T356 226T453 266T551 227ZM534 550L150 0H79L462 550H534ZM219
423Q219 456 202 476T159 496Q134 496 118 476T101 423Q101 392 117 372T159 352Q185 352 202 372T219 423ZM513 96T513 128T496 180T453 200T411 180T394 128T410 77T453 57T496 76Z" />
<glyph unicode="&amp;" glyph-name="ampersand" horiz-adv-x="567" d="M561 0H413Q399 12 371 40Q298 -11 213 -11T75 32T21 152Q21 209 53 246T143 311Q107 376 107 427Q107 485 154 523T273 562Q338 562 382 530T427 442Q427 412 416 388T383 345T340 316T288
290Q308 265 335 236Q356 210 382 182Q416 234 433 288L526 247Q490 167 447 113L561 0ZM228 77Q267 77 307 104Q268 144 247 171Q213 210 190 241Q142 208 142 161Q142 125 166 101T228 77ZM219 424Q219 394 243 354Q284 372 305 391T327 437Q327 457 313 469T278
481Q252 481 236 465T219 424Z" />
<glyph unicode="&apos;" glyph-name="quotesingle" horiz-adv-x="225" d="M141 375H85Q44 589 44 608Q44 636 64 656T113 677Q141 677 161 657T182 608L141 375Z" />
<glyph unicode="(" glyph-name="parenleft" horiz-adv-x="297" d="M279 -137L200 -199Q127 -118 84 2T41 243T84 484T200 685L279 625Q227 530 203 441T178 243T202 45T279 -137Z" />
<glyph unicode=")" glyph-name="parenright" horiz-adv-x="298" d="M97 -199L18 -137Q70 -45 94 44T119 243Q119 353 95 442T18 625L97 685Q170 603 213 484T257 243T214 3T97 -199Z" />
<glyph unicode="*" glyph-name="asterisk" horiz-adv-x="351" d="M207 366H144L149 476L57 417L25 471L122 522L25 572L57 626L149 567L144 677H207L202 567L294 626L326 572L229 522L326 471L294 417L202 476L207 366Z" />
<glyph unicode="+" glyph-name="plus" horiz-adv-x="504" d="M475 298H296V95H209V298H29V377H209V573H296V377H475V298Z" />
<glyph unicode="," glyph-name="comma" horiz-adv-x="255" d="M215 49Q215 -6 188 -54T112 -137L57 -92Q82 -79 105 -52T134 2Q125 -1 115 -1Q86 -1 67 19T47 71Q47 104 70 127T126 151Q163 151 189 124T215 49Z" />
<glyph unicode="-" glyph-name="hyphen" horiz-adv-x="300" d="M270 188H30V296H270V188Z" />
<glyph unicode="." glyph-name="period" horiz-adv-x="257" d="M161 -11T128 -11T71 13T47 70T71 127T128 151T185 127T209 70T185 13Z" />
<glyph unicode="/" glyph-name="slash" horiz-adv-x="329" d="M92 -20H0L237 687H329L92 -20Z" />
<glyph unicode="0" glyph-name="zero" horiz-adv-x="620" d="M586 275Q586 154 515 71T310 -12T105 71T34 275Q34 397 105 479T310 562T515 480T586 275ZM441 205T441 275T407 390T310 436T213 391T179 275T213 160T310 114T407 159Z" />
<glyph unicode="1" glyph-name="one" horiz-adv-x="411" d="M345 0H203V367L92 254L11 339L221 550H345V0Z" />
<glyph unicode="2" glyph-name="two" horiz-adv-x="582" d="M520 0H50V112Q227 172 307 235T387 355Q387 391 358 413T286 436Q181 436 109 359L28 453Q75 507 144 534T288 562Q400 562 465 513T531 379Q531 304 466 234T307 125H520V0Z" />
<glyph unicode="3" glyph-name="three" horiz-adv-x="579" d="M275 -129Q188 -129 120 -100T12 -22L87 73Q120 38 170 18T270 -3Q330 -3 363 20T396 82Q396 122 364 140T262 159Q199 159 179 157V285Q191 284 262 284Q386 284 386 355Q386 393 351 413T262 434Q164
434 92 365L21 454Q115 560 276 560Q393 560 460 511T528 379Q528 319 485 279T382 227Q441 221 489 179T538 67Q538 -20 466 -74T275 -129Z" />
<glyph unicode="4" glyph-name="four" horiz-adv-x="597" d="M572 27H486V-117H344V27H25V140L290 550H486V152H572V27ZM344 152V424L164 152H344Z" />
<glyph unicode="5" glyph-name="five" horiz-adv-x="608" d="M306 -129Q141 -129 49 -29L128 70Q198 -3 305 -3Q362 -3 395 25T429 96Q429 141 397 168T309 195Q226 195 169 141L70 168V550H528V425H212V262Q268 318 359 318Q448 318 510 259T573 102Q573 -3 500
-66T306 -129Z" />
<glyph unicode="6" glyph-name="six" horiz-adv-x="608" d="M322 -12Q178 -12 106 84T34 332Q34 487 117 582T345 677Q463 677 542 608L478 499Q423 551 345 551Q272 551 225 497T178 362Q178 353 179 348Q204 384 251 409T350 434Q445 434 511 377T578 217Q578
118 507 53T322 -12ZM314 114Q368 114 400 144T433 212Q433 261 398 286T310 312Q229 312 179 249Q184 193 217 154T314 114Z" />
<glyph unicode="7" glyph-name="seven" horiz-adv-x="545" d="M277 -117H121L360 425H24V550H525V451L277 -117Z" />
<glyph unicode="8" glyph-name="eight" horiz-adv-x="606" d="M415 -12T303 -12T113 36T35 173Q35 231 75 276T178 344Q46 390 46 501Q46 561 85 602T181 660T303 677T425 660T520 602T560 501Q560 391 428 344Q491 322 531 277T571 173Q571 85 493 37ZM303 400Q345
407 380 426T415 477Q415 512 384 531T303 551Q252 551 221 532T190 477Q190 445 225 426T303 400ZM303 114Q355 114 391 136T427 193Q427 229 387 251T303 280Q278 276 252 267T203 238T179 193Q179 158 214 136T303 114Z" />
<glyph unicode="9" glyph-name="nine" horiz-adv-x="608" d="M263 -128Q144 -128 67 -59L130 50Q185 -2 263 -2T385 53T430 186V201Q404 165 357 140T258 115Q163 115 97 172T31 332Q31 431 102 496T286 561Q430 561 502 465T574 217Q574 62 491 -33T263 -128ZM298
237Q379 237 429 300Q424 356 391 395T294 435Q240 435 208 405T175 337Q175 288 211 263T298 237Z" />
<glyph unicode=":" glyph-name="colon" horiz-adv-x="246" d="M161 -11T128 -11T71 13T47 70T71 127T128 151T185 127T209 70T185 13ZM161 328T128 328T71 352T47 409T71 466T128 490T185 466T209 409T185 352Z" />
<glyph unicode=";" glyph-name="semicolon" horiz-adv-x="255" d="M161 328T128 328T71 352T47 410T71 466T128 490T185 467T209 410T185 353ZM215 52Q215 -2 188 -50T112 -133L57 -88Q82 -75 105 -48T134 6Q125 3 115 3Q86 3 67 23T47 75Q47 108 70 131T126 155Q163
155 189 128T215 52Z" />
<glyph unicode="&lt;" glyph-name="less" horiz-adv-x="504" d="M475 90L29 289V381L475 580V486L120 334L475 184V90Z" />
<glyph unicode="=" glyph-name="equal" horiz-adv-x="504" d="M475 389H29V468H475V389ZM475 201H29V279H475V201Z" />
<glyph unicode="&gt;" glyph-name="greater" horiz-adv-x="504" d="M475 289L29 90V184L384 334L29 486V580L475 381V289Z" />
<glyph unicode="?" glyph-name="question" horiz-adv-x="396" d="M381 437Q381 398 359 368T309 322T260 288T237 251Q237 231 255 217L154 189Q127 216 127 254Q127 284 146 308T189 345T231 374T251 408Q251 428 234 440T185 452Q113 452 67 399L5 479Q78 561
198 561Q281 561 331 526T381 437ZM277 103T277 70T253 13T196 -11T139 13T115 70T139 127T196 151T253 127Z" />
<glyph unicode="@" glyph-name="at" horiz-adv-x="783" d="M352 -70Q216 -70 126 20T35 244Q35 348 90 439T238 584T432 638Q573 638 660 550T747 332Q747 216 685 151T549 85Q507 85 483 106T452 159L451 165Q425 128 386 107T307 85Q236 85 194 132T152 253Q152
352 221 425T378 498T503 431L514 484H627L576 240Q573 225 573 216Q573 171 610 171Q645 171 674 212T704 332Q704 451 629 525T428 599Q287 599 181 493T75 246Q75 128 155 48T357 -32Q452 -32 539 23L560 -7Q462 -70 352 -70ZM351 175Q415 175 462 241L487 357Q478
377 458 392T406 408Q348 408 309 364T269 263Q269 224 291 200T351 175Z" />
<glyph unicode="A" glyph-name="A" horiz-adv-x="684" d="M688 0H527L485 113H199L157 0H-4L253 667H431L688 0ZM446 238L342 525L238 238H446Z" />
<glyph unicode="B" glyph-name="B" horiz-adv-x="663" d="M428 0H66V667H417Q508 667 558 618T609 497Q609 437 576 396T494 344Q548 336 585 290T622 181Q622 102 572 51T428 0ZM386 402Q422 402 443 421T464 472Q464 503 443 522T386 542H208V402H386ZM392 125Q432
125 454 145T477 201Q477 234 455 255T392 277H208V125H392Z" />
<glyph unicode="C" glyph-name="C" horiz-adv-x="687" d="M390 -12Q237 -12 136 84T34 333Q34 486 135 582T390 678Q577 678 668 515L546 455Q524 497 482 524T390 552Q299 552 240 490T180 333T239 176T390 114Q439 114 481 141T546 211L668 152Q575 -12 390 -12Z" />
<glyph unicode="D" glyph-name="D" horiz-adv-x="718" d="M330 0H66V667H329Q486 667 584 575T683 334Q683 183 585 92T330 0ZM329 125Q425 125 481 185T538 334Q538 425 484 483T330 542H208V125H329Z" />
<glyph unicode="E" glyph-name="E" horiz-adv-x="583" d="M538 0H66V667H538V542H208V402H531V277H208V125H538V0Z" />
<glyph unicode="F" glyph-name="F" horiz-adv-x="571" d="M208 0H66V667H538V542H208V402H531V277H208V0Z" />
<glyph unicode="G" glyph-name="G" horiz-adv-x="720" d="M390 -12Q239 -12 137 83T34 333Q34 488 136 583T390 678Q571 678 665 529L548 465Q523 503 482 527T390 552Q299 552 240 490T180 333T239 176T390 114Q431 114 470 129T531 165V245H355V369H673V113Q561
-12 390 -12Z" />
<glyph unicode="H" glyph-name="H" horiz-adv-x="731" d="M666 0H523V281H208V0H66V667H208V405H523V667H666V0Z" />
<glyph unicode="I" glyph-name="I" horiz-adv-x="274" d="M208 0H66V667H208V0Z" />
<glyph unicode="J" glyph-name="J" horiz-adv-x="486" d="M186 -12Q73 -12 6 54L68 162Q118 114 174 114Q221 114 249 143T278 221V667H421V219Q421 105 357 47T186 -12Z" />
<glyph unicode="K" glyph-name="K" horiz-adv-x="636" d="M637 0H462L260 268L208 205V0H66V667H208V370L444 667H619L354 354L637 0Z" />
<glyph unicode="L" glyph-name="L" horiz-adv-x="515" d="M485 0H60V667H203V125H485V0Z" />
<glyph unicode="M" glyph-name="M" horiz-adv-x="855" d="M789 0H646V481L458 0H396L208 481V0H66V667H265L427 250L589 667H789V0Z" />
<glyph unicode="N" glyph-name="N" horiz-adv-x="729" d="M663 0H526L208 435V0H66V667H212L521 248V667H663V0Z" />
<glyph unicode="O" glyph-name="O" horiz-adv-x="765" d="M383 -12Q231 -12 133 85T34 333T132 581T383 678Q534 678 632 581T731 333T633 86T383 -12ZM292 114T383 114T529 176T585 333T530 490T383 552Q291 552 236 490T180 333T236 176Z" />
<glyph unicode="P" glyph-name="P" horiz-adv-x="625" d="M208 0H66V667H378Q483 667 542 606T602 452Q602 361 542 300T378 238H208V0ZM358 363Q401 363 429 387T457 452Q457 493 429 517T358 542H208V363H358Z" />
<glyph unicode="Q" glyph-name="Q" horiz-adv-x="765" d="M383 -12Q231 -12 133 85T34 333T132 581T383 678Q534 678 632 581T731 333Q731 194 644 97L693 40L594 -41L540 21Q468 -12 383 -12ZM383 114Q419 114 452 125L379 211L478 292L551 206Q585 260 585 333Q585
428 530 490T383 552Q291 552 236 490T180 333T236 176T383 114Z" />
<glyph unicode="R" glyph-name="R" horiz-adv-x="643" d="M607 0H443L312 237H208V0H66V667H378Q481 667 542 607T603 452Q603 370 560 319T456 254L607 0ZM358 362Q401 362 429 386T457 453Q457 493 429 517T358 542H208V362H358Z" />
<glyph unicode="S" glyph-name="S" horiz-adv-x="600" d="M304 -12Q126 -12 20 94L98 205Q185 114 310 114Q366 114 396 135T426 188Q426 215 398 232T327 258T234 280T142 314T71 374T42 474Q42 560 111 618T295 677Q454 677 555 584L476 478Q397 551 282 551Q238
551 213 533T188 485Q188 461 216 445T287 421T379 397T471 363T542 302T571 202Q571 106 503 47T304 -12Z" />
<glyph unicode="T" glyph-name="T" horiz-adv-x="582" d="M363 0H220V542H25V667H557V542H363V0Z" />
<glyph unicode="U" glyph-name="U" horiz-adv-x="734" d="M515 -12T367 -12T143 63T66 267V667H210V271Q210 199 251 157T367 114T482 156T523 271V667H668V267Q668 139 592 64Z" />
<glyph unicode="V" glyph-name="V" horiz-adv-x="684" d="M431 0H253L-4 667H157L342 155L527 667H688L431 0Z" />
<glyph unicode="W" glyph-name="W" horiz-adv-x="918" d="M727 0H576L459 458L343 0H192L1 667H160L277 185L404 667H515L641 185L758 667H917L727 0Z" />
<glyph unicode="X" glyph-name="X" horiz-adv-x="668" d="M671 0H501L334 244L166 0H-3L239 342L12 667H181L334 439L485 667H656L429 343L671 0Z" />
<glyph unicode="Y" glyph-name="Y" horiz-adv-x="645" d="M394 0H252V273L-4 667H158L323 400L488 667H649L394 273V0Z" />
<glyph unicode="Z" glyph-name="Z" horiz-adv-x="592" d="M550 0H42V115L357 542H42V667H543V553L228 125H550V0Z" />
<glyph unicode="[" glyph-name="bracketleft" horiz-adv-x="280" d="M263 -190H47V678H263V593H139V-105H263V-190Z" />
<glyph unicode="\" glyph-name="backslash" horiz-adv-x="329" d="M237 -20L0 687H92L329 -20H237Z" />
<glyph unicode="]" glyph-name="bracketright" horiz-adv-x="280" d="M233 -190H18V-105H142V593H18V678H233V-190Z" />
<glyph unicode="^" glyph-name="asciicircum" horiz-adv-x="441" d="M422 333H328L220 580L113 333H19L175 667H268L422 333Z" />
<glyph unicode="_" glyph-name="underscore" horiz-adv-x="564" d="M567 -125H-3V-40H567V-125Z" />
<glyph unicode="`" glyph-name="grave" horiz-adv-x="251" d="M251 556H162L0 700H117L251 556Z" />
<glyph unicode="a" glyph-name="a" horiz-adv-x="597" d="M218 550H379L602 0H454L418 91H179L144 0H-5L218 550ZM380 206L299 416L217 206H380Z" />
<glyph unicode="b" glyph-name="b" horiz-adv-x="586" d="M379 0H63V550H370Q450 550 494 509T539 409Q539 362 513 329T445 284Q491 273 521 236T551 150Q551 85 506 43T379 0ZM354 115Q382 115 399 129T416 168Q416 191 399 206T354 222H195V115H354ZM349 338Q374
338 389 351T405 386Q405 408 390 421T349 435H195V338H349Z" />
<glyph unicode="c" glyph-name="c" horiz-adv-x="585" d="M332 -12Q202 -12 117 68T32 275Q32 402 117 482T332 562Q415 562 475 523T569 422L459 369Q441 404 407 425T332 446Q260 446 213 398T166 275Q166 202 213 153T332 104Q373 104 407 125T459 181L570
129Q536 66 476 27T332 -12Z" />
<glyph unicode="d" glyph-name="d" horiz-adv-x="626" d="M294 0H63V550H294Q430 550 512 475T594 275T512 75T294 0ZM294 115Q373 115 416 160T460 275Q460 346 418 390T294 435H195V115H294Z" />
<glyph unicode="e" glyph-name="e" horiz-adv-x="520" d="M478 0H63V550H478V435H195V337H472V222H195V115H478V0Z" />
<glyph unicode="f" glyph-name="f" horiz-adv-x="509" d="M195 0H63V550H478V435H195V337H472V222H195V0Z" />
<glyph unicode="g" glyph-name="g" horiz-adv-x="616" d="M334 -12Q204 -12 118 67T32 275T118 482T334 562Q410 562 469 529T563 444L456 382Q410 445 334 445Q261 445 214 397T167 275T214 153T334 104Q397 104 442 143V201H311V310H574V93Q476 -12 334 -12Z" />
<glyph unicode="h" glyph-name="h" horiz-adv-x="651" d="M588 0H456V224H195V0H63V550H195V339H456V550H588V0Z" />
<glyph unicode="i" glyph-name="i" horiz-adv-x="258" d="M195 0H63V550H195V0Z" />
<glyph unicode="j" glyph-name="j" horiz-adv-x="433" d="M157 -12Q64 -12 4 47L57 147Q96 104 147 104Q188 104 212 127T237 191V550H370V180Q370 84 313 36T157 -12Z" />
<glyph unicode="k" glyph-name="k" horiz-adv-x="566" d="M565 0H405L235 215L195 169V0H63V550H195V317L390 550H550L320 292L565 0Z" />
<glyph unicode="l" glyph-name="l" horiz-adv-x="469" d="M437 0H63V550H195V115H437V0Z" />
<glyph unicode="m" glyph-name="m" horiz-adv-x="757" d="M694 0H562V372L409 0H348L195 372V0H63V550H239L378 208L517 550H694V0Z" />
<glyph unicode="n" glyph-name="n" horiz-adv-x="649" d="M586 0H451L195 345V0H63V550H205L454 218V550H586V0Z" />
<glyph unicode="o" glyph-name="o" horiz-adv-x="655" d="M457 -12T327 -12T115 69T32 275T114 481T327 562T540 481T623 275Q623 151 540 70ZM255 104T327 104T443 153T488 275Q488 349 444 397T327 446T211 398T166 275Q166 202 210 153Z" />
<glyph unicode="p" glyph-name="p" horiz-adv-x="554" d="M195 0H63V550H341Q431 550 482 498T534 370Q534 292 484 241T341 189H195V0ZM325 304Q360 304 379 322T399 370Q399 399 380 417T325 435H195V304H325Z" />
<glyph unicode="q" glyph-name="q" horiz-adv-x="655" d="M327 -12Q197 -12 115 69T32 275T114 481T327 562T540 481T623 275Q623 156 547 77L588 30L509 -34L465 17Q399 -12 327 -12ZM327 104Q358 104 383 113L328 177L406 241L461 176Q488 220 488 275Q488 349
444 397T327 446T211 398T166 275Q166 202 210 153T327 104Z" />
<glyph unicode="r" glyph-name="r" horiz-adv-x="574" d="M539 0H388L279 189H195V0H63V550H341Q430 550 482 499T534 370Q534 300 497 257T408 202L539 0ZM325 304Q360 304 380 322T400 370Q400 399 380 417T325 435H195V304H325Z" />
<glyph unicode="s" glyph-name="s" horiz-adv-x="516" d="M256 -12Q180 -12 118 11T18 71L78 173Q109 143 158 122T260 101Q309 101 333 117T358 160Q358 181 334 194T275 214T197 232T120 259T60 308T36 391Q36 463 97 512T257 562Q392 562 481 483L419 388Q388
416 343 432T255 449Q216 449 194 434T171 395Q171 373 204 361T284 339T379 315T460 262T493 165Q493 84 431 36T256 -12Z" />
<glyph unicode="t" glyph-name="t" horiz-adv-x="486" d="M309 0H177V435H21V550H466V435H309V0Z" />
<glyph unicode="u" glyph-name="u" horiz-adv-x="646" d="M323 -12Q196 -12 130 50T63 218V550H196V230Q196 173 229 139T323 104T416 138T450 230V550H583V219Q583 113 517 51T323 -12Z" />
<glyph unicode="v" glyph-name="v" horiz-adv-x="597" d="M379 0H218L-5 550H145L299 143L454 550H602L379 0Z" />
<glyph unicode="w" glyph-name="w" horiz-adv-x="797" d="M633 0H495L398 358L303 0H165L-1 550H147L242 174L347 550H450L555 173L651 550H798L633 0Z" />
<glyph unicode="x" glyph-name="x" horiz-adv-x="584" d="M588 0H433L292 194L151 0H-4L205 282L9 550H164L292 370L419 550H575L379 283L588 0Z" />
<glyph unicode="y" glyph-name="y" horiz-adv-x="565" d="M349 0H218V226L-5 550H144L284 338L421 550H570L349 226V0Z" />
<glyph unicode="z" glyph-name="z" horiz-adv-x="524" d="M488 0H36V96L299 434H36V550H481V454L219 116H488V0Z" />
<glyph unicode="{" glyph-name="braceleft" horiz-adv-x="288" d="M271 -190H211Q147 -190 102 -147T56 -31V141Q56 170 43 189T4 208V280Q29 280 42 299T56 347V518Q56 590 102 634T211 678H271V593H211Q184 593 166 573T148 519V334Q148 264 102 244Q148 224
148 154V-30Q148 -63 166 -84T211 -105H271V-190Z" />
<glyph unicode="|" glyph-name="bar" horiz-adv-x="216" d="M151 -20H66V687H151V-20Z" />
<glyph unicode="}" glyph-name="braceright" horiz-adv-x="288" d="M17 -190V-105H78Q104 -105 122 -84T141 -30V154Q141 224 187 244Q141 264 141 334V519Q141 552 123 572T78 593H17V678H78Q141 678 187 634T233 518V347Q233 318 246 299T285 280V208Q260 208
247 189T233 141V-31Q233 -102 187 -146T78 -190H17Z" />
<glyph unicode="~" glyph-name="asciitilde" horiz-adv-x="510" d="M398 667L484 657Q480 605 472 567T449 491T405 433T336 412Q300 412 276 430T240 474T221 526T202 570T175 588Q127 588 113 412L26 422Q30 473 38 511T62 587T106 645T175 666Q211 666 235
648T271 604T290 552T309 507T336 489Q384 489 398 667Z" />
<glyph unicode="&#xa0;" glyph-name="uni00A0" horiz-adv-x="257" />
<glyph unicode="&#xa1;" glyph-name="exclamdown" horiz-adv-x="204" d="M32 0L50 345H152L171 0H32ZM21 480Q21 513 44 537T101 561T158 537T182 480Q182 448 158 424T101 400T45 424T21 480Z" />
<glyph unicode="&#xa2;" glyph-name="cent" horiz-adv-x="585" d="M283 -83V-8Q171 7 102 84T32 275T101 465T283 558V623H373V559Q505 541 569 422L459 369Q432 421 373 440V109Q431 126 459 181L570 129Q505 9 373 -9V-83H283ZM166 335T166 275T198 171T283
111V439Q230 424 198 380Z" />
<glyph unicode="&#xa3;" glyph-name="sterling" horiz-adv-x="450" d="M16 224V293H62Q34 342 34 386Q34 462 93 511T232 561Q372 561 424 465L326 412Q315 439 293 453T245 467Q211 467 188 444T165 384Q165 346 195 293H322V224H228Q232 204 232 195Q232 169
219 147T189 112Q198 116 210 116Q236 116 268 105T319 93Q369 93 389 122L439 31Q400 -10 315 -10Q277 -10 235 6T166 22Q131 22 75 -7L33 73Q74 91 97 115T121 164Q121 188 102 224H16Z" />
<glyph unicode="&#xa5;" glyph-name="yen" horiz-adv-x="565" d="M349 0H218V108H25V175H218V225H25V293H172L-5 550H144L284 338L421 550H570L394 293H538V225H349V175H538V108H349V0Z" />
<glyph unicode="&#xa6;" glyph-name="brokenbar" horiz-adv-x="216" d="M151 -20H66V296H151V-20ZM151 371H66V687H151V371Z" />
<glyph unicode="&#xa7;" glyph-name="section" horiz-adv-x="484" d="M447 326Q447 240 363 198Q447 161 447 76Q447 3 389 -39T237 -81Q110 -81 23 -2L76 78Q105 49 148 29T237 8Q277 8 300 22T324 65Q324 91 295 105T223 129T139 151T68 197T38 282Q38 328 67
360T135 406Q38 443 38 533Q38 595 93 636T235 677Q361 677 429 609L379 534Q325 588 241 588Q203 588 182 574T160 535Q160 515 181 503T234 485T303 469T372 445T425 401T447 326ZM321 302Q321 355 238 374Q160 356 160 301Q160 279 176 264T212 242T263 228Q321
253 321 302Z" />
<glyph unicode="&#xa8;" glyph-name="dieresis" horiz-adv-x="295" d="M321 640T321 611T302 563T253 543Q225 543 205 563T185 611T205 659T253 679Q282 679 301 660ZM110 640T110 611T90 563T42 543T-6 562T-26 611T-6 659T42 679T90 660Z" />
<glyph unicode="&#xa9;" glyph-name="copyright" horiz-adv-x="778" d="M734 477T734 334T633 90T389 -11T145 90T44 334Q44 477 145 578T389 679T633 578ZM698 334Q698 462 607 552T389 643T171 552T80 334T171 116T389 25T607 116T698 334ZM512 222L543 191Q485
123 394 123Q307 123 247 183T186 335Q186 425 246 485T394 545Q486 545 542 479L511 448Q469 505 394 505Q327 505 280 457T232 335Q232 262 279 213T394 163Q468 163 512 222Z" />
<glyph unicode="&#xaa;" glyph-name="ordfeminine" horiz-adv-x="385" d="M335 326H243V358Q207 318 141 318Q97 318 64 345T31 422T64 497T141 523Q208 523 243 486V525Q243 550 224 564T174 579Q121 579 82 538L47 598Q106 648 190 648Q253 648 294 619T335
523V326ZM179 376Q223 376 243 404V440Q222 467 179 467Q155 467 139 455T122 422Q122 400 138 388T179 376Z" />
<glyph unicode="&#xab;" glyph-name="guillemotleft" horiz-adv-x="527" d="M497 63H380L220 243L380 420H497L337 243L497 63ZM308 63H190L30 243L190 420H308L148 243L308 63Z" />
<glyph unicode="&#xac;" glyph-name="logicalnot" horiz-adv-x="515" d="M475 468V201H394V389H29V468H475Z" />
<glyph unicode="&#xae;" glyph-name="registered" horiz-adv-x="494" d="M459 465Q459 377 397 315T247 253T97 315T35 465T97 615T247 677Q336 677 397 616T459 465ZM427 465Q427 541 375 593T247 645T120 593T67 465Q67 391 119 338T247 285T374 338T427 465ZM347
343H305L242 439H200V343H166V586H265Q297 586 320 566T344 512Q344 477 322 459T282 440L347 343ZM309 512Q309 531 296 543T265 556H200V470H265Q282 470 295 482T309 512Z" />
<glyph unicode="&#xaf;" glyph-name="overscore" horiz-adv-x="363" d="M363 591H0V664H363V591Z" />
<glyph unicode="&#xb0;" glyph-name="degree" horiz-adv-x="311" d="M291 541Q291 486 251 447T155 407T60 446T20 541T59 637T155 677T251 637T291 541ZM222 541Q222 569 202 588T155 608T109 589T90 541Q90 514 109 495T155 476T202 495T222 541Z" />
<glyph unicode="&#xb1;" glyph-name="plusminus" horiz-adv-x="504" d="M475 0H29V79H475V0ZM475 326H296V123H209V326H29V405H209V601H296V405H475V326Z" />
<glyph unicode="&#xb2;" glyph-name="twosuperior" horiz-adv-x="398" d="M361 421H46V491Q177 583 219 622T262 695Q262 722 243 736T194 750Q162 750 132 736T85 701L35 761Q94 827 196 827Q267 827 312 794T357 703Q357 655 317 609T185 498H361V421Z" />
<glyph unicode="&#xb3;" glyph-name="threesuperior" horiz-adv-x="398" d="M363 532Q363 480 318 447T197 414Q86 414 32 477L80 540Q125 491 194 491Q229 491 248 503T267 538Q267 587 179 587Q141 587 135 586V662Q143 661 178 661Q261 661 261 706Q261 728
241 739T188 750Q125 750 82 707L37 763Q96 827 198 827Q273 827 314 798T356 718Q356 683 330 658T267 627Q303 624 333 599T363 532Z" />
<glyph unicode="&#xb4;" glyph-name="acute" horiz-adv-x="251" d="M251 700L89 556H0L134 700H251Z" />
<glyph unicode="&#xb5;" glyph-name="mu" horiz-adv-x="579" d="M190 -184H63V483H190V185Q191 100 279 100Q345 100 389 156V483H516V0H389V61Q322 -12 219 -12Q208 -12 190 -10V-184Z" />
<glyph unicode="&#xb6;" glyph-name="paragraph" horiz-adv-x="449" d="M403 -100H340V605H262V-100H199V323Q128 323 78 373T27 495T77 616T199 667H403V-100Z" />
<glyph unicode="&#xb7;" glyph-name="middot" horiz-adv-x="257" d="M209 244Q209 212 185 188T128 164T72 188T48 244Q48 277 71 301T128 325T185 301T209 244Z" />
<glyph unicode="&#xb8;" glyph-name="cedilla" horiz-adv-x="221" d="M110 -195Q38 -195 0 -164L25 -113Q63 -142 107 -142Q128 -142 143 -134T158 -109Q158 -83 129 -83Q111 -83 97 -97L51 -71L81 11H144L119 -51Q133 -41 154 -41Q182 -41 201 -60T221 -111Q221
-150 189 -172T110 -195Z" />
<glyph unicode="&#xb9;" glyph-name="onesuperior" horiz-adv-x="286" d="M226 421H129V698L62 629L7 687L143 821H226V421Z" />
<glyph unicode="&#xba;" glyph-name="ordmasculine" horiz-adv-x="405" d="M202 318Q125 318 78 366T30 483T77 600T202 648Q280 648 327 600T375 483T328 366T202 318ZM202 392Q239 392 260 416T281 483Q281 524 260 548T202 572Q166 572 146 548T125 483Q125
441 145 417T202 392Z" />
<glyph unicode="&#xbb;" glyph-name="guillemotright" horiz-adv-x="527" d="M308 243L148 63H30L190 243L30 420H148L308 243ZM497 243L337 63H220L380 243L220 420H337L497 243Z" />
<glyph unicode="&#xbc;" glyph-name="onequarter" horiz-adv-x="833" d="M641 667L214 0H138L564 667H641ZM809 86H757V0H661V86H465V151L623 400H757V161H809V86ZM661 161V319L560 161H661ZM226 267H129V544L62 475L7 533L143 667H226V267Z" />
<glyph unicode="&#xbd;" glyph-name="onehalf" horiz-adv-x="867" d="M226 267H129V544L62 475L7 533L143 667H226V267ZM641 667L214 0H138L564 667H641ZM830 0H515V70Q646 162 688 201T731 274Q731 301 712 315T663 329Q631 329 601 315T554 280L504 340Q563
406 665 406Q736 406 781 373T826 282Q826 234 786 188T654 77H830V0Z" />
<glyph unicode="&#xbe;" glyph-name="threequarters" horiz-adv-x="921" d="M729 667L302 0H226L652 667H729ZM896 86H844V0H748V86H552V151L710 400H844V161H896V86ZM748 161V319L647 161H748ZM363 378Q363 326 318 293T197 260Q86 260 32 323L80 386Q125 337
194 337Q229 337 248 349T267 384Q267 433 179 433Q141 433 135 432V508Q143 507 178 507Q261 507 261 552Q261 574 241 585T188 596Q125 596 82 553L37 609Q96 673 198 673Q273 673 314 644T356 564Q356 529 330 504T267 473Q303 470 333 445T363 378Z" />
<glyph unicode="&#xbf;" glyph-name="questiondown" horiz-adv-x="396" d="M15 113Q15 152 37 182T87 228T136 262T159 299Q159 319 141 333L242 361Q269 334 269 296Q269 266 250 242T207 205T165 176T145 142Q145 122 162 110T211 98Q283 98 329 151L391 71Q318
-11 198 -11Q115 -11 65 24T15 113ZM119 447T119 480T143 537T200 561T257 537T281 480T257 423T200 399T143 423Z" />
<glyph unicode="&#xc0;" glyph-name="Agrave" horiz-adv-x="684" d="M425 728H336L174 872H291L425 728ZM688 0H527L485 113H199L157 0H-4L253 667H431L688 0ZM446 238L342 525L238 238H446Z" />
<glyph unicode="&#xc1;" glyph-name="Aacute" horiz-adv-x="684" d="M512 872L350 728H261L395 872H512ZM688 0H527L485 113H199L157 0H-4L253 667H431L688 0ZM446 238L342 525L238 238H446Z" />
<glyph unicode="&#xc2;" glyph-name="Acircumflex" horiz-adv-x="684" d="M494 728H416L343 817L272 728H194L286 872H400L494 728ZM688 0H527L485 113H199L157 0H-4L253 667H431L688 0ZM446 238L342 525L238 238H446Z" />
<glyph unicode="&#xc3;" glyph-name="Atilde" horiz-adv-x="684" d="M399 726Q370 726 349 743T313 777T282 794Q246 794 246 732H179Q179 796 207 831T287 866Q316 866 336 849T372 816T403 799Q439 799 439 860H506Q506 796 479 761T399 726ZM688 0H527L485
113H199L157 0H-4L253 667H431L688 0ZM446 238L342 525L238 238H446Z" />
<glyph unicode="&#xc4;" glyph-name="Adieresis" horiz-adv-x="684" d="M516 812T516 784T496 736T448 716T400 736T380 784T400 832T448 852T496 832ZM305 812T305 784T286 736T237 716T189 736T169 784T188 832T237 852T285 832ZM688 0H527L485 113H199L157
0H-4L253 667H431L688 0ZM446 238L342 525L238 238H446Z" />
<glyph unicode="&#xc5;" glyph-name="Aring" horiz-adv-x="684" d="M386 693T343 693T269 724T238 798T269 872T343 903T416 873T447 798Q447 755 417 724ZM324 751T343 751T375 764T389 798T376 831T343 845T310 831T296 798T310 765ZM688 0H527L485 113H199L157
0H-4L253 667H431L688 0ZM446 238L342 525L238 238H446Z" />
<glyph unicode="&#xc6;" glyph-name="AE" horiz-adv-x="968" d="M926 0H454V113H220L154 0H-9L397 667H926V542H597V402H919V277H597V125H926V0ZM454 238V525L287 238H454Z" />
<glyph unicode="&#xc7;" glyph-name="Ccedilla" horiz-adv-x="687" d="M384 -191Q312 -191 274 -160L299 -109Q337 -138 381 -138Q402 -138 417 -130T432 -105Q432 -79 403 -79Q385 -79 371 -93L325 -67L346 -9Q210 5 122 99T34 333Q34 486 135 582T390 678Q577
678 668 515L546 455Q524 497 482 524T390 552Q299 552 240 490T180 333T239 176T390 114Q439 114 481 141T546 211L668 152Q581 -3 407 -11L393 -47Q407 -37 428 -37Q456 -37 475 -56T495 -107Q495 -146 463 -168T384 -191Z" />
<glyph unicode="&#xc8;" glyph-name="Egrave" horiz-adv-x="583" d="M385 728H296L134 872H251L385 728ZM538 0H66V667H538V542H208V402H531V277H208V125H538V0Z" />
<glyph unicode="&#xc9;" glyph-name="Eacute" horiz-adv-x="583" d="M471 872L309 728H220L354 872H471ZM538 0H66V667H538V542H208V402H531V277H208V125H538V0Z" />
<glyph unicode="&#xca;" glyph-name="Ecircumflex" horiz-adv-x="583" d="M452 728H374L301 817L230 728H152L244 872H358L452 728ZM538 0H66V667H538V542H208V402H531V277H208V125H538V0Z" />
<glyph unicode="&#xcb;" glyph-name="Edieresis" horiz-adv-x="583" d="M477 812T477 784T458 736T409 716Q381 716 361 736T341 784T361 832T409 852Q438 852 457 832ZM266 812T266 784T246 736T198 716T150 736T130 784T150 832T198 852T246 832ZM538 0H66V667H538V542H208V402H531V277H208V125H538V0Z"
/>
<glyph unicode="&#xcc;" glyph-name="Igrave" horiz-adv-x="274" d="M208 0H66V667H208V0ZM219 728H130L-32 872H85L219 728Z" />
<glyph unicode="&#xcd;" glyph-name="Iacute" horiz-adv-x="274" d="M208 0H66V667H208V0ZM309 872L147 728H58L192 872H309Z" />
<glyph unicode="&#xce;" glyph-name="Icircumflex" horiz-adv-x="274" d="M208 0H66V667H208V0ZM287 728H209L136 817L65 728H-13L79 872H193L287 728Z" />
<glyph unicode="&#xcf;" glyph-name="Idieresis" horiz-adv-x="274" d="M311 812T311 784T292 736T243 716Q215 716 195 736T175 784T195 832T243 852Q272 852 291 832ZM100 812T100 784T80 736T32 716T-16 736T-36 784T-16 832T32 852T80 832ZM208 0H66V667H208V0Z" />
<glyph unicode="&#xd0;" glyph-name="Eth" horiz-adv-x="742" d="M355 0H91V277H9V383H91V667H354Q511 667 609 575T708 334Q708 183 610 92T355 0ZM383 277H233V125H354Q450 125 506 185T563 334Q563 425 509 483T355 542H233V383H383V277Z" />
<glyph unicode="&#xd1;" glyph-name="Ntilde" horiz-adv-x="729" d="M663 0H526L208 435V0H66V667H212L521 248V667H663V0ZM420 726Q391 726 370 743T334 777T303 794Q267 794 267 732H200Q200 796 228 831T308 866Q337 866 357 849T393 816T424 799Q460 799 460
860H527Q527 796 500 761T420 726Z" />
<glyph unicode="&#xd2;" glyph-name="Ograve" horiz-adv-x="765" d="M468 728H379L217 872H334L468 728ZM383 -12Q231 -12 133 85T34 333T132 581T383 678Q534 678 632 581T731 333T633 86T383 -12ZM292 114T383 114T529 176T585 333T530 490T383 552Q291 552
236 490T180 333T236 176Z" />
<glyph unicode="&#xd3;" glyph-name="Oacute" horiz-adv-x="765" d="M553 872L391 728H302L436 872H553ZM383 -12Q231 -12 133 85T34 333T132 581T383 678Q534 678 632 581T731 333T633 86T383 -12ZM292 114T383 114T529 176T585 333T530 490T383 552Q291 552
236 490T180 333T236 176Z" />
<glyph unicode="&#xd4;" glyph-name="Ocircumflex" horiz-adv-x="765" d="M535 728H457L384 817L313 728H235L327 872H441L535 728ZM383 -12Q231 -12 133 85T34 333T132 581T383 678Q534 678 632 581T731 333T633 86T383 -12ZM292 114T383 114T529 176T585 333T530
490T383 552Q291 552 236 490T180 333T236 176Z" />
<glyph unicode="&#xd5;" glyph-name="Otilde" horiz-adv-x="765" d="M440 726Q411 726 390 743T354 777T323 794Q287 794 287 732H220Q220 796 248 831T328 866Q357 866 377 849T413 816T444 799Q480 799 480 860H547Q547 796 520 761T440 726ZM383 -12Q231 -12
133 85T34 333T132 581T383 678Q534 678 632 581T731 333T633 86T383 -12ZM292 114T383 114T529 176T585 333T530 490T383 552Q291 552 236 490T180 333T236 176Z" />
<glyph unicode="&#xd6;" glyph-name="Odieresis" horiz-adv-x="765" d="M557 812T557 784T538 736T489 716Q461 716 441 736T421 784T441 832T489 852Q518 852 537 832ZM346 812T346 784T326 736T278 716T230 736T210 784T230 832T278 852T326 832ZM383 -12Q231
-12 133 85T34 333T132 581T383 678Q534 678 632 581T731 333T633 86T383 -12ZM292 114T383 114T529 176T585 333T530 490T383 552Q291 552 236 490T180 333T236 176Z" />
<glyph unicode="&#xd7;" glyph-name="multiply" horiz-adv-x="504" d="M394 137L252 279L112 137L55 193L197 334L55 475L112 531L252 389L394 531L449 475L308 334L449 193L394 137Z" />
<glyph unicode="&#xd8;" glyph-name="Oslash" horiz-adv-x="765" d="M383 -12Q278 -12 198 35L172 0H69L133 84Q34 181 34 333Q34 484 132 581T383 678Q476 678 555 637L578 667H680L622 591Q731 492 731 333Q731 183 633 86T383 -12ZM383 114Q474 114 529 176T585
333Q585 420 538 480L279 141Q325 114 383 114ZM180 333Q180 252 219 197L474 531Q432 552 383 552Q291 552 236 490T180 333Z" />
<glyph unicode="&#xd9;" glyph-name="Ugrave" horiz-adv-x="734" d="M452 728H363L201 872H318L452 728ZM515 -12T367 -12T143 63T66 267V667H210V271Q210 199 251 157T367 114T482 156T523 271V667H668V267Q668 139 592 64Z" />
<glyph unicode="&#xda;" glyph-name="Uacute" horiz-adv-x="734" d="M538 872L376 728H287L421 872H538ZM515 -12T367 -12T143 63T66 267V667H210V271Q210 199 251 157T367 114T482 156T523 271V667H668V267Q668 139 592 64Z" />
<glyph unicode="&#xdb;" glyph-name="Ucircumflex" horiz-adv-x="734" d="M523 728H445L372 817L301 728H223L315 872H429L523 728ZM515 -12T367 -12T143 63T66 267V667H210V271Q210 199 251 157T367 114T482 156T523 271V667H668V267Q668 139 592 64Z" />
<glyph unicode="&#xdc;" glyph-name="Udieresis" horiz-adv-x="734" d="M543 812T543 784T524 736T475 716Q447 716 427 736T407 784T427 832T475 852Q504 852 523 832ZM332 812T332 784T312 736T264 716T216 736T196 784T216 832T264 852T312 832ZM515 -12T367
-12T143 63T66 267V667H210V271Q210 199 251 157T367 114T482 156T523 271V667H668V267Q668 139 592 64Z" />
<glyph unicode="&#xdd;" glyph-name="Yacute" horiz-adv-x="645" d="M495 872L333 728H244L378 872H495ZM394 0H252V273L-4 667H158L323 400L488 667H649L394 273V0Z" />
<glyph unicode="&#xde;" glyph-name="Thorn" horiz-adv-x="625" d="M208 0H66V667H208V559H378Q483 559 542 497T602 343Q602 252 542 191T378 130H208V0ZM358 255Q401 255 429 279T457 344Q457 385 429 410T358 435H208V255H358Z" />
<glyph unicode="&#xdf;" glyph-name="germandbls" horiz-adv-x="1032" d="M772 -12Q696 -12 634 11T534 71L594 173Q625 143 674 122T776 101Q825 101 849 117T874 160Q874 181 850 194T791 214T713 232T636 259T576 308T552 391Q552 463 613 512T773 562Q908
562 997 483L935 388Q904 416 859 432T771 449Q732 449 710 434T687 395Q687 373 720 361T800 339T895 315T976 262T1009 165Q1009 84 947 36T772 -12ZM256 -12Q180 -12 118 11T18 71L78 173Q109 143 158 122T260 101Q309 101 333 117T358 160Q358 181 334 194T275
214T197 232T120 259T60 308T36 391Q36 463 97 512T257 562Q392 562 481 483L419 388Q388 416 343 432T255 449Q216 449 194 434T171 395Q171 373 204 361T284 339T379 315T460 262T493 165Q493 84 431 36T256 -12Z" />
<glyph unicode="&#xe0;" glyph-name="agrave" horiz-adv-x="597" d="M382 606H293L131 750H248L382 606ZM218 550H379L602 0H454L418 91H179L144 0H-5L218 550ZM380 206L299 416L217 206H380Z" />
<glyph unicode="&#xe1;" glyph-name="aacute" horiz-adv-x="597" d="M469 750L307 606H218L352 750H469ZM218 550H379L602 0H454L418 91H179L144 0H-5L218 550ZM380 206L299 416L217 206H380Z" />
<glyph unicode="&#xe2;" glyph-name="acircumflex" horiz-adv-x="597" d="M450 606H372L299 695L228 606H150L242 750H356L450 606ZM218 550H379L602 0H454L418 91H179L144 0H-5L218 550ZM380 206L299 416L217 206H380Z" />
<glyph unicode="&#xe3;" glyph-name="atilde" horiz-adv-x="597" d="M356 604Q327 604 306 621T270 655T239 672Q203 672 203 610H136Q136 674 164 709T244 744Q273 744 293 727T329 694T360 677Q396 677 396 738H463Q463 674 436 639T356 604ZM218 550H379L602
0H454L418 91H179L144 0H-5L218 550ZM380 206L299 416L217 206H380Z" />
<glyph unicode="&#xe4;" glyph-name="adieresis" horiz-adv-x="597" d="M218 550H379L602 0H454L418 91H179L144 0H-5L218 550ZM380 206L299 416L217 206H380ZM472 702T472 674T452 626T404 606T356 626T336 674T356 722T404 742T452 722ZM261 702T261 674T242
626T193 606T145 626T125 674T144 722T193 742T241 722Z" />
<glyph unicode="&#xe5;" glyph-name="aring" horiz-adv-x="597" d="M342 598T299 598T225 629T194 703T225 777T299 808T372 778T403 703Q403 660 373 629ZM280 656T299 656T331 669T345 703T332 736T299 750T266 736T252 703T266 670ZM218 550H379L602 0H454L418
91H179L144 0H-5L218 550ZM380 206L299 416L217 206H380Z" />
<glyph unicode="&#xe6;" glyph-name="ae" horiz-adv-x="845" d="M803 0H388V91H197L143 0H-6L336 550H803V435H520V337H797V222H520V115H803V0ZM388 206V416L260 206H388Z" />
<glyph unicode="&#xe7;" glyph-name="ccedilla" horiz-adv-x="585" d="M330 -195Q258 -195 220 -164L245 -113Q283 -142 327 -142Q348 -142 363 -134T378 -109Q378 -83 349 -83Q331 -83 317 -97L271 -71L293 -10Q178 2 105 80T32 275Q32 402 117 482T332 562Q415
562 475 523T569 422L459 369Q441 404 407 425T332 446Q260 446 213 398T166 275Q166 202 213 153T332 104Q373 104 407 125T459 181L570 129Q500 0 355 -11L339 -51Q353 -41 374 -41Q402 -41 421 -60T441 -111Q441 -150 409 -172T330 -195Z" />
<glyph unicode="&#xe8;" glyph-name="egrave" horiz-adv-x="520" d="M354 606H265L103 750H220L354 606ZM478 0H63V550H478V435H195V337H472V222H195V115H478V0Z" />
<glyph unicode="&#xe9;" glyph-name="eacute" horiz-adv-x="520" d="M442 750L280 606H191L325 750H442ZM478 0H63V550H478V435H195V337H472V222H195V115H478V0Z" />
<glyph unicode="&#xea;" glyph-name="ecircumflex" horiz-adv-x="520" d="M423 606H345L272 695L201 606H123L215 750H329L423 606ZM478 0H63V550H478V435H195V337H472V222H195V115H478V0Z" />
<glyph unicode="&#xeb;" glyph-name="edieresis" horiz-adv-x="520" d="M478 0H63V550H478V435H195V337H472V222H195V115H478V0ZM444 702T444 674T424 626T376 606T328 626T308 674T328 722T376 742T424 722ZM233 702T233 674T214 626T165 606T117 626T97 674T116
722T165 742T213 722Z" />
<glyph unicode="&#xec;" glyph-name="igrave" horiz-adv-x="253" d="M195 0H63V550H195V0ZM209 606H120L-42 750H75L209 606Z" />
<glyph unicode="&#xed;" glyph-name="iacute" horiz-adv-x="253" d="M297 750L135 606H46L180 750H297ZM195 0H63V550H195V0Z" />
<glyph unicode="&#xee;" glyph-name="icircumflex" horiz-adv-x="253" d="M195 0H63V550H195V0ZM278 606H200L127 695L56 606H-22L70 750H184L278 606Z" />
<glyph unicode="&#xef;" glyph-name="idieresis" horiz-adv-x="253" d="M195 0H63V550H195V0ZM301 702T301 674T282 626T233 606Q205 606 185 626T165 674T185 722T233 742Q262 742 281 722ZM90 702T90 674T70 626T22 606T-26 626T-46 674T-26 722T22 742T70 722Z" />
<glyph unicode="&#xf0;" glyph-name="eth" horiz-adv-x="635" d="M294 0H63V232H9V319H63V550H294Q430 550 512 475T594 275T512 75T294 0ZM309 232H195V115H294Q373 115 416 160T460 275Q460 346 418 390T294 435H195V319H309V232Z" />
<glyph unicode="&#xf1;" glyph-name="ntilde" horiz-adv-x="649" d="M381 604Q352 604 331 621T295 655T264 672Q228 672 228 610H161Q161 674 189 709T269 744Q298 744 318 727T354 694T385 677Q421 677 421 738H488Q488 674 461 639T381 604ZM586 0H451L195
345V0H63V550H205L454 218V550H586V0Z" />
<glyph unicode="&#xf2;" glyph-name="ograve" horiz-adv-x="655" d="M410 606H321L159 750H276L410 606ZM457 -12T327 -12T115 69T32 275T114 481T327 562T540 481T623 275Q623 151 540 70ZM255 104T327 104T443 153T488 275Q488 349 444 397T327 446T211 398T166
275Q166 202 210 153Z" />
<glyph unicode="&#xf3;" glyph-name="oacute" horiz-adv-x="655" d="M499 750L337 606H248L382 750H499ZM457 -12T327 -12T115 69T32 275T114 481T327 562T540 481T623 275Q623 151 540 70ZM255 104T327 104T443 153T488 275Q488 349 444 397T327 446T211 398T166
275Q166 202 210 153Z" />
<glyph unicode="&#xf4;" glyph-name="ocircumflex" horiz-adv-x="655" d="M479 606H401L328 695L257 606H179L271 750H385L479 606ZM457 -12T327 -12T115 69T32 275T114 481T327 562T540 481T623 275Q623 151 540 70ZM255 104T327 104T443 153T488 275Q488 349
444 397T327 446T211 398T166 275Q166 202 210 153Z" />
<glyph unicode="&#xf5;" glyph-name="otilde" horiz-adv-x="655" d="M387 604Q358 604 337 621T301 655T270 672Q234 672 234 610H167Q167 674 195 709T275 744Q304 744 324 727T360 694T391 677Q427 677 427 738H494Q494 674 467 639T387 604ZM457 -12T327 -12T115
69T32 275T114 481T327 562T540 481T623 275Q623 151 540 70ZM255 104T327 104T443 153T488 275Q488 349 444 397T327 446T211 398T166 275Q166 202 210 153Z" />
<glyph unicode="&#xf6;" glyph-name="odieresis" horiz-adv-x="655" d="M457 -12T327 -12T115 69T32 275T114 481T327 562T540 481T623 275Q623 151 540 70ZM255 104T327 104T443 153T488 275Q488 349 444 397T327 446T211 398T166 275Q166 202 210 153ZM503 702T503
674T484 626T435 606Q407 606 387 626T367 674T387 722T435 742Q464 742 483 722ZM292 702T292 674T272 626T224 606T176 626T156 674T176 722T224 742T272 722Z" />
<glyph unicode="&#xf7;" glyph-name="divide" horiz-adv-x="511" d="M316 516Q316 490 298 472T255 454T212 472T194 516T212 558T255 576T298 559T316 516ZM482 298H29V377H482V298ZM316 182T316 157T298 114T255 96T212 114T194 157T212 200T255 218T298 200Z" />
<glyph unicode="&#xf8;" glyph-name="oslash" horiz-adv-x="655" d="M327 -12Q242 -12 178 23L160 0H58L113 70Q32 151 32 275Q32 400 114 481T327 562Q408 562 474 528L491 550H593L539 482Q623 401 623 275Q623 151 540 70T327 -12ZM327 104Q399 104 443 153T488
275Q488 333 458 379L254 120Q288 104 327 104ZM166 275Q166 217 194 173L397 431Q367 446 327 446Q255 446 211 398T166 275Z" />
<glyph unicode="&#xf9;" glyph-name="ugrave" horiz-adv-x="646" d="M405 606H316L154 750H271L405 606ZM323 -12Q196 -12 130 50T63 218V550H196V230Q196 173 229 139T323 104T416 138T450 230V550H583V219Q583 113 517 51T323 -12Z" />
<glyph unicode="&#xfa;" glyph-name="uacute" horiz-adv-x="646" d="M494 750L332 606H243L377 750H494ZM323 -12Q196 -12 130 50T63 218V550H196V230Q196 173 229 139T323 104T416 138T450 230V550H583V219Q583 113 517 51T323 -12Z" />
<glyph unicode="&#xfb;" glyph-name="ucircumflex" horiz-adv-x="646" d="M474 606H396L323 695L252 606H174L266 750H380L474 606ZM323 -12Q196 -12 130 50T63 218V550H196V230Q196 173 229 139T323 104T416 138T450 230V550H583V219Q583 113 517 51T323 -12Z" />
<glyph unicode="&#xfc;" glyph-name="udieresis" horiz-adv-x="646" d="M323 -12Q196 -12 130 50T63 218V550H196V230Q196 173 229 139T323 104T416 138T450 230V550H583V219Q583 113 517 51T323 -12ZM497 702T497 674T478 626T429 606Q401 606 381 626T361 674T381
722T429 742Q458 742 477 722ZM286 702T286 674T266 626T218 606T170 626T150 674T170 722T218 742T266 722Z" />
<glyph unicode="&#xfd;" glyph-name="yacute" horiz-adv-x="565" d="M454 750L292 606H203L337 750H454ZM349 0H218V226L-5 550H144L284 338L421 550H570L349 226V0Z" />
<glyph unicode="&#xfe;" glyph-name="thorn" horiz-adv-x="554" d="M195 0H63V550H195V469H341Q430 469 482 417T534 288Q534 210 484 159T341 107H195V0ZM325 222Q360 222 379 240T399 288T380 335T325 354H195V222H325Z" />
<glyph unicode="&#xff;" glyph-name="ydieresis" horiz-adv-x="565" d="M349 0H218V226L-5 550H144L284 338L421 550H570L349 226V0ZM458 702T458 674T438 626T390 606T342 626T322 674T342 722T390 742T438 722ZM247 702T247 674T228 626T179 606T131 626T111
674T130 722T179 742T227 722Z" />
<glyph unicode="&#x131;" glyph-name="dotlessi" horiz-adv-x="258" d="M195 0H63V550H195V0Z" />
<glyph unicode="&#x141;" glyph-name="Lslash" horiz-adv-x="535" d="M9 192V308L80 349V667H223V432L299 476V359L223 315V125H505V0H80V233L9 192Z" />
<glyph unicode="&#x142;" glyph-name="lslash" horiz-adv-x="480" d="M9 140V256L74 293V550H206V370L287 417V300L206 253V115H448V0H74V177L9 140Z" />
<glyph unicode="&#x152;" glyph-name="OE" horiz-adv-x="1084" d="M1041 0H570V78Q537 35 482 12T368 -12Q222 -12 128 85T34 333T128 580T368 677Q426 677 481 654T570 589V667H1041V542H712V402H1034V277H712V125H1041V0ZM570 230V437Q546 492 498 521T388 551Q293
551 237 490T180 333Q180 238 236 176T388 114Q449 114 497 144T570 230Z" />
<glyph unicode="&#x153;" glyph-name="oe" horiz-adv-x="929" d="M887 0H472V68Q412 -12 303 -12Q184 -12 108 69T32 275T108 481T303 562Q412 562 472 483V550H887V435H605V337H881V222H605V115H887V0ZM472 199V352Q434 446 329 446Q255 446 211 398T166 275T210
153T329 104Q433 104 472 199Z" />
<glyph unicode="&#x160;" glyph-name="Scaron" horiz-adv-x="600" d="M352 728H238L143 872H221L295 783L365 872H443L352 728ZM304 -12Q126 -12 20 94L98 205Q185 114 310 114Q366 114 396 135T426 188Q426 215 398 232T327 258T234 280T142 314T71 374T42 474Q42
560 111 618T295 677Q454 677 555 584L476 478Q397 551 282 551Q238 551 213 533T188 485Q188 461 216 445T287 421T379 397T471 363T542 302T571 202Q571 106 503 47T304 -12Z" />
<glyph unicode="&#x161;" glyph-name="scaron" horiz-adv-x="516" d="M320 606H206L111 750H189L263 661L333 750H411L320 606ZM256 -12Q180 -12 118 11T18 71L78 173Q109 143 158 122T260 101Q309 101 333 117T358 160Q358 181 334 194T275 214T197 232T120 259T60
308T36 391Q36 463 97 512T257 562Q392 562 481 483L419 388Q388 416 343 432T255 449Q216 449 194 434T171 395Q171 373 204 361T284 339T379 315T460 262T493 165Q493 84 431 36T256 -12Z" />
<glyph unicode="&#x178;" glyph-name="Ydieresis" horiz-adv-x="645" d="M498 812T498 784T478 736T430 716T382 736T362 784T382 832T430 852T478 832ZM287 812T287 784T268 736T219 716T171 736T151 784T170 832T219 852T267 832ZM394 0H252V273L-4 667H158L323
400L488 667H649L394 273V0Z" />
<glyph unicode="&#x17d;" glyph-name="Zcaron" horiz-adv-x="592" d="M355 728H241L146 872H224L298 783L368 872H446L355 728ZM550 0H42V115L357 542H42V667H543V553L228 125H550V0Z" />
<glyph unicode="&#x17e;" glyph-name="zcaron" horiz-adv-x="524" d="M318 606H204L109 750H187L261 661L331 750H409L318 606ZM488 0H36V96L299 434H36V550H481V454L219 116H488V0Z" />
<glyph unicode="&#x192;" glyph-name="florin" horiz-adv-x="398" d="M158 -119H14L85 203H43V293H105L128 395Q165 561 303 561Q369 561 408 522L362 421Q351 436 327 436Q282 436 268 373L250 293H334V203H231L158 -119Z" />
<glyph unicode="&#x2c6;" glyph-name="circumflex" horiz-adv-x="300" d="M300 556H222L149 645L78 556H0L92 700H206L300 556Z" />
<glyph unicode="&#x2c7;" glyph-name="caron" horiz-adv-x="300" d="M209 556H95L0 700H78L152 611L222 700H300L209 556Z" />
<glyph unicode="&#x2d8;" glyph-name="breve" horiz-adv-x="351" d="M351 644Q286 556 176 556Q67 556 0 644L57 691Q101 629 176 629Q250 629 295 691L351 644Z" />
<glyph unicode="&#x2d9;" glyph-name="dotaccent" horiz-adv-x="174" d="M88 551Q60 551 40 571T20 619Q20 648 40 667T88 687Q115 687 135 667T155 619T135 571T88 551Z" />
<glyph unicode="&#x2da;" glyph-name="ring" horiz-adv-x="209" d="M148 548T105 548T31 579T0 653T31 727T105 758T178 728T209 653Q209 610 179 579ZM86 606T105 606T137 619T151 653T138 686T105 700T72 686T58 653T72 620Z" />
<glyph unicode="&#x2db;" glyph-name="ogonek" horiz-adv-x="195" d="M143 -98L195 -130Q162 -186 100 -186Q57 -186 29 -164T0 -96Q0 -18 89 30L134 0Q63 -35 63 -90Q63 -132 100 -132Q131 -132 143 -98Z" />
<glyph unicode="&#x2dc;" glyph-name="tilde" horiz-adv-x="327" d="M220 554Q191 554 170 571T134 605T103 622Q67 622 67 560H0Q0 624 28 659T108 694Q137 694 157 677T193 644T224 627Q260 627 260 688H327Q327 624 300 589T220 554Z" />
<glyph unicode="&#x2dd;" glyph-name="hungarumlaut" horiz-adv-x="338" d="M189 700L74 556H0L87 700H189ZM338 700L223 556H149L236 700H338Z" />
<glyph unicode="&#x3c0;" glyph-name="pi" horiz-adv-x="621" d="M526 0H398V388H224V0H95V388H25V500H596V388H526V0Z" />
<glyph unicode="&#x2013;" glyph-name="endash" horiz-adv-x="593" d="M563 188H30V296H563V188Z" />
<glyph unicode="&#x2014;" glyph-name="emdash" horiz-adv-x="833" d="M803 188H30V296H803V188Z" />
<glyph unicode="&#x2018;" glyph-name="quoteleft" horiz-adv-x="255" d="M39 492Q39 547 66 595T142 678L197 633Q172 620 149 592T119 538Q123 541 139 541Q168 541 187 521T207 469T184 414T128 390Q91 390 65 417T39 492Z" />
<glyph unicode="&#x2019;" glyph-name="quoteright" horiz-adv-x="255" d="M215 575Q215 520 188 472T112 389L57 434Q82 447 105 475T134 529Q129 526 115 526Q86 526 67 546T47 598T70 653T126 677Q163 677 189 650T215 575Z" />
<glyph unicode="&#x201a;" glyph-name="quotesinglbase" horiz-adv-x="255" d="M215 49Q215 -6 188 -54T112 -137L57 -92Q82 -79 105 -52T134 2Q125 -1 115 -1Q86 -1 67 19T47 71Q47 104 70 127T126 151Q163 151 189 124T215 49Z" />
<glyph unicode="&#x201c;" glyph-name="quotedblleft" horiz-adv-x="459" d="M40 492Q40 547 67 595T143 678L198 633Q173 620 150 592T120 538Q126 541 140 541Q169 541 188 521T208 469T185 414T129 390Q92 390 66 417T40 492ZM244 492Q244 547 271 595T347
678L402 633Q377 620 354 592T324 538Q328 541 344 541Q373 541 392 521T411 469T388 414T333 390Q296 390 270 417T244 492Z" />
<glyph unicode="&#x201d;" glyph-name="quotedblright" horiz-adv-x="459" d="M418 575Q418 520 391 472T315 389L260 434Q285 447 308 475T338 529Q334 526 318 526Q289 526 270 546T251 598T274 653T329 677Q366 677 392 650T418 575ZM215 575Q215 520 188 472T112
389L57 434Q82 447 105 475T134 529Q129 526 115 526Q86 526 67 546T47 598T70 653T126 677Q163 677 189 650T215 575Z" />
<glyph unicode="&#x201e;" glyph-name="quotedblbase" horiz-adv-x="459" d="M215 49Q215 -6 188 -54T112 -137L57 -92Q82 -79 105 -52T134 2Q125 -1 115 -1Q86 -1 67 19T47 71Q47 104 70 127T126 151Q163 151 189 124T215 49ZM418 49Q418 -6 391 -54T315 -137L260
-92Q285 -79 308 -51T338 2Q329 -1 318 -1Q289 -1 270 19T251 71Q251 104 274 127T329 151Q366 151 392 124T418 49Z" />
<glyph unicode="&#x2020;" glyph-name="dagger" horiz-adv-x="277" d="M257 522L168 526L172 327H104L109 526L20 522V584L109 581L104 677H172L168 581L257 584V522Z" />
<glyph unicode="&#x2021;" glyph-name="daggerdbl" horiz-adv-x="277" d="M257 584V522L168 526V332L257 336V274L168 277L172 180H104L108 277L20 274V336L108 332V526L20 522V584L108 581L104 677H172L168 581L257 584Z" />
<glyph unicode="&#x2022;" glyph-name="bullet" horiz-adv-x="358" d="M299 242Q299 193 264 159T180 124T96 158T61 242Q61 292 95 326T180 361T264 327T299 242Z" />
<glyph unicode="&#x2026;" glyph-name="ellipsis" horiz-adv-x="768" d="M721 70Q721 38 697 14T640 -10T584 14T560 70Q560 103 583 127T640 151T697 127T721 70ZM465 70Q465 38 441 14T384 -10T328 14T304 70Q304 103 327 127T384 151T441 127T465 70ZM209 70Q209
38 185 14T128 -10T72 14T48 70Q48 103 71 127T128 151T185 127T209 70Z" />
<glyph unicode="&#x2030;" glyph-name="perthousand" horiz-adv-x="905" d="M296 482T296 423T258 325T159 286Q99 286 62 325T24 423T61 522T159 562T257 522ZM589 187T589 128T551 30T453 -10T356 29T319 128T356 226T453 266T551 227ZM534 550L151 0H80L462
550H534ZM219 423Q219 456 202 476T159 496Q134 496 118 476T101 423Q101 391 117 372T159 352Q185 352 202 371T219 423ZM513 96T513 128T496 180T453 200T411 180T394 128T410 77T453 57T496 76ZM881 187T881 128T843 30T745 -10T648 30T610 128Q610 187 647
226T745 266T843 227ZM805 96T805 128T788 180T745 200T703 180T686 128T702 77T745 57T788 76Z" />
<glyph unicode="&#x2039;" glyph-name="guilsinglleft" horiz-adv-x="338" d="M308 63H190L30 243L190 420H308L148 243L308 63Z" />
<glyph unicode="&#x203a;" glyph-name="guilsinglright" horiz-adv-x="338" d="M308 243L148 63H30L190 243L30 420H148L308 243Z" />
<glyph unicode="&#x2044;" glyph-name="fraction" horiz-adv-x="159" d="M331 667L-96 0H-172L254 667H331Z" />
<glyph unicode="&#x20ac;" glyph-name="Euro" horiz-adv-x="611" d="M399 296H192Q191 289 191 275Q191 260 192 253H399V185H214Q235 148 273 126T357 104Q398 104 432 125T484 181L595 129Q561 66 501 27T357 -12Q252 -12 175 41T70 185H21V253H58Q57 260 57
275V296H21V364H70Q97 454 174 508T357 562Q440 562 500 523T594 422L484 369Q466 404 432 425T357 446Q259 446 213 364H399V296Z" />
<glyph unicode="&#x2122;" glyph-name="trademark" horiz-adv-x="454" d="M419 447H391V629L316 447H308L233 629V447H205V667H248L312 507L376 667H419V447ZM169 641H107V447H79V641H17V667H169V641Z" />
<glyph unicode="&#x2126;" glyph-name="Omega" horiz-adv-x="765" d="M52 0V125H172Q111 168 73 229T34 366Q34 507 132 592T383 678T633 593T731 366Q731 291 693 230T593 125H714V0H445V125Q508 142 546 199T585 334Q585 422 534 486T383 551T232 487T180 334Q180
257 219 200T321 125V0H52Z" />
<glyph unicode="&#x2202;" glyph-name="partialdiff" horiz-adv-x="575" d="M287 -12Q171 -12 102 56T32 224Q32 322 93 391T246 460Q350 460 400 381Q342 528 180 613L282 684Q388 621 465 506T543 256Q543 135 475 62T287 -12ZM229 101T287 101T378 135T411
224T378 313T287 348Q230 348 197 313T164 224T196 136Z" />
<glyph unicode="&#x2206;" glyph-name="increment" horiz-adv-x="684" d="M688 0H-4L253 667H431L688 0ZM488 125L342 525L196 125H488Z" />
<glyph unicode="&#x220f;" glyph-name="product" horiz-adv-x="788" d="M659 -90H516V542H272V-90H130V542H25V667H763V542H659V-90Z" />
<glyph unicode="&#x2211;" glyph-name="summation" horiz-adv-x="586" d="M224 542L423 297L217 35H541V-90H45V35L248 296L46 543V667H541V542H224Z" />
<glyph unicode="&#x2212;" glyph-name="minus" horiz-adv-x="504" d="M475 295H29V374H475V295Z" />
<glyph unicode="&#x221a;" glyph-name="radical" horiz-adv-x="682" d="M404 0H320L208 302L77 255L53 331L263 403L364 127L562 667H657L404 0Z" />
<glyph unicode="&#x221e;" glyph-name="infinity" horiz-adv-x="690" d="M196 159Q113 159 71 211T29 336T71 460T196 513Q244 513 283 485T345 412Q367 456 406 484T494 513Q578 513 619 461T661 335Q661 263 620 211T494 159Q446 159 407 186T345 258Q323 214
284 187T196 159ZM484 237Q525 237 550 264T576 335Q576 380 551 407T484 435Q450 435 424 407T381 335Q396 292 422 265T484 237ZM207 236Q242 236 268 264T309 336Q294 379 268 407T207 435Q166 435 140 408T114 336Q114 291 140 264T207 236Z" />
<glyph unicode="&#x222b;" glyph-name="integral'" horiz-adv-x="373" d="M78 -100H17V-15H78Q104 -15 122 6T141 60V608Q141 679 187 723T296 768H356V683H296Q269 683 251 663T233 609V59Q233 -12 187 -56T78 -100Z" />
<glyph unicode="&#x2248;" glyph-name="approxequal" horiz-adv-x="504" d="M29 201V286Q78 256 141 256Q186 256 245 282T363 308Q426 308 475 285V199Q426 229 363 229Q318 229 258 204T141 178Q77 178 29 201ZM29 383V469Q78 439 141 439Q186 439 245 465T363
491Q426 491 475 468V382Q426 412 363 412Q318 412 258 387T141 361Q78 361 29 383Z" />
<glyph unicode="&#x2260;" glyph-name="notequal" horiz-adv-x="504" d="M137 93H61L129 201H29V279H179L249 389H29V468H299L367 574H444L376 468H475V389H326L256 279H475V201H206L137 93Z" />
<glyph unicode="&#x2264;" glyph-name="lessequal" horiz-adv-x="504" d="M475 110L29 308V400L475 600V506L120 354L475 203V110ZM475 0H29V79H475V0Z" />
<glyph unicode="&#x2265;" glyph-name="greaterequal" horiz-adv-x="504" d="M475 308L28 110V203L384 354L28 506V600L475 400V308ZM475 0H29V79H475V0Z" />
<glyph unicode="&#x25ca;" glyph-name="lozenge" horiz-adv-x="375" d="M198 0H177L19 334L177 667H198L356 334L198 0ZM188 41L320 334L187 626L55 334L188 41Z" />
<glyph unicode="&#xf8ff;" glyph-name="" horiz-adv-x="667" d="M219 154V220H153Q126 220 107 201T88 154Q88 126 106 107T153 87T200 106T219 154ZM219 447V514Q219 542 200 561T154 580Q126 580 107 561T88 514T107 467T154 447H219ZM265 265H402V402H265V265ZM579
154Q579 181 560 200T514 220H448V154Q448 126 467 107T514 87T560 106T579 154ZM579 486T579 514T560 561T514 580Q486 580 467 561T448 514V447H514Q541 447 560 466ZM625 200T625 154T593 75T514 42T435 75T402 154V220H265V154Q265 108 232 75T153 42T75 75T42
154T74 232T153 265H219V402H154Q108 402 75 435T42 514T75 592T154 625T232 593T265 514V447H402V514Q402 560 435 592T514 625T592 593T625 514T593 435T514 402H448V265H514Q560 265 592 233Z" />
<glyph unicode="&#xfb01;" glyph-name="fi" horiz-adv-x="767" d="M704 0H572V550H704V0ZM195 0H63V550H478V435H195V337H472V222H195V0Z" />
<glyph unicode="&#xfb02;" glyph-name="fl" horiz-adv-x="978" d="M946 0H572V550H704V115H946V0ZM195 0H63V550H478V435H195V337H472V222H195V0Z" />
</font>
</defs>
</svg>
