<?xml version="1.0" standalone="no"?> <!DOCTYPE svg PUBLIC "-//W3C//DTD SVG 1.0//EN" "http://www.w3.org/TR/2001/REC-SVG-20010904/DTD/svg10.dtd" > 
<svg xmlns="http://www.w3.org/2000/svg" width="100%" height="100%">
<metadata version="1.0"><uniqueid id="com.myfonts.marksimonson.proxima-nova.acond-bold-it.wfkit2.dttj"/><vendor name="MyFonts" url="http://www.myfonts.com/"/><credits><credit name="Mark Simonson" url="http://www.myfonts.com/person/simonson/mark/"/></credits><description><text lang="en">This is a Webfont from MyFonts. Full information about this font:
http://www.myfonts.com/fonts/marksimonson/proxima-nova/
</text></description><copyright><text lang="en">Copyright (c) Mark Simonson, 2005. All rights reserved.</text></copyright><trademark><text lang="en">Proxima Nova is a trademark of Mark Simonson.</text></trademark></metadata>
<defs >
<font id="wf" horiz-adv-x="396" ><font-face
    font-family="Proxima Nova Alt Cn Rg"
    units-per-em="1000"
    panose-1="2 0 5 6 3 0 0 2 0 4"
    ascent="777"
    descent="-223"
    alphabetic="0" />
<missing-glyph horiz-adv-x="469" d="M430 -90H79V752H430V-90ZM398 -60V722H110V-60H398Z" />
<glyph unicode=" " glyph-name="space" horiz-adv-x="209" />
<glyph unicode="!" glyph-name="exclam" horiz-adv-x="252" d="M171 213H66L146 667H292L171 213ZM79 -11Q50 -11 29 10T8 60Q8 94 33 119T93 144Q122 144 142 123T163 72Q163 38 139 14T79 -11Z" />
<glyph unicode="&quot;" glyph-name="quotedbl" horiz-adv-x="398" d="M166 380H114Q123 583 124 600Q125 633 146 655T200 677Q224 677 241 660T258 618Q258 606 251 589L166 380ZM343 380H291Q301 583 301 600Q302 633 323 655T377 677Q401 677 418 660T435
618Q435 606 428 589L343 380Z" />
<glyph unicode="#" glyph-name="numbersign" horiz-adv-x="537" d="M248 0H159L246 171H167L81 0H-9L78 171H0L38 248H117L202 418H123L160 495H241L327 667H417L331 495H409L495 667H584L498 495H576L540 418H459L373 248H455L417 171H334L248 0ZM284 248L370
418H291L206 248H284Z" />
<glyph unicode="$" glyph-name="dollar" horiz-adv-x="504" d="M137 -100L158 -4Q46 18 -6 89L74 188Q112 133 184 114L223 287Q193 304 174 318T132 353T99 401T88 461Q88 546 150 610T310 678L330 768H420L398 669Q483 648 533 591L455 493Q422 533 371 549L336
389Q376 366 400 347T447 293T469 215Q469 124 408 59T246 -11L227 -100H137ZM328 190Q328 218 289 247L258 109Q291 115 309 137T328 190ZM230 486Q230 457 269 430L298 558Q268 554 249 534T230 486Z" />
<glyph unicode="%" glyph-name="percent" horiz-adv-x="672" d="M138 0H75L575 667H638L138 0ZM462 -12Q403 -12 365 25T326 120Q326 205 377 262T496 320Q555 320 593 283T632 188Q632 103 582 46T462 -12ZM467 62Q499 62 524 96T549 181Q549 211 534 228T492
246Q460 246 435 212T409 127Q409 97 424 80T467 62ZM215 345Q155 345 117 382T78 477Q78 562 129 619T248 677Q308 677 346 640T385 545Q385 460 334 403T215 345ZM219 419Q251 419 276 454T302 538Q302 568 286 585T244 603Q212 603 187 569T161 484Q161 454
177 437T219 419Z" />
<glyph unicode="&amp;" glyph-name="ampersand" horiz-adv-x="550" d="M480 0H348L328 35Q255 -12 183 -12Q103 -12 54 29T5 149Q5 236 50 288T177 380Q163 434 163 481Q163 563 217 620T346 677Q409 677 450 643T491 547Q491 507 477 476T431 420T376 382T306
346Q315 324 335 280L369 204Q412 262 443 325L529 272Q475 180 416 113L480 0ZM207 83Q243 83 285 114Q251 178 240 207Q231 226 205 291Q132 240 132 166Q132 128 153 106T207 83ZM276 479Q276 456 281 428Q332 453 358 478T385 541Q385 590 343 590Q317 590
297 558T276 479Z" />
<glyph unicode="&apos;" glyph-name="quotesingle" horiz-adv-x="222" d="M166 380H114Q123 583 124 600Q125 633 146 655T200 677Q224 677 241 660T258 618Q258 606 251 589L166 380Z" />
<glyph unicode="(" glyph-name="parenleft" horiz-adv-x="278" d="M171 -159L81 -199Q23 -83 23 73Q23 241 89 398T275 685L346 629Q253 497 201 340T148 26Q148 -62 171 -159Z" />
<glyph unicode=")" glyph-name="parenright" horiz-adv-x="278" d="M106 645L197 685Q254 568 254 413Q254 245 188 88T2 -199L-69 -143Q24 -11 76 146T129 460Q129 548 106 645Z" />
<glyph unicode="*" glyph-name="asterisk" horiz-adv-x="337" d="M226 369H164L195 483L88 435L71 490L179 529L93 589L135 637L214 569L233 677H295L263 563L370 612L388 557L280 518L366 458L323 410L244 478L226 369Z" />
<glyph unicode="+" glyph-name="plus" horiz-adv-x="444" d="M427 300H275L236 125H154L193 300H41L58 375H209L246 542H329L292 375H443L427 300Z" />
<glyph unicode="," glyph-name="comma" horiz-adv-x="253" d="M168 65Q168 10 127 -44T25 -129L-18 -84Q12 -71 39 -48T78 0Q76 -1 68 -1Q43 -1 26 15T9 61Q9 95 35 119T94 144Q124 144 146 123T168 65Z" />
<glyph unicode="-" glyph-name="hyphen" horiz-adv-x="271" d="M229 191H18L40 293H251L229 191Z" />
<glyph unicode="." glyph-name="period" horiz-adv-x="252" d="M79 -11Q50 -11 30 10T9 60Q9 94 34 119T94 144Q123 144 143 123T164 72Q164 38 139 14T79 -11Z" />
<glyph unicode="/" glyph-name="slash" horiz-adv-x="278" d="M29 -20H-60L288 687H378L29 -20Z" />
<glyph unicode="0" glyph-name="zero" horiz-adv-x="540" d="M238 -12Q146 -12 92 51T38 230Q38 339 75 440T184 609T340 677Q432 677 486 614T540 436Q540 327 503 225T394 56T238 -12ZM251 107Q296 107 333 170T389 311T407 451Q407 558 327 558Q282 558 245
495T189 355T171 215Q171 107 251 107Z" />
<glyph unicode="1" glyph-name="one" horiz-adv-x="379" d="M266 0H132L241 494L118 390L58 471L297 667H413L266 0Z" />
<glyph unicode="2" glyph-name="two" horiz-adv-x="524" d="M427 0H-10L19 130Q38 144 73 170Q141 220 172 243T249 303T314 358T356 403T386 448T394 487Q394 520 368 539T300 559Q222 559 161 498L100 589Q186 677 312 677Q408 677 471 630T534 499Q534 453
514 410T448 318T351 226T213 118H452L427 0Z" />
<glyph unicode="3" glyph-name="three" horiz-adv-x="515" d="M235 -12Q152 -12 83 24T-13 125L86 199Q106 155 147 131T234 107Q284 107 311 138T339 213Q339 280 242 280Q194 280 184 279L211 399Q220 398 283 398Q333 398 362 423T392 490Q392 522 365 540T289
558Q216 558 160 504L100 589Q186 677 307 677Q407 677 468 635T530 516Q530 448 480 398T365 338Q415 324 442 288T470 201Q470 112 402 50T235 -12Z" />
<glyph unicode="4" glyph-name="four" horiz-adv-x="516" d="M373 0H239L270 142H-2L25 265L343 667H520L430 260H498L472 142H404L373 0ZM296 260L356 529L144 260H296Z" />
<glyph unicode="5" glyph-name="five" horiz-adv-x="530" d="M243 -12Q73 -12 7 119L107 195Q148 107 244 107Q293 107 325 146T358 237Q358 274 333 295T264 317Q207 317 160 274L71 309L150 667H552L526 549H259L222 383Q268 427 338 427Q409 427 454 381T499
254Q499 145 427 67T243 -12Z" />
<glyph unicode="6" glyph-name="six" horiz-adv-x="528" d="M251 -12Q147 -12 91 50T34 223Q34 296 55 373T114 519T218 632T362 677Q487 677 549 587L464 495Q432 558 354 558Q297 558 255 506T191 380Q185 364 184 354Q209 387 249 408T333 429Q405 429 452
384T500 263Q500 155 429 72T251 -12ZM252 107Q299 107 330 150T361 242Q361 277 336 299T270 321Q216 321 168 259Q164 235 164 208Q164 162 187 135T252 107Z" />
<glyph unicode="7" glyph-name="seven" horiz-adv-x="470" d="M189 0H39L362 549H88L114 667H544L524 574L189 0Z" />
<glyph unicode="8" glyph-name="eight" horiz-adv-x="526" d="M241 -12Q136 -12 73 29T10 153Q10 220 55 275T183 356Q145 374 120 409T94 488Q94 574 164 625T326 677Q383 677 431 662T513 609T547 517Q547 449 502 399T385 333Q429 309 455 270T482 186Q482
98 413 43T241 -12ZM295 391Q344 399 374 424T405 493Q405 522 382 540T320 558Q281 558 254 533T226 468Q226 443 247 422T295 391ZM243 107Q284 107 316 135T348 206Q348 237 325 260T273 291Q222 284 187 254T151 179Q151 144 176 126T243 107Z" />
<glyph unicode="9" glyph-name="nine" horiz-adv-x="528" d="M316 678Q419 678 475 616T532 443Q532 370 511 293T452 147T348 34T204 -11Q79 -11 17 79L103 171Q134 108 212 108Q270 108 312 160T375 286Q380 299 383 312Q357 279 317 258T233 237Q161 237 114
282T66 403Q66 511 137 594T316 678ZM314 559Q268 559 237 516T206 424Q206 389 231 367T296 345Q352 345 398 407Q402 423 402 458Q402 505 379 532T314 559Z" />
<glyph unicode=":" glyph-name="colon" horiz-adv-x="247" d="M80 -11Q50 -11 30 10T9 60Q9 94 34 119T94 144Q123 144 143 123T164 72Q164 38 139 14T80 -11ZM156 335Q127 335 107 356T86 406Q86 440 111 465T170 490Q199 490 219 469T240 419Q240 384 215 360T156 335Z" />
<glyph unicode=";" glyph-name="semicolon" horiz-adv-x="252" d="M168 65Q168 10 127 -44T25 -129L-18 -84Q12 -71 39 -48T78 0Q76 -1 68 -1Q43 -1 26 15T9 61Q9 95 35 119T94 144Q124 144 146 123T168 65ZM156 335Q127 335 107 356T86 406Q86 440 111 465T170
490Q199 490 219 469T240 419Q240 384 215 360T156 335Z" />
<glyph unicode="&lt;" glyph-name="less" horiz-adv-x="444" d="M387 122L39 292L58 378L481 548L461 454L135 330L406 208L387 122Z" />
<glyph unicode="=" glyph-name="equal" horiz-adv-x="444" d="M447 391H61L78 466H463L447 391ZM405 202H19L36 277H422L405 202Z" />
<glyph unicode="&gt;" glyph-name="greater" horiz-adv-x="444" d="M424 292L1 122L22 216L348 338L77 462L96 548L444 378L424 292Z" />
<glyph unicode="?" glyph-name="question" horiz-adv-x="392" d="M248 235L139 202Q126 228 126 267Q126 307 143 338T186 390T237 427T279 466T297 510T280 547T231 562Q182 562 141 526L94 615Q169 677 262 677Q337 677 387 640T438 542Q438 498 418 462T368
403T309 360T260 317T239 267Q239 250 248 235ZM149 -11Q120 -11 100 10T79 60Q79 94 104 119T164 144Q193 144 213 123T234 72Q234 38 209 14T149 -11Z" />
<glyph unicode="@" glyph-name="at" horiz-adv-x="712" d="M332 -70Q207 -70 131 13T55 229Q55 392 167 515T430 638Q548 638 622 561T696 364Q696 243 641 164T514 85Q476 85 452 105T422 156L421 163Q368 85 291 85Q236 85 201 123T166 233Q166 336 228 417T375
498Q448 498 474 432L485 484H592L539 235Q537 225 537 210Q537 167 570 167Q599 167 627 220T655 363Q655 472 593 536T427 600Q339 600 262 547T140 409T95 231Q95 116 160 42T337 -33Q419 -33 503 23L523 -7Q432 -70 332 -70ZM339 170Q391 170 432 235L459 361Q442
413 396 413Q345 413 311 360T277 247Q277 212 293 191T339 170Z" />
<glyph unicode="A" glyph-name="A" horiz-adv-x="557" d="M504 0H365L359 118H152L95 0H-56L291 667H452L504 0ZM359 236L345 526L204 236H359Z" />
<glyph unicode="B" glyph-name="B" horiz-adv-x="559" d="M301 0H5L152 667H398Q478 667 523 624T568 515Q568 448 526 394T423 333Q464 322 487 286T510 205Q510 124 457 62T301 0ZM340 398Q382 398 403 425T425 489Q425 516 407 532T360 549H260L227 398H340ZM282
118Q324 118 350 147T376 217Q376 247 358 264T308 281H201L165 118H282Z" />
<glyph unicode="C" glyph-name="C" horiz-adv-x="560" d="M290 -12Q176 -12 107 58T37 245Q37 355 77 453T196 614T374 678Q472 678 528 624T604 488L478 453Q467 503 438 531T367 559Q288 559 232 461T176 247Q176 182 208 145T297 107Q366 107 418 186L523 128Q479
59 419 24T290 -12Z" />
<glyph unicode="D" glyph-name="D" horiz-adv-x="599" d="M220 0H5L152 667H363Q457 667 525 598T594 414Q594 358 583 303T543 193T473 95T366 27T220 0ZM260 549L165 118H244Q310 118 360 164T433 276T456 409Q456 473 423 511T338 549H260Z" />
<glyph unicode="E" glyph-name="E" horiz-adv-x="482" d="M388 0H5L152 667H535L509 549H260L227 398H469L443 281H201L165 118H414L388 0Z" />
<glyph unicode="F" glyph-name="F" horiz-adv-x="474" d="M139 0H5L152 667H535L509 549H260L227 398H469L443 281H201L139 0Z" />
<glyph unicode="G" glyph-name="G" horiz-adv-x="589" d="M276 -12Q170 -12 104 58T37 245Q37 355 78 453T201 614T388 678Q473 678 527 629T596 507L479 467Q469 507 440 533T372 559Q318 559 273 513T202 395T176 247Q176 182 207 145T294 107Q345 107 383 147T441
248H291L318 366H601Q565 168 487 78T276 -12Z" />
<glyph unicode="H" glyph-name="H" horiz-adv-x="610" d="M497 0H363L425 284H202L139 0H5L152 667H286L228 402H452L510 667H644L497 0Z" />
<glyph unicode="I" glyph-name="I" horiz-adv-x="252" d="M139 0H5L152 667H286L139 0Z" />
<glyph unicode="J" glyph-name="J" horiz-adv-x="419" d="M126 -12Q20 -12 -33 47L31 151Q60 107 116 107Q196 107 216 198L319 667H453L349 194Q325 87 272 38T126 -12Z" />
<glyph unicode="K" glyph-name="K" horiz-adv-x="555" d="M500 0H350L247 264L180 186L139 0H5L152 667H286L223 378L468 667H631L348 353L500 0Z" />
<glyph unicode="L" glyph-name="L" horiz-adv-x="441" d="M361 0H2L149 667H283L162 118H387L361 0Z" />
<glyph unicode="M" glyph-name="M" horiz-adv-x="737" d="M624 0H491L590 449L340 0H289L238 449L139 0H5L152 667H327L371 275L590 667H771L624 0Z" />
<glyph unicode="N" glyph-name="N" horiz-adv-x="609" d="M496 0H368L230 411L139 0H5L152 667H288L421 271L509 667H643L496 0Z" />
<glyph unicode="O" glyph-name="O" horiz-adv-x="625" d="M290 -12Q175 -12 106 59T37 245Q37 351 76 448T194 612T374 678Q488 678 557 607T626 421Q626 315 588 218T470 54T290 -12ZM297 107Q350 107 394 154T463 273T488 418Q488 482 455 520T366 559Q313 559
269 511T200 392T176 247Q176 183 209 145T297 107Z" />
<glyph unicode="P" glyph-name="P" horiz-adv-x="535" d="M139 0H5L152 667H388Q464 667 512 616T561 489Q561 445 546 403T502 324T421 265T303 242H192L139 0ZM313 359H312Q362 359 392 393T422 476Q422 509 403 529T351 549H260L218 359H313Z" />
<glyph unicode="Q" glyph-name="Q" horiz-adv-x="625" d="M290 -12Q175 -12 106 59T37 245Q37 351 76 448T194 612T374 678Q488 678 557 607T626 421Q626 306 579 201T450 38L466 -2L363 -37L350 -5Q317 -12 290 -12ZM297 107H305L262 215L366 250L401 161Q441
207 464 277T488 418Q488 482 455 520T366 559Q313 559 269 511T200 392T176 247Q176 183 209 145T297 107Z" />
<glyph unicode="R" glyph-name="R" horiz-adv-x="553" d="M464 0H320L270 241H192L139 0H5L152 667H378Q455 667 508 617T562 488Q562 404 515 339T401 258L464 0ZM313 359Q363 359 392 392T422 475Q422 509 401 529T350 549H260L218 359H313Z" />
<glyph unicode="S" glyph-name="S" horiz-adv-x="500" d="M227 -12Q152 -12 88 16T-11 89L69 188Q95 151 139 129T233 107Q274 107 298 131T323 190Q323 214 299 235T239 276T168 318T108 377T83 461Q83 550 149 614T318 678Q380 678 436 655T528 591L450 493Q425
525 387 542T307 559Q271 559 248 538T225 486Q225 463 249 442T309 402T379 359T439 299T464 215Q464 121 399 55T227 -12Z" />
<glyph unicode="T" glyph-name="T" horiz-adv-x="476" d="M251 0H117L238 549H89L115 667H547L521 549H372L251 0Z" />
<glyph unicode="U" glyph-name="U" horiz-adv-x="611" d="M283 -12Q176 -12 114 42T52 189Q52 210 56 234L152 667H287L190 229Q187 211 187 198Q187 157 214 132T288 106Q385 106 413 229L510 667H645L548 231Q494 -12 283 -12Z" />
<glyph unicode="V" glyph-name="V" horiz-adv-x="557" d="M305 0H144L91 667H231L254 159L501 667H651L305 0Z" />
<glyph unicode="W" glyph-name="W" horiz-adv-x="770" d="M557 0H418L429 443L244 0H105L99 667H240L225 205L423 667H528L522 205L711 667H857L557 0Z" />
<glyph unicode="X" glyph-name="X" horiz-adv-x="558" d="M505 0H359L279 230L106 0H-56L220 349L103 667H250L320 451L479 667H641L380 334L505 0Z" />
<glyph unicode="Y" glyph-name="Y" horiz-adv-x="541" d="M284 0H150L210 275L89 667H230L298 399L484 667H638L344 275L284 0Z" />
<glyph unicode="Z" glyph-name="Z" horiz-adv-x="486" d="M397 0H-18L6 111L340 549H103L129 667H537L513 559L176 118H423L397 0Z" />
<glyph unicode="[" glyph-name="bracketleft" horiz-adv-x="242" d="M127 -190H-56L137 678H320L302 598H206L49 -110H146L127 -190Z" />
<glyph unicode="\" glyph-name="backslash" horiz-adv-x="278" d="M133 -20L93 687H179L219 -20H133Z" />
<glyph unicode="]" glyph-name="bracketright" horiz-adv-x="242" d="M104 -190H-78L-61 -110H35L192 598H96L114 678H297L104 -190Z" />
<glyph unicode="^" glyph-name="asciicircum" horiz-adv-x="389" d="M389 333H305L271 578L130 333H38L244 667H332L389 333Z" />
<glyph unicode="_" glyph-name="underscore" horiz-adv-x="422" d="M343 -120H-83L-65 -40H362L343 -120Z" />
<glyph unicode="`" glyph-name="grave" horiz-adv-x="215" d="M284 556H204L101 700H208L284 556Z" />
<glyph unicode="a" glyph-name="a" horiz-adv-x="481" d="M382 0H262L273 48Q224 -12 148 -12Q90 -12 51 23T12 120Q12 200 60 252T178 305Q270 305 315 242L329 301Q332 325 332 329Q332 359 306 377T239 396Q179 396 122 353L94 440Q166 495 267 495Q349 495
402 460T456 357Q456 334 450 308L382 0ZM204 69Q255 69 287 112L301 177Q279 224 216 224Q179 224 157 196T134 131Q134 101 153 85T204 69Z" />
<glyph unicode="b" glyph-name="b" horiz-adv-x="507" d="M260 -12Q168 -12 134 63L120 0H0L147 667H267L214 424Q267 495 339 495Q407 495 446 449T485 317Q485 244 461 171T383 43T260 -12ZM237 94Q290 94 325 161T360 297Q360 340 339 364T282 389Q232 389
193 332L153 151Q163 126 185 110T237 94Z" />
<glyph unicode="c" glyph-name="c" horiz-adv-x="424" d="M224 -12Q132 -12 78 41T23 189Q23 309 96 402T279 495T439 423L366 344Q338 389 284 389Q224 389 185 330T146 198Q146 148 173 121T244 94Q290 94 325 132L367 45Q308 -12 224 -12Z" />
<glyph unicode="d" glyph-name="d" horiz-adv-x="507" d="M245 495Q336 495 372 420L426 667H546L398 0H278L292 59Q239 -12 167 -12Q99 -12 60 34T21 166Q21 219 36 275T77 381T148 463T245 495ZM269 389Q215 389 180 322T145 186Q145 143 166 119T224 94Q275
94 312 151L352 332Q342 357 320 373T269 389Z" />
<glyph unicode="e" glyph-name="e" horiz-adv-x="482" d="M231 -12Q134 -12 78 41T22 189Q22 261 52 330T141 447T276 495Q361 495 410 444T460 304Q460 257 445 202H140Q138 194 138 177Q138 142 166 114T248 86Q306 86 351 124L390 45Q324 -12 231 -12ZM347
286H349Q352 299 352 314Q352 350 330 373T267 397Q224 397 194 364T155 286H347Z" />
<glyph unicode="f" glyph-name="f" horiz-adv-x="287" d="M142 0H22L106 378H44L67 483H128L136 516Q171 677 299 677Q352 677 389 656L348 565Q335 575 314 575Q268 575 256 516L249 483H328L305 378H226L142 0Z" />
<glyph unicode="g" glyph-name="g" horiz-adv-x="506" d="M168 -196Q38 -196 -28 -123L38 -37Q81 -94 165 -94Q256 -94 281 16L295 77Q244 5 168 5Q102 5 62 48T22 177Q22 248 45 319T121 442T244 495Q281 495 318 475T371 420L385 483H505L402 16Q355 -196 168
-196ZM226 111Q276 111 315 167L351 330Q340 356 317 372T264 389Q212 389 179 328T146 201Q146 157 167 134T226 111Z" />
<glyph unicode="h" glyph-name="h" horiz-adv-x="501" d="M393 0H273L343 318Q346 333 346 342Q346 389 289 389Q241 389 193 328L121 0H0L147 667H268L213 421Q281 495 356 495Q412 495 444 467T477 392Q477 383 472 358L393 0Z" />
<glyph unicode="i" glyph-name="i" horiz-adv-x="228" d="M186 537Q158 537 140 555T121 599Q121 636 146 659T203 682Q230 682 249 664T268 620Q268 583 243 560T186 537ZM120 0H0L107 483H227L120 0Z" />
<glyph unicode="j" glyph-name="j" horiz-adv-x="228" d="M17 -196T-55 -196T-158 -162L-110 -74Q-95 -94 -67 -94Q-20 -94 -6 -27L107 483H227L114 -27Q95 -112 56 -154ZM186 537Q158 537 140 555T121 599Q121 636 146 659T203 682Q230 682 249 664T268 620Q268
583 243 560T186 537Z" />
<glyph unicode="k" glyph-name="k" horiz-adv-x="471" d="M414 0H277L216 192L146 118L120 0H0L147 667H267L180 272L372 483H516L314 266L414 0Z" />
<glyph unicode="l" glyph-name="l" horiz-adv-x="266" d="M150 -12Q90 -12 56 12T22 81Q22 102 26 122L147 667H267L153 148Q150 139 150 127Q150 94 187 94Q206 94 217 105L220 7Q196 -12 150 -12Z" />
<glyph unicode="m" glyph-name="m" horiz-adv-x="746" d="M638 0H518L588 319Q591 331 591 342Q591 364 577 376T541 389Q495 389 451 328L379 0H259L329 319Q333 335 333 343Q331 389 282 389Q237 389 193 328L120 0H0L107 483H227L213 421Q274 495 348 495Q399
495 430 468T461 412V407Q526 495 607 495Q656 495 688 468T721 393Q721 390 717 358L638 0Z" />
<glyph unicode="n" glyph-name="n" horiz-adv-x="501" d="M393 0H273L343 317Q346 338 346 342Q346 389 289 389Q240 389 193 328L120 0H0L107 483H227L213 421Q281 495 356 495Q412 495 444 467T477 392Q477 378 472 358L393 0Z" />
<glyph unicode="o" glyph-name="o" horiz-adv-x="498" d="M221 -12Q126 -12 74 42T22 188Q22 304 93 399T275 495Q370 495 422 441T474 295Q474 179 403 84T221 -12ZM227 94Q280 94 316 161T352 294Q352 341 331 365T270 389Q216 389 181 322T145 189Q145 142
166 118T227 94Z" />
<glyph unicode="p" glyph-name="p" horiz-adv-x="505" d="M260 -12Q168 -12 134 63L79 -184H-41L107 483H227L214 424Q267 495 339 495Q407 495 446 449T485 317Q485 244 461 171T383 43T260 -12ZM237 94Q290 94 325 161T360 297Q360 340 339 364T282 389Q232
389 193 332L153 151Q163 126 185 110T237 94Z" />
<glyph unicode="q" glyph-name="q" horiz-adv-x="505" d="M245 495Q336 495 372 420L385 483H505L357 -184H237L292 59Q239 -12 167 -12Q99 -12 60 34T21 166Q21 219 36 275T77 381T148 463T245 495ZM269 389Q215 389 180 322T145 186Q145 143 166 119T224 94Q275
94 312 151L352 332Q342 357 320 373T269 389Z" />
<glyph unicode="r" glyph-name="r" horiz-adv-x="320" d="M120 0H0L107 483H227L213 420Q270 495 362 495L335 376Q318 381 299 381Q236 381 191 320L120 0Z" />
<glyph unicode="s" glyph-name="s" horiz-adv-x="413" d="M177 -12Q117 -12 65 10T-16 68L51 148Q70 122 106 103T183 83Q213 83 231 99T250 137Q250 158 219 176T152 209T84 255T53 333Q53 400 101 447T235 495Q287 495 334 476T412 422L349 345Q334 366 301
383T233 400Q204 400 187 387T170 352Q170 336 190 323T240 297T299 268T349 223T370 157Q370 87 318 38T177 -12Z" />
<glyph unicode="t" glyph-name="t" horiz-adv-x="297" d="M170 -12Q42 -12 42 84Q42 103 47 122L104 378H42L65 483H127L156 615H277L248 483H327L303 378H224L173 148Q171 136 171 129Q171 94 207 94Q226 94 237 105L240 7Q214 -12 170 -12Z" />
<glyph unicode="u" glyph-name="u" horiz-adv-x="501" d="M107 483H227L157 166Q153 150 153 142Q153 94 211 94Q257 94 307 154L379 483H500L393 0H272L287 62Q219 -12 144 -12Q88 -12 56 16T23 91Q23 105 28 125L107 483Z" />
<glyph unicode="v" glyph-name="v" horiz-adv-x="450" d="M235 0H106L51 483H175L198 144L373 483H505L235 0Z" />
<glyph unicode="w" glyph-name="w" horiz-adv-x="692" d="M505 0H378L364 328L205 0H79L56 483H176L181 156L338 483H449L463 156L613 483H742L505 0Z" />
<glyph unicode="x" glyph-name="x" horiz-adv-x="440" d="M385 0H257L206 161L82 0H-52L145 246L62 483H189L235 331L349 483H483L295 246L385 0Z" />
<glyph unicode="y" glyph-name="y" horiz-adv-x="501" d="M162 -196Q28 -196 -33 -123L33 -37Q52 -64 87 -79T160 -94Q250 -94 276 16L290 80Q223 7 148 7Q93 7 60 34T27 110Q27 126 32 143L107 483H227L161 184Q158 170 158 160Q158 113 215 113Q263 113 311
173L379 483H500L396 16Q348 -196 162 -196Z" />
<glyph unicode="z" glyph-name="z" horiz-adv-x="409" d="M321 0H-19L0 90L243 378H64L88 483H424L404 397L158 105H343L321 0Z" />
<glyph unicode="{" glyph-name="braceleft" horiz-adv-x="253" d="M139 -190H107Q59 -190 23 -159T-13 -80Q-13 -64 -10 -51L33 143Q35 153 35 161Q35 183 25 196T-4 210L11 278Q64 278 78 345L121 540Q136 609 179 643T288 678H332L315 598H270Q222 598 208 540L161
324Q145 252 96 235Q125 220 125 179Q125 161 121 145L78 -48Q76 -60 76 -66Q76 -86 87 -98T117 -110H158L139 -190Z" />
<glyph unicode="|" glyph-name="bar" horiz-adv-x="198" d="M159 -20H79V687H159V-20Z" />
<glyph unicode="}" glyph-name="braceright" horiz-adv-x="253" d="M113 678H146Q194 678 230 647T266 567Q266 555 262 539L219 345Q217 335 217 327Q217 306 228 292T257 278L241 210Q190 210 174 143L131 -52Q100 -190 -36 -190H-80L-62 -110H-18Q31 -110 44
-52L92 164Q108 236 157 253Q128 268 128 309Q128 327 132 343L175 536Q177 548 177 554Q177 574 166 586T136 598H95L113 678Z" />
<glyph unicode="~" glyph-name="asciitilde" horiz-adv-x="464" d="M449 667L530 659Q478 414 353 414Q309 414 288 442T267 503T261 564T237 592Q184 592 146 413L65 421Q114 666 242 666Q286 666 307 638T328 577T334 515T358 487Q411 487 449 667Z" />
<glyph unicode="&#xa0;" glyph-name="uni00A0" horiz-adv-x="209" />
<glyph unicode="&#xa1;" glyph-name="exclamdown" horiz-adv-x="252" d="M79 270H184L105 -184H-41L79 270ZM172 494Q201 494 221 473T242 423Q242 389 217 364T157 339Q128 339 108 360T87 411Q87 445 112 469T172 494Z" />
<glyph unicode="&#xa2;" glyph-name="cent" horiz-adv-x="424" d="M209 -100H122L144 0Q86 20 55 69T23 189Q23 301 88 391T254 493L270 565H357L339 488Q406 470 439 423L366 344Q347 374 316 384L252 94Q291 97 325 132L367 45Q310 -11 228 -12L209 -100ZM146
198Q146 143 180 115L238 378Q196 358 171 306T146 198Z" />
<glyph unicode="&#xa3;" glyph-name="sterling" horiz-adv-x="488" d="M32 273L49 350H114Q91 406 91 449Q91 545 163 611T332 677Q409 677 464 641T529 538L411 496Q406 530 386 549T335 568Q294 568 265 529T236 432Q236 421 238 409T243 390T250 369T257 350H363L346
273H264Q257 228 231 188T173 128Q194 136 213 136Q239 136 276 122T336 107Q378 107 411 140L431 32Q387 -12 318 -12Q274 -12 216 9T130 30Q85 30 31 -7L10 85Q65 113 101 160T137 259Q137 268 136 273H32Z" />
<glyph unicode="&#xa5;" glyph-name="yen" horiz-adv-x="541" d="M285 0H151L176 116H-5L12 191H193L211 275H31L47 350H188L90 667H231L299 399L485 667H639L401 350H540L523 275H345L327 191H504L487 116H310L285 0Z" />
<glyph unicode="&#xa6;" glyph-name="brokenbar" horiz-adv-x="198" d="M159 -20H79V296H159V-20ZM159 371H79V687H159V371Z" />
<glyph unicode="&#xa7;" glyph-name="section" horiz-adv-x="417" d="M407 334Q407 285 379 246T298 186Q352 150 352 88Q352 17 299 -32T164 -81Q25 -81 -38 -6L29 68Q73 6 160 6Q192 6 213 25T234 71Q234 92 214 108T166 137T109 165T60 209T40 275Q40 325 71
362T159 415Q94 453 94 520T145 632T274 677Q397 677 459 607L396 542Q355 592 280 592Q249 592 230 575T211 534Q211 514 231 498T280 469T338 441T387 398T407 334ZM289 306Q289 349 238 374Q156 360 156 298Q156 255 223 226Q289 248 289 306Z" />
<glyph unicode="&#xa8;" glyph-name="dieresis" horiz-adv-x="286" d="M383 617Q383 589 361 567T310 545Q286 545 270 561T253 603Q253 631 275 653T326 675Q350 675 366 659T383 617ZM195 617Q195 589 173 567T122 545Q97 545 81 561T64 603Q64 631 86 653T137
675Q162 675 178 659T195 617Z" />
<glyph unicode="&#xa9;" glyph-name="copyright" horiz-adv-x="778" d="M754 477T754 334T653 90T408 -11Q266 -11 165 90T64 334T164 578T408 679T652 578ZM718 207T718 334T627 552T408 643Q281 643 191 553T100 334T190 116T408 25Q536 25 627 116ZM506 210L530
177Q467 123 392 123Q305 123 253 175T201 307Q201 407 271 476T434 546Q544 546 593 465L557 439Q520 507 432 507Q361 507 303 450T245 308Q245 247 285 205T393 162Q458 162 506 210Z" />
<glyph unicode="&#xaa;" glyph-name="ordfeminine" horiz-adv-x="365" d="M247 579Q212 579 188 538T163 449Q163 420 177 404T215 388Q247 388 273 424L300 547Q285 579 247 579ZM321 640H408L339 326H251L259 365Q223 318 175 318Q130 318 102 349T73 440Q73
519 116 583T225 648Q285 648 312 602L321 640Z" />
<glyph unicode="&#xab;" glyph-name="guillemotleft" horiz-adv-x="455" d="M213 63H114L29 243L194 420H299L131 239L213 63ZM381 63H282L197 243L362 420H467L298 239L381 63Z" />
<glyph unicode="&#xac;" glyph-name="logicalnot" horiz-adv-x="449" d="M463 466L405 202H327L369 391H61L78 466H463Z" />
<glyph unicode="&#xae;" glyph-name="registered" horiz-adv-x="494" d="M508 465Q508 377 446 315T295 253T146 315T84 465T146 615T296 677T446 616T508 465ZM477 465Q477 540 424 593T295 646T168 594T115 465Q115 390 167 337T295 284T423 337T477 465ZM369
343H329L287 439H243L222 343H188L241 586H333Q365 586 385 568T405 522Q405 487 380 464T325 440L369 343ZM369 519Q369 536 358 546T327 557H269L249 469H314Q337 469 353 483T369 519Z" />
<glyph unicode="&#xaf;" glyph-name="overscore" horiz-adv-x="311" d="M387 591H77L92 660H402L387 591Z" />
<glyph unicode="&#xb0;" glyph-name="degree" horiz-adv-x="308" d="M353 598T353 543T314 449T220 410T126 449T87 543Q87 599 126 638T220 677T314 638ZM287 543Q287 571 267 591T220 611Q192 611 173 591T153 543T172 496T219 477Q246 477 266 496T287 543Z" />
<glyph unicode="&#xb1;" glyph-name="plusminus" horiz-adv-x="444" d="M430 313H278L239 138H157L195 313H44L61 388H212L249 555H332L295 388H446L430 313ZM363 12H-22L-6 87H379L363 12Z" />
<glyph unicode="&#xb2;" glyph-name="twosuperior" horiz-adv-x="347" d="M359 421H76L92 492Q236 591 282 632T328 709Q328 730 312 742T271 754Q215 754 176 710L135 770Q195 827 277 827Q339 827 380 798T421 718Q421 666 374 619T215 494H375L359 421Z" />
<glyph unicode="&#xb3;" glyph-name="threesuperior" horiz-adv-x="347" d="M385 537Q385 489 345 452T239 414Q186 414 144 433T82 486L143 539Q174 487 234 487Q264 487 280 505T296 547Q296 589 229 589Q204 589 198 588L214 660Q222 659 262 659Q293 659 310
673T328 712Q328 732 310 743T265 754Q215 754 177 716L139 771Q195 827 273 827Q340 827 380 801T420 725Q420 687 393 656T318 621Q349 613 367 591T385 537Z" />
<glyph unicode="&#xb4;" glyph-name="acute" horiz-adv-x="215" d="M316 700L149 556H67L207 700H316Z" />
<glyph unicode="&#xb5;" glyph-name="mu" horiz-adv-x="501" d="M79 -184H-41L107 483H227L157 164Q142 94 204 94Q260 94 306 152L379 483H500L393 0H272L285 60Q257 30 215 9T127 -12H117L79 -184Z" />
<glyph unicode="&#xb6;" glyph-name="paragraph" horiz-adv-x="449" d="M322 -100H262L419 607H339L182 -100H122L216 323Q159 323 119 367T79 479Q79 552 135 609T273 667H492L322 -100Z" />
<glyph unicode="&#xb7;" glyph-name="middot" horiz-adv-x="252" d="M119 167Q89 167 69 188T48 238Q48 272 73 297T133 322Q162 322 182 301T203 251Q203 216 179 192T119 167Z" />
<glyph unicode="&#xb8;" glyph-name="cedilla" horiz-adv-x="202" d="M17 -195Q-49 -195 -89 -155L-56 -109Q-25 -143 17 -143Q38 -143 50 -133T63 -106Q63 -82 37 -82Q22 -82 10 -96L-28 -71L20 11H80L41 -52Q52 -42 68 -42Q92 -42 108 -58T124 -102Q124 -143
94 -169T17 -195Z" />
<glyph unicode="&#xb9;" glyph-name="onesuperior" horiz-adv-x="264" d="M252 421H160L222 701L149 640L107 696L261 821H340L252 421Z" />
<glyph unicode="&#xba;" glyph-name="ordmasculine" horiz-adv-x="358" d="M214 318Q149 318 112 355T75 452Q75 528 125 588T249 648Q314 648 351 611T388 514Q388 438 338 378T214 318ZM217 388Q254 388 276 431T299 517Q299 545 285 560T246 576Q209 576 187
533T164 448Q164 420 178 404T217 388Z" />
<glyph unicode="&#xbb;" glyph-name="guillemotright" horiz-adv-x="455" d="M75 420H174L259 240L94 63H-11L158 245L75 420ZM243 420H342L427 240L262 63H157L325 245L243 420Z" />
<glyph unicode="&#xbc;" glyph-name="onequarter" horiz-adv-x="742" d="M658 667L157 0H95L595 667H658ZM688 88H645L626 0H535L554 88H381L396 154L596 400H714L661 159H704L688 88ZM570 159L603 308L481 159H570ZM218 267H126L188 547L115 486L73 542L227 667H306L218
267Z" />
<glyph unicode="&#xbd;" glyph-name="onehalf" horiz-adv-x="777" d="M658 667L157 0H95L595 667H658ZM696 0H413L429 71Q573 170 619 211T665 288Q665 309 649 321T608 333Q552 333 513 289L472 349Q532 406 614 406Q676 406 717 377T758 297Q758 245 711 198T552
73H712L696 0ZM218 267H126L188 547L115 486L73 542L227 667H306L218 267Z" />
<glyph unicode="&#xbe;" glyph-name="threequarters" horiz-adv-x="805" d="M721 667L220 0H158L658 667H721ZM751 88H708L689 0H598L617 88H444L459 154L659 400H777L724 159H767L751 88ZM633 159L666 308L544 159H633ZM351 383Q351 335 311 298T205 260Q152
260 110 279T48 332L109 385Q140 333 200 333Q230 333 246 351T262 393Q262 435 195 435Q170 435 164 434L180 506Q188 505 228 505Q259 505 276 519T294 558Q294 578 276 589T231 600Q181 600 143 562L105 617Q161 673 239 673Q306 673 346 647T386 571Q386 533
359 502T284 467Q315 459 333 437T351 383Z" />
<glyph unicode="&#xbf;" glyph-name="questiondown" horiz-adv-x="344" d="M142 247L251 281Q265 253 265 215Q265 175 248 144T205 92T154 55T112 16T94 -28T111 -65T159 -79Q212 -79 249 -43L296 -133Q223 -195 128 -195Q53 -195 3 -158T-48 -60Q-48 -22 -33
9T4 61T52 101T100 136T137 172T152 215Q152 234 142 247ZM241 494Q271 494 291 473T312 423Q312 389 287 364T227 339Q198 339 178 360T157 410Q157 444 182 469T241 494Z" />
<glyph unicode="&#xc0;" glyph-name="Agrave" horiz-adv-x="557" d="M459 728H379L276 872H383L459 728ZM504 0H365L359 118H152L95 0H-56L291 667H452L504 0ZM359 236L345 526L204 236H359Z" />
<glyph unicode="&#xc1;" glyph-name="Aacute" horiz-adv-x="557" d="M561 872L394 728H312L452 872H561ZM504 0H365L359 118H152L95 0H-56L291 667H452L504 0ZM359 236L345 526L204 236H359Z" />
<glyph unicode="&#xc2;" glyph-name="Acircumflex" horiz-adv-x="557" d="M519 728H451L407 819L326 728H254L363 872H471L519 728ZM504 0H365L359 118H152L95 0H-56L291 667H452L504 0ZM359 236L345 526L204 236H359Z" />
<glyph unicode="&#xc3;" glyph-name="Atilde" horiz-adv-x="557" d="M445 726Q423 726 408 737T387 761T370 786T346 797Q317 797 303 732H239Q267 866 353 866Q375 866 390 855T411 831T428 806T453 795Q480 795 496 860H560Q530 726 445 726ZM504 0H365L359
118H152L95 0H-56L291 667H452L504 0ZM359 236L345 526L204 236H359Z" />
<glyph unicode="&#xc4;" glyph-name="Adieresis" horiz-adv-x="557" d="M557 790Q557 762 535 740T484 718Q460 718 444 734T427 776Q427 804 449 826T500 848Q524 848 540 832T557 790ZM369 790Q369 762 347 740T296 718Q271 718 255 734T238 776Q238 804 260
826T311 848Q336 848 352 832T369 790ZM504 0H365L359 118H152L95 0H-56L291 667H452L504 0ZM359 236L345 526L204 236H359Z" />
<glyph unicode="&#xc5;" glyph-name="Aring" horiz-adv-x="557" d="M389 692Q350 692 326 716T301 780Q301 823 333 855T409 887Q447 887 471 863T496 799Q496 756 464 724T389 692ZM394 746Q414 746 428 760T442 794Q442 811 432 822T404 833Q384 833 370 819T356
785Q356 768 367 757T394 746ZM504 0H365L359 118H152L95 0H-56L291 667H452L504 0ZM359 236L345 526L204 236H359Z" />
<glyph unicode="&#xc6;" glyph-name="AE" horiz-adv-x="790" d="M700 0H317L343 118H171L93 0H-56L408 667H847L821 549H572L539 398H781L755 281H513L477 118H726L700 0ZM369 236L431 516L245 236H369Z" />
<glyph unicode="&#xc7;" glyph-name="Ccedilla" horiz-adv-x="560" d="M290 -12H279L254 -52Q265 -42 281 -42Q305 -42 321 -58T337 -102Q337 -143 307 -169T230 -195Q164 -195 124 -155L157 -109Q188 -143 230 -143Q251 -143 263 -133T276 -106Q276 -82 250 -82Q235
-82 223 -96L185 -71L223 -5Q137 14 87 80T37 245Q37 355 77 453T196 614T374 678Q472 678 528 624T604 488L478 453Q467 503 438 531T367 559Q288 559 232 461T176 247Q176 182 208 145T297 107Q366 107 418 186L523 128Q479 59 419 24T290 -12Z" />
<glyph unicode="&#xc8;" glyph-name="Egrave" horiz-adv-x="482" d="M432 728H352L249 872H356L432 728ZM388 0H5L152 667H535L509 549H260L227 398H469L443 281H201L165 118H414L388 0Z" />
<glyph unicode="&#xc9;" glyph-name="Eacute" horiz-adv-x="482" d="M534 872L367 728H285L425 872H534ZM388 0H5L152 667H535L509 549H260L227 398H469L443 281H201L165 118H414L388 0Z" />
<glyph unicode="&#xca;" glyph-name="Ecircumflex" horiz-adv-x="482" d="M490 728H422L378 819L297 728H225L334 872H442L490 728ZM388 0H5L152 667H535L509 549H260L227 398H469L443 281H201L165 118H414L388 0Z" />
<glyph unicode="&#xcb;" glyph-name="Edieresis" horiz-adv-x="482" d="M530 790Q530 762 508 740T457 718Q433 718 417 734T400 776Q400 804 422 826T473 848Q497 848 513 832T530 790ZM342 790Q342 762 320 740T269 718Q244 718 228 734T211 776Q211 804 233
826T284 848Q309 848 325 832T342 790ZM388 0H5L152 667H535L509 549H260L227 398H469L443 281H201L165 118H414L388 0Z" />
<glyph unicode="&#xcc;" glyph-name="Igrave" horiz-adv-x="252" d="M305 728H225L122 872H229L305 728ZM139 0H5L152 667H286L139 0Z" />
<glyph unicode="&#xcd;" glyph-name="Iacute" horiz-adv-x="252" d="M410 872L243 728H161L301 872H410ZM139 0H5L152 667H286L139 0Z" />
<glyph unicode="&#xce;" glyph-name="Icircumflex" horiz-adv-x="252" d="M365 728H297L253 819L172 728H100L209 872H317L365 728ZM139 0H5L152 667H286L139 0Z" />
<glyph unicode="&#xcf;" glyph-name="Idieresis" horiz-adv-x="252" d="M139 0H5L152 667H286L139 0ZM405 789Q405 761 383 739T332 717Q308 717 292 733T275 775Q275 803 297 825T348 847Q372 847 388 831T405 789ZM217 789Q217 761 195 739T144 717Q119 717
103 733T86 775Q86 803 108 825T159 847Q184 847 200 831T217 789Z" />
<glyph unicode="&#xd0;" glyph-name="Eth" horiz-adv-x="623" d="M244 0H29L90 280H20L44 387H114L176 667H387Q481 667 549 598T618 414Q618 358 607 303T567 193T497 95T390 27T244 0ZM334 280H224L189 118H268Q334 118 384 164T457 276T480 409Q480 473 447
511T362 549H284L248 387H358L334 280Z" />
<glyph unicode="&#xd1;" glyph-name="Ntilde" horiz-adv-x="609" d="M471 726Q449 726 434 737T413 761T396 786T372 797Q343 797 329 732H265Q293 866 379 866Q401 866 416 855T437 831T454 806T479 795Q506 795 522 860H586Q556 726 471 726ZM496 0H368L230
411L139 0H5L152 667H288L421 271L509 667H643L496 0Z" />
<glyph unicode="&#xd2;" glyph-name="Ograve" horiz-adv-x="625" d="M494 728H414L311 872H418L494 728ZM290 -12Q175 -12 106 59T37 245Q37 351 76 448T194 612T374 678Q488 678 557 607T626 421Q626 315 588 218T470 54T290 -12ZM297 107Q350 107 394 154T463
273T488 418Q488 482 455 520T366 559Q313 559 269 511T200 392T176 247Q176 183 209 145T297 107Z" />
<glyph unicode="&#xd3;" glyph-name="Oacute" horiz-adv-x="625" d="M595 872L428 728H346L486 872H595ZM290 -12Q175 -12 106 59T37 245Q37 351 76 448T194 612T374 678Q488 678 557 607T626 421Q626 315 588 218T470 54T290 -12ZM297 107Q350 107 394 154T463
273T488 418Q488 482 455 520T366 559Q313 559 269 511T200 392T176 247Q176 183 209 145T297 107Z" />
<glyph unicode="&#xd4;" glyph-name="Ocircumflex" horiz-adv-x="625" d="M554 728H486L442 819L361 728H289L398 872H506L554 728ZM290 -12Q175 -12 106 59T37 245Q37 351 76 448T194 612T374 678Q488 678 557 607T626 421Q626 315 588 218T470 54T290 -12ZM297
107Q350 107 394 154T463 273T488 418Q488 482 455 520T366 559Q313 559 269 511T200 392T176 247Q176 183 209 145T297 107Z" />
<glyph unicode="&#xd5;" glyph-name="Otilde" horiz-adv-x="625" d="M481 726Q459 726 444 737T423 761T406 786T382 797Q353 797 339 732H275Q303 866 389 866Q411 866 426 855T447 831T464 806T489 795Q516 795 532 860H596Q566 726 481 726ZM290 -12Q175 -12
106 59T37 245Q37 351 76 448T194 612T374 678Q488 678 557 607T626 421Q626 315 588 218T470 54T290 -12ZM297 107Q350 107 394 154T463 273T488 418Q488 482 455 520T366 559Q313 559 269 511T200 392T176 247Q176 183 209 145T297 107Z" />
<glyph unicode="&#xd6;" glyph-name="Odieresis" horiz-adv-x="625" d="M592 790Q592 762 570 740T519 718Q495 718 479 734T462 776Q462 804 484 826T535 848Q559 848 575 832T592 790ZM404 790Q404 762 382 740T331 718Q306 718 290 734T273 776Q273 804 295
826T346 848Q371 848 387 832T404 790ZM290 -12Q175 -12 106 59T37 245Q37 351 76 448T194 612T374 678Q488 678 557 607T626 421Q626 315 588 218T470 54T290 -12ZM297 107Q350 107 394 154T463 273T488 418Q488 482 455 520T366 559Q313 559 269 511T200 392T176
247Q176 183 209 145T297 107Z" />
<glyph unicode="&#xd7;" glyph-name="multiply" horiz-adv-x="444" d="M327 162L235 281L85 158L38 216L190 339L97 457L157 506L248 387L399 510L445 452L295 329L386 211L327 162Z" />
<glyph unicode="&#xd8;" glyph-name="Oslash" horiz-adv-x="625" d="M290 -12Q193 -12 126 41L92 0H5L81 90Q37 154 37 245Q37 351 76 448T194 612T374 678Q467 678 533 628L566 667H653L579 579Q626 513 626 421Q626 315 588 218T470 54T290 -12ZM297 107Q350
107 394 154T463 273T488 418Q488 443 482 464L211 142Q243 107 297 107ZM176 247Q176 226 179 207L448 527Q414 559 366 559Q313 559 269 511T200 392T176 247Z" />
<glyph unicode="&#xd9;" glyph-name="Ugrave" horiz-adv-x="611" d="M487 728H407L304 872H411L487 728ZM283 -12Q176 -12 114 42T52 189Q52 210 56 234L152 667H287L190 229Q187 211 187 198Q187 157 214 132T288 106Q385 106 413 229L510 667H645L548 231Q494
-12 283 -12Z" />
<glyph unicode="&#xda;" glyph-name="Uacute" horiz-adv-x="611" d="M588 872L421 728H339L479 872H588ZM283 -12Q176 -12 114 42T52 189Q52 210 56 234L152 667H287L190 229Q187 211 187 198Q187 157 214 132T288 106Q385 106 413 229L510 667H645L548 231Q494
-12 283 -12Z" />
<glyph unicode="&#xdb;" glyph-name="Ucircumflex" horiz-adv-x="611" d="M549 728H481L437 819L356 728H284L393 872H501L549 728ZM283 -12Q176 -12 114 42T52 189Q52 210 56 234L152 667H287L190 229Q187 211 187 198Q187 157 214 132T288 106Q385 106 413 229L510
667H645L548 231Q494 -12 283 -12Z" />
<glyph unicode="&#xdc;" glyph-name="Udieresis" horiz-adv-x="611" d="M585 790Q585 762 563 740T512 718Q488 718 472 734T455 776Q455 804 477 826T528 848Q552 848 568 832T585 790ZM397 790Q397 762 375 740T324 718Q299 718 283 734T266 776Q266 804 288
826T339 848Q364 848 380 832T397 790ZM283 -12Q176 -12 114 42T52 189Q52 210 56 234L152 667H287L190 229Q187 211 187 198Q187 157 214 132T288 106Q385 106 413 229L510 667H645L548 231Q494 -12 283 -12Z" />
<glyph unicode="&#xdd;" glyph-name="Yacute" horiz-adv-x="541" d="M555 872L388 728H306L446 872H555ZM284 0H150L210 275L89 667H230L298 399L484 667H638L344 275L284 0Z" />
<glyph unicode="&#xde;" glyph-name="Thorn" horiz-adv-x="535" d="M139 0H5L152 667H286L262 558H363Q438 558 487 507T537 380Q537 336 522 294T478 214T397 155T279 132H168L139 0ZM288 250Q338 250 368 285T398 367Q398 400 378 420T327 440H236L194 250H288Z" />
<glyph unicode="&#xdf;" glyph-name="germandbls" horiz-adv-x="582" d="M549 156Q549 90 497 39T362 -12Q243 -12 177 67L241 144Q287 84 357 84Q385 84 404 100T423 140Q423 160 396 177T337 207T277 249T250 319Q250 364 274 396T326 444T378 478T402 519Q402
542 381 556T326 571Q250 571 229 482L123 0H3L109 482Q128 569 185 623T334 677Q412 677 470 638T528 537Q528 501 512 474T473 430T427 400T387 371T371 339Q371 320 399 304T460 275T521 231T549 156Z" />
<glyph unicode="&#xe0;" glyph-name="agrave" horiz-adv-x="481" d="M385 556H305L202 700H309L385 556ZM382 0H262L273 48Q224 -12 148 -12Q90 -12 51 23T12 120Q12 200 60 252T178 305Q270 305 315 242L329 301Q332 325 332 329Q332 359 306 377T239 396Q179
396 122 353L94 440Q166 495 267 495Q349 495 402 460T456 357Q456 334 450 308L382 0ZM204 69Q255 69 287 112L301 177Q279 224 216 224Q179 224 157 196T134 131Q134 101 153 85T204 69Z" />
<glyph unicode="&#xe1;" glyph-name="aacute" horiz-adv-x="481" d="M489 700L322 556H240L380 700H489ZM382 0H262L273 48Q224 -12 148 -12Q90 -12 51 23T12 120Q12 200 60 252T178 305Q270 305 315 242L329 301Q332 325 332 329Q332 359 306 377T239 396Q179
396 122 353L94 440Q166 495 267 495Q349 495 402 460T456 357Q456 334 450 308L382 0ZM204 69Q255 69 287 112L301 177Q279 224 216 224Q179 224 157 196T134 131Q134 101 153 85T204 69Z" />
<glyph unicode="&#xe2;" glyph-name="acircumflex" horiz-adv-x="481" d="M448 556H380L336 647L255 556H183L292 700H400L448 556ZM382 0H262L273 48Q224 -12 148 -12Q90 -12 51 23T12 120Q12 200 60 252T178 305Q270 305 315 242L329 301Q332 325 332 329Q332
359 306 377T239 396Q179 396 122 353L94 440Q166 495 267 495Q349 495 402 460T456 357Q456 334 450 308L382 0ZM204 69Q255 69 287 112L301 177Q279 224 216 224Q179 224 157 196T134 131Q134 101 153 85T204 69Z" />
<glyph unicode="&#xe3;" glyph-name="atilde" horiz-adv-x="481" d="M373 554Q351 554 336 565T315 589T298 614T274 625Q245 625 231 560H167Q195 694 281 694Q303 694 318 683T339 659T356 634T381 623Q408 623 424 688H488Q458 554 373 554ZM382 0H262L273
48Q224 -12 148 -12Q90 -12 51 23T12 120Q12 200 60 252T178 305Q270 305 315 242L329 301Q332 325 332 329Q332 359 306 377T239 396Q179 396 122 353L94 440Q166 495 267 495Q349 495 402 460T456 357Q456 334 450 308L382 0ZM204 69Q255 69 287 112L301 177Q279
224 216 224Q179 224 157 196T134 131Q134 101 153 85T204 69Z" />
<glyph unicode="&#xe4;" glyph-name="adieresis" horiz-adv-x="481" d="M483 617Q483 589 461 567T410 545Q386 545 370 561T353 603Q353 631 375 653T426 675Q450 675 466 659T483 617ZM295 617Q295 589 273 567T222 545Q197 545 181 561T164 603Q164 631 186
653T237 675Q262 675 278 659T295 617ZM382 0H262L273 48Q224 -12 148 -12Q90 -12 51 23T12 120Q12 200 60 252T178 305Q270 305 315 242L329 301Q332 325 332 329Q332 359 306 377T239 396Q179 396 122 353L94 440Q166 495 267 495Q349 495 402 460T456 357Q456
334 450 308L382 0ZM204 69Q255 69 287 112L301 177Q279 224 216 224Q179 224 157 196T134 131Q134 101 153 85T204 69Z" />
<glyph unicode="&#xe5;" glyph-name="aring" horiz-adv-x="481" d="M321 548Q282 548 258 572T233 636Q233 679 265 711T341 743Q379 743 403 719T428 655Q428 612 396 580T321 548ZM326 602Q346 602 360 616T374 650Q374 667 364 678T336 689Q316 689 302 675T288
641Q288 624 299 613T326 602ZM382 0H262L273 48Q224 -12 148 -12Q90 -12 51 23T12 120Q12 200 60 252T178 305Q270 305 315 242L329 301Q332 325 332 329Q332 359 306 377T239 396Q179 396 122 353L94 440Q166 495 267 495Q349 495 402 460T456 357Q456 334 450
308L382 0ZM204 69Q255 69 287 112L301 177Q279 224 216 224Q179 224 157 196T134 131Q134 101 153 85T204 69Z" />
<glyph unicode="&#xe6;" glyph-name="ae" horiz-adv-x="767" d="M730 202H426Q424 188 424 177Q424 140 453 113T533 86Q591 86 636 125L675 45Q609 -12 522 -12Q402 -12 350 74Q262 -12 158 -12Q96 -12 54 23T12 122Q12 203 60 254T179 305Q221 305 258 289T316
244L329 301Q332 318 332 328Q332 360 307 378T240 396Q178 396 122 353L94 440Q167 495 267 495Q385 495 408 410Q472 495 569 495Q648 495 696 446T745 304Q745 259 730 202ZM442 286H634Q637 295 637 313Q637 350 614 373T553 397Q507 397 480 364T442 286ZM301
128Q299 142 299 155Q299 167 301 177Q292 200 268 212T216 224Q181 224 158 197T134 131Q134 101 153 85T204 69Q259 69 301 128Z" />
<glyph unicode="&#xe7;" glyph-name="ccedilla" horiz-adv-x="424" d="M171 -195Q105 -195 65 -155L98 -109Q129 -143 171 -143Q192 -143 204 -133T217 -106Q217 -82 191 -82Q176 -82 164 -96L126 -71L164 -5Q98 11 61 61T23 189Q23 309 96 402T279 495T439 423L366
344Q338 389 284 389Q224 389 185 330T146 198Q146 148 173 121T244 94Q290 94 325 132L367 45Q308 -12 224 -12H220L195 -52Q206 -42 222 -42Q246 -42 262 -58T278 -102Q278 -143 248 -169T171 -195Z" />
<glyph unicode="&#xe8;" glyph-name="egrave" horiz-adv-x="482" d="M389 556H309L206 700H313L389 556ZM231 -12Q134 -12 78 41T22 189Q22 261 52 330T141 447T276 495Q361 495 410 444T460 304Q460 257 445 202H140Q138 194 138 177Q138 142 166 114T248 86Q306
86 351 124L390 45Q324 -12 231 -12ZM347 286H349Q352 299 352 314Q352 350 330 373T267 397Q224 397 194 364T155 286H347Z" />
<glyph unicode="&#xe9;" glyph-name="eacute" horiz-adv-x="482" d="M492 700L325 556H243L383 700H492ZM231 -12Q134 -12 78 41T22 189Q22 261 52 330T141 447T276 495Q361 495 410 444T460 304Q460 257 445 202H140Q138 194 138 177Q138 142 166 114T248 86Q306
86 351 124L390 45Q324 -12 231 -12ZM347 286H349Q352 299 352 314Q352 350 330 373T267 397Q224 397 194 364T155 286H347Z" />
<glyph unicode="&#xea;" glyph-name="ecircumflex" horiz-adv-x="482" d="M448 556H380L336 647L255 556H183L292 700H400L448 556ZM231 -12Q134 -12 78 41T22 189Q22 261 52 330T141 447T276 495Q361 495 410 444T460 304Q460 257 445 202H140Q138 194 138 177Q138
142 166 114T248 86Q306 86 351 124L390 45Q324 -12 231 -12ZM347 286H349Q352 299 352 314Q352 350 330 373T267 397Q224 397 194 364T155 286H347Z" />
<glyph unicode="&#xeb;" glyph-name="edieresis" horiz-adv-x="482" d="M486 617Q486 589 464 567T413 545Q389 545 373 561T356 603Q356 631 378 653T429 675Q453 675 469 659T486 617ZM298 617Q298 589 276 567T225 545Q200 545 184 561T167 603Q167 631 189
653T240 675Q265 675 281 659T298 617ZM231 -12Q134 -12 78 41T22 189Q22 261 52 330T141 447T276 495Q361 495 410 444T460 304Q460 257 445 202H140Q138 194 138 177Q138 142 166 114T248 86Q306 86 351 124L390 45Q324 -12 231 -12ZM347 286H349Q352 299 352
314Q352 350 330 373T267 397Q224 397 194 364T155 286H347Z" />
<glyph unicode="&#xec;" glyph-name="igrave" horiz-adv-x="228" d="M256 556H176L73 700H180L256 556ZM120 0H0L107 483H227L120 0Z" />
<glyph unicode="&#xed;" glyph-name="iacute" horiz-adv-x="228" d="M358 700L191 556H109L249 700H358ZM120 0H0L107 483H227L120 0Z" />
<glyph unicode="&#xee;" glyph-name="icircumflex" horiz-adv-x="228" d="M316 556H248L204 647L123 556H51L160 700H268L316 556ZM120 0H0L107 483H227L120 0Z" />
<glyph unicode="&#xef;" glyph-name="idieresis" horiz-adv-x="228" d="M120 0H0L107 483H227L120 0ZM354 617Q354 589 332 567T281 545Q257 545 241 561T224 603Q224 631 246 653T297 675Q321 675 337 659T354 617ZM166 617Q166 589 144 567T93 545Q68 545 52
561T35 603Q35 631 57 653T108 675Q133 675 149 659T166 617Z" />
<glyph unicode="&#xf0;" glyph-name="eth" horiz-adv-x="498" d="M176 493L163 550L283 586Q256 626 237 647L338 709Q375 667 405 622L492 648L504 591L435 570Q486 473 486 368Q486 300 470 234T422 113T339 23T224 -12Q129 -12 75 40T20 180Q20 287 83 375T241
463Q288 463 321 438T370 369Q359 446 313 534L176 493ZM227 94Q277 94 311 150T346 269Q346 304 325 330T261 357Q211 357 178 301T144 184Q144 94 227 94Z" />
<glyph unicode="&#xf1;" glyph-name="ntilde" horiz-adv-x="501" d="M381 554Q359 554 344 565T323 589T306 614T282 625Q253 625 239 560H175Q203 694 289 694Q311 694 326 683T347 659T364 634T389 623Q416 623 432 688H496Q466 554 381 554ZM396 0H276L346
317Q349 338 349 342Q349 389 292 389Q243 389 196 328L123 0H3L110 483H230L216 421Q284 495 359 495Q415 495 447 467T480 392Q480 378 475 358L396 0Z" />
<glyph unicode="&#xf2;" glyph-name="ograve" horiz-adv-x="498" d="M391 556H311L208 700H315L391 556ZM221 -12Q126 -12 74 42T22 188Q22 304 93 399T275 495Q370 495 422 441T474 295Q474 179 403 84T221 -12ZM227 94Q280 94 316 161T352 294Q352 341 331 365T270
389Q216 389 181 322T145 189Q145 142 166 118T227 94Z" />
<glyph unicode="&#xf3;" glyph-name="oacute" horiz-adv-x="498" d="M493 700L326 556H244L384 700H493ZM221 -12Q126 -12 74 42T22 188Q22 304 93 399T275 495Q370 495 422 441T474 295Q474 179 403 84T221 -12ZM227 94Q280 94 316 161T352 294Q352 341 331 365T270
389Q216 389 181 322T145 189Q145 142 166 118T227 94Z" />
<glyph unicode="&#xf4;" glyph-name="ocircumflex" horiz-adv-x="498" d="M452 556H384L340 647L259 556H187L296 700H404L452 556ZM221 -12Q126 -12 74 42T22 188Q22 304 93 399T275 495Q370 495 422 441T474 295Q474 179 403 84T221 -12ZM227 94Q280 94 316
161T352 294Q352 341 331 365T270 389Q216 389 181 322T145 189Q145 142 166 118T227 94Z" />
<glyph unicode="&#xf5;" glyph-name="otilde" horiz-adv-x="498" d="M379 554Q357 554 342 565T321 589T304 614T280 625Q251 625 237 560H173Q201 694 287 694Q309 694 324 683T345 659T362 634T387 623Q414 623 430 688H494Q464 554 379 554ZM221 -12Q126 -12
74 42T22 188Q22 304 93 399T275 495Q370 495 422 441T474 295Q474 179 403 84T221 -12ZM227 94Q280 94 316 161T352 294Q352 341 331 365T270 389Q216 389 181 322T145 189Q145 142 166 118T227 94Z" />
<glyph unicode="&#xf6;" glyph-name="odieresis" horiz-adv-x="498" d="M489 617Q489 589 467 567T416 545Q392 545 376 561T359 603Q359 631 381 653T432 675Q456 675 472 659T489 617ZM301 617Q301 589 279 567T228 545Q203 545 187 561T170 603Q170 631 192
653T243 675Q268 675 284 659T301 617ZM221 -12Q126 -12 74 42T22 188Q22 304 93 399T275 495Q370 495 422 441T474 295Q474 179 403 84T221 -12ZM227 94Q280 94 316 161T352 294Q352 341 331 365T270 389Q216 389 181 322T145 189Q145 142 166 118T227 94Z" />
<glyph unicode="&#xf7;" glyph-name="divide" horiz-adv-x="443" d="M426 300H41L58 375H442L426 300ZM200 114Q178 114 162 130T146 168Q146 194 165 213T211 232Q233 232 248 216T264 178Q264 152 245 133T200 114ZM272 441Q250 441 235 456T219 494Q219 520
238 539T283 558Q305 558 320 542T336 504Q336 478 317 460T272 441Z" />
<glyph unicode="&#xf8;" glyph-name="oslash" horiz-adv-x="498" d="M56 0H-18L50 72Q22 119 22 188Q22 304 93 399T275 495Q356 495 409 452L438 483H513L445 411Q474 362 474 295Q474 179 403 84T221 -12Q138 -12 85 31L56 0ZM227 94Q280 94 316 161T352 294Q352
305 351 312L167 118Q188 94 227 94ZM145 189V173L328 367Q306 389 270 389Q216 389 181 322T145 189Z" />
<glyph unicode="&#xf9;" glyph-name="ugrave" horiz-adv-x="501" d="M393 556H313L210 700H317L393 556ZM107 483H227L157 166Q153 150 153 142Q153 94 211 94Q257 94 307 154L379 483H500L393 0H272L287 62Q219 -12 144 -12Q88 -12 56 16T23 91Q23 105 28 125L107 483Z" />
<glyph unicode="&#xfa;" glyph-name="uacute" horiz-adv-x="501" d="M495 700L328 556H246L386 700H495ZM107 483H227L157 166Q153 150 153 142Q153 94 211 94Q257 94 307 154L379 483H500L393 0H272L287 62Q219 -12 144 -12Q88 -12 56 16T23 91Q23 105 28 125L107 483Z" />
<glyph unicode="&#xfb;" glyph-name="ucircumflex" horiz-adv-x="501" d="M453 556H385L341 647L260 556H188L297 700H405L453 556ZM107 483H227L157 166Q153 150 153 142Q153 94 211 94Q257 94 307 154L379 483H500L393 0H272L287 62Q219 -12 144 -12Q88 -12
56 16T23 91Q23 105 28 125L107 483Z" />
<glyph unicode="&#xfc;" glyph-name="udieresis" horiz-adv-x="501" d="M493 617Q493 589 471 567T420 545Q396 545 380 561T363 603Q363 631 385 653T436 675Q460 675 476 659T493 617ZM305 617Q305 589 283 567T232 545Q207 545 191 561T174 603Q174 631 196
653T247 675Q272 675 288 659T305 617ZM107 483H227L157 166Q153 150 153 142Q153 94 211 94Q257 94 307 154L379 483H500L393 0H272L287 62Q219 -12 144 -12Q88 -12 56 16T23 91Q23 105 28 125L107 483Z" />
<glyph unicode="&#xfd;" glyph-name="yacute" horiz-adv-x="501" d="M494 700L327 556H245L385 700H494ZM162 -196Q28 -196 -33 -123L33 -37Q52 -64 87 -79T160 -94Q250 -94 276 16L290 80Q223 7 148 7Q93 7 60 34T27 110Q27 126 32 143L107 483H227L161 184Q158
170 158 160Q158 113 215 113Q263 113 311 173L379 483H500L396 16Q348 -196 162 -196Z" />
<glyph unicode="&#xfe;" glyph-name="thorn" horiz-adv-x="505" d="M260 -12Q168 -12 134 63L79 -184H-41L147 667H267L214 424Q267 495 339 495Q407 495 446 449T485 317Q485 244 461 171T383 43T260 -12ZM237 94Q290 94 325 161T360 297Q360 340 339 364T282
389Q232 389 193 332L153 151Q163 126 185 110T237 94Z" />
<glyph unicode="&#xff;" glyph-name="ydieresis" horiz-adv-x="501" d="M489 617Q489 589 467 567T416 545Q392 545 376 561T359 603Q359 631 381 653T432 675Q456 675 472 659T489 617ZM301 617Q301 589 279 567T228 545Q203 545 187 561T170 603Q170 631 192
653T243 675Q268 675 284 659T301 617ZM162 -196Q28 -196 -33 -123L33 -37Q52 -64 87 -79T160 -94Q250 -94 276 16L290 80Q223 7 148 7Q93 7 60 34T27 110Q27 126 32 143L107 483H227L161 184Q158 170 158 160Q158 113 215 113Q263 113 311 173L379 483H500L396
16Q348 -196 162 -196Z" />
<glyph unicode="&#x131;" glyph-name="dotlessi" horiz-adv-x="228" d="M120 0H0L107 483H227L120 0Z" />
<glyph unicode="&#x141;" glyph-name="Lslash" horiz-adv-x="456" d="M3 205L27 315L94 349L164 667H298L245 426L323 466L299 356L220 316L177 118H402L376 0H17L69 239L3 205Z" />
<glyph unicode="&#x142;" glyph-name="lslash" horiz-adv-x="293" d="M6 218L26 307L98 344L170 667H290L234 413L308 451L289 363L215 325L176 148Q173 139 173 127Q173 94 210 94Q229 94 240 105L243 7Q219 -12 173 -12Q113 -12 79 12T45 81Q45 102 49 122L78
255L6 218Z" />
<glyph unicode="&#x152;" glyph-name="OE" horiz-adv-x="863" d="M772 0H390L403 63Q344 -12 245 -12Q154 -12 96 59T37 245Q37 347 78 445T196 610T367 677Q480 677 520 588L537 667H919L894 549H645L612 398H853L827 281H586L550 118H798L772 0ZM435 205L488
447Q479 501 449 529T371 558Q315 558 269 506T199 383T175 247Q175 184 206 146T292 107Q333 107 371 133T435 205Z" />
<glyph unicode="&#x153;" glyph-name="oe" horiz-adv-x="797" d="M761 202H460Q458 194 458 177Q458 139 485 113T565 86Q625 86 667 125L706 45Q640 -12 549 -12Q487 -12 445 16T387 86Q351 40 313 14T219 -12Q126 -12 74 41T22 188Q22 305 92 400T273 495Q329
495 369 467T427 398Q497 495 594 495Q676 495 726 446T776 304Q776 260 761 202ZM475 286H665Q668 296 668 314Q668 351 647 374T585 397Q541 397 512 363T475 286ZM348 294Q348 340 326 364T267 389Q216 389 181 324T145 189Q145 144 165 119T225 94Q278 94 313
160T348 294Z" />
<glyph unicode="&#x160;" glyph-name="Scaron" horiz-adv-x="497" d="M419 728H311L263 872H331L375 781L456 872H528L419 728ZM227 -12Q152 -12 88 16T-11 89L69 188Q95 151 139 129T233 107Q274 107 298 131T323 190Q323 214 299 235T239 276T168 318T108 377T83
461Q83 550 149 614T318 678Q380 678 436 655T528 591L450 493Q425 525 387 542T307 559Q271 559 248 538T225 486Q225 463 249 442T309 402T379 359T439 299T464 215Q464 121 399 55T227 -12Z" />
<glyph unicode="&#x161;" glyph-name="scaron" horiz-adv-x="413" d="M333 556H225L177 700H245L289 609L370 700H442L333 556ZM177 -12Q117 -12 65 10T-16 68L51 148Q70 122 106 103T183 83Q213 83 231 99T250 137Q250 158 219 176T152 209T84 255T53 333Q53
400 101 447T235 495Q287 495 334 476T412 422L349 345Q334 366 301 383T233 400Q204 400 187 387T170 352Q170 336 190 323T240 297T299 268T349 223T370 157Q370 87 318 38T177 -12Z" />
<glyph unicode="&#x178;" glyph-name="Ydieresis" horiz-adv-x="541" d="M551 790Q551 762 529 740T478 718Q454 718 438 734T421 776Q421 804 443 826T494 848Q518 848 534 832T551 790ZM363 790Q363 762 341 740T290 718Q265 718 249 734T232 776Q232 804 254
826T305 848Q330 848 346 832T363 790ZM284 0H150L210 275L89 667H230L298 399L484 667H638L344 275L284 0Z" />
<glyph unicode="&#x17d;" glyph-name="Zcaron" horiz-adv-x="486" d="M406 728H298L250 872H318L362 781L443 872H515L406 728ZM397 0H-18L6 111L340 549H103L129 667H537L513 559L176 118H423L397 0Z" />
<glyph unicode="&#x17e;" glyph-name="zcaron" horiz-adv-x="409" d="M324 556H216L168 700H236L280 609L361 700H433L324 556ZM321 0H-19L0 90L243 378H64L88 483H424L404 397L158 105H343L321 0Z" />
<glyph unicode="&#x192;" glyph-name="florin" horiz-adv-x="427" d="M94 -161H-43L45 241H-3V346H69L109 530Q124 599 165 638T272 677Q345 677 386 641L343 542Q327 559 301 559Q253 559 240 499L206 346H303V241H183L94 -161Z" />
<glyph unicode="&#x2c6;" glyph-name="circumflex" horiz-adv-x="265" d="M334 556H266L222 647L141 556H69L178 700H286L334 556Z" />
<glyph unicode="&#x2c7;" glyph-name="caron" horiz-adv-x="265" d="M257 556H149L101 700H169L213 609L294 700H366L257 556Z" />
<glyph unicode="&#x2d8;" glyph-name="breve" horiz-adv-x="300" d="M386 632Q314 557 220 557Q127 557 86 632L147 676Q172 626 232 626Q293 626 338 676L386 632Z" />
<glyph unicode="&#x2d9;" glyph-name="dotaccent" horiz-adv-x="166" d="M232 626Q232 598 210 576T158 554Q133 554 117 570T100 612Q100 640 122 662T174 684Q199 684 215 668T232 626Z" />
<glyph unicode="&#x2da;" glyph-name="ring" horiz-adv-x="193" d="M175 548Q136 548 112 572T87 636Q87 679 119 711T195 743Q233 743 257 719T282 655Q282 612 250 580T175 548ZM180 602Q200 602 214 616T228 650Q228 667 218 678T190 689Q170 689 156 675T142
641Q142 624 153 613T180 602Z" />
<glyph unicode="&#x2db;" glyph-name="ogonek" horiz-adv-x="175" d="M49 -104L92 -136Q57 -186 6 -186Q-31 -186 -54 -168T-78 -115Q-78 -31 29 29L70 0Q-18 -46 -18 -107Q-18 -134 10 -134Q34 -134 49 -104Z" />
<glyph unicode="&#x2dc;" glyph-name="tilde" horiz-adv-x="293" d="M276 554Q254 554 239 565T218 589T201 614T177 625Q148 625 134 560H70Q98 694 184 694Q206 694 221 683T242 659T259 634T284 623Q311 623 327 688H391Q361 554 276 554Z" />
<glyph unicode="&#x2dd;" glyph-name="hungarumlaut" horiz-adv-x="303" d="M265 700L135 556H67L170 700H265ZM404 700L274 556H206L309 700H404Z" />
<glyph unicode="&#x3c0;" glyph-name="pi" horiz-adv-x="527" d="M397 0H276L363 394H230L143 0H22L109 394H55L78 500H561L538 394H484L397 0Z" />
<glyph unicode="&#x2013;" glyph-name="endash" horiz-adv-x="527" d="M485 191H18L40 293H507L485 191Z" />
<glyph unicode="&#x2014;" glyph-name="emdash" horiz-adv-x="737" d="M695 191H18L40 293H717L695 191Z" />
<glyph unicode="&#x2018;" glyph-name="quoteleft" horiz-adv-x="253" d="M95 483Q95 538 136 593T238 678L281 632Q251 619 224 596T185 548Q187 549 195 549Q220 549 237 533T254 487Q254 453 228 429T169 404Q138 404 117 425T95 483Z" />
<glyph unicode="&#x2019;" glyph-name="quoteright" horiz-adv-x="253" d="M286 599Q286 544 245 489T143 404L100 449Q130 462 157 485T196 533Q194 532 186 532Q161 532 144 549T127 595Q127 628 153 652T212 677Q243 677 264 657T286 599Z" />
<glyph unicode="&#x201a;" glyph-name="quotesinglbase" horiz-adv-x="253" d="M168 65Q168 10 127 -44T25 -129L-18 -84Q12 -71 39 -48T78 0Q76 -1 68 -1Q43 -1 26 15T9 61Q9 95 35 119T94 144Q124 144 146 123T168 65Z" />
<glyph unicode="&#x201c;" glyph-name="quotedblleft" horiz-adv-x="451" d="M295 483Q295 538 335 593T437 678L480 632Q451 619 423 596T384 548Q387 549 394 549Q419 549 436 533T454 487Q454 453 428 429T369 404Q338 404 317 425T295 483ZM98 483Q98 538
138 593T240 678L283 632Q254 619 226 596T187 548Q190 549 198 549Q223 549 240 533T257 487Q257 453 231 429T172 404Q141 404 120 425T98 483Z" />
<glyph unicode="&#x201d;" glyph-name="quotedblright" horiz-adv-x="451" d="M286 599Q286 544 245 489T143 404L100 449Q130 462 157 485T196 533Q194 532 186 532Q161 532 144 549T127 595Q127 628 153 652T212 677Q243 677 264 657T286 599ZM483 599Q483 544
442 489T340 404L297 449Q327 462 354 485T393 533Q391 532 383 532Q358 532 341 548T324 595Q324 628 350 652T409 677Q440 677 461 657T483 599Z" />
<glyph unicode="&#x201e;" glyph-name="quotedblbase" horiz-adv-x="451" d="M365 65Q365 10 324 -44T222 -129L179 -84Q209 -71 236 -48T275 0Q273 -1 265 -1Q240 -1 223 15T206 61Q206 95 232 119T291 144Q321 144 343 123T365 65ZM168 65Q168 10 127 -44T25
-129L-18 -84Q12 -71 39 -48T78 0Q76 -1 68 -1Q43 -1 26 15T9 61Q9 95 35 119T94 144Q124 144 146 123T168 65Z" />
<glyph unicode="&#x2020;" glyph-name="dagger" horiz-adv-x="275" d="M316 523L228 527L188 327H123L172 527L82 523L95 583L183 580L201 677H266L240 580L329 583L316 523Z" />
<glyph unicode="&#x2021;" glyph-name="daggerdbl" horiz-adv-x="275" d="M329 583L316 523L228 527L184 331L274 335L261 275L173 278L155 180H90L116 278L27 275L40 335L127 331L171 527L82 523L95 583L183 580L201 677H266L240 580L329 583Z" />
<glyph unicode="&#x2022;" glyph-name="bullet" horiz-adv-x="358" d="M297 254Q297 202 258 164T166 126Q121 126 91 156T61 231Q61 283 100 321T192 359Q237 359 267 329T297 254Z" />
<glyph unicode="&#x2026;" glyph-name="ellipsis" horiz-adv-x="757" d="M79 -11Q50 -11 30 10T9 60Q9 94 34 119T94 144Q123 144 143 123T164 72Q164 38 139 14T79 -11ZM332 -11Q302 -11 282 10T261 60Q261 94 286 119T346 144Q375 144 395 123T416 72Q416 38
391 14T332 -11ZM584 -11Q554 -11 534 10T513 60Q513 94 538 119T598 144Q627 144 647 123T668 72Q668 38 644 14T584 -11Z" />
<glyph unicode="&#x2030;" glyph-name="perthousand" horiz-adv-x="994" d="M138 0H75L575 667H638L138 0ZM462 -12Q403 -12 365 25T326 120Q326 205 377 262T496 320Q555 320 593 283T632 188Q632 103 582 46T462 -12ZM467 62Q499 62 524 96T549 181Q549 211
534 228T492 246Q460 246 435 212T409 127Q409 97 424 80T467 62ZM215 345Q155 345 117 382T78 477Q78 562 129 619T248 677Q308 677 346 640T385 545Q385 460 334 403T215 345ZM219 419Q251 419 276 454T302 538Q302 568 286 585T244 603Q212 603 187 569T161
484Q161 454 177 437T219 419ZM784 -12Q725 -12 687 25T648 120Q648 205 698 262T818 320Q877 320 915 283T954 188Q954 103 904 46T784 -12ZM788 62Q820 62 845 96T871 181Q871 211 856 228T813 246Q781 246 756 212T731 127Q731 97 746 80T788 62Z" />
<glyph unicode="&#x2039;" glyph-name="guilsinglleft" horiz-adv-x="287" d="M213 63H114L29 243L194 420H299L131 239L213 63Z" />
<glyph unicode="&#x203a;" glyph-name="guilsinglright" horiz-adv-x="287" d="M75 420H174L259 240L94 63H-11L158 245L75 420Z" />
<glyph unicode="&#x2044;" glyph-name="fraction" horiz-adv-x="146" d="M374 667L-127 0H-189L311 667H374Z" />
<glyph unicode="&#x20ac;" glyph-name="Euro" horiz-adv-x="580" d="M312 -12Q203 -12 134 52T59 227H14L31 302H62Q65 337 72 367H45L62 442H96Q137 548 215 613T396 678Q494 678 550 624T626 488L500 453Q489 503 460 531T389 559Q346 559 309 528T244 442H423L405
367H215Q205 333 201 302H391L375 227H199Q204 171 235 139T319 107Q388 107 440 186L545 128Q501 59 441 24T312 -12Z" />
<glyph unicode="&#x2122;" glyph-name="trademark" horiz-adv-x="414" d="M424 447H396L436 629L331 447H323L298 629L258 447H230L278 667H321L341 509L429 667H472L424 447ZM237 641H185L142 447H114L157 641H105L110 667H242L237 641Z" />
<glyph unicode="&#x2126;" glyph-name="Omega" horiz-adv-x="621" d="M-9 0L17 118H131Q48 194 48 310Q48 393 84 476T196 618T368 678Q482 678 554 616T627 438Q627 335 576 253T443 118H548L522 0H302L328 118Q394 147 439 241T484 418Q484 484 453 521T364
558Q310 558 265 507T198 387T175 252Q175 159 237 118L211 0H-9Z" />
<glyph unicode="&#x2202;" glyph-name="partialdiff" horiz-adv-x="498" d="M224 -12Q129 -12 74 40T19 180Q19 287 83 375T241 463Q288 463 321 438T370 369Q361 435 323 514T237 647L338 709Q486 540 486 368Q486 300 470 234T422 113T339 23T224 -12ZM227 94Q277
94 311 150T346 269Q346 304 325 330T261 357Q211 357 178 301T144 184Q144 94 227 94Z" />
<glyph unicode="&#x2206;" glyph-name="increment" horiz-adv-x="557" d="M504 0H-56L291 667H452L504 0ZM364 118L345 526L147 118H364Z" />
<glyph unicode="&#x220f;" glyph-name="product" horiz-adv-x="654" d="M480 -90H346L487 549H301L160 -90H26L167 549H89L115 667H725L699 549H621L480 -90Z" />
<glyph unicode="&#x2211;" glyph-name="summation" horiz-adv-x="476" d="M258 549L362 291L144 28H391L365 -90H-34L-8 30L211 297L108 550L134 667H532L506 549H258Z" />
<glyph unicode="&#x2212;" glyph-name="minus" horiz-adv-x="444" d="M426 297H40L57 372H442L426 297Z" />
<glyph unicode="&#x221a;" glyph-name="radical" horiz-adv-x="577" d="M294 0H213L190 303L70 269L68 342L263 394L280 120L563 667H648L294 0Z" />
<glyph unicode="&#x221e;" glyph-name="infinity" horiz-adv-x="591" d="M163 160Q106 160 75 196T44 293Q44 376 90 443T211 511Q256 511 287 483T331 408Q392 511 467 511Q524 511 555 475T586 377Q586 295 540 228T419 160Q374 160 342 187T298 262Q237 160
163 160ZM416 235Q456 235 482 275T509 364Q509 397 493 416T449 436Q396 436 349 331Q357 235 416 235ZM182 235Q234 235 283 339Q275 436 215 436Q175 436 149 397T122 307Q122 274 139 255T182 235Z" />
<glyph unicode="&#x222b;" glyph-name="integral'" horiz-adv-x="308" d="M-16 -100H-59L-42 -20H2Q52 -20 64 38L196 630Q227 768 363 768H407L388 688H344Q295 688 283 630L151 38Q120 -100 -16 -100Z" />
<glyph unicode="&#x2248;" glyph-name="approxequal" horiz-adv-x="444" d="M19 202L37 282Q75 257 128 257Q167 257 224 279T330 301Q385 301 422 281L405 201Q367 226 313 226Q274 226 218 204T111 182Q59 182 19 202ZM60 387L78 467Q115 442 169 442Q208 442
265 464T371 486Q423 486 463 466L446 386Q408 411 355 411Q315 411 259 389T152 367Q97 367 60 387Z" />
<glyph unicode="&#x2260;" glyph-name="notequal" horiz-adv-x="444" d="M94 93H27L109 202H19L36 277H165L251 391H61L78 466H307L388 574H455L374 466H463L447 391H317L232 277H422L405 202H176L94 93Z" />
<glyph unicode="&#x2264;" glyph-name="lessequal" horiz-adv-x="444" d="M389 131L41 301L60 387L483 557L463 463L137 339L408 217L389 131ZM363 12H-22L-6 87H379L363 12Z" />
<glyph unicode="&#x2265;" glyph-name="greaterequal" horiz-adv-x="444" d="M363 12H-23L-6 87H379L363 12ZM426 301L3 131L24 225L350 347L79 471L98 557L446 387L426 301Z" />
<glyph unicode="&#x25ca;" glyph-name="lozenge" horiz-adv-x="375" d="M144 0H123L39 334L270 667H291L376 334L144 0ZM142 45L339 338L272 622L76 330L142 45Z" />
<glyph unicode="&#xf8ff;" glyph-name="" horiz-adv-x="667" d="M199 153L214 221H140Q109 221 87 199T64 146Q64 120 80 103T121 86Q184 86 199 153ZM264 446L277 504Q279 516 279 522Q279 549 263 565T219 581Q187 581 165 560T143 507Q143 479 161 463T208
446H264ZM269 265H406L437 402H300L269 265ZM562 160Q562 188 544 204T497 221H442L429 163Q427 157 427 145Q427 118 443 102T486 86Q518 86 540 107T562 160ZM642 521Q642 547 626 564T584 581Q521 581 506 514L491 446H566Q596 446 619 469T642 521ZM607 160Q607
112 568 77T479 42Q437 42 409 70T381 140Q381 154 384 169L396 221H259L242 145Q231 99 197 71T117 42Q76 42 47 70T18 139Q18 188 56 226T143 265H224L255 402H199Q154 402 127 431T99 507Q99 555 137 590T226 625Q268 625 296 597T324 527Q324 513 321 498L309
446H446L463 522Q474 568 508 596T588 625Q630 625 659 597T688 528Q688 478 650 440T563 402H482L451 265H504Q550 265 578 236T607 160Z" />
<glyph unicode="&#xfb01;" glyph-name="fi" horiz-adv-x="516" d="M473 537Q445 537 427 555T408 599Q408 636 433 659T490 682Q517 682 536 664T555 620Q555 583 530 560T473 537ZM407 0H287L394 483H514L407 0ZM142 0H22L106 378H44L67 483H128L136 516Q171
677 299 677Q352 677 389 656L348 565Q335 575 314 575Q268 575 256 516L249 483H328L305 378H226L142 0Z" />
<glyph unicode="&#xfb02;" glyph-name="fl" horiz-adv-x="553" d="M437 -12Q377 -12 343 12T309 81Q309 102 313 122L434 667H554L440 148Q437 139 437 127Q437 94 474 94Q493 94 504 105L507 7Q483 -12 437 -12ZM142 0H22L106 378H44L67 483H128L136 516Q171
677 299 677Q352 677 389 656L348 565Q335 575 314 575Q268 575 256 516L249 483H328L305 378H226L142 0Z" />
</font>
</defs>
</svg>
