<?xml version="1.0" standalone="no"?> <!DOCTYPE svg PUBLIC "-//W3C//DTD SVG 1.0//EN" "http://www.w3.org/TR/2001/REC-SVG-20010904/DTD/svg10.dtd" > 
<svg xmlns="http://www.w3.org/2000/svg" width="100%" height="100%">
<metadata version="1.0"><uniqueid id="com.myfonts.marksimonson.proxima-nova.s-bold-it.wfkit2.dttj"/><vendor name="MyFonts" url="http://www.myfonts.com/"/><credits><credit name="Mark Simonson" url="http://www.myfonts.com/person/simonson/mark/"/></credits><description><text lang="en">This is a Webfont from MyFonts. Full information about this font:
http://www.myfonts.com/fonts/marksimonson/proxima-nova/
</text></description><copyright><text lang="en">Copyright (c) Mark Simonson, 2005. All rights reserved.</text></copyright><trademark><text lang="en">Proxima Nova is a trademark of Mark Simonson.</text></trademark></metadata>
<defs >
<font id="wf" horiz-adv-x="507" ><font-face
    font-family="Proxima Nova ScOsf Rg"
    units-per-em="1000"
    panose-1="2 0 5 6 3 0 0 2 0 4"
    ascent="943"
    descent="-57"
    alphabetic="0" />
<missing-glyph horiz-adv-x="483" d="M437 -90H86V752H437V-90ZM405 -60V722H117V-60H405Z" />
<glyph unicode=" " glyph-name="space" horiz-adv-x="257" />
<glyph unicode="!" glyph-name="exclam" horiz-adv-x="204" d="M239 550L145 205H43L100 550H239ZM56 -12Q25 -12 4 10T-18 63Q-18 99 8 125T71 151Q102 151 123 129T144 76Q144 40 118 14T56 -12Z" />
<glyph unicode="&quot;" glyph-name="quotedbl" horiz-adv-x="406" d="M169 375H113Q121 577 122 597Q123 631 145 654T201 677Q226 677 244 660T262 615Q262 602 255 585L169 375ZM351 375H295Q303 577 304 597Q305 631 328 654T384 677Q408 677 426 660T444
615Q444 597 437 585L351 375Z" />
<glyph unicode="#" glyph-name="numbersign" horiz-adv-x="517" d="M534 402L499 334H419L356 220H436L399 150H317L234 0H149L232 150H156L74 0H-12L71 150H-4L32 220H111L174 334H95L131 402H212L295 550H380L297 402H372L456 550H541L457 402H534ZM333 334H259L195
220H271L333 334Z" />
<glyph unicode="$" glyph-name="dollar" horiz-adv-x="516" d="M146 -74L161 -4Q45 17 -13 84L68 183Q108 133 187 112L214 233Q145 258 105 292T64 387Q64 455 127 508T287 562L302 628H393L376 551Q470 528 524 469L443 376Q410 413 350 433L326 324Q395 300
436 266T478 168Q478 95 419 42T251 -12L237 -74H146ZM339 162Q339 185 299 203L277 105Q339 112 339 162ZM203 393Q203 371 241 354L261 444Q234 440 219 426T203 393Z" />
<glyph unicode="%" glyph-name="percent" horiz-adv-x="613" d="M338 441Q338 379 295 333T186 286Q130 286 96 318T61 406Q61 469 104 515T212 562Q268 562 303 530T338 441ZM601 550L96 0H25L529 550H601ZM261 438Q261 463 247 479T208 496Q180 496 159 470T138
409Q138 384 152 368T190 352Q218 352 239 377T261 438ZM566 145Q566 83 522 37T413 -10Q357 -10 323 22T288 110Q288 172 331 219T439 266Q496 266 531 234T566 145ZM488 142Q488 167 474 183T436 200Q407 200 387 174T366 113Q366 88 379 73T417 57Q446 57 467
82T488 142Z" />
<glyph unicode="&amp;" glyph-name="ampersand" horiz-adv-x="567" d="M487 0H349Q348 1 340 11T327 28Q257 -11 185 -11Q102 -11 50 29T-3 140Q-3 215 40 255T159 322Q143 367 143 408Q143 473 193 517T317 562Q380 562 425 531T471 448Q471 413 458 386T416
341T363 312T298 288Q315 256 329 235L368 171Q417 221 449 284L533 236Q480 155 418 96Q442 60 487 0ZM205 77Q240 77 277 97Q248 141 232 171Q205 216 190 248Q121 214 121 154Q121 119 143 98T205 77ZM256 408Q256 386 267 355Q317 371 343 389T369 439Q369
459 356 470T322 481Q293 481 275 461T256 408Z" />
<glyph unicode="&apos;" glyph-name="quotesingle" horiz-adv-x="225" d="M169 375H113Q121 577 122 597Q123 631 145 654T201 677Q226 677 244 660T262 615Q262 602 255 585L169 375Z" />
<glyph unicode="(" glyph-name="parenleft" horiz-adv-x="297" d="M195 -146L103 -199Q23 -77 23 107Q23 263 96 416T297 685L363 617Q157 369 157 72Q157 -32 195 -146Z" />
<glyph unicode=")" glyph-name="parenright" horiz-adv-x="298" d="M101 632L193 685Q273 563 273 379Q273 223 200 70T-1 -199L-67 -131Q139 117 139 414Q139 518 101 632Z" />
<glyph unicode="*" glyph-name="asterisk" horiz-adv-x="351" d="M234 366H169L200 480L94 432L76 489L184 527L98 587L141 637L220 569L239 677H303L272 564L378 612L397 554L290 516L375 456L331 406L252 474L234 366Z" />
<glyph unicode="+" glyph-name="plus" horiz-adv-x="504" d="M487 298H307L262 95H176L221 298H41L58 377H238L281 573H368L325 377H505L487 298Z" />
<glyph unicode="," glyph-name="comma" horiz-adv-x="255" d="M174 69Q174 13 132 -44T27 -131L-18 -84Q58 -48 80 0H69Q43 0 26 17T8 65Q8 100 35 125T97 151Q129 151 151 130T174 69Z" />
<glyph unicode="-" glyph-name="hyphen" horiz-adv-x="300" d="M258 188H18L41 296H281L258 188Z" />
<glyph unicode="." glyph-name="period" horiz-adv-x="257" d="M82 -12Q51 -12 30 10T8 63Q8 99 34 125T97 151Q128 151 149 129T171 76Q171 40 145 14T82 -12Z" />
<glyph unicode="/" glyph-name="slash" horiz-adv-x="329" d="M35 -20H-60L333 687H429L35 -20Z" />
<glyph unicode="0" glyph-name="zero" horiz-adv-x="620" d="M598 320Q598 275 586 229T549 139T488 62T404 8T297 -12Q172 -12 103 52T34 230Q34 275 46 321T83 411T144 488T228 542T335 562Q460 562 529 498T598 320ZM452 310Q452 372 422 404T334 436Q263 436
222 374T180 240Q180 178 210 146T298 114Q369 114 410 176T452 310Z" />
<glyph unicode="1" glyph-name="one" horiz-adv-x="411" d="M291 0H149L229 367L94 254L31 339L288 550H412L291 0Z" />
<glyph unicode="2" glyph-name="two" horiz-adv-x="582" d="M466 0H-4L22 119Q214 176 312 238T411 361Q411 396 381 416T304 436Q207 436 127 371L67 471Q170 562 320 562Q427 562 495 518T563 394Q563 348 538 305T470 229T381 170T282 125H493L466 0Z" />
<glyph unicode="3" glyph-name="three" horiz-adv-x="579" d="M245 -129Q151 -129 71 -92T-47 10L48 96Q78 49 133 23T244 -3Q301 -3 331 22T362 89Q362 159 240 159Q180 159 160 157L188 285Q199 284 282 284Q412 284 412 361Q412 394 377 414T280 434Q187 434
118 380L67 477Q158 560 294 560Q415 560 486 514T558 386Q558 322 503 276T378 221Q503 190 503 75Q503 -13 428 -71T245 -129Z" />
<glyph unicode="4" glyph-name="four" horiz-adv-x="597" d="M524 27H438L406 -117H264L296 27H-23L1 140L357 550H553L466 152H551L524 27ZM323 152L383 424L143 152H323Z" />
<glyph unicode="5" glyph-name="five" horiz-adv-x="608" d="M270 -129Q79 -129 -8 0L93 89Q150 -3 272 -3Q329 -3 363 28T398 106Q398 148 364 171T272 195Q203 195 150 155L58 192L137 550H595L568 425H252L217 268Q271 311 350 311Q435 311 491 261T547 122Q547
17 470 -56T270 -129Z" />
<glyph unicode="6" glyph-name="six" horiz-adv-x="608" d="M301 -12Q178 -12 109 56T39 246Q39 357 79 453T203 613T398 677Q538 677 621 587L533 486Q485 551 389 551Q321 551 273 504T202 387Q198 377 193 361Q222 391 269 411T366 431Q457 431 517 381T578
247Q578 140 497 64T301 -12ZM247 114T301 114T392 147T429 229Q429 269 393 293T301 317Q234 317 179 267Q178 259 178 232Q178 179 212 147Z" />
<glyph unicode="7" glyph-name="seven" horiz-adv-x="545" d="M199 -117H36L393 425H64L91 550H592L570 451L199 -117Z" />
<glyph unicode="8" glyph-name="eight" horiz-adv-x="606" d="M285 -12Q171 -12 93 33T15 167Q15 233 63 284T200 358Q156 377 128 412T99 492Q99 554 139 597T237 659T361 677Q466 677 543 633T621 506Q621 441 574 394T448 331Q498 305 528 266T559 180Q559
93 478 41T285 -12ZM337 399Q396 403 432 424T468 479Q468 510 435 530T352 550Q306 550 274 530T241 475Q241 450 271 429T337 399ZM292 114Q340 114 378 137T416 195Q416 225 384 248T310 281Q248 278 207 255T166 193T200 135T292 114Z" />
<glyph unicode="9" glyph-name="nine" horiz-adv-x="608" d="M319 561Q442 561 511 493T581 303Q581 221 557 145T489 7T376 -91T223 -128Q82 -128 0 -38L87 63Q137 -2 232 -2Q300 -2 348 45T419 162Q425 176 427 188Q398 158 351 138T254 118Q163 118 103 168T43
302Q43 408 124 484T319 561ZM373 435T319 435T228 402T191 320Q191 280 228 256T320 232Q388 232 441 282Q442 290 442 317Q442 370 408 402Z" />
<glyph unicode=":" glyph-name="colon" horiz-adv-x="246" d="M82 -12Q51 -12 30 10T8 63Q8 99 34 125T97 151Q128 151 149 129T171 76Q171 40 145 14T82 -12ZM156 328Q125 328 104 350T83 403Q83 439 109 465T172 491Q203 491 224 469T245 416Q245 380 219 354T156 328Z" />
<glyph unicode=";" glyph-name="semicolon" horiz-adv-x="255" d="M174 69Q174 13 132 -44T27 -131L-18 -84Q58 -48 80 0H69Q43 0 26 17T8 65Q8 100 35 125T97 151Q129 151 151 130T174 69ZM156 328Q125 328 104 350T83 403Q83 439 109 465T172 491Q203 491 224
469T245 416Q245 380 219 354T156 328Z" />
<glyph unicode="&lt;" glyph-name="less" horiz-adv-x="504" d="M440 90L38 289L59 381L549 580L527 482L139 330L460 180L440 90Z" />
<glyph unicode="=" glyph-name="equal" horiz-adv-x="504" d="M507 389H61L78 468H524L507 389ZM466 201H19L37 279H483L466 201Z" />
<glyph unicode="&gt;" glyph-name="greater" horiz-adv-x="504" d="M485 289L-6 90L16 188L405 338L83 490L103 580L505 381L485 289Z" />
<glyph unicode="?" glyph-name="question" horiz-adv-x="396" d="M424 435Q424 399 405 372T358 330T303 302T257 275T237 242Q237 229 249 217L145 192Q127 216 127 242Q127 273 143 296T183 332T230 356T270 380T287 410Q287 430 267 441T214 453Q151 453 96
406L51 491Q127 561 234 561Q317 561 370 526T424 435ZM150 -12Q119 -12 98 10T76 63Q76 99 102 125T165 151Q196 151 217 129T239 76Q239 40 213 14T150 -12Z" />
<glyph unicode="@" glyph-name="at" horiz-adv-x="783" d="M372 -70Q236 -70 146 20T55 244Q55 348 110 439T258 584T452 638Q593 638 680 550T767 332Q767 216 705 151T569 85Q527 85 503 106T472 159L471 165Q445 128 406 107T327 85Q256 85 214 132T172 253Q172
352 241 425T398 498T523 431L534 484H647L596 240Q593 225 593 216Q593 171 630 171Q665 171 694 212T724 332Q724 451 649 525T448 599Q307 599 201 493T95 246Q95 128 175 48T377 -32Q472 -32 559 23L580 -7Q482 -70 372 -70ZM371 175Q435 175 482 241L507 357Q498
377 478 392T426 408Q368 408 329 364T289 263Q289 224 311 200T371 175Z" />
<glyph unicode="A" glyph-name="A" horiz-adv-x="684" d="M634 0H480L463 113H177L111 0H-58L346 667H524L634 0ZM452 238L411 525L244 238H452Z" />
<glyph unicode="B" glyph-name="B" horiz-adv-x="663" d="M376 0H12L159 667H483Q567 667 615 621T664 507Q664 441 619 390T512 333Q557 321 582 283T608 199Q608 119 550 60T376 0ZM422 402Q470 402 491 425T512 482Q512 507 493 524T445 542H274L243 402H422ZM366
125Q412 125 439 150T466 212Q466 241 446 259T393 277H215L182 125H366Z" />
<glyph unicode="C" glyph-name="C" horiz-adv-x="687" d="M372 -12Q231 -12 138 70T44 287Q44 459 158 568T432 678Q547 678 621 625T728 489L592 443Q573 495 529 523T425 552Q329 552 261 479T193 296Q193 217 244 166T380 114Q423 114 466 135T537 191L647
117Q594 49 520 19T372 -12Z" />
<glyph unicode="D" glyph-name="D" horiz-adv-x="718" d="M274 0H12L159 667H417Q533 667 619 587T706 381Q706 326 692 274T644 171T562 84T439 23T274 0ZM274 542L182 125H300Q417 125 488 196T559 371Q559 444 512 493T391 542H274Z" />
<glyph unicode="E" glyph-name="E" horiz-adv-x="583" d="M484 0H12L159 667H631L603 542H274L243 402H565L538 277H215L182 125H511L484 0Z" />
<glyph unicode="F" glyph-name="F" horiz-adv-x="571" d="M154 0H12L159 667H631L603 542H274L243 402H565L538 277H215L154 0Z" />
<glyph unicode="G" glyph-name="G" horiz-adv-x="720" d="M372 -12Q232 -12 138 70T44 287Q44 456 158 567T445 678Q545 678 616 631T720 513L590 457Q573 499 527 525T425 552Q331 552 262 478T193 296Q193 218 244 166T380 114Q455 114 513 165L531 245H354L382
370H701L643 111Q539 -12 372 -12Z" />
<glyph unicode="H" glyph-name="H" horiz-adv-x="731" d="M612 0H469L531 281H216L154 0H12L159 667H301L244 405H558L616 667H759L612 0Z" />
<glyph unicode="I" glyph-name="I" horiz-adv-x="274" d="M154 0H12L159 667H301L154 0Z" />
<glyph unicode="J" glyph-name="J" horiz-adv-x="486" d="M165 -12Q107 -12 55 7T-29 63L48 170Q84 114 155 114Q202 114 232 142T273 221L371 667H514L415 219Q389 101 328 45T165 -12Z" />
<glyph unicode="K" glyph-name="K" horiz-adv-x="636" d="M583 0H416L270 273L200 205L154 0H12L159 667H301L238 381L529 667H712L378 354L583 0Z" />
<glyph unicode="L" glyph-name="L" horiz-adv-x="515" d="M431 0H6L153 667H296L176 125H458L431 0Z" />
<glyph unicode="M" glyph-name="M" horiz-adv-x="855" d="M735 0H592L698 481L404 0H342L260 481L154 0H12L159 667H353L423 250L677 667H882L735 0Z" />
<glyph unicode="N" glyph-name="N" horiz-adv-x="729" d="M609 0H472L252 442L154 0H12L159 667H305L519 242L614 667H756L609 0Z" />
<glyph unicode="O" glyph-name="O" horiz-adv-x="765" d="M372 -12Q230 -12 137 70T44 287Q44 451 156 564T432 678Q573 678 666 596T760 380Q760 216 648 102T372 -12ZM380 114Q477 114 544 188T611 370Q611 453 558 502T423 552Q326 552 260 478T193 296Q193
213 245 164T380 114Z" />
<glyph unicode="P" glyph-name="P" horiz-adv-x="625" d="M154 0H12L159 667H464Q543 667 596 613T650 482Q650 450 642 419T613 354T562 295T483 254T374 238H207L154 0ZM382 363H383Q436 363 469 392T502 467Q502 500 479 521T419 542H274L234 363H382Z" />
<glyph unicode="Q" glyph-name="Q" horiz-adv-x="765" d="M372 -12Q230 -12 137 70T44 287Q44 451 156 564T432 678Q573 678 666 596T760 380Q760 285 720 204T610 68L644 14L530 -41L498 8Q433 -12 372 -12ZM380 114Q403 114 428 119L371 211L485 266L538 182Q611
257 611 370Q611 453 558 502T423 552Q326 552 260 478T193 296Q193 213 245 164T380 114Z" />
<glyph unicode="R" glyph-name="R" horiz-adv-x="643" d="M553 0H395L316 237H206L154 0H12L159 667H444Q528 667 589 615T650 479Q650 390 596 326T460 247L553 0ZM382 362H383Q438 362 470 390T502 465Q502 498 477 520T417 542H274L234 362H382Z" />
<glyph unicode="S" glyph-name="S" horiz-adv-x="600" d="M301 -12Q204 -12 123 22T-1 113L87 218Q122 171 183 143T312 114Q362 114 387 137T413 189Q413 208 395 223T349 250T286 273T216 301T153 337T106 388T88 460Q88 547 159 612T349 677Q429 677 499 649T615
569L526 467Q490 508 436 530T327 552Q289 552 264 533T238 486Q238 463 271 444T353 409T449 371T530 310T564 217Q564 122 493 55T301 -12Z" />
<glyph unicode="T" glyph-name="T" horiz-adv-x="582" d="M309 0H166L286 542H91L118 667H650L623 542H428L309 0Z" />
<glyph unicode="U" glyph-name="U" horiz-adv-x="734" d="M356 -12Q216 -12 141 51T66 221Q66 240 71 267L159 667H303L216 270Q212 258 212 237Q213 184 250 149T356 113Q494 113 529 270L616 667H761L672 267Q643 135 569 62T356 -12Z" />
<glyph unicode="V" glyph-name="V" horiz-adv-x="684" d="M377 0H199L89 667H243L315 155L612 667H781L377 0Z" />
<glyph unicode="W" glyph-name="W" horiz-adv-x="918" d="M673 0H522L506 458L289 0H138L94 667H250L260 185L493 667H604L624 185L847 667H1010L673 0Z" />
<glyph unicode="X" glyph-name="X" horiz-adv-x="668" d="M617 0H456L335 237L121 0H-57L265 351L105 667H266L375 446L570 667H749L446 334L617 0Z" />
<glyph unicode="Y" glyph-name="Y" horiz-adv-x="645" d="M340 0H198L258 273L89 667H243L349 400L573 667H742L401 273L340 0Z" />
<glyph unicode="Z" glyph-name="Z" horiz-adv-x="592" d="M496 0H-12L13 115L414 542H108L135 667H636L612 553L209 125H524L496 0Z" />
<glyph unicode="[" glyph-name="bracketleft" horiz-adv-x="280" d="M166 -190H-50L143 678H359L340 593H216L61 -105H185L166 -190Z" />
<glyph unicode="\" glyph-name="backslash" horiz-adv-x="329" d="M178 -20L98 687H190L270 -20H178Z" />
<glyph unicode="]" glyph-name="bracketright" horiz-adv-x="280" d="M136 -190H-78L-60 -105H64L219 593H95L114 678H329L136 -190Z" />
<glyph unicode="^" glyph-name="asciicircum" horiz-adv-x="441" d="M441 333H352L299 580L137 333H38L268 667H361L441 333Z" />
<glyph unicode="_" glyph-name="underscore" horiz-adv-x="564" d="M485 -125H-84L-65 -40H504L485 -125Z" />
<glyph unicode="`" glyph-name="grave" horiz-adv-x="251" d="M320 556H231L101 700H218L320 556Z" />
<glyph unicode="a" glyph-name="a" horiz-adv-x="597" d="M285 550H446L548 0H402L386 91H146L92 0H-59L285 550ZM373 206L338 416L210 206H373Z" />
<glyph unicode="b" glyph-name="b" horiz-adv-x="586" d="M342 0H9L130 550H409Q486 550 532 516T579 424Q579 371 545 329T454 278Q491 266 512 236T534 170Q534 96 483 48T342 0ZM167 115H332Q361 115 380 131T400 174Q400 195 386 208T345 222H190L167 115ZM369
337H376Q404 337 420 354T437 394Q437 435 382 435H238L215 337H369Z" />
<glyph unicode="c" glyph-name="c" horiz-adv-x="585" d="M311 -12Q185 -12 109 58T32 239Q32 371 128 466T362 562Q449 562 512 520T599 408L480 365Q466 401 433 423T357 446Q281 446 225 388T168 249Q168 183 210 144T318 104Q398 104 451 175L550 115Q510
59 449 24T311 -12Z" />
<glyph unicode="d" glyph-name="d" horiz-adv-x="626" d="M254 0H9L130 550H330Q449 550 528 486T608 315Q608 259 589 207T531 106T420 29T254 0ZM279 115Q372 115 422 173T472 305Q472 365 430 400T315 435H237L167 115H279Z" />
<glyph unicode="e" glyph-name="e" horiz-adv-x="520" d="M424 0H9L130 550H545L519 435H238L215 337H492L467 222H190L166 115H449L424 0Z" />
<glyph unicode="f" glyph-name="f" horiz-adv-x="509" d="M141 0H9L130 550H545L520 435H238L215 337H492L467 222H190L141 0Z" />
<glyph unicode="g" glyph-name="g" horiz-adv-x="616" d="M316 -12Q194 -12 113 56T32 236Q32 368 127 465T364 562Q443 562 505 525T596 430L478 378Q463 406 430 425T354 445Q274 445 222 387T169 248Q169 184 212 144T322 104Q376 104 415 128L432 202H301L324
310H587L533 63Q434 -12 316 -12Z" />
<glyph unicode="h" glyph-name="h" horiz-adv-x="651" d="M534 0H402L452 224H191L141 0H9L130 550H262L216 339H477L523 550H655L534 0Z" />
<glyph unicode="i" glyph-name="i" horiz-adv-x="258" d="M141 0H9L130 550H262L141 0Z" />
<glyph unicode="j" glyph-name="j" horiz-adv-x="433" d="M138 -12Q19 -12 -36 58L39 151Q69 104 126 104Q206 104 226 191L304 550H437L356 180Q333 78 280 33T138 -12Z" />
<glyph unicode="k" glyph-name="k" horiz-adv-x="566" d="M511 0H353L229 216L179 169L141 0H9L130 550H262L212 320L455 550H617L331 292L511 0Z" />
<glyph unicode="l" glyph-name="l" horiz-adv-x="469" d="M383 0H9L130 550H262L166 115H408L383 0Z" />
<glyph unicode="m" glyph-name="m" horiz-adv-x="757" d="M640 0H508L590 372L355 0H294L223 372L141 0H9L130 550H305L369 208L583 550H761L640 0Z" />
<glyph unicode="n" glyph-name="n" horiz-adv-x="649" d="M532 0H397L220 359L141 0H9L130 550H272L444 203L521 550H653L532 0Z" />
<glyph unicode="o" glyph-name="o" horiz-adv-x="655" d="M311 -12Q186 -12 109 58T32 241Q32 372 125 467T356 562Q481 562 558 492T635 309Q635 179 542 84T311 -12ZM314 104Q394 104 446 163T499 300Q499 363 459 404T352 446Q272 446 220 387T168 250Q168
187 207 146T314 104Z" />
<glyph unicode="p" glyph-name="p" horiz-adv-x="554" d="M141 0H9L130 550H375Q463 550 514 507T566 392Q566 310 508 250T354 189H183L141 0ZM338 304H348Q384 304 406 326T429 381Q429 406 411 420T361 435H238L208 304H338Z" />
<glyph unicode="q" glyph-name="q" horiz-adv-x="655" d="M311 -12Q186 -12 109 58T32 241Q32 372 125 467T356 562Q481 562 558 492T635 309Q635 236 603 171T515 60L539 23L447 -34L421 7Q367 -12 311 -12ZM314 104Q333 104 356 109L313 177L404 234L448 165Q499
222 499 300Q499 363 459 404T352 446Q272 446 220 387T168 250Q168 187 207 146T314 104Z" />
<glyph unicode="r" glyph-name="r" horiz-adv-x="574" d="M485 0H336L268 189H183L141 0H9L130 550H375Q465 550 516 507T567 394Q567 319 521 265T399 198L485 0ZM338 304H345Q384 304 406 326T429 381Q429 405 412 420T364 435H238L208 304H338Z" />
<glyph unicode="s" glyph-name="s" horiz-adv-x="516" d="M250 -12Q72 -12 -13 84L68 183Q97 147 148 126T258 104Q301 104 320 120T339 162Q339 182 311 197T242 224T162 254T93 305T64 387Q64 455 127 508T288 562Q360 562 423 536T524 469L443 376Q417 405
371 425T281 446Q246 446 225 431T203 393Q203 373 231 359T300 333T380 303T449 252T478 168Q478 95 419 42T250 -12Z" />
<glyph unicode="t" glyph-name="t" horiz-adv-x="486" d="M255 0H123L219 435H62L88 550H533L507 435H351L255 0Z" />
<glyph unicode="u" glyph-name="u" horiz-adv-x="646" d="M314 -12Q188 -12 120 40T51 175Q51 195 56 218L130 550H263L192 230Q192 228 191 218T189 202Q189 156 222 130T311 104Q419 104 446 230L517 550H650L577 219Q552 104 491 46T314 -12Z" />
<glyph unicode="v" glyph-name="v" horiz-adv-x="597" d="M325 0H164L62 550H210L274 143L519 550H669L325 0Z" />
<glyph unicode="w" glyph-name="w" horiz-adv-x="797" d="M579 0H441L423 358L249 0H111L66 550H213L225 174L413 550H516L538 173L717 550H865L579 0Z" />
<glyph unicode="x" glyph-name="x" horiz-adv-x="584" d="M534 0H381L282 194L99 0H-58L213 282L76 550H229L317 370L484 550H642L387 283L534 0Z" />
<glyph unicode="y" glyph-name="y" horiz-adv-x="565" d="M295 0H164L214 226L62 550H209L303 338L486 550H637L344 226L295 0Z" />
<glyph unicode="z" glyph-name="z" horiz-adv-x="524" d="M434 0H-18L2 96L338 434H77L103 550H548L528 454L192 116H459L434 0Z" />
<glyph unicode="{" glyph-name="braceleft" horiz-adv-x="288" d="M174 -190H129Q72 -190 31 -154T-10 -62Q-10 -44 -6 -31L33 141Q35 153 35 159Q35 181 25 194T-5 208L11 280Q64 280 78 347L116 518Q152 678 307 678H367L349 593H288Q225 593 208 519L165 324Q147
249 100 235Q129 218 129 179Q129 161 125 145L86 -30Q84 -42 84 -49Q84 -74 100 -89T140 -105H194L174 -190Z" />
<glyph unicode="|" glyph-name="bar" horiz-adv-x="216" d="M171 -20H86V687H171V-20Z" />
<glyph unicode="}" glyph-name="braceright" horiz-adv-x="288" d="M113 678H158Q215 678 256 642T297 550Q297 531 293 519L255 347Q253 335 253 329Q253 307 263 294T292 280L276 208Q223 208 209 141L171 -30Q153 -110 104 -150T-19 -190H-80L-61 -105H-1Q62
-105 79 -31L123 164Q139 238 188 254Q159 269 159 309Q159 327 163 343L201 518Q203 530 203 537Q203 562 188 577T148 593H94L113 678Z" />
<glyph unicode="~" glyph-name="asciitilde" horiz-adv-x="510" d="M491 667L575 657Q522 412 386 412Q337 412 313 439T287 500T277 560T249 588Q220 588 192 536T150 412L65 422Q117 666 254 666Q294 666 317 648T347 604T357 552T367 507T392 489Q421 489 449
542T491 667Z" />
<glyph unicode="&#xa0;" glyph-name="uni00A0" horiz-adv-x="257" />
<glyph unicode="&#xa1;" glyph-name="exclamdown" horiz-adv-x="204" d="M-35 0L59 345H161L104 0H-35ZM148 562Q179 562 200 540T222 487Q222 451 196 425T133 399Q102 399 81 421T60 474Q60 510 86 536T148 562Z" />
<glyph unicode="&#xa2;" glyph-name="cent" horiz-adv-x="585" d="M209 -83L227 -2Q137 19 85 84T32 239Q32 369 125 463T352 561L366 623H456L440 551Q498 535 539 498T599 408L480 365Q462 411 414 433L341 105Q407 116 451 175L550 115Q511 59 451 24T315 -12L299
-83H209ZM168 249Q168 201 190 166T253 115L326 443Q260 431 214 376T168 249Z" />
<glyph unicode="&#xa3;" glyph-name="sterling" horiz-adv-x="450" d="M11 224L26 293H78Q62 336 62 372Q62 452 127 506T276 561Q347 561 400 532T471 450L363 408Q355 438 333 452T284 467Q245 467 219 438T192 361Q192 330 207 293H332L317 224H224Q224 197
203 162T162 113Q171 116 181 116Q207 116 242 105T297 93Q333 93 362 122L391 30Q353 -10 287 -10Q247 -10 192 6T106 22Q67 22 19 -7L-5 73Q43 92 74 125T105 198Q105 210 102 224H11Z" />
<glyph unicode="&#xa5;" glyph-name="yen" horiz-adv-x="565" d="M295 0H164L188 108H-5L10 175H203L214 225H21L36 293H182L62 550H209L303 338L486 550H637L404 293H549L533 225H344L333 175H522L507 108H318L295 0Z" />
<glyph unicode="&#xa6;" glyph-name="brokenbar" horiz-adv-x="216" d="M171 -20H86V296H171V-20ZM171 371H86V687H171V371Z" />
<glyph unicode="&#xa7;" glyph-name="section" horiz-adv-x="484" d="M467 333Q467 284 436 244T351 185Q412 151 412 86Q412 15 355 -33T207 -81Q52 -81 -32 3L39 78Q67 46 112 27T206 8Q241 8 263 25T285 67Q285 93 247 112T164 144T81 190T43 273T75 360T171
414Q98 448 98 520Q98 588 153 632T296 677Q436 677 509 604L443 534Q420 560 382 574T302 588Q265 588 244 573T223 534Q223 513 248 499T309 473T381 447T442 403T467 333ZM335 304Q335 351 266 372Q219 366 195 346T171 297Q171 271 193 256T258 226Q297 236
316 257T335 304Z" />
<glyph unicode="&#xa8;" glyph-name="dieresis" horiz-adv-x="295" d="M403 619Q403 589 380 566T326 543Q300 543 283 560T266 603Q266 633 289 656T342 679Q368 679 385 662T403 619ZM191 619Q191 589 168 566T115 543Q90 543 73 560T55 603Q55 633 78 656T131
679Q157 679 174 662T191 619Z" />
<glyph unicode="&#xa9;" glyph-name="copyright" horiz-adv-x="778" d="M754 477T754 334T653 90T408 -11Q266 -11 165 90T64 334T164 578T408 679T652 578ZM718 207T718 334T627 552T408 643Q281 643 191 552T100 334T190 116T408 25T626 116ZM507 211L531 177Q466
123 393 123Q306 123 254 175T201 307Q201 407 271 476T434 545Q545 545 594 465L556 438Q519 505 432 505Q361 505 304 448T247 308Q247 248 287 206T393 163Q457 163 507 211Z" />
<glyph unicode="&#xaa;" glyph-name="ordfeminine" horiz-adv-x="414" d="M269 575Q228 575 201 542T173 462Q173 427 191 409T241 391Q279 391 311 425L338 547Q316 575 269 575ZM358 640H451L381 326H288L296 365Q256 318 202 318Q149 318 113 353T77 451Q77
533 126 590T246 648T350 602L358 640Z" />
<glyph unicode="&#xab;" glyph-name="guillemotleft" horiz-adv-x="527" d="M263 63H149L29 243L229 420H351L147 238L263 63ZM452 63H339L219 243L419 420H540L336 238L452 63Z" />
<glyph unicode="&#xac;" glyph-name="logicalnot" horiz-adv-x="515" d="M524 468L466 201H384L426 389H61L78 468H524Z" />
<glyph unicode="&#xae;" glyph-name="registered" horiz-adv-x="494" d="M508 465Q508 377 446 315T295 253T146 315T84 465T146 615T296 677T446 616T508 465ZM476 465Q476 540 423 592T295 645T168 593T116 465Q116 390 168 338T295 285T423 338T476 465ZM369
343H329L287 439H243L222 343H188L241 586H334Q365 586 385 568T405 522Q405 488 380 464T325 440L369 343ZM369 519Q369 556 326 556H269L250 470H314Q338 470 353 484T369 519Z" />
<glyph unicode="&#xaf;" glyph-name="overscore" horiz-adv-x="363" d="M439 591H77L93 664H455L439 591Z" />
<glyph unicode="&#xb0;" glyph-name="degree" horiz-adv-x="311" d="M356 541Q356 486 317 447T221 407T126 446T86 541T125 637T221 677T316 637T356 541ZM287 541Q287 569 268 588T221 608Q193 608 175 589T156 541Q156 514 174 495T220 476T267 495T287 541Z" />
<glyph unicode="&#xb1;" glyph-name="plusminus" horiz-adv-x="504" d="M493 326H313L268 123H181L227 326H47L64 405H244L288 601H374L331 405H510L493 326ZM421 0H-25L-8 79H438L421 0Z" />
<glyph unicode="&#xb2;" glyph-name="twosuperior" horiz-adv-x="398" d="M400 421H85L102 495Q257 585 309 625T361 702Q361 725 343 737T294 750Q227 750 182 707L142 771Q204 827 297 827Q368 827 414 796T460 711Q460 658 407 609T243 498H416L400 421Z" />
<glyph unicode="&#xb3;" glyph-name="threesuperior" horiz-adv-x="398" d="M428 533Q428 486 385 450T270 414Q210 414 162 433T91 487L151 546Q190 491 266 491Q298 491 315 506T332 544Q332 587 243 587Q216 587 210 586L226 662Q250 660 291 660Q363 660 363
707Q363 728 340 739T284 750Q223 750 180 714L147 774Q208 827 293 827Q369 827 415 799T461 721Q461 681 432 653T350 620Q384 612 406 590T428 533Z" />
<glyph unicode="&#xb4;" glyph-name="acute" horiz-adv-x="251" d="M352 700L158 556H67L233 700H352Z" />
<glyph unicode="&#xb5;" glyph-name="mu" horiz-adv-x="579" d="M95 -184H-32L116 483H243L178 190Q158 100 247 100Q313 100 369 156L442 483H569L462 0H335L347 61Q266 -12 162 -12Q151 -12 133 -10L95 -184Z" />
<glyph unicode="&#xb6;" glyph-name="paragraph" horiz-adv-x="449" d="M326 -100H263L420 605H341L185 -100H122L216 323Q159 323 119 367T79 479Q79 552 135 609T273 667H496L326 -100Z" />
<glyph unicode="&#xb7;" glyph-name="middot" horiz-adv-x="257" d="M121 164Q90 164 69 186T47 239Q47 275 73 300T136 326Q167 326 188 305T209 252Q209 216 183 190T121 164Z" />
<glyph unicode="&#xb8;" glyph-name="cedilla" horiz-adv-x="221" d="M30 -195Q-48 -195 -89 -154L-54 -107Q-16 -142 31 -142Q53 -142 66 -133T80 -107Q80 -83 51 -83Q33 -83 21 -97L-19 -71L29 11H92L53 -51Q66 -41 84 -41Q110 -41 126 -57T143 -103Q143 -144
111 -169T30 -195Z" />
<glyph unicode="&#xb9;" glyph-name="onesuperior" horiz-adv-x="286" d="M265 421H168L228 694L148 628L104 687L270 821H353L265 421Z" />
<glyph unicode="&#xba;" glyph-name="ordmasculine" horiz-adv-x="405" d="M242 318Q167 318 123 358T79 464Q79 541 136 594T269 648Q343 648 387 608T431 502Q431 425 375 372T242 318ZM244 392Q287 392 312 426T337 503Q337 535 318 553T267 572Q224 572 199
538T174 461Q174 429 193 411T244 392Z" />
<glyph unicode="&#xbb;" glyph-name="guillemotright" horiz-adv-x="527" d="M77 420H191L311 240L111 63H-11L193 245L77 420ZM267 420H380L500 240L300 63H179L383 245L267 420Z" />
<glyph unicode="&#xbc;" glyph-name="onequarter" horiz-adv-x="833" d="M734 667L160 0H84L657 667H734ZM774 86H721L703 0H607L626 86H429L444 151L657 400H791L738 161H790L774 86ZM643 161L677 315L542 161H643ZM231 267H134L194 540L114 474L70 533L236 667H319L231
267Z" />
<glyph unicode="&#xbd;" glyph-name="onehalf" horiz-adv-x="867" d="M734 667L160 0H84L657 667H734ZM776 0H461L478 74Q633 164 685 204T737 281Q737 304 719 316T670 329Q603 329 558 286L518 350Q580 406 673 406Q744 406 790 375T836 290Q836 237 783 188T619
77H792L776 0ZM231 267H134L194 540L114 474L70 533L236 667H319L231 267Z" />
<glyph unicode="&#xbe;" glyph-name="threequarters" horiz-adv-x="921" d="M822 667L248 0H172L745 667H822ZM861 86H808L790 0H694L713 86H516L531 151L744 400H878L825 161H877L861 86ZM730 161L764 315L629 161H730ZM394 379Q394 332 351 296T236 260Q176
260 128 279T57 333L117 392Q156 337 232 337Q264 337 281 352T298 390Q298 433 209 433Q182 433 176 432L192 508Q216 506 257 506Q329 506 329 553Q329 574 306 585T250 596Q189 596 146 560L113 620Q174 673 259 673Q335 673 381 645T427 567Q427 527 398 499T316
466Q350 458 372 436T394 379Z" />
<glyph unicode="&#xbf;" glyph-name="questiondown" horiz-adv-x="396" d="M-28 115Q-28 151 -9 178T38 220T92 248T139 275T159 308Q159 321 147 333L251 358Q269 334 269 308Q269 277 253 254T213 218T166 194T126 170T109 140Q109 120 129 109T182 97Q245 97
300 144L345 59Q269 -11 162 -11Q79 -11 26 24T-28 115ZM246 562Q277 562 298 540T320 487Q320 451 294 425T231 399Q200 399 179 421T157 474Q157 510 183 536T246 562Z" />
<glyph unicode="&#xc0;" glyph-name="Agrave" horiz-adv-x="684" d="M532 728H443L313 872H430L532 728ZM634 0H480L463 113H177L111 0H-58L346 667H524L634 0ZM452 238L411 525L244 238H452Z" />
<glyph unicode="&#xc1;" glyph-name="Aacute" horiz-adv-x="684" d="M651 872L457 728H366L532 872H651ZM634 0H480L463 113H177L111 0H-58L346 667H524L634 0ZM452 238L411 525L244 238H452Z" />
<glyph unicode="&#xc2;" glyph-name="Acircumflex" horiz-adv-x="684" d="M601 728H525L471 817L381 728H301L425 872H539L601 728ZM634 0H480L463 113H177L111 0H-58L346 667H524L634 0ZM452 238L411 525L244 238H452Z" />
<glyph unicode="&#xc3;" glyph-name="Atilde" horiz-adv-x="684" d="M520 726Q496 726 478 736T451 760T429 783T400 794Q368 794 355 732H287Q300 799 328 832T408 866Q438 866 458 849T494 816T529 799Q559 799 574 860H642Q628 793 600 760T520 726ZM634 0H480L463
113H177L111 0H-58L346 667H524L634 0ZM452 238L411 525L244 238H452Z" />
<glyph unicode="&#xc4;" glyph-name="Adieresis" horiz-adv-x="684" d="M636 792Q636 762 613 739T559 716Q534 716 517 733T499 776Q499 806 522 829T575 852Q601 852 618 835T636 792ZM424 792Q424 762 401 739T348 716Q322 716 305 733T288 776Q288 806 311
829T364 852Q390 852 407 835T424 792ZM634 0H480L463 113H177L111 0H-58L346 667H524L634 0ZM452 238L411 525L244 238H452Z" />
<glyph unicode="&#xc5;" glyph-name="Aring" horiz-adv-x="684" d="M454 692Q411 692 385 718T358 788Q358 834 392 868T473 903Q516 903 542 877T569 807Q569 760 535 726T454 692ZM459 751Q479 751 494 766T510 801Q510 820 499 832T468 844Q448 844 433 829T417
794Q417 775 428 763T459 751ZM634 0H480L463 113H177L111 0H-58L346 667H524L634 0ZM452 238L411 525L244 238H452Z" />
<glyph unicode="&#xc6;" glyph-name="AE" horiz-adv-x="968" d="M872 0H400L425 113H195L104 0H-63L490 667H1019L992 542H662L632 402H954L926 277H604L570 125H900L872 0ZM453 238L514 518L290 238H453Z" />
<glyph unicode="&#xc7;" glyph-name="Ccedilla" horiz-adv-x="687" d="M372 -12Q358 -12 352 -11L327 -51Q340 -41 358 -41Q384 -41 400 -57T417 -103Q417 -144 385 -169T304 -195Q226 -195 185 -154L220 -107Q258 -142 305 -142Q327 -142 340 -133T354 -107Q354
-83 325 -83Q307 -83 295 -97L255 -71L294 -4Q183 18 114 95T44 287Q44 459 158 568T432 678Q547 678 621 625T728 489L592 443Q573 495 529 523T425 552Q329 552 261 479T193 296Q193 217 244 166T380 114Q423 114 466 135T537 191L647 117Q594 49 520 19T372
-12Z" />
<glyph unicode="&#xc8;" glyph-name="Egrave" horiz-adv-x="583" d="M492 728H403L273 872H390L492 728ZM484 0H12L159 667H631L603 542H274L243 402H565L538 277H215L182 125H511L484 0Z" />
<glyph unicode="&#xc9;" glyph-name="Eacute" horiz-adv-x="583" d="M610 872L416 728H325L491 872H610ZM484 0H12L159 667H631L603 542H274L243 402H565L538 277H215L182 125H511L484 0Z" />
<glyph unicode="&#xca;" glyph-name="Ecircumflex" horiz-adv-x="583" d="M559 728H483L429 817L339 728H259L383 872H497L559 728ZM484 0H12L159 667H631L603 542H274L243 402H565L538 277H215L182 125H511L484 0Z" />
<glyph unicode="&#xcb;" glyph-name="Edieresis" horiz-adv-x="583" d="M597 792Q597 762 574 739T520 716Q494 716 477 733T460 776Q460 806 483 829T536 852Q562 852 579 835T597 792ZM385 792Q385 762 362 739T309 716Q284 716 267 733T249 776Q249 806 272
829T325 852Q351 852 368 835T385 792ZM484 0H12L159 667H631L603 542H274L243 402H565L538 277H215L182 125H511L484 0Z" />
<glyph unicode="&#xcc;" glyph-name="Igrave" horiz-adv-x="274" d="M326 728H237L107 872H224L326 728ZM154 0H12L159 667H301L154 0Z" />
<glyph unicode="&#xcd;" glyph-name="Iacute" horiz-adv-x="274" d="M448 872L254 728H163L329 872H448ZM154 0H12L159 667H301L154 0Z" />
<glyph unicode="&#xce;" glyph-name="Icircumflex" horiz-adv-x="274" d="M394 728H318L264 817L174 728H94L218 872H332L394 728ZM154 0H12L159 667H301L154 0Z" />
<glyph unicode="&#xcf;" glyph-name="Idieresis" horiz-adv-x="274" d="M431 792Q431 762 408 739T354 716Q328 716 311 733T294 776Q294 806 317 829T370 852Q396 852 413 835T431 792ZM219 792Q219 762 196 739T143 716Q118 716 101 733T83 776Q83 806 106 829T159
852Q185 852 202 835T219 792ZM154 0H12L159 667H301L154 0Z" />
<glyph unicode="&#xd0;" glyph-name="Eth" horiz-adv-x="742" d="M299 0H37L98 277H16L41 391H123L184 667H442Q558 667 644 587T731 381Q731 326 717 274T669 171T587 84T464 23T299 0ZM327 125Q444 126 514 197T584 371Q584 444 537 493T416 542H299L265 391H414L388
277H240L207 125H327Z" />
<glyph unicode="&#xd1;" glyph-name="Ntilde" horiz-adv-x="729" d="M541 726Q517 726 499 736T472 760T450 783T421 794Q389 794 376 732H308Q321 799 349 832T429 866Q453 866 471 856T498 833T521 810T550 799Q580 799 595 860H663Q649 793 621 760T541 726ZM609
0H472L252 442L154 0H12L159 667H305L519 242L614 667H756L609 0Z" />
<glyph unicode="&#xd2;" glyph-name="Ograve" horiz-adv-x="765" d="M575 728H486L356 872H473L575 728ZM372 -12Q230 -12 137 70T44 287Q44 451 156 564T432 678Q573 678 666 596T760 380Q760 216 648 102T372 -12ZM380 114Q477 114 544 188T611 370Q611 453
558 502T423 552Q326 552 260 478T193 296Q193 213 245 164T380 114Z" />
<glyph unicode="&#xd3;" glyph-name="Oacute" horiz-adv-x="765" d="M692 872L498 728H407L573 872H692ZM372 -12Q230 -12 137 70T44 287Q44 451 156 564T432 678Q573 678 666 596T760 380Q760 216 648 102T372 -12ZM380 114Q477 114 544 188T611 370Q611 453
558 502T423 552Q326 552 260 478T193 296Q193 213 245 164T380 114Z" />
<glyph unicode="&#xd4;" glyph-name="Ocircumflex" horiz-adv-x="765" d="M642 728H566L512 817L422 728H342L466 872H580L642 728ZM372 -12Q230 -12 137 70T44 287Q44 451 156 564T432 678Q573 678 666 596T760 380Q760 216 648 102T372 -12ZM380 114Q477 114
544 188T611 370Q611 453 558 502T423 552Q326 552 260 478T193 296Q193 213 245 164T380 114Z" />
<glyph unicode="&#xd5;" glyph-name="Otilde" horiz-adv-x="765" d="M561 726Q537 726 519 736T492 760T470 783T441 794Q409 794 396 732H328Q341 799 369 832T449 866Q473 866 491 856T518 833T541 810T570 799Q600 799 615 860H683Q669 793 641 760T561 726ZM372
-12Q230 -12 137 70T44 287Q44 451 156 564T432 678Q573 678 666 596T760 380Q760 216 648 102T372 -12ZM380 114Q477 114 544 188T611 370Q611 453 558 502T423 552Q326 552 260 478T193 296Q193 213 245 164T380 114Z" />
<glyph unicode="&#xd6;" glyph-name="Odieresis" horiz-adv-x="765" d="M678 792Q678 762 655 739T601 716Q576 716 559 733T541 776Q541 806 564 829T617 852Q643 852 660 835T678 792ZM466 792Q466 762 443 739T390 716Q364 716 347 733T330 776Q330 806 353
829T406 852Q432 852 449 835T466 792ZM372 -12Q230 -12 137 70T44 287Q44 451 156 564T432 678Q573 678 666 596T760 380Q760 216 648 102T372 -12ZM380 114Q477 114 544 188T611 370Q611 453 558 502T423 552Q326 552 260 478T193 296Q193 213 245 164T380 114Z"
/>
<glyph unicode="&#xd7;" glyph-name="multiply" horiz-adv-x="504" d="M372 140L265 278L90 135L41 195L217 339L109 478L172 529L279 390L454 533L503 473L328 329L434 190L372 140Z" />
<glyph unicode="&#xd8;" glyph-name="Oslash" horiz-adv-x="765" d="M372 -12Q251 -12 165 48L118 0H15L110 97Q44 174 44 287Q44 451 156 564T432 678Q546 678 629 624L671 667H773L685 578Q760 498 760 380Q760 216 648 102T372 -12ZM380 114Q477 114 544 188T611
370Q611 428 582 473L264 149Q311 114 380 114ZM193 296Q193 244 215 203L530 523Q484 552 423 552Q326 552 260 478T193 296Z" />
<glyph unicode="&#xd9;" glyph-name="Ugrave" horiz-adv-x="734" d="M559 728H470L340 872H457L559 728ZM356 -12Q216 -12 141 51T66 221Q66 240 71 267L159 667H303L216 270Q212 258 212 237Q213 184 250 149T356 113Q494 113 529 270L616 667H761L672 267Q643
135 569 62T356 -12Z" />
<glyph unicode="&#xda;" glyph-name="Uacute" horiz-adv-x="734" d="M677 872L483 728H392L558 872H677ZM356 -12Q216 -12 141 51T66 221Q66 240 71 267L159 667H303L216 270Q212 258 212 237Q213 184 250 149T356 113Q494 113 529 270L616 667H761L672 267Q643
135 569 62T356 -12Z" />
<glyph unicode="&#xdb;" glyph-name="Ucircumflex" horiz-adv-x="734" d="M630 728H554L500 817L410 728H330L454 872H568L630 728ZM356 -12Q216 -12 141 51T66 221Q66 240 71 267L159 667H303L216 270Q212 258 212 237Q213 184 250 149T356 113Q494 113 529 270L616
667H761L672 267Q643 135 569 62T356 -12Z" />
<glyph unicode="&#xdc;" glyph-name="Udieresis" horiz-adv-x="734" d="M663 792Q663 762 640 739T586 716Q560 716 543 733T526 776Q526 806 549 829T602 852Q628 852 645 835T663 792ZM451 792Q451 762 428 739T375 716Q350 716 333 733T315 776Q315 806 338
829T391 852Q417 852 434 835T451 792ZM356 -12Q216 -12 141 51T66 221Q66 240 71 267L159 667H303L216 270Q212 258 212 237Q213 184 250 149T356 113Q494 113 529 270L616 667H761L672 267Q643 135 569 62T356 -12Z" />
<glyph unicode="&#xdd;" glyph-name="Yacute" horiz-adv-x="645" d="M634 872L440 728H349L515 872H634ZM340 0H198L258 273L89 667H243L349 400L573 667H742L401 273L340 0Z" />
<glyph unicode="&#xde;" glyph-name="Thorn" horiz-adv-x="625" d="M154 0H12L159 667H301L278 559H441Q520 559 573 505T626 375Q626 331 611 290T564 212T478 153T351 130H183L154 0ZM359 255Q414 255 446 286T478 360Q478 393 455 414T395 435H250L211 255H359Z" />
<glyph unicode="&#xdf;" glyph-name="germandbls" horiz-adv-x="1032" d="M766 -12Q588 -12 503 84L584 183Q613 147 664 126T774 104Q817 104 836 120T855 162Q855 182 827 197T758 224T678 254T609 305T580 387Q580 455 643 508T804 562Q876 562 939 536T1040
469L959 376Q933 405 887 425T797 446Q762 446 741 431T719 393Q719 373 747 359T816 333T896 303T965 252T994 168Q994 95 935 42T766 -12ZM250 -12Q72 -12 -13 84L68 183Q97 147 148 126T258 104Q301 104 320 120T339 162Q339 182 311 197T242 224T162 254T93
305T64 387Q64 455 127 508T288 562Q360 562 423 536T524 469L443 376Q417 405 371 425T281 446Q246 446 225 431T203 393Q203 373 231 359T300 333T380 303T449 252T478 168Q478 95 419 42T250 -12Z" />
<glyph unicode="&#xe0;" glyph-name="agrave" horiz-adv-x="597" d="M462 606H373L243 750H360L462 606ZM285 550H446L548 0H402L386 91H146L92 0H-59L285 550ZM373 206L338 416L210 206H373Z" />
<glyph unicode="&#xe1;" glyph-name="aacute" horiz-adv-x="597" d="M581 750L387 606H296L462 750H581ZM285 550H446L548 0H402L386 91H146L92 0H-59L285 550ZM373 206L338 416L210 206H373Z" />
<glyph unicode="&#xe2;" glyph-name="acircumflex" horiz-adv-x="597" d="M530 606H454L400 695L310 606H230L354 750H468L530 606ZM285 550H446L548 0H402L386 91H146L92 0H-59L285 550ZM373 206L338 416L210 206H373Z" />
<glyph unicode="&#xe3;" glyph-name="atilde" horiz-adv-x="597" d="M285 550H446L548 0H402L386 91H146L92 0H-59L285 550ZM373 206L338 416L210 206H373ZM450 604Q426 604 408 614T381 638T359 661T330 672Q298 672 285 610H217Q230 677 258 710T338 744Q368
744 388 727T424 694T459 677Q489 677 504 738H572Q558 671 530 638T450 604Z" />
<glyph unicode="&#xe4;" glyph-name="adieresis" horiz-adv-x="597" d="M285 550H446L548 0H402L386 91H146L92 0H-59L285 550ZM373 206L338 416L210 206H373ZM567 682Q567 652 544 629T490 606Q464 606 447 623T430 666Q430 696 453 719T506 742Q532 742 549
725T567 682ZM355 682Q355 652 332 629T279 606Q254 606 237 623T219 666Q219 696 242 719T295 742Q321 742 338 725T355 682Z" />
<glyph unicode="&#xe5;" glyph-name="aring" horiz-adv-x="597" d="M285 550H446L548 0H402L386 91H146L92 0H-59L285 550ZM373 206L338 416L210 206H373ZM390 597Q347 597 321 623T294 693Q294 740 328 774T409 808Q452 808 478 782T505 712Q505 666 471 632T390
597ZM395 656Q415 656 430 671T446 706Q446 725 435 737T404 749Q384 749 369 734T353 699Q353 680 364 668T395 656Z" />
<glyph unicode="&#xe6;" glyph-name="ae" horiz-adv-x="845" d="M749 0H334L354 91H165L91 0H-60L403 550H870L845 435H562L540 337H817L791 222H515L492 115H775L749 0ZM379 206L426 416L253 206H379Z" />
<glyph unicode="&#xe7;" glyph-name="ccedilla" horiz-adv-x="585" d="M250 -195Q172 -195 131 -154L166 -107Q204 -142 251 -142Q273 -142 286 -133T300 -107Q300 -83 271 -83Q253 -83 241 -97L201 -71L239 -5Q143 14 88 79T32 239Q32 371 128 466T362 562Q449
562 512 520T599 408L480 365Q466 401 433 423T357 446Q281 446 225 388T168 249Q168 183 210 144T318 104Q398 104 451 175L550 115Q510 59 449 24T311 -12H297L273 -51Q285 -41 304 -41Q330 -41 346 -57T363 -103Q363 -144 331 -169T250 -195Z" />
<glyph unicode="&#xe8;" glyph-name="egrave" horiz-adv-x="520" d="M434 606H345L215 750H332L434 606ZM424 0H9L130 550H545L519 435H238L215 337H492L467 222H190L166 115H449L424 0Z" />
<glyph unicode="&#xe9;" glyph-name="eacute" horiz-adv-x="520" d="M554 750L360 606H269L435 750H554ZM424 0H9L130 550H545L519 435H238L215 337H492L467 222H190L166 115H449L424 0Z" />
<glyph unicode="&#xea;" glyph-name="ecircumflex" horiz-adv-x="520" d="M503 606H427L373 695L283 606H203L327 750H441L503 606ZM424 0H9L130 550H545L519 435H238L215 337H492L467 222H190L166 115H449L424 0Z" />
<glyph unicode="&#xeb;" glyph-name="edieresis" horiz-adv-x="520" d="M424 0H9L130 550H545L519 435H238L215 337H492L467 222H190L166 115H449L424 0ZM539 682Q539 652 516 629T462 606Q436 606 419 623T402 666Q402 696 425 719T478 742Q504 742 521 725T539
682ZM327 682Q327 652 304 629T251 606Q226 606 209 623T191 666Q191 696 214 719T267 742Q293 742 310 725T327 682Z" />
<glyph unicode="&#xec;" glyph-name="igrave" horiz-adv-x="253" d="M289 606H200L70 750H187L289 606ZM141 0H9L130 550H262L141 0Z" />
<glyph unicode="&#xed;" glyph-name="iacute" horiz-adv-x="253" d="M409 750L215 606H124L290 750H409ZM141 0H9L130 550H262L141 0Z" />
<glyph unicode="&#xee;" glyph-name="icircumflex" horiz-adv-x="253" d="M358 606H282L228 695L138 606H58L182 750H296L358 606ZM141 0H9L130 550H262L141 0Z" />
<glyph unicode="&#xef;" glyph-name="idieresis" horiz-adv-x="253" d="M141 0H9L130 550H262L141 0ZM396 682Q396 652 373 629T319 606Q294 606 277 623T259 666Q259 696 282 719T335 742Q361 742 378 725T396 682ZM184 682Q184 652 161 629T108 606Q82 606 65
623T48 666Q48 696 71 719T124 742Q150 742 167 725T184 682Z" />
<glyph unicode="&#xf0;" glyph-name="eth" horiz-adv-x="635" d="M254 0H9L60 232H5L26 323H80L130 550H330Q449 550 528 486T608 315Q608 259 589 207T531 106T420 29T254 0ZM279 115Q372 115 422 173T472 305Q472 365 430 400T315 435H237L212 323H324L304 232H192L167
115H279Z" />
<glyph unicode="&#xf1;" glyph-name="ntilde" horiz-adv-x="649" d="M475 604Q451 604 433 614T406 638T384 661T355 672Q323 672 310 610H242Q255 677 283 710T363 744Q387 744 405 734T432 711T455 688T484 677Q514 677 529 738H597Q583 671 555 638T475 604ZM532
0H397L220 359L141 0H9L130 550H272L444 203L521 550H653L532 0Z" />
<glyph unicode="&#xf2;" glyph-name="ograve" horiz-adv-x="655" d="M490 606H401L271 750H388L490 606ZM311 -12Q186 -12 109 58T32 241Q32 372 125 467T356 562Q481 562 558 492T635 309Q635 179 542 84T311 -12ZM314 104Q394 104 446 163T499 300Q499 363 459
404T352 446Q272 446 220 387T168 250Q168 187 207 146T314 104Z" />
<glyph unicode="&#xf3;" glyph-name="oacute" horiz-adv-x="655" d="M611 750L417 606H326L492 750H611ZM311 -12Q186 -12 109 58T32 241Q32 372 125 467T356 562Q481 562 558 492T635 309Q635 179 542 84T311 -12ZM314 104Q394 104 446 163T499 300Q499 363 459
404T352 446Q272 446 220 387T168 250Q168 187 207 146T314 104Z" />
<glyph unicode="&#xf4;" glyph-name="ocircumflex" horiz-adv-x="655" d="M559 606H483L429 695L339 606H259L383 750H497L559 606ZM311 -12Q186 -12 109 58T32 241Q32 372 125 467T356 562Q481 562 558 492T635 309Q635 179 542 84T311 -12ZM314 104Q394 104
446 163T499 300Q499 363 459 404T352 446Q272 446 220 387T168 250Q168 187 207 146T314 104Z" />
<glyph unicode="&#xf5;" glyph-name="otilde" horiz-adv-x="655" d="M481 604Q457 604 439 614T412 638T390 661T361 672Q329 672 316 610H248Q261 677 289 710T369 744Q393 744 411 734T438 711T461 688T490 677Q520 677 535 738H603Q589 671 561 638T481 604ZM311
-12Q186 -12 109 58T32 241Q32 372 125 467T356 562Q481 562 558 492T635 309Q635 179 542 84T311 -12ZM314 104Q394 104 446 163T499 300Q499 363 459 404T352 446Q272 446 220 387T168 250Q168 187 207 146T314 104Z" />
<glyph unicode="&#xf6;" glyph-name="odieresis" horiz-adv-x="655" d="M311 -12Q186 -12 109 58T32 241Q32 372 125 467T356 562Q481 562 558 492T635 309Q635 179 542 84T311 -12ZM314 104Q394 104 446 163T499 300Q499 363 459 404T352 446Q272 446 220 387T168
250Q168 187 207 146T314 104ZM598 682Q598 652 575 629T521 606Q496 606 479 623T461 666Q461 696 484 719T537 742Q563 742 580 725T598 682ZM386 682Q386 652 363 629T310 606Q284 606 267 623T250 666Q250 696 273 719T326 742Q352 742 369 725T386 682Z" />
<glyph unicode="&#xf7;" glyph-name="divide" horiz-adv-x="511" d="M494 298H41L58 377H511L494 298ZM230 96Q207 96 191 112T175 152Q175 179 194 198T241 218Q264 218 280 202T297 162Q297 135 277 116T230 96ZM309 454Q287 454 271 470T254 510Q254 537 273
556T320 576Q343 576 359 560T376 520Q376 493 356 474T309 454Z" />
<glyph unicode="&#xf8;" glyph-name="oslash" horiz-adv-x="655" d="M311 -12Q212 -12 142 33L109 0H2L85 83Q32 148 32 241Q32 372 125 467T356 562Q452 562 523 518L555 550H662L580 468Q635 402 635 309Q635 179 542 84T311 -12ZM314 104Q394 104 446 163T499
300Q499 339 482 371L234 124Q268 104 314 104ZM168 250Q168 210 183 180L430 426Q398 446 352 446Q272 446 220 387T168 250Z" />
<glyph unicode="&#xf9;" glyph-name="ugrave" horiz-adv-x="646" d="M485 606H396L266 750H383L485 606ZM314 -12Q188 -12 120 40T51 175Q51 195 56 218L130 550H263L192 230Q192 228 191 218T189 202Q189 156 222 130T311 104Q419 104 446 230L517 550H650L577
219Q552 104 491 46T314 -12Z" />
<glyph unicode="&#xfa;" glyph-name="uacute" horiz-adv-x="646" d="M606 750L412 606H321L487 750H606ZM314 -12Q188 -12 120 40T51 175Q51 195 56 218L130 550H263L192 230Q192 228 191 218T189 202Q189 156 222 130T311 104Q419 104 446 230L517 550H650L577
219Q552 104 491 46T314 -12Z" />
<glyph unicode="&#xfb;" glyph-name="ucircumflex" horiz-adv-x="646" d="M554 606H478L424 695L334 606H254L378 750H492L554 606ZM314 -12Q188 -12 120 40T51 175Q51 195 56 218L130 550H263L192 230Q192 228 191 218T189 202Q189 156 222 130T311 104Q419 104
446 230L517 550H650L577 219Q552 104 491 46T314 -12Z" />
<glyph unicode="&#xfc;" glyph-name="udieresis" horiz-adv-x="646" d="M314 -12Q188 -12 120 40T51 175Q51 195 56 218L130 550H263L192 230Q192 228 191 218T189 202Q189 156 222 130T311 104Q419 104 446 230L517 550H650L577 219Q552 104 491 46T314 -12ZM592
682Q592 652 569 629T515 606Q490 606 473 623T455 666Q455 696 478 719T531 742Q557 742 574 725T592 682ZM380 682Q380 652 357 629T304 606Q278 606 261 623T244 666Q244 696 267 719T320 742Q346 742 363 725T380 682Z" />
<glyph unicode="&#xfd;" glyph-name="yacute" horiz-adv-x="565" d="M566 750L372 606H281L447 750H566ZM295 0H164L214 226L62 550H209L303 338L486 550H637L344 226L295 0Z" />
<glyph unicode="&#xfe;" glyph-name="thorn" horiz-adv-x="554" d="M141 0H9L130 550H262L245 468H356Q441 468 494 426T547 310Q547 229 489 168T335 107H165L141 0ZM320 222H329Q365 222 388 244T411 299Q411 325 393 339T342 353H219L190 222H320Z" />
<glyph unicode="&#xff;" glyph-name="ydieresis" horiz-adv-x="565" d="M295 0H164L214 226L62 550H209L303 338L486 550H637L344 226L295 0ZM553 682Q553 652 530 629T476 606Q450 606 433 623T416 666Q416 696 439 719T492 742Q518 742 535 725T553 682ZM341
682Q341 652 318 629T265 606Q240 606 223 623T205 666Q205 696 228 719T281 742Q307 742 324 725T341 682Z" />
<glyph unicode="&#x131;" glyph-name="dotlessi" horiz-adv-x="258" d="M141 0H9L130 550H262L141 0Z" />
<glyph unicode="&#x141;" glyph-name="Lslash" horiz-adv-x="535" d="M-3 192L23 308L103 349L173 667H316L264 431L350 476L324 359L238 315L196 125H478L451 0H26L77 233L-3 192Z" />
<glyph unicode="&#x142;" glyph-name="lslash" horiz-adv-x="480" d="M-15 140L11 256L84 293L141 550H273L233 370L325 417L299 300L207 253L177 115H419L394 0H20L59 178L-15 140Z" />
<glyph unicode="&#x152;" glyph-name="OE" horiz-adv-x="1084" d="M987 0H516L532 76Q455 -12 324 -12Q206 -12 125 72T44 287Q44 400 96 490T235 629T422 677Q578 677 640 563L663 667H1134L1107 542H778L747 402H1069L1041 277H719L686 125H1015L987 0ZM564
219L608 420Q592 482 545 516T431 551Q328 551 261 477T193 296Q193 214 243 164T373 114Q430 114 481 142T564 219Z" />
<glyph unicode="&#x153;" glyph-name="oe" horiz-adv-x="929" d="M833 0H418L431 60Q406 26 364 7T275 -12Q167 -12 100 59T32 241Q32 371 125 466T357 562Q410 562 455 540T523 476L539 550H954L929 435H646L625 337H901L876 222H599L576 115H859L833 0ZM460
194L494 346Q480 395 442 420T354 446Q275 446 222 388T168 250Q168 184 208 144T314 104Q360 104 398 127T460 194Z" />
<glyph unicode="&#x160;" glyph-name="Scaron" horiz-adv-x="600" d="M459 728H345L282 872H358L412 783L502 872H582L459 728ZM301 -12Q204 -12 123 22T-1 113L87 218Q122 171 183 143T312 114Q362 114 387 137T413 189Q413 208 395 223T349 250T286 273T216
301T153 337T106 388T88 460Q88 547 159 612T349 677Q429 677 499 649T615 569L526 467Q490 508 436 530T327 552Q289 552 264 533T238 486Q238 463 271 444T353 409T449 371T530 310T564 217Q564 122 493 55T301 -12Z" />
<glyph unicode="&#x161;" glyph-name="scaron" horiz-adv-x="516" d="M400 606H286L223 750H299L353 661L443 750H523L400 606ZM250 -12Q72 -12 -13 84L68 183Q97 147 148 126T258 104Q301 104 320 120T339 162Q339 182 311 197T242 224T162 254T93 305T64 387Q64
455 127 508T288 562Q360 562 423 536T524 469L443 376Q417 405 371 425T281 446Q246 446 225 431T203 393Q203 373 231 359T300 333T380 303T449 252T478 168Q478 95 419 42T250 -12Z" />
<glyph unicode="&#x178;" glyph-name="Ydieresis" horiz-adv-x="645" d="M618 792Q618 762 595 739T541 716Q516 716 499 733T481 776Q481 806 504 829T557 852Q583 852 600 835T618 792ZM406 792Q406 762 383 739T330 716Q304 716 287 733T270 776Q270 806 293
829T346 852Q372 852 389 835T406 792ZM340 0H198L258 273L89 667H243L349 400L573 667H742L401 273L340 0Z" />
<glyph unicode="&#x17d;" glyph-name="Zcaron" horiz-adv-x="592" d="M462 728H348L285 872H361L415 783L505 872H585L462 728ZM496 0H-12L13 115L414 542H108L135 667H636L612 553L209 125H524L496 0Z" />
<glyph unicode="&#x17e;" glyph-name="zcaron" horiz-adv-x="524" d="M398 606H284L221 750H297L351 661L441 750H521L398 606ZM434 0H-18L2 96L338 434H77L103 550H548L528 454L192 116H459L434 0Z" />
<glyph unicode="&#x192;" glyph-name="florin" horiz-adv-x="398" d="M104 -119H-40L31 203H-11V293H51L74 395Q111 561 249 561Q315 561 354 522L308 421Q298 436 273 436Q228 436 214 373L196 293H280V203H177L104 -119Z" />
<glyph unicode="&#x2c6;" glyph-name="circumflex" horiz-adv-x="300" d="M369 556H293L239 645L149 556H69L193 700H307L369 556Z" />
<glyph unicode="&#x2c7;" glyph-name="caron" horiz-adv-x="300" d="M278 556H164L101 700H177L231 611L321 700H401L278 556Z" />
<glyph unicode="&#x2d8;" glyph-name="breve" horiz-adv-x="351" d="M439 644Q354 556 245 556Q192 556 151 579T88 644L152 691Q184 629 258 629T391 691L439 644Z" />
<glyph unicode="&#x2d9;" glyph-name="dotaccent" horiz-adv-x="174" d="M239 626Q239 596 216 574T162 551Q136 551 119 568T102 611Q102 641 125 664T179 687Q205 687 222 670T239 626Z" />
<glyph unicode="&#x2da;" glyph-name="ring" horiz-adv-x="209" d="M185 547Q142 547 116 573T89 643Q89 690 123 724T204 758Q247 758 273 732T300 662Q300 616 266 582T185 547ZM190 606Q210 606 225 621T241 656Q241 675 230 687T199 699Q179 699 164 684T148
649Q148 630 159 618T190 606Z" />
<glyph unicode="&#x2db;" glyph-name="ogonek" horiz-adv-x="195" d="M68 -99L111 -135Q72 -186 17 -186Q-23 -186 -50 -166T-77 -110Q-77 -67 -48 -30T36 30L80 0Q-14 -41 -14 -99Q-14 -132 21 -132Q48 -132 68 -99Z" />
<glyph unicode="&#x2dc;" glyph-name="tilde" horiz-adv-x="327" d="M303 554Q279 554 261 564T234 588T212 611T183 622Q151 622 138 560H70Q83 627 111 660T191 694Q215 694 233 684T260 661T283 638T312 627Q342 627 357 688H425Q411 621 383 588T303 554Z" />
<glyph unicode="&#x2dd;" glyph-name="hungarumlaut" horiz-adv-x="338" d="M290 700L143 556H67L186 700H290ZM439 700L292 556H216L335 700H439Z" />
<glyph unicode="&#x3c0;" glyph-name="pi" horiz-adv-x="621" d="M472 0H344L430 388H255L170 0H41L127 388H57L81 500H652L628 388H558L472 0Z" />
<glyph unicode="&#x2013;" glyph-name="endash" horiz-adv-x="593" d="M551 188H18L41 296H574L551 188Z" />
<glyph unicode="&#x2014;" glyph-name="emdash" horiz-adv-x="833" d="M791 188H18L41 296H814L791 188Z" />
<glyph unicode="&#x2018;" glyph-name="quoteleft" horiz-adv-x="255" d="M91 477Q91 534 133 590T238 678L283 630Q252 616 224 594T185 546Q188 547 196 547Q222 547 239 530T257 482Q257 447 230 422T168 396Q136 396 114 417T91 477Z" />
<glyph unicode="&#x2019;" glyph-name="quoteright" horiz-adv-x="255" d="M291 595Q291 539 249 483T144 395L99 443Q173 477 197 527Q194 526 186 526Q160 526 142 543T124 591Q124 626 151 651T213 677Q246 677 268 656T291 595Z" />
<glyph unicode="&#x201a;" glyph-name="quotesinglbase" horiz-adv-x="255" d="M174 69Q174 13 132 -44T27 -131L-18 -84Q58 -48 80 0H69Q43 0 26 17T8 65Q8 100 35 125T97 151Q129 151 151 130T174 69Z" />
<glyph unicode="&#x201c;" glyph-name="quotedblleft" horiz-adv-x="459" d="M296 477Q296 534 338 590T443 678L488 630Q457 616 429 594T390 546Q392 547 400 547Q426 547 444 530T462 482Q462 447 435 422T373 396Q341 396 319 417T296 477ZM92 477Q92 534
134 590T239 678L285 630Q255 616 227 594T187 546Q189 547 197 547Q223 547 241 530T259 482Q259 447 232 422T170 396Q138 396 115 417T92 477Z" />
<glyph unicode="&#x201d;" glyph-name="quotedblright" horiz-adv-x="459" d="M291 595Q291 539 249 483T144 395L99 443Q173 477 197 527Q194 526 186 526Q160 526 142 543T124 591Q124 626 151 651T213 677Q246 677 268 656T291 595ZM494 595Q494 539 452 483T347
395L302 443Q332 457 360 479T400 527Q397 526 389 526Q363 526 346 543T328 591Q328 626 355 651T416 677Q449 677 471 656T494 595Z" />
<glyph unicode="&#x201e;" glyph-name="quotedblbase" horiz-adv-x="459" d="M174 69Q174 13 132 -44T27 -131L-18 -84Q58 -48 80 0H69Q43 0 26 17T8 65Q8 100 35 125T97 151Q129 151 151 130T174 69ZM377 69Q377 12 336 -44T231 -131L185 -84Q261 -48 283 0H273Q247
0 229 17T211 65Q211 100 238 125T300 151Q332 151 354 130T377 69Z" />
<glyph unicode="&#x2020;" glyph-name="dagger" horiz-adv-x="277" d="M318 522L230 526L190 327H122L171 526L81 522L95 584L183 581L200 677H268L243 581L332 584L318 522Z" />
<glyph unicode="&#x2021;" glyph-name="daggerdbl" horiz-adv-x="277" d="M332 584L318 522L230 526L187 332L277 336L263 274L175 277L157 180H89L115 277L26 274L40 336L127 332L170 526L81 522L95 584L183 581L200 677H268L243 581L332 584Z" />
<glyph unicode="&#x2022;" glyph-name="bullet" horiz-adv-x="358" d="M299 254Q299 201 260 163T166 124Q120 124 90 154T59 231Q59 284 98 322T192 361Q238 361 268 331T299 254Z" />
<glyph unicode="&#x2026;" glyph-name="ellipsis" horiz-adv-x="768" d="M82 -12Q51 -12 30 10T8 63Q8 99 34 125T97 151Q128 151 149 129T171 76Q171 40 145 14T82 -12ZM338 -12Q307 -12 286 10T264 63Q264 99 290 125T353 151Q384 151 405 129T427 76Q427 40
401 14T338 -12ZM594 -12Q563 -12 542 10T521 63Q521 99 547 125T609 151Q640 151 661 129T683 76Q683 40 657 14T594 -12Z" />
<glyph unicode="&#x2030;" glyph-name="perthousand" horiz-adv-x="905" d="M338 441Q338 379 295 333T186 286Q130 286 96 318T61 406Q61 469 104 515T212 562Q268 562 303 530T338 441ZM601 550L96 0H25L529 550H601ZM261 438Q261 463 247 479T208 496Q180 496
159 470T138 409Q138 384 152 368T190 352Q218 352 239 377T261 438ZM566 145Q566 83 522 37T413 -10Q357 -10 323 22T288 110Q288 172 331 219T439 266Q496 266 531 234T566 145ZM488 142Q488 167 474 183T436 200Q407 200 387 174T366 113Q366 88 379 73T417
57Q446 57 467 82T488 142ZM857 145Q857 83 814 37T705 -10Q649 -10 615 22T580 110Q580 173 623 219T731 266Q787 266 822 234T857 145ZM780 142Q780 167 766 183T728 200Q699 200 679 174T658 113Q658 88 671 73T709 57Q738 57 759 82T780 142Z" />
<glyph unicode="&#x2039;" glyph-name="guilsinglleft" horiz-adv-x="338" d="M263 63H149L29 243L229 420H351L147 238L263 63Z" />
<glyph unicode="&#x203a;" glyph-name="guilsinglright" horiz-adv-x="338" d="M77 420H191L311 240L111 63H-11L193 245L77 420Z" />
<glyph unicode="&#x2044;" glyph-name="fraction" horiz-adv-x="159" d="M424 667L-150 0H-226L347 667H424Z" />
<glyph unicode="&#x20ac;" glyph-name="Euro" horiz-adv-x="611" d="M410 296H198Q193 273 193 253H401L386 186H205Q222 147 258 126T343 104Q423 104 476 175L575 115Q535 59 474 24T336 -12Q226 -12 153 42T62 186H8L23 253H57Q59 282 62 296H32L48 364H82Q120
452 202 507T387 562Q474 562 537 520T624 408L505 365Q491 401 458 423T382 446Q337 446 297 424T229 364H426L410 296Z" />
<glyph unicode="&#x2122;" glyph-name="trademark" horiz-adv-x="454" d="M464 447H436L476 629L361 447H353L318 629L278 447H250L298 667H341L370 507L469 667H512L464 447ZM257 641H195L152 447H124L167 641H105L110 667H262L257 641Z" />
<glyph unicode="&#x2126;" glyph-name="Omega" horiz-adv-x="765" d="M-2 0L26 125H162Q56 213 56 342Q56 403 81 462T151 569T270 648T431 678Q575 678 669 603T763 400Q763 231 578 125H687L660 0H391L403 57L418 125Q504 144 557 212T610 372Q610 453 561 502T425
551Q323 551 259 476T194 298Q194 178 295 125L267 0H-2Z" />
<glyph unicode="&#x2202;" glyph-name="partialdiff" horiz-adv-x="575" d="M269 -12Q158 -12 90 46T21 198Q21 307 93 383T268 460Q388 460 432 351Q417 417 354 489T208 623L298 716Q552 522 552 306Q552 172 475 80T269 -12ZM271 101Q330 101 369 142T409 246Q409
288 378 318T290 348T195 307T156 205Q156 156 186 129T271 101Z" />
<glyph unicode="&#x2206;" glyph-name="increment" horiz-adv-x="684" d="M634 0H-58L346 667H524L634 0ZM468 125L411 525L177 125H468Z" />
<glyph unicode="&#x220f;" glyph-name="product" horiz-adv-x="788" d="M585 -90H442L582 542H338L198 -90H56L195 542H91L118 667H856L828 542H724L585 -90Z" />
<glyph unicode="&#x2211;" glyph-name="summation" horiz-adv-x="586" d="M285 542L434 291L176 35H494L467 -90H-29L-1 35L259 296L112 543L139 667H634L606 542H285Z" />
<glyph unicode="&#x2212;" glyph-name="minus" horiz-adv-x="504" d="M486 295H40L57 374H504L486 295Z" />
<glyph unicode="&#x221a;" glyph-name="radical" horiz-adv-x="682" d="M350 0H266L220 302L79 255L72 331L297 403L336 127L653 667H750L350 0Z" />
<glyph unicode="&#x221e;" glyph-name="infinity" horiz-adv-x="690" d="M192 159Q123 159 84 198T45 304Q45 385 96 449T232 513Q284 513 323 487T382 411Q453 513 537 513Q605 513 644 473T683 366Q683 285 633 222T496 159Q386 159 347 260Q278 159 192 159ZM493
237Q539 237 569 270T599 354Q599 390 576 412T518 434Q454 434 401 331Q407 286 431 262T493 237ZM212 237Q278 237 329 340Q324 384 299 409T237 434Q191 434 161 401T131 317Q131 281 154 259T212 237Z" />
<glyph unicode="&#x222b;" glyph-name="integral'" horiz-adv-x="373" d="M1 -100H-59L-41 -15H20Q50 -15 71 5T99 60L221 608Q258 768 412 768H472L453 683H392Q362 683 342 663T313 609L191 59Q156 -100 1 -100Z" />
<glyph unicode="&#x2248;" glyph-name="approxequal" horiz-adv-x="504" d="M19 201L38 286Q81 256 143 256Q188 256 253 282T377 308Q440 308 484 285L465 199Q422 229 359 229Q314 229 249 204T125 178Q60 178 19 201ZM60 383L79 469Q122 439 183 439Q228 439
293 465T417 491Q480 491 524 468L506 382Q461 412 400 412Q355 412 290 387T166 361Q102 361 60 383Z" />
<glyph unicode="&#x2260;" glyph-name="notequal" horiz-adv-x="504" d="M105 93H25L117 201H19L37 279H184L279 389H61L78 468H347L438 574H519L427 468H524L507 389H359L265 279H483L466 201H198L105 93Z" />
<glyph unicode="&#x2264;" glyph-name="lessequal" horiz-adv-x="504" d="M445 110L43 308L63 400L554 600L532 502L143 350L465 199L445 110ZM421 0H-25L-8 79H438L421 0Z" />
<glyph unicode="&#x2265;" glyph-name="greaterequal" horiz-adv-x="504" d="M489 308L-2 110L20 207L409 357L87 510L107 600L509 400L489 308ZM421 0H-25L-8 79H438L421 0Z" />
<glyph unicode="&#x25ca;" glyph-name="lozenge" horiz-adv-x="375" d="M144 0H123L39 334L270 667H291L376 334L144 0ZM142 45L339 338L272 622L76 330L142 45Z" />
<glyph unicode="&#xf8ff;" glyph-name="" horiz-adv-x="667" d="M198 153L213 220H140Q110 220 88 198T65 146Q65 121 81 104T121 87Q183 87 198 153ZM263 447L276 504Q278 516 278 522Q278 548 262 564T219 580Q188 580 166 559T144 507Q144 480 162 464T208
447H263ZM269 265H406L437 402H300L269 265ZM561 160Q561 187 543 203T497 220H442L430 163Q428 157 428 145Q428 119 444 103T486 87Q518 87 539 108T561 160ZM641 521Q641 546 625 563T584 580Q554 580 534 562T507 514L493 447H566Q595 447 618 469T641 521ZM607
160Q607 112 568 77T479 42Q437 42 409 70T381 140Q381 154 384 169L396 220H259L242 145Q231 99 197 71T117 42Q76 42 47 70T18 139Q18 188 56 226T143 265H223L254 402H199Q154 402 127 431T99 507Q99 555 137 590T226 625Q268 625 296 597T324 527Q324 513 321
498L309 447H446L463 522Q474 568 508 596T588 625Q630 625 659 597T688 528Q688 478 650 440T563 402H483L452 265H504Q550 265 578 236T607 160Z" />
<glyph unicode="&#xfb01;" glyph-name="fi" horiz-adv-x="767" d="M650 0H518L639 550H771L650 0ZM141 0H9L130 550H545L520 435H238L215 337H492L467 222H190L141 0Z" />
<glyph unicode="&#xfb02;" glyph-name="fl" horiz-adv-x="978" d="M892 0H518L639 550H771L675 115H917L892 0ZM141 0H9L130 550H545L520 435H238L215 337H492L467 222H190L141 0Z" />
</font>
</defs>
</svg>
