<?xml  version="1.0" encoding="UTF-8"?>
<!DOCTYPE svg PUBLIC "-//W3C//DTD SVG 1.0//EN" "http://www.w3.org/TR/2001/REC-SVG-20010904/DTD/svg10.dtd" >
<svg xmlns="http://www.w3.org/2000/svg" >
<metadata>
<version>1.0</version>
<id><![CDATA[Proxima N W01 At X Cd Sbd It]]></id>
<vendor>Monotype Imaging Inc.</vendor>
<credits>
<name>Fonts.com WebFonts</name>
<URL>http://webfonts.fonts.com</URL>
<role>Home of the Web fonts</role>
</credits>
<license>
<URL>http://webfonts.fonts.com/Legal</URL>
</license>
<copyright><![CDATA[Copyright (c) Mark Simonson, 2005. All rights reserved.]]></copyright>
<trademark><![CDATA[Proxima Nova is a trademark of Mark Simonson.]]></trademark>
<licensee>
<name></name>
</licensee>
</metadata>
<defs >
<font horiz-adv-x="373" id="4ae7336d-a626-4bbb-810e-92aec24320c2">
<font-face font-family="" panose-1="2 0 5 6 3 0 0 2 0 4" ascent="741" descent="-259" units-per-em="1000" alphabetic="0">
</font-face>
<missing-glyph horiz-adv-x="0" />

<glyph unicode="&#xA;" />
<glyph unicode="&#xD;" horiz-adv-x="0" />
<glyph unicode=" " horiz-adv-x="165" />
<glyph unicode="!" horiz-adv-x="239" d="M69 198L155 667H270L149 198H69ZM70 -11Q46 -11 29 6T12 48Q12 77 32 97T82 118Q107 118 124 101T141 59Q141 30 120 10T70 -11Z"  />
<glyph unicode="&quot;" horiz-adv-x="366" d="M115 399Q119 456 123 502Q124 521 125 540T128 575T130 601T131 613Q133 641 150 659T194 677Q214 677 228 663T242 628Q242 621 240 614T236 602Q235 600 232 591T222 567T209 534T195 497Q178 453 158 399H115ZM275 399Q279 456 283 502Q284 521 285 540T288 575T290 601T291 613Q292 641 309 659T353 677Q373 677 387 663T401 628Q401 621 399 614T395 602Q393 598 381 567T355 497Q338 453 318 399H275Z"  />
<glyph unicode="#" horiz-adv-x="441" d="M121 0L203 177H136L56 0H-16L64 177H1L29 240H93L178 427H113L140 489H205L286 667H358L278 489H344L424 667H496L416 489H479L452 427H388L302 240H369L341 177H274L194 0H121ZM315 427H250L165 240H230L315 427Z"  />
<glyph unicode="$" horiz-adv-x="369" d="M101 -8Q62 -2 30 16T-20 61L42 138Q58 112 85 97T140 81Q157 81 173 88T202 110T222 144T230 190Q230 225 207 254T157 314T106 382T83 472Q83 512 96 547T132 609T186 653T253 676L274 768H347L325 672Q351 665 375 652T417 618L360 541Q345 561 323 573T275 585Q237 585 216 557T194 490Q194 458 216 430T266 369T315 298T338 207Q338 166 326 130T293 65T241 17T174 -9L154 -100H81L101 -8Z"  />
<glyph unicode="%" horiz-adv-x="580" d="M75 0L498 667H545L121 0H75ZM388 -12Q361 -12 341 -2T307 25T286 64T279 111Q279 154 292 192T326 258T374 302T431 318Q458 318 478 308T512 282T533 243T540 195Q540 151 527 114T493 48T445 4T388 -12ZM392 49Q406 49 420 60T446 90T465 134T473 189Q473 258 427 258Q413 258 399 247T372 217T353 172T345 117Q345 49 392 49ZM188 347Q161 347 141 357T107 383T86 422T79 470Q79 513 92 551T126 617T174 661T230 677Q257 677 277 667T311 640T332 601T339 554Q339 510 326 473T292 407T244 363T188 347ZM192 407Q206 407 220 418T246 448T265 493T273 548Q273 616 226 616Q212 616 198 605T172 575T153 531T145 476Q145 407 192 407Z"  />
<glyph unicode="&amp;" horiz-adv-x="426" d="M269 0Q265 9 262 18T254 38Q226 14 196 1T134 -12Q78 -12 43 23T8 124Q8 172 20 209T53 277T100 330T155 374Q151 399 149 422T147 468Q147 511 159 549T193 615T241 660T298 677Q343 677 371 650T400 563Q400 522 387 491T352 435T302 388T246 345Q250 328 255 310T265 273Q271 251 276 233T287 197Q305 229 320 261T347 322L416 283Q393 234 369 190T318 109Q328 85 339 59T364 0H269ZM155 64Q173 64 191 76T228 109Q218 136 210 162T195 211Q189 231 184 250T174 287Q144 258 125 223T105 137Q105 105 118 85T155 64ZM231 462Q231 454 231 445T232 428Q268 456 292 487T317 563Q317 590 310 598T290 607Q278 607 268 594T249 561T236 514T231 462Z"  />
<glyph unicode="&apos;" horiz-adv-x="208" d="M115 399Q119 456 123 502Q124 521 125 540T128 575T130 601T131 613Q133 641 150 659T194 677Q214 677 228 663T242 628Q242 621 240 614T236 602Q235 600 232 591T222 567T209 534T195 497Q178 453 158 399H115Z"  />
<glyph unicode="(" horiz-adv-x="237" d="M53 -199Q38 -150 30 -93T21 25Q21 216 82 380T248 685L308 649Q267 578 232 497T172 328T132 151T117 -26Q117 -37 117 -55T119 -94T121 -137T125 -176L53 -199Z"  />
<glyph unicode=")" horiz-adv-x="237" d="M183 685Q198 636 206 579T215 461Q215 270 154 106T-12 -199L-72 -163Q-31 -92 4 -11T64 158T104 335T119 512Q119 522 119 540T117 580T115 623T111 662L183 685Z"  />
<glyph unicode="*" horiz-adv-x="313" d="M160 381L191 497L82 447L67 494L178 534L90 595L125 636L206 566L226 677H278L247 561L355 611L370 564L260 524L348 463L312 422L231 492L212 381H160Z"  />
<glyph unicode="+" horiz-adv-x="381" d="M238 306L204 157H137L170 306H43L56 368H184L215 511H283L252 368H379L365 306H238Z"  />
<glyph unicode="&#x2c;" horiz-adv-x="241" d="M145 52Q145 26 135 1T108 -48T67 -91T18 -124L-18 -86Q9 -73 35 -51T71 -2Q70 -3 67 -3T62 -3Q42 -3 28 11T13 49Q13 78 34 98T83 118Q108 118 126 101T145 52Z"  />
<glyph unicode="-" horiz-adv-x="239" d="M20 201L38 283H216L199 201H20Z"  />
<glyph unicode="." horiz-adv-x="239" d="M71 -11Q46 -11 30 6T13 48Q13 77 33 97T83 118Q108 118 125 101T142 59Q142 30 121 10T71 -11Z"  />
<glyph unicode="/" horiz-adv-x="216" d="M-59 -20L244 687H315L11 -20H-59Z"  />
<glyph unicode="0" horiz-adv-x="436" d="M179 -12Q116 -12 76 37T35 187Q35 240 43 296T68 407T108 511T159 597T222 655T295 677Q359 677 399 629T440 478Q440 425 432 369T407 258T367 154T315 68T252 10T179 -12ZM189 81Q211 81 230 104T266 163T296 246T318 338T332 425T337 496Q337 538 326 561T285 584Q263 584 244 561T208 502T178 420T156 328T142 240T137 169Q137 128 148 105T189 81Z"  />
<glyph unicode="1" horiz-adv-x="324" d="M109 0L226 531L109 430L62 494L269 667H360L213 0H109Z"  />
<glyph unicode="2" horiz-adv-x="419" d="M-8 0L15 106Q100 199 160 263T258 374T313 452T331 515Q331 547 314 565T266 584Q236 584 210 569T157 517L101 584Q136 626 179 651T276 677Q312 677 342 667T394 639T428 592T441 528Q441 485 425 445T374 355T283 243T148 92H348L328 0H-8Z"  />
<glyph unicode="3" horiz-adv-x="418" d="M174 -12Q143 -12 114 -4T60 21T18 63T-9 122L77 173Q88 127 113 104T174 81Q198 81 216 94T246 128T265 174T271 224Q271 262 250 278T200 295Q189 295 181 295T166 293L187 388Q190 388 196 388T210 387T225 387T236 387Q260 387 278 398T307 428T325 470T331 517Q331 552 312 568T259 584Q231 584 205 567T161 522L103 583Q133 622 177 649T276 677Q311 677 341 668T392 641T426 597T439 536Q439 501 428 469T397 409T351 364T295 339Q317 331 332 318T356 288T370 252T374 213Q374 169 359 129T317 57T254 7T174 -12Z"  />
<glyph unicode="4" horiz-adv-x="403" d="M179 0L213 158H-5L17 259L303 667H430L337 250H389L369 158H317L283 0H179ZM298 539L103 250H233L298 539Z"  />
<glyph unicode="5" horiz-adv-x="423" d="M174 -12Q101 -12 59 24T-1 121L84 171Q93 127 116 104T174 81Q196 81 216 97T251 138T274 197T283 263Q283 296 268 316T222 336Q196 336 176 323T135 286L63 315L142 667H453L433 575H226L182 376Q202 400 224 411T277 422Q329 422 360 384T392 276Q392 221 376 170T332 78T263 13T174 -12Z"  />
<glyph unicode="6" horiz-adv-x="421" d="M184 -12Q145 -12 116 2T69 41T41 103T32 182Q32 218 39 268T60 374T96 483T150 580T222 650T314 677Q362 677 399 652T452 581L380 515Q375 547 357 565T308 584Q281 584 258 564T217 511T185 439T161 361Q159 353 159 349T156 337Q178 373 209 397T277 422Q327 422 360 386T393 280Q393 232 379 181T339 86T273 16T184 -12ZM188 81Q212 81 230 101T261 149T279 209T285 264Q285 293 272 314T230 336Q201 336 179 310T140 250Q137 234 135 212T132 170Q132 128 145 105T188 81Z"  />
<glyph unicode="7" horiz-adv-x="364" d="M18 0L300 575H92L112 667H438L422 595L133 0H18Z"  />
<glyph unicode="8" horiz-adv-x="419" d="M179 -12Q99 -12 54 21T8 131Q8 163 17 195T46 257T95 311T164 352Q135 370 115 406T94 485Q94 524 109 558T149 619T209 661T282 677Q312 677 340 670T392 646T429 602T443 536Q443 497 431 465T399 407T352 364T298 337Q335 313 354 274T373 193Q373 149 359 112T319 47T257 4T179 -12ZM239 378Q255 384 272 395T303 423T326 464T336 520Q336 550 321 567T278 584Q260 584 245 575T219 549T202 511T196 465Q196 436 210 413T239 378ZM178 81Q196 81 212 91T241 118T262 160T270 211Q270 232 265 248T253 277T237 296T223 307Q204 301 185 288T151 254T127 209T117 152Q117 115 134 98T178 81Z"  />
<glyph unicode="9" horiz-adv-x="421" d="M276 678Q315 678 344 664T391 625T419 563T428 484Q428 448 421 398T400 292T363 183T309 86T237 16T146 -11Q98 -11 61 14T7 85L79 151Q84 119 103 101T151 82Q179 82 201 102T242 155T274 227T298 305Q300 313 301 317T304 329Q282 293 251 269T182 244Q133 244 100 280T67 386Q67 434 81 485T121 580T187 650T276 678ZM272 585Q248 585 230 565T199 517T181 457T175 402Q175 373 187 352T229 330Q259 330 281 356T320 416Q323 432 325 454T328 496Q328 538 315 561T272 585Z"  />
<glyph unicode=":" horiz-adv-x="238" d="M72 -11Q47 -11 30 6T13 48Q13 77 34 97T84 118Q108 118 125 101T142 59Q142 30 122 10T72 -11ZM154 361Q129 361 112 378T95 420Q95 449 115 469T165 490Q190 490 207 473T224 431Q224 402 204 382T154 361Z"  />
<glyph unicode=";" horiz-adv-x="239" d="M145 52Q145 26 135 1T108 -48T67 -91T18 -124L-18 -86Q9 -73 35 -51T71 -2Q70 -3 67 -3T62 -3Q42 -3 28 11T13 49Q13 78 34 98T83 118Q108 118 126 101T145 52ZM154 361Q129 361 112 378T95 420Q95 449 115 469T165 490Q190 490 207 473T224 431Q224 402 204 382T154 361Z"  />
<glyph unicode="&lt;" horiz-adv-x="381" d="M41 301L56 368L411 511L393 434L122 331L348 228L332 158L41 301Z"  />
<glyph unicode="=" horiz-adv-x="381" d="M63 399L77 461H399L386 399H63ZM20 207L34 269H357L343 207H20Z"  />
<glyph unicode="&gt;" horiz-adv-x="381" d="M9 158L27 235L299 337L73 441L88 511L379 368L364 301L9 158Z"  />
<glyph unicode="?" horiz-adv-x="320" d="M114 192Q109 205 106 222T103 254Q103 289 114 316T143 365T181 406T218 444T247 483T259 530Q259 553 245 571T204 589Q170 589 143 565L113 635Q142 658 173 668T234 678Q264 678 288 669T330 643T357 604T367 557Q367 520 354 491T322 437T280 391T238 350T205 308T192 263Q192 255 193 243T199 223L114 192ZM114 -11Q90 -11 73 6T56 48Q56 77 76 97T126 118Q151 118 168 101T185 59Q185 30 164 10T114 -11Z"  />
<glyph unicode="@" horiz-adv-x="620" d="M287 -70Q233 -70 190 -50T117 7T71 96T55 215Q55 296 82 372T155 508T264 603T396 639Q442 639 480 623T546 575T589 498T605 396Q605 331 592 275T557 176T505 110T445 85Q412 85 391 103T365 153L364 161Q345 132 319 109T253 85Q236 85 220 91T190 111T168 150T160 211Q160 262 173 313T211 405T270 473T347 499Q377 499 394 480T419 431L430 483H514L458 220Q457 216 456 207T455 192Q455 151 484 151Q494 151 508 167T536 214T558 291T567 395Q567 497 520 550T394 603Q332 603 278 570T182 481T117 357T93 216Q93 161 106 115T144 36T206 -16T292 -35Q335 -35 369 -20T435 21L453 -7Q415 -37 375 -53T287 -70ZM292 153Q321 153 340 176T374 223L406 371Q401 393 391 411T359 430Q332 430 312 409T277 357T255 290T248 224Q248 191 258 172T292 153Z"  />
<glyph unicode="A" horiz-adv-x="398" d="M237 0L244 136H111L59 0H-51L232 667H352L341 0H237ZM268 548L144 228H251L268 548Z"  />
<glyph unicode="B" horiz-adv-x="431" d="M3 0L150 667H295Q331 667 358 656T405 627T433 583T443 527Q443 495 434 463T408 404T367 359T311 335Q330 329 343 317T366 289T379 254T383 216Q383 178 372 140T339 70T282 20T201 0H3ZM245 386Q267 386 283 398T310 428T326 467T332 508Q332 542 314 558T265 575H234L192 386H245ZM183 92Q204 92 221 103T251 132T271 174T278 224Q278 261 261 277T210 294H172L127 92H183Z"  />
<glyph unicode="C" horiz-adv-x="412" d="M191 -12Q116 -12 75 40T34 190Q34 228 40 278T61 383T96 490T148 585T218 652T306 678Q345 678 372 663T417 624T443 568T454 503L357 484Q354 530 341 557T299 585Q274 585 252 563T213 506T182 426T159 337T146 253T141 187Q141 130 155 106T197 81Q222 81 243 102T285 164L368 128Q336 62 294 25T191 -12Z"  />
<glyph unicode="D" horiz-adv-x="455" d="M3 0L150 667H296Q326 667 354 655T404 617T439 551T453 457Q453 427 447 382T428 285T392 183T336 92T258 26T153 0H3ZM127 92H171Q203 92 228 113T273 168T307 243T329 325T342 401T346 456Q346 520 325 547T276 575H234L127 92Z"  />
<glyph unicode="E" horiz-adv-x="367" d="M3 0L150 667H423L403 575H234L192 386H354L333 294H172L127 92H296L276 0H3Z"  />
<glyph unicode="F" horiz-adv-x="365" d="M3 0L150 667H423L403 575H234L192 386H354L333 294H172L107 0H3Z"  />
<glyph unicode="G" horiz-adv-x="435" d="M180 -12Q111 -12 73 39T34 190Q34 227 40 277T61 382T98 489T151 584T224 652T318 678Q351 678 375 665T416 629T440 577T449 515L360 494Q358 531 345 558T305 585Q279 585 257 564T216 508T184 430T161 342T146 257T141 187Q141 134 153 108T196 81Q216 81 233 96T265 137T291 194T310 261H217L238 353H431Q413 265 391 197T338 83T270 12T180 -12Z"  />
<glyph unicode="H" horiz-adv-x="463" d="M248 0L314 297H172L107 0H3L150 667H254L193 389H334L395 667H500L353 0H248Z"  />
<glyph unicode="I" horiz-adv-x="218" d="M3 0L150 667H254L107 0H3Z"  />
<glyph unicode="J" horiz-adv-x="337" d="M82 -12Q47 -12 15 -1T-37 34L8 116Q20 98 38 90T74 81Q108 81 128 100T158 161L270 667H374L261 156Q241 68 199 28T82 -12Z"  />
<glyph unicode="K" horiz-adv-x="448" d="M277 0L211 272L147 184L107 0H3L150 667H254L186 357L401 667H522L288 352L388 0H277Z"  />
<glyph unicode="L" horiz-adv-x="351" d="M3 0L150 667H254L127 92H296L276 0H3Z"  />
<glyph unicode="M" horiz-adv-x="591" d="M378 0L480 465L260 0H223L210 465L107 0H3L150 667H283L295 255L492 667H628L481 0H378Z"  />
<glyph unicode="N" horiz-adv-x="463" d="M254 0L201 429L107 0H3L150 667H254L303 251L395 667H500L353 0H254Z"  />
<glyph unicode="O" horiz-adv-x="459" d="M191 -12Q150 -12 120 4T71 47T43 111T34 190Q34 227 40 278T61 383T97 490T149 584T218 652T306 678Q347 678 377 662T426 618T454 553T463 474Q463 437 457 387T436 282T400 176T348 81T279 14T191 -12ZM197 81Q222 81 243 102T282 158T313 236T336 324T351 408T356 477Q356 526 344 555T299 585Q274 585 253 564T214 507T183 429T160 341T146 256T141 187Q141 139 153 110T197 81Z"  />
<glyph unicode="P" horiz-adv-x="418" d="M3 0L150 667H298Q331 667 358 655T404 622T434 571T445 506Q445 459 431 414T389 334T319 277T219 255H163L107 0H3ZM183 347H227Q254 347 274 360T308 395T329 443T336 496Q336 536 319 555T274 575H234L183 347Z"  />
<glyph unicode="Q" horiz-adv-x="459" d="M191 -12Q150 -12 120 4T71 47T43 111T34 190Q34 227 40 278T61 383T97 490T149 584T218 652T306 678Q347 678 377 662T426 618T454 553T463 474Q463 429 454 366T423 238T370 115T293 23L300 -21L221 -35L217 -10Q210 -11 204 -11T191 -12ZM202 81L181 215L260 229L274 143Q293 177 308 222T334 313T350 403T356 477Q356 526 344 555T299 585Q274 585 253 564T214 507T183 429T160 341T146 256T141 187Q141 139 153 110T197 81H202Z"  />
<glyph unicode="R" horiz-adv-x="438" d="M237 0L216 255H163L107 0H3L150 667H297Q330 667 357 655T404 621T435 570T446 506Q446 464 435 426T406 356T363 304T314 274L346 0H237ZM183 347H229Q255 347 275 360T308 395T329 443T336 497Q336 538 319 556T275 575H234L183 347Z"  />
<glyph unicode="S" horiz-adv-x="378" d="M140 -12Q89 -12 46 8T-20 61L42 138Q58 112 85 97T140 81Q157 81 173 88T202 110T222 144T230 190Q230 225 207 254T157 314T106 382T83 472Q83 515 98 552T140 618T201 662T276 678Q315 678 353 663T417 618L360 541Q345 561 323 573T275 585Q237 585 216 557T194 490Q194 458 216 430T266 369T315 298T338 207Q338 162 324 122T283 52T220 5T140 -12Z"  />
<glyph unicode="T" horiz-adv-x="347" d="M67 0L194 575H91L111 667H422L401 575H298L171 0H67Z"  />
<glyph unicode="U" horiz-adv-x="464" d="M197 -12Q164 -12 135 -2T85 29T51 78T39 143Q39 165 44 188L150 667H254L146 179Q145 174 144 165T143 147Q143 114 160 97T205 80Q236 80 256 102T289 179L396 667H500L394 184Q371 81 320 35T197 -12Z"  />
<glyph unicode="V" horiz-adv-x="398" d="M85 0L96 667H200L172 135L378 667H488L205 0H85Z"  />
<glyph unicode="W" horiz-adv-x="587" d="M301 0L343 466L178 0H71L107 667H212L167 184L343 667H427L390 184L558 667H666L408 0H301Z"  />
<glyph unicode="X" horiz-adv-x="408" d="M244 0L206 241L67 0H-53L168 345L102 667H212L243 437L372 667H493L282 335L354 0H244Z"  />
<glyph unicode="Y" horiz-adv-x="405" d="M97 0L158 279L90 667H197L228 382L386 667H501L262 279L201 0H97Z"  />
<glyph unicode="Z" horiz-adv-x="360" d="M-23 0L-4 89L273 575H104L124 667H416L397 582L117 92H296L276 0H-23Z"  />
<glyph unicode="[" horiz-adv-x="195" d="M-61 -190L131 678H273L259 612H187L23 -124H95L80 -190H-61Z"  />
<glyph unicode="\" horiz-adv-x="216" d="M89 687H157V-20H89V687Z"  />
<glyph unicode="]" horiz-adv-x="195" d="M-79 -190L-64 -124H8L171 612H99L113 678H256L63 -190H-79Z"  />
<glyph unicode="^" horiz-adv-x="334" d="M266 333L245 590L111 333H38L225 667H295L334 333H266Z"  />
<glyph unicode="_" horiz-adv-x="279" d="M-80 -106L-65 -40H219L204 -106H-80Z"  />
<glyph unicode="`" horiz-adv-x="164" d="M173 556L101 700H186L233 556H173Z"  />
<glyph unicode="a" horiz-adv-x="398" d="M210 0L220 47Q203 19 176 4T118 -12Q96 -12 77 -4T42 19T19 56T10 109Q10 148 21 184T52 247T101 290T163 307Q191 307 220 291T263 243L280 318Q282 329 283 337T285 355Q285 385 266 401T215 417Q191 417 166 408T115 376L93 445Q123 470 161 482T237 495Q268 495 294 488T340 467T371 431T383 380Q383 369 382 359T376 331L304 0H210ZM162 53Q182 53 200 65T232 104L251 186Q245 212 228 226T187 241Q167 241 152 229T127 199T112 160T107 118Q107 85 122 69T162 53Z"  />
<glyph unicode="b" horiz-adv-x="406" d="M196 -12Q164 -12 140 6T104 65L90 0H-3L143 667H237L183 423Q206 461 232 478T285 495Q335 495 361 457T387 346Q387 315 382 277T367 199T341 121T304 54T255 6T196 -12ZM177 71Q205 71 226 101T262 174T283 261T290 335Q290 412 239 412Q219 412 199 392T166 345L120 139Q123 110 139 91T177 71Z"  />
<glyph unicode="c" horiz-adv-x="333" d="M170 -12Q101 -12 61 31T21 162Q21 214 35 273T78 381T147 462T242 495Q279 495 308 482T355 446L308 376Q297 395 281 403T248 412Q216 412 192 387T152 324T127 245T118 169Q118 117 138 94T190 71Q208 71 223 79T250 100L269 26Q227 -12 170 -12Z"  />
<glyph unicode="d" horiz-adv-x="406" d="M209 495Q241 495 266 477T302 418L356 667H450L302 0H208L222 60Q199 22 173 5T120 -12Q70 -12 44 26T18 137Q18 168 23 206T38 284T65 362T102 429T150 477T209 495ZM229 412Q210 412 194 398T166 360T144 309T128 251T118 194T115 148Q115 71 166 71Q186 71 206 91T239 138L285 344Q282 373 266 392T229 412Z"  />
<glyph unicode="e" horiz-adv-x="391" d="M175 -12Q102 -12 61 32T20 163Q20 190 25 225T42 297T71 369T113 433T167 478T236 495Q305 495 339 455T374 337Q374 303 368 269T355 211H114Q108 182 108 158Q108 140 112 123T126 94T152 73T191 65Q214 65 236 78T275 112L311 54Q282 22 247 5T175 -12ZM280 278Q288 310 288 338Q288 372 273 395T229 418Q206 418 189 404T160 369T139 324T127 278H276H280Z"  />
<glyph unicode="f" horiz-adv-x="239" d="M11 0L100 401H54L73 483H118L131 546Q146 615 180 646T264 677Q299 677 327 664L295 588Q290 591 285 592T274 594Q254 594 242 582T225 546L212 483H275L256 401H194L105 0H11Z"  />
<glyph unicode="g" horiz-adv-x="406" d="M111 -196Q66 -196 28 -181T-35 -137L16 -64Q31 -86 55 -99T109 -113Q146 -113 169 -87T207 -3L226 73Q204 36 178 19T123 1Q75 1 47 36T19 144Q19 173 23 210T38 287T63 363T100 430T148 477T210 495Q223 495 237 490T265 476T288 452T302 418L316 483H409L301 -3Q289 -58 270 -95T227 -154T174 -186T111 -196ZM168 84Q189 84 209 104T242 151L285 344Q281 370 265 391T227 412Q199 412 179 384T144 316T123 234T116 162Q116 118 129 101T168 84Z"  />
<glyph unicode="h" horiz-adv-x="402" d="M204 0L283 355Q284 358 285 365T286 377Q286 412 252 412Q240 412 228 406T204 389T182 366T165 340L90 0H-4L143 667H237L183 421Q205 451 235 473T303 495Q345 495 366 473T387 417Q387 411 386 403T383 387L298 0H204Z"  />
<glyph unicode="i" horiz-adv-x="194" d="M169 546Q146 546 131 561T115 597Q115 613 121 625T138 647T160 660T183 665Q206 665 221 650T237 613Q237 597 231 585T215 564T193 551T169 546ZM-4 0L103 483H197L90 0H-4Z"  />
<glyph unicode="j" horiz-adv-x="194" d="M-56 -196Q-79 -196 -97 -189T-126 -166L-85 -97Q-79 -113 -60 -113Q-46 -113 -35 -100T-17 -54L103 483H197L77 -54Q69 -91 58 -117T31 -161T-6 -187T-56 -196ZM169 546Q146 546 131 561T115 597Q115 613 121 625T138 647T160 660T183 665Q206 665 221 650T237 613Q237 597 231 585T215 564T193 551T169 546Z"  />
<glyph unicode="k" horiz-adv-x="385" d="M221 0L185 207L115 117L90 0H-4L143 667H237L144 247L321 483H426L260 268L321 0H221Z"  />
<glyph unicode="l" horiz-adv-x="222" d="M113 -12Q67 -12 41 6T14 66Q14 74 15 84T19 107L143 667H237L117 123Q115 118 114 111T113 99Q114 71 141 71Q156 71 168 84L174 7Q163 -1 148 -6T113 -12Z"  />
<glyph unicode="m" horiz-adv-x="610" d="M412 0L490 355Q491 357 492 364T494 377Q494 412 460 412Q448 412 436 406T412 389T390 366T372 340L298 0H204L283 355Q284 360 285 366T286 378Q286 412 252 412Q239 412 227 406T203 389T182 366T165 340L90 0H-4L103 483H197L183 421Q205 452 236 473T303 495Q341 495 364 475T387 425Q387 420 386 415Q409 449 442 472T510 495Q549 495 572 475T595 418Q595 410 594 402T591 387L506 0H412Z"  />
<glyph unicode="n" horiz-adv-x="402" d="M204 0L283 355Q284 360 285 366T286 377Q286 412 252 412Q240 412 228 406T204 389T182 366T165 340L90 0H-4L103 483H197L183 421Q205 451 235 473T303 495Q342 495 364 474T387 417Q387 412 386 402T383 387L298 0H204Z"  />
<glyph unicode="o" horiz-adv-x="402" d="M163 -12Q94 -12 57 31T20 156Q20 208 34 267T75 377T143 461T237 495Q306 495 343 452T380 327Q380 275 366 216T325 106T257 22T163 -12ZM169 71Q197 71 218 100T255 171T277 255T285 328Q285 376 271 394T232 412Q203 412 182 383T145 312T123 227T115 154Q115 106 129 89T169 71Z"  />
<glyph unicode="p" horiz-adv-x="406" d="M196 -12Q164 -12 140 6T104 65L49 -184H-44L103 483H197L183 423Q206 461 232 478T285 495Q335 495 361 457T387 346Q387 315 382 277T367 199T341 121T304 54T255 6T196 -12ZM177 71Q205 71 226 101T262 174T283 261T290 335Q290 412 239 412Q219 412 199 392T166 345L120 139Q123 110 139 91T177 71Z"  />
<glyph unicode="q" horiz-adv-x="406" d="M209 495Q241 495 266 477T302 418L315 483H409L261 -184H167L222 60Q199 22 173 5T120 -12Q70 -12 44 26T18 137Q18 168 23 206T38 284T65 362T102 429T150 477T209 495ZM229 412Q210 412 194 398T166 360T144 309T128 251T118 194T115 148Q115 71 166 71Q186 71 206 91T239 138L285 344Q282 373 266 392T229 412Z"  />
<glyph unicode="r" horiz-adv-x="268" d="M-4 0L103 483H197L183 418Q203 453 234 473T310 494L288 400Q283 402 277 403T264 404Q234 404 209 384T163 332L90 0H-4Z"  />
<glyph unicode="s" horiz-adv-x="330" d="M123 -12Q74 -12 35 7T-21 57L32 118Q46 95 69 79T125 63Q154 63 174 83T194 132Q194 150 184 164T158 193T124 221T91 252T65 291T54 343Q54 373 64 400T94 449T142 482T209 495Q247 495 282 479T341 432L290 373Q280 392 257 406T207 420Q179 420 162 403T145 359Q145 343 155 330T182 303T216 275T251 242T277 202T288 150Q288 118 277 89T243 37T191 1T123 -12Z"  />
<glyph unicode="t" horiz-adv-x="247" d="M128 -12Q80 -12 55 7T29 68Q29 77 30 86T34 107L100 401H53L71 483H118L147 615H241L212 483H275L256 401H194L132 123Q130 117 129 110T128 98Q128 71 156 71Q171 71 183 84L189 7Q179 -1 165 -6T128 -12Z"  />
<glyph unicode="u" horiz-adv-x="402" d="M197 483L118 128Q117 123 116 117T115 106Q115 71 149 71Q174 71 196 92T235 140L311 483H405L298 0H204L218 62Q196 32 166 10T98 -12Q59 -12 37 9T14 66Q14 71 15 81T18 96L103 483H197Z"  />
<glyph unicode="v" horiz-adv-x="357" d="M73 0L58 483H155L147 117L303 483H405L175 0H73Z"  />
<glyph unicode="w" horiz-adv-x="579" d="M310 0L313 355L161 0H63L62 483H156L144 129L292 483H383L378 129L523 483H624L408 0H310Z"  />
<glyph unicode="x" horiz-adv-x="352" d="M193 0L163 173L56 0H-47L117 244L65 483H162L188 315L290 483H392L233 244L291 0H193Z"  />
<glyph unicode="y" horiz-adv-x="402" d="M106 -196Q58 -196 19 -180T-39 -137L12 -64Q28 -87 53 -100T105 -113Q144 -113 167 -86T203 -3L220 76Q198 45 167 23T101 1Q60 1 38 22T16 80Q16 87 17 94T20 109L103 483H197L120 141Q119 135 119 130T118 119Q118 84 152 84Q177 84 200 106T238 154L311 483H405L296 -3Q273 -105 226 -150T106 -196Z"  />
<glyph unicode="z" horiz-adv-x="321" d="M-24 0L-9 72L208 401H65L83 483H340L325 414L107 82H255L237 0H-24Z"  />
<glyph unicode="{" horiz-adv-x="212" d="M76 -190Q58 -190 42 -184T12 -167T-9 -139T-18 -102Q-18 -95 -17 -88T-14 -75L35 147Q37 157 37 166Q37 188 28 201T-2 215L11 273Q40 273 55 292T78 341L128 565Q141 622 175 650T262 678H291L276 612H247Q230 612 217 601T198 565L145 325Q137 291 123 269T80 236Q109 221 109 181Q109 173 108 165T105 147L57 -72Q56 -77 55 -81T54 -90Q54 -107 63 -116T84 -125H113L98 -190H76Z"  />
<glyph unicode="|" horiz-adv-x="179" d="M77 -20V687H142V-20H77Z"  />
<glyph unicode="}" horiz-adv-x="212" d="M135 678Q153 678 169 672T199 655T221 627T229 589Q229 584 228 576T225 563L176 341Q174 331 174 321Q174 300 183 287T213 273L200 215Q171 215 156 196T133 147L83 -77Q70 -134 36 -162T-51 -190H-80L-65 -124H-36Q-19 -124 -6 -113T13 -77L66 163Q74 197 88 219T131 252Q102 266 102 307Q102 315 103 323T106 341L154 560Q155 565 156 569T157 578Q157 595 148 604T127 613H98L113 678H135Z"  />
<glyph unicode="~" horiz-adv-x="407" d="M472 661Q464 624 452 582T422 503T376 443T313 419Q284 419 270 432T250 467T244 511T242 556T237 590T220 604Q197 604 176 561T132 418L66 425Q73 462 85 504T117 582T163 642T226 666Q255 666 269 652T289 618T295 573T296 529T301 494T318 480Q341 480 362 523T406 667L472 661Z"  />
<glyph unicode="&#xA0;" horiz-adv-x="165" />
<glyph unicode="&#xA1;" horiz-adv-x="239" d="M169 285L83 -184H-32L89 285H169ZM168 494Q192 494 209 477T226 435Q226 406 206 386T156 365Q131 365 114 382T97 424Q97 453 118 473T168 494Z"  />
<glyph unicode="&#xA2;" horiz-adv-x="333" d="M119 -5Q73 9 47 50T21 162Q21 213 34 270T74 375T140 457T230 494L246 565H317L299 485Q334 471 355 446L308 376Q298 393 281 403L207 73Q220 76 230 83T250 100L269 26Q235 -5 189 -11L169 -100H98L119 -5ZM118 169Q118 115 140 91L209 400Q187 386 170 359T142 299T124 232T118 169Z"  />
<glyph unicode="&#xA3;" horiz-adv-x="405" d="M50 337H110Q104 359 99 382T93 437Q93 488 110 532T157 608T222 659T297 677Q327 677 353 669T399 644T431 602T444 544L354 517Q352 551 339 571T298 591Q280 591 263 578T233 543T212 490T204 424Q204 399 209 378T220 337H293L279 274H224Q218 217 191 170T129 100Q140 105 148 107T164 109Q180 109 193 105T218 95T241 86T266 81Q289 81 305 90T334 113L346 29Q329 12 304 0T247 -12Q220 -12 201 -6T167 8T137 22T103 29Q84 29 66 21T21 -7L4 66Q28 80 50 101T88 147T114 201T124 258Q124 262 124 266T123 274H36L50 337Z"  />
<glyph unicode="&#xA4;" horiz-adv-x="506" d="M253 222Q310 222 341 262T372 365Q372 395 364 421T341 467T304 498T253 509Q224 509 202 498T165 468T141 422T133 365Q133 334 141 308T164 263T202 233T253 222ZM19 168L88 239Q50 294 50 365Q50 436 88 489L19 560L64 603L131 534Q155 552 185 563T253 574Q289 574 320 563T375 534L442 603L487 560L418 489Q455 435 455 365Q455 330 445 298T417 240L487 168L442 125L374 194Q325 157 253 157Q181 157 132 194L64 125L19 168Z"  />
<glyph unicode="&#xA5;" horiz-adv-x="405" d="M98 0L124 120H-5L9 182H137L159 279H31L44 341H148L91 667H198L229 382L387 667H502L301 341H401L388 279H263L241 182H366L352 120H228L202 0H98Z"  />
<glyph unicode="&#xA6;" horiz-adv-x="179" d="M77 -20V296H142V-20H77ZM77 371V687H142V371H77Z"  />
<glyph unicode="&#xA7;" horiz-adv-x="331" d="M325 331Q325 281 300 243T223 184Q245 165 257 139T270 85Q270 51 258 21T225 -31T175 -67T110 -81Q60 -81 20 -66T-42 -16L12 44Q26 20 49 5T105 -10Q136 -10 157 14T178 72Q178 92 168 106T143 134T110 161T77 190T51 229T41 281Q41 331 70 369T151 418Q125 439 111 467T96 527Q96 560 108 587T140 635T188 666T245 677Q297 677 331 661T386 615L334 563Q318 588 297 598T250 609Q221 609 204 588T186 538Q186 509 207 489T255 448T303 400T325 331ZM237 309Q237 335 226 353T204 382Q181 378 167 370T144 350T132 326T128 299Q128 279 139 258T175 220Q237 244 237 309Z"  />
<glyph unicode="&#xA8;" horiz-adv-x="272" d="M347 612Q347 589 329 571T286 553Q266 553 252 566T238 601Q238 624 256 642T299 660Q319 660 333 647T347 612ZM194 612Q194 589 176 571T133 553Q113 553 99 566T85 601Q85 624 103 642T146 660Q166 660 180 647T194 612Z"  />
<glyph unicode="&#xA9;" horiz-adv-x="778" d="M754 334Q754 263 727 200T652 90T542 16T408 -11Q337 -11 274 16T165 90T91 200T64 334Q64 405 91 468T164 578T274 652T408 679Q479 679 542 652T652 578T726 468T754 334ZM721 334Q721 398 696 455T629 554T529 621T408 646Q344 646 288 622T189 555T122 455T97 334Q97 270 121 213T188 114T287 47T408 22Q472 22 529 46T628 113T696 213T721 334ZM527 175Q500 152 466 137T391 122Q346 122 311 136T251 175T213 234T199 307Q199 358 219 402T271 478T346 529T434 547Q485 547 525 528T591 467L558 443Q540 477 508 494T433 512Q398 512 363 497T301 454T256 390T239 308Q239 278 249 251T280 202T328 169T391 157Q423 157 454 171T506 205L527 175Z"  />
<glyph unicode="&#xAA;" horiz-adv-x="304" d="M221 592Q203 592 189 576T165 535T149 482T143 431Q143 404 152 389T180 374Q194 374 208 388T232 419L260 551Q258 568 247 580T221 592ZM350 640L281 326H211L220 367Q203 340 184 329T147 318Q114 318 93 343T71 426Q71 460 80 499T106 571T147 626T204 648Q224 648 243 636T271 600L280 640H350Z"  />
<glyph unicode="&#xAB;" horiz-adv-x="359" d="M79 63L29 243L159 420H236L103 239L152 63H79ZM213 63L163 243L293 420H370L237 239L286 63H213Z"  />
<glyph unicode="&#xAC;" horiz-adv-x="381" d="M343 207H279L321 399H63L77 461H399L343 207Z"  />
<glyph unicode="&#xAD;" horiz-adv-x="239" d="M20 201L38 283H216L199 201H20Z"  />
<glyph unicode="&#xAE;" horiz-adv-x="494" d="M508 465Q508 421 492 383T446 315T378 270T295 253Q251 253 213 269T146 315T101 382T84 465Q84 509 100 548T146 615T213 660T296 677Q340 677 379 661T446 616T491 548T508 465ZM478 465Q478 503 464 536T425 594T367 633T295 647Q257 647 224 633T167 595T128 537T114 465Q114 427 128 394T166 337T224 298T295 283Q333 283 366 297T424 336T463 394T478 465ZM329 343L287 439H242L221 343H188L241 586H333Q363 586 383 569T404 522Q404 504 397 489T379 463T353 446T324 440L368 343H329ZM369 518Q369 538 357 547T327 557H268L248 469H315Q337 469 353 483T369 518Z"  />
<glyph unicode="&#xAF;" horiz-adv-x="254" d="M77 591L89 648H342L330 591H77Z"  />
<glyph unicode="&#xB0;" horiz-adv-x="298" d="M343 550Q343 524 333 501T306 461T265 434T216 424Q190 424 167 434T127 461T100 501T90 550Q90 576 100 599T127 639T167 667T216 677Q242 677 265 667T305 640T333 599T343 550ZM288 550Q288 579 267 600T216 622Q187 622 167 601T146 550Q146 521 166 501T215 480Q244 480 266 500T288 550Z"  />
<glyph unicode="&#xB1;" horiz-adv-x="381" d="M238 306L204 157H137L170 306H43L56 368H184L215 511H283L252 368H379L365 306H238ZM-18 35L-4 96H319L305 35H-18Z"  />
<glyph unicode="&#xB2;" horiz-adv-x="281" d="M68 421L81 479Q144 536 184 574T248 640T281 686T291 723Q291 745 278 756T245 768Q203 768 168 721L131 768Q155 795 185 811T250 827Q274 827 294 821T331 802T356 772T365 730Q365 703 353 678T317 624T257 561T171 480H313L300 421H68Z"  />
<glyph unicode="&#xB3;" horiz-adv-x="281" d="M326 542Q326 520 318 498T293 457T252 426T197 414Q153 414 121 432T74 484L129 524Q137 501 154 487T194 473Q210 473 221 480T240 499T251 525T255 552Q255 575 242 586T209 597Q201 597 194 597T182 596L194 655Q198 654 209 654T226 654Q253 654 271 673T290 724Q290 744 278 756T243 768Q222 768 204 757T170 726L132 767Q181 827 249 827Q301 827 332 803T363 734Q363 717 357 699T340 664T311 637T272 622Q300 614 313 592T326 542Z"  />
<glyph unicode="&#xB4;" horiz-adv-x="164" d="M130 556H67L178 700H265L130 556Z"  />
<glyph unicode="&#xB5;" horiz-adv-x="402" d="M-44 -184L103 483H197L117 126Q105 70 146 70Q170 70 194 91T234 139L311 483H405L298 0H204L217 60Q195 30 160 9T90 -12H86L49 -184H-44Z"  />
<glyph unicode="&#xB6;" horiz-adv-x="449" d="M259 -100L418 616H333L173 -100H122L216 323Q188 323 163 334T120 367T90 416T79 479Q79 514 93 548T134 608T195 651T273 667H480L310 -100H259Z"  />
<glyph unicode="&#xB7;" horiz-adv-x="239" d="M113 180Q89 180 72 197T55 239Q55 268 75 288T125 309Q150 309 167 292T184 250Q184 221 163 201T113 180Z"  />
<glyph unicode="&#xB8;" horiz-adv-x="175" d="M-1 -193Q-56 -193 -89 -155L-61 -116Q-37 -148 0 -148Q20 -148 32 -135T45 -104Q45 -80 22 -80Q7 -80 -4 -93L-37 -72L13 11H64L23 -54Q33 -44 47 -44Q69 -44 83 -59T97 -101Q97 -121 90 -137T69 -166T38 -186T-1 -193Z"  />
<glyph unicode="&#xB9;" horiz-adv-x="232" d="M150 421L216 723L149 666L114 710L248 821H311L223 421H150Z"  />
<glyph unicode="&#xBA;" horiz-adv-x="300" d="M180 318Q126 318 100 350T74 435Q74 467 83 504T112 573T159 626T225 648Q279 648 305 616T331 531Q331 499 322 462T293 393T246 340T180 318ZM183 375Q203 375 217 394T241 439T255 492T260 534Q260 590 221 590Q201 590 187 571T163 526T149 474T144 431Q144 375 183 375Z"  />
<glyph unicode="&#xBB;" horiz-adv-x="359" d="M146 420L196 240L66 63H-11L122 244L73 420H146ZM280 420L330 240L200 63H123L256 244L207 420H280Z"  />
<glyph unicode="&#xBC;" horiz-adv-x="617" d="M138 0H92L515 667H562L138 0ZM535 95L514 0H442L462 95H318L330 153L514 400H602L548 153H582L570 95H535ZM511 315L393 153H475L511 315ZM116 267L182 569L115 512L80 556L214 667H277L189 267H116Z"  />
<glyph unicode="&#xBD;" horiz-adv-x="651" d="M138 0H92L515 667H562L138 0ZM345 0L358 58Q421 115 461 153T525 219T558 265T568 302Q568 324 555 335T522 347Q480 347 445 300L408 347Q432 374 462 390T527 406Q551 406 571 400T608 381T633 351T642 309Q642 282 630 257T594 203T534 140T448 59H590L577 0H345ZM116 267L182 569L115 512L80 556L214 667H277L189 267H116Z"  />
<glyph unicode="&#xBE;" horiz-adv-x="653" d="M174 0H128L551 667H598L174 0ZM571 95L550 0H478L498 95H354L366 153L550 400H638L584 153H618L606 95H571ZM547 315L429 153H511L547 315ZM292 388Q292 366 284 344T259 303T218 272T163 260Q119 260 87 278T40 330L95 370Q103 347 120 333T160 319Q176 319 187 326T206 345T217 371T221 398Q221 421 208 432T175 443Q167 443 160 443T148 442L160 501Q164 500 175 500T192 500Q219 500 237 519T256 570Q256 590 244 602T209 614Q188 614 170 603T136 572L98 613Q147 673 215 673Q267 673 298 649T329 580Q329 563 323 545T306 510T277 483T238 468Q266 460 279 438T292 388Z"  />
<glyph unicode="&#xBF;" horiz-adv-x="280" d="M205 290Q210 277 212 260T215 229Q215 194 204 167T175 118T138 77T100 39T72 -1T60 -47Q60 -70 73 -88T114 -106Q148 -106 175 -83L205 -152Q176 -175 145 -185T85 -195Q55 -195 31 -186T-12 -160T-39 -121T-49 -74Q-49 -37 -36 -8T-4 45T38 91T80 132T113 174T126 220Q126 228 125 240T119 260L205 290ZM204 493Q229 493 245 476T262 434Q262 405 242 385T192 365Q167 365 150 382T133 424Q133 453 154 473T204 493Z"  />
<glyph unicode="&#xC0;" horiz-adv-x="398" d="M305 728L233 872H318L365 728H305ZM237 0L244 136H111L59 0H-51L232 667H352L341 0H237ZM268 548L144 228H251L268 548Z"  />
<glyph unicode="&#xC1;" horiz-adv-x="398" d="M310 728H247L358 872H445L310 728ZM237 0L244 136H111L59 0H-51L232 667H352L341 0H237ZM268 548L144 228H251L268 548Z"  />
<glyph unicode="&#xC2;" horiz-adv-x="398" d="M364 728L328 826L254 728H198L294 872H381L416 728H364ZM237 0L244 136H111L59 0H-51L232 667H352L341 0H237ZM268 548L144 228H251L268 548Z"  />
<glyph unicode="&#xC3;" horiz-adv-x="398" d="M348 726Q325 726 317 739T304 767T296 796T276 809Q262 809 251 791T231 732H180Q193 789 217 827T282 866Q305 866 313 853T326 825T335 796T355 783Q369 783 380 801T400 860H452Q439 803 414 765T348 726ZM237 0L244 136H111L59 0H-51L232 667H352L341 0H237ZM268 548L144 228H251L268 548Z"  />
<glyph unicode="&#xC4;" horiz-adv-x="398" d="M448 783Q448 760 430 742T387 724Q367 724 353 737T339 772Q339 795 357 813T400 831Q420 831 434 818T448 783ZM295 783Q295 760 277 742T234 724Q214 724 200 737T186 772Q186 795 204 813T247 831Q267 831 281 818T295 783ZM237 0L244 136H111L59 0H-51L232 667H352L341 0H237ZM268 548L144 228H251L268 548Z"  />
<glyph unicode="&#xC5;" horiz-adv-x="398" d="M307 692Q273 692 252 714T230 770Q230 789 238 806T259 837T289 859T326 867Q361 867 382 845T403 788Q403 769 395 752T374 721T344 700T307 692ZM312 736Q331 736 345 750T360 784Q360 801 350 812T323 823Q303 823 289 809T275 775Q275 758 285 747T312 736ZM237 0L244 136H111L59 0H-51L232 667H352L341 0H237ZM268 548L144 228H251L268 548Z"  />
<glyph unicode="&#xC6;" horiz-adv-x="584" d="M221 0L251 136H135L65 0H-45L323 667H641L621 575H453L411 386H573L552 294H390L346 92H514L494 0H221ZM340 537L181 228H272L340 537Z"  />
<glyph unicode="&#xC7;" horiz-adv-x="412" d="M142 -193Q87 -193 54 -155L82 -116Q106 -148 143 -148Q163 -148 175 -135T188 -104Q188 -80 165 -80Q150 -80 139 -93L106 -72L145 -6Q91 8 63 58T34 190Q34 228 40 278T61 383T96 490T148 585T218 652T306 678Q345 678 372 663T417 624T443 568T454 503L357 484Q354 530 341 557T299 585Q274 585 252 563T213 506T182 426T159 337T146 253T141 187Q141 130 155 106T197 81Q222 81 243 102T285 164L368 128Q336 62 294 26T192 -12L166 -54Q176 -44 190 -44Q212 -44 226 -59T240 -101Q240 -121 233 -137T212 -166T181 -186T142 -193Z"  />
<glyph unicode="&#xC8;" horiz-adv-x="367" d="M302 728L230 872H315L362 728H302ZM3 0L150 667H423L403 575H234L192 386H354L333 294H172L127 92H296L276 0H3Z"  />
<glyph unicode="&#xC9;" horiz-adv-x="367" d="M307 728H244L355 872H442L307 728ZM3 0L150 667H423L403 575H234L192 386H354L333 294H172L127 92H296L276 0H3Z"  />
<glyph unicode="&#xCA;" horiz-adv-x="367" d="M359 728L323 826L249 728H193L289 872H376L411 728H359ZM3 0L150 667H423L403 575H234L192 386H354L333 294H172L127 92H296L276 0H3Z"  />
<glyph unicode="&#xCB;" horiz-adv-x="367" d="M444 783Q444 760 426 742T383 724Q363 724 349 737T335 772Q335 795 353 813T396 831Q416 831 430 818T444 783ZM291 783Q291 760 273 742T230 724Q210 724 196 737T182 772Q182 795 200 813T243 831Q263 831 277 818T291 783ZM3 0L150 667H423L403 575H234L192 386H354L333 294H172L127 92H296L276 0H3Z"  />
<glyph unicode="&#xCC;" horiz-adv-x="218" d="M214 728L142 872H227L274 728H214ZM3 0L150 667H254L107 0H3Z"  />
<glyph unicode="&#xCD;" horiz-adv-x="218" d="M221 728H158L269 872H356L221 728ZM3 0L150 667H254L107 0H3Z"  />
<glyph unicode="&#xCE;" horiz-adv-x="218" d="M274 728L238 826L164 728H108L204 872H291L326 728H274ZM3 0L150 667H254L107 0H3Z"  />
<glyph unicode="&#xCF;" horiz-adv-x="218" d="M360 782Q360 759 342 741T299 723Q279 723 265 736T251 771Q251 794 269 812T312 830Q332 830 346 817T360 782ZM207 782Q207 759 189 741T146 723Q126 723 112 736T98 771Q98 794 116 812T159 830Q179 830 193 817T207 782ZM3 0L150 667H254L107 0H3Z"  />
<glyph unicode="&#xD0;" horiz-adv-x="476" d="M24 0L88 291H28L47 376H107L171 667H317Q347 667 375 655T425 617T460 551T474 457Q474 427 468 382T449 285T413 183T357 92T279 26T174 0H24ZM192 291L148 92H192Q224 92 249 113T294 168T328 243T350 325T363 401T367 456Q367 520 346 547T297 575H255L211 376H287L268 291H192Z"  />
<glyph unicode="&#xD1;" horiz-adv-x="463" d="M384 726Q361 726 353 739T340 767T332 796T312 809Q298 809 287 791T267 732H216Q229 789 253 827T318 866Q341 866 349 853T362 825T371 796T391 783Q405 783 416 801T436 860H488Q475 803 450 765T384 726ZM254 0L201 429L107 0H3L150 667H254L303 251L395 667H500L353 0H254Z"  />
<glyph unicode="&#xD2;" horiz-adv-x="459" d="M334 728L262 872H347L394 728H334ZM191 -12Q150 -12 120 4T71 47T43 111T34 190Q34 227 40 278T61 383T97 490T149 584T218 652T306 678Q347 678 377 662T426 618T454 553T463 474Q463 437 457 387T436 282T400 176T348 81T279 14T191 -12ZM197 81Q222 81 243 102T282 158T313 236T336 324T351 408T356 477Q356 526 344 555T299 585Q274 585 253 564T214 507T183 429T160 341T146 256T141 187Q141 139 153 110T197 81Z"  />
<glyph unicode="&#xD3;" horiz-adv-x="459" d="M340 728H277L388 872H475L340 728ZM191 -12Q150 -12 120 4T71 47T43 111T34 190Q34 227 40 278T61 383T97 490T149 584T218 652T306 678Q347 678 377 662T426 618T454 553T463 474Q463 437 457 387T436 282T400 176T348 81T279 14T191 -12ZM197 81Q222 81 243 102T282 158T313 236T336 324T351 408T356 477Q356 526 344 555T299 585Q274 585 253 564T214 507T183 429T160 341T146 256T141 187Q141 139 153 110T197 81Z"  />
<glyph unicode="&#xD4;" horiz-adv-x="459" d="M395 728L359 826L285 728H229L325 872H412L447 728H395ZM191 -12Q150 -12 120 4T71 47T43 111T34 190Q34 227 40 278T61 383T97 490T149 584T218 652T306 678Q347 678 377 662T426 618T454 553T463 474Q463 437 457 387T436 282T400 176T348 81T279 14T191 -12ZM197 81Q222 81 243 102T282 158T313 236T336 324T351 408T356 477Q356 526 344 555T299 585Q274 585 253 564T214 507T183 429T160 341T146 256T141 187Q141 139 153 110T197 81Z"  />
<glyph unicode="&#xD5;" horiz-adv-x="459" d="M385 726Q362 726 354 739T341 767T333 796T313 809Q299 809 288 791T268 732H217Q230 789 254 827T319 866Q342 866 350 853T363 825T372 796T392 783Q406 783 417 801T437 860H489Q476 803 451 765T385 726ZM191 -12Q150 -12 120 4T71 47T43 111T34 190Q34 227 40 278T61 383T97 490T149 584T218 652T306 678Q347 678 377 662T426 618T454 553T463 474Q463 437 457 387T436 282T400 176T348 81T279 14T191 -12ZM197 81Q222 81 243 102T282 158T313 236T336 324T351 408T356 477Q356 526 344 555T299 585Q274 585 253 564T214 507T183 429T160 341T146 256T141 187Q141 139 153 110T197 81Z"  />
<glyph unicode="&#xD6;" horiz-adv-x="459" d="M478 783Q478 760 460 742T417 724Q397 724 383 737T369 772Q369 795 387 813T430 831Q450 831 464 818T478 783ZM325 783Q325 760 307 742T264 724Q244 724 230 737T216 772Q216 795 234 813T277 831Q297 831 311 818T325 783ZM191 -12Q150 -12 120 4T71 47T43 111T34 190Q34 227 40 278T61 383T97 490T149 584T218 652T306 678Q347 678 377 662T426 618T454 553T463 474Q463 437 457 387T436 282T400 176T348 81T279 14T191 -12ZM197 81Q222 81 243 102T282 158T313 236T336 324T351 408T356 477Q356 526 344 555T299 585Q274 585 253 564T214 507T183 429T160 341T146 256T141 187Q141 139 153 110T197 81Z"  />
<glyph unicode="&#xD7;" horiz-adv-x="381" d="M204 290L76 185L38 233L167 338L88 439L137 479L215 378L344 483L382 435L254 330L332 229L283 189L204 290Z"  />
<glyph unicode="&#xD8;" horiz-adv-x="459" d="M191 -12Q154 -12 127 0T80 35L57 0H-7L51 86Q42 109 38 135T34 190Q34 227 40 278T61 383T97 490T149 584T218 652T306 678Q343 678 370 665T417 629L442 667H506L446 578Q463 530 463 474Q463 437 457 387T436 282T400 176T348 81T279 14T191 -12ZM299 585Q276 585 257 567T220 519T190 451T167 373T151 293T142 221L351 532Q345 557 333 571T299 585ZM197 81Q219 81 239 99T275 146T305 213T329 291T345 370T354 441L146 132Q151 108 163 95T197 81Z"  />
<glyph unicode="&#xD9;" horiz-adv-x="464" d="M338 728L266 872H351L398 728H338ZM197 -12Q164 -12 135 -2T85 29T51 78T39 143Q39 165 44 188L150 667H254L146 179Q145 174 144 165T143 147Q143 114 160 97T205 80Q236 80 256 102T289 179L396 667H500L394 184Q371 81 320 35T197 -12Z"  />
<glyph unicode="&#xDA;" horiz-adv-x="464" d="M343 728H280L391 872H478L343 728ZM197 -12Q164 -12 135 -2T85 29T51 78T39 143Q39 165 44 188L150 667H254L146 179Q145 174 144 165T143 147Q143 114 160 97T205 80Q236 80 256 102T289 179L396 667H500L394 184Q371 81 320 35T197 -12Z"  />
<glyph unicode="&#xDB;" horiz-adv-x="464" d="M397 728L361 826L287 728H231L327 872H414L449 728H397ZM197 -12Q164 -12 135 -2T85 29T51 78T39 143Q39 165 44 188L150 667H254L146 179Q145 174 144 165T143 147Q143 114 160 97T205 80Q236 80 256 102T289 179L396 667H500L394 184Q371 81 320 35T197 -12Z"  />
<glyph unicode="&#xDC;" horiz-adv-x="464" d="M481 783Q481 760 463 742T420 724Q400 724 386 737T372 772Q372 795 390 813T433 831Q453 831 467 818T481 783ZM328 783Q328 760 310 742T267 724Q247 724 233 737T219 772Q219 795 237 813T280 831Q300 831 314 818T328 783ZM197 -12Q164 -12 135 -2T85 29T51 78T39 143Q39 165 44 188L150 667H254L146 179Q145 174 144 165T143 147Q143 114 160 97T205 80Q236 80 256 102T289 179L396 667H500L394 184Q371 81 320 35T197 -12Z"  />
<glyph unicode="&#xDD;" horiz-adv-x="405" d="M316 728H253L364 872H451L316 728ZM97 0L158 279L90 667H197L228 382L386 667H501L262 279L201 0H97Z"  />
<glyph unicode="&#xDE;" horiz-adv-x="418" d="M3 0L150 667H254L229 552H272Q305 552 332 540T378 507T408 457T419 391Q419 349 406 305T366 224T296 164T193 140H138L107 0H3ZM202 232Q228 232 248 245T282 279T303 327T310 381Q310 418 294 439T248 460H208L158 232H202Z"  />
<glyph unicode="&#xDF;" horiz-adv-x="489" d="M453 149Q453 120 442 92T411 40T361 3T295 -12Q247 -12 212 4T152 55L202 116Q215 96 234 80T285 64Q311 64 331 84T351 136Q351 161 332 179T290 216T248 261T229 328Q229 360 239 382T264 420T298 449T331 474T357 501T367 537Q367 563 349 578T298 594Q267 594 243 574T208 502L97 0H4L114 502Q131 580 180 628T306 677Q339 677 368 668T418 641T451 600T464 547Q464 517 454 495T428 457T394 428T361 403T335 377T324 345Q324 320 344 303T388 266T433 219T453 149Z"  />
<glyph unicode="&#xE0;" horiz-adv-x="398" d="M267 556L195 700H280L327 556H267ZM210 0L220 47Q203 19 176 4T118 -12Q96 -12 77 -4T42 19T19 56T10 109Q10 148 21 184T52 247T101 290T163 307Q191 307 220 291T263 243L280 318Q282 329 283 337T285 355Q285 385 266 401T215 417Q191 417 166 408T115 376L93 445Q123 470 161 482T237 495Q268 495 294 488T340 467T371 431T383 380Q383 369 382 359T376 331L304 0H210ZM162 53Q182 53 200 65T232 104L251 186Q245 212 228 226T187 241Q167 241 152 229T127 199T112 160T107 118Q107 85 122 69T162 53Z"  />
<glyph unicode="&#xE1;" horiz-adv-x="398" d="M273 556H210L321 700H408L273 556ZM210 0L220 47Q203 19 176 4T118 -12Q96 -12 77 -4T42 19T19 56T10 109Q10 148 21 184T52 247T101 290T163 307Q191 307 220 291T263 243L280 318Q282 329 283 337T285 355Q285 385 266 401T215 417Q191 417 166 408T115 376L93 445Q123 470 161 482T237 495Q268 495 294 488T340 467T371 431T383 380Q383 369 382 359T376 331L304 0H210ZM162 53Q182 53 200 65T232 104L251 186Q245 212 228 226T187 241Q167 241 152 229T127 199T112 160T107 118Q107 85 122 69T162 53Z"  />
<glyph unicode="&#xE2;" horiz-adv-x="398" d="M328 556L292 654L218 556H162L258 700H345L380 556H328ZM210 0L220 47Q203 19 176 4T118 -12Q96 -12 77 -4T42 19T19 56T10 109Q10 148 21 184T52 247T101 290T163 307Q191 307 220 291T263 243L280 318Q282 329 283 337T285 355Q285 385 266 401T215 417Q191 417 166 408T115 376L93 445Q123 470 161 482T237 495Q268 495 294 488T340 467T371 431T383 380Q383 369 382 359T376 331L304 0H210ZM162 53Q182 53 200 65T232 104L251 186Q245 212 228 226T187 241Q167 241 152 229T127 199T112 160T107 118Q107 85 122 69T162 53Z"  />
<glyph unicode="&#xE3;" horiz-adv-x="398" d="M316 554Q293 554 285 567T272 595T264 624T244 637Q230 637 219 619T199 560H148Q161 617 185 655T250 694Q273 694 281 681T294 653T303 624T323 611Q337 611 348 629T368 688H420Q407 631 382 593T316 554ZM210 0L220 47Q203 19 176 4T118 -12Q96 -12 77 -4T42 19T19 56T10 109Q10 148 21 184T52 247T101 290T163 307Q191 307 220 291T263 243L280 318Q282 329 283 337T285 355Q285 385 266 401T215 417Q191 417 166 408T115 376L93 445Q123 470 161 482T237 495Q268 495 294 488T340 467T371 431T383 380Q383 369 382 359T376 331L304 0H210ZM162 53Q182 53 200 65T232 104L251 186Q245 212 228 226T187 241Q167 241 152 229T127 199T112 160T107 118Q107 85 122 69T162 53Z"  />
<glyph unicode="&#xE4;" horiz-adv-x="398" d="M411 612Q411 589 393 571T350 553Q330 553 316 566T302 601Q302 624 320 642T363 660Q383 660 397 647T411 612ZM258 612Q258 589 240 571T197 553Q177 553 163 566T149 601Q149 624 167 642T210 660Q230 660 244 647T258 612ZM210 0L220 47Q203 19 176 4T118 -12Q96 -12 77 -4T42 19T19 56T10 109Q10 148 21 184T52 247T101 290T163 307Q191 307 220 291T263 243L280 318Q282 329 283 337T285 355Q285 385 266 401T215 417Q191 417 166 408T115 376L93 445Q123 470 161 482T237 495Q268 495 294 488T340 467T371 431T383 380Q383 369 382 359T376 331L304 0H210ZM162 53Q182 53 200 65T232 104L251 186Q245 212 228 226T187 241Q167 241 152 229T127 199T112 160T107 118Q107 85 122 69T162 53Z"  />
<glyph unicode="&#xE5;" horiz-adv-x="398" d="M276 551Q242 551 221 573T199 629Q199 648 207 665T228 696T258 718T295 726Q330 726 351 704T372 647Q372 628 364 611T343 580T313 559T276 551ZM281 595Q300 595 314 609T329 643Q329 660 319 671T292 682Q272 682 258 668T244 634Q244 617 254 606T281 595ZM210 0L220 47Q203 19 176 4T118 -12Q96 -12 77 -4T42 19T19 56T10 109Q10 148 21 184T52 247T101 290T163 307Q191 307 220 291T263 243L280 318Q282 329 283 337T285 355Q285 385 266 401T215 417Q191 417 166 408T115 376L93 445Q123 470 161 482T237 495Q268 495 294 488T340 467T371 431T383 380Q383 369 382 359T376 331L304 0H210ZM162 53Q182 53 200 65T232 104L251 186Q245 212 228 226T187 241Q167 241 152 229T127 199T112 160T107 118Q107 85 122 69T162 53Z"  />
<glyph unicode="&#xE6;" horiz-adv-x="622" d="M346 211Q340 182 340 158Q340 118 360 92T421 65Q464 65 506 113L542 54Q510 22 477 5T405 -12Q353 -12 323 11T278 69Q265 54 250 40T216 14T175 -5T126 -12Q76 -12 43 21T10 113Q10 153 21 188T52 250T101 291T163 307Q190 307 220 292T263 246L280 318Q284 337 284 354Q284 384 266 400T215 417Q191 417 167 408T115 376L93 445Q126 472 163 483T237 495Q288 495 313 474T346 419Q369 451 401 473T472 495Q531 495 568 458T605 337Q605 307 599 273T586 211H346ZM511 278Q519 308 519 336Q519 371 504 394T460 418Q437 418 421 405T392 370T372 325T360 278H511ZM247 119Q246 124 246 129T246 142Q246 153 247 165T251 186Q245 216 226 228T186 241Q168 241 153 230T128 202T112 163T106 118Q106 85 121 69T162 53Q189 53 209 71T247 119Z"  />
<glyph unicode="&#xE7;" horiz-adv-x="333" d="M120 -193Q65 -193 32 -155L60 -116Q84 -148 121 -148Q141 -148 153 -135T166 -104Q166 -80 143 -80Q128 -80 117 -93L84 -72L123 -6Q75 7 48 48T21 162Q21 214 35 273T78 381T147 462T242 495Q279 495 308 482T355 446L308 376Q297 395 281 403T248 412Q216 412 192 387T152 324T127 245T118 169Q118 117 138 94T190 71Q208 71 223 79T250 100L269 26Q227 -12 170 -12L144 -54Q154 -44 168 -44Q190 -44 204 -59T218 -101Q218 -121 211 -137T190 -166T159 -186T120 -193Z"  />
<glyph unicode="&#xE8;" horiz-adv-x="391" d="M175 -12Q102 -12 61 32T20 163Q20 190 25 225T42 297T71 369T113 433T167 478T236 495Q305 495 339 455T374 337Q374 303 368 269T355 211H114Q108 182 108 158Q108 140 112 123T126 94T152 73T191 65Q214 65 236 78T275 112L311 54Q282 22 247 5T175 -12ZM280 278Q288 310 288 338Q288 372 273 395T229 418Q206 418 189 404T160 369T139 324T127 278H276H280ZM269 556L197 700H282L329 556H269Z"  />
<glyph unicode="&#xE9;" horiz-adv-x="391" d="M175 -12Q102 -12 61 32T20 163Q20 190 25 225T42 297T71 369T113 433T167 478T236 495Q305 495 339 455T374 337Q374 303 368 269T355 211H114Q108 182 108 158Q108 140 112 123T126 94T152 73T191 65Q214 65 236 78T275 112L311 54Q282 22 247 5T175 -12ZM280 278Q288 310 288 338Q288 372 273 395T229 418Q206 418 189 404T160 369T139 324T127 278H276H280ZM275 556H212L323 700H410L275 556Z"  />
<glyph unicode="&#xEA;" horiz-adv-x="391" d="M175 -12Q102 -12 61 32T20 163Q20 190 25 225T42 297T71 369T113 433T167 478T236 495Q305 495 339 455T374 337Q374 303 368 269T355 211H114Q108 182 108 158Q108 140 112 123T126 94T152 73T191 65Q214 65 236 78T275 112L311 54Q282 22 247 5T175 -12ZM280 278Q288 310 288 338Q288 372 273 395T229 418Q206 418 189 404T160 369T139 324T127 278H276H280ZM326 556L290 654L216 556H160L256 700H343L378 556H326Z"  />
<glyph unicode="&#xEB;" horiz-adv-x="391" d="M175 -12Q102 -12 61 32T20 163Q20 190 25 225T42 297T71 369T113 433T167 478T236 495Q305 495 339 455T374 337Q374 303 368 269T355 211H114Q108 182 108 158Q108 140 112 123T126 94T152 73T191 65Q214 65 236 78T275 112L311 54Q282 22 247 5T175 -12ZM280 278Q288 310 288 338Q288 372 273 395T229 418Q206 418 189 404T160 369T139 324T127 278H276H280ZM409 612Q409 589 391 571T348 553Q328 553 314 566T300 601Q300 624 318 642T361 660Q381 660 395 647T409 612ZM256 612Q256 589 238 571T195 553Q175 553 161 566T147 601Q147 624 165 642T208 660Q228 660 242 647T256 612Z"  />
<glyph unicode="&#xEC;" horiz-adv-x="194" d="M164 556L92 700H177L224 556H164ZM-4 0L103 483H197L90 0H-4Z"  />
<glyph unicode="&#xED;" horiz-adv-x="194" d="M169 556H106L217 700H304L169 556ZM-4 0L103 483H197L90 0H-4Z"  />
<glyph unicode="&#xEE;" horiz-adv-x="194" d="M224 556L188 654L114 556H58L154 700H241L276 556H224ZM-4 0L103 483H197L90 0H-4Z"  />
<glyph unicode="&#xEF;" horiz-adv-x="194" d="M308 612Q308 589 290 571T247 553Q227 553 213 566T199 601Q199 624 217 642T260 660Q280 660 294 647T308 612ZM155 612Q155 589 137 571T94 553Q74 553 60 566T46 601Q46 624 64 642T107 660Q127 660 141 647T155 612ZM-4 0L103 483H197L90 0H-4Z"  />
<glyph unicode="&#xF0;" horiz-adv-x="402" d="M175 555L280 586Q275 609 270 629T258 667L351 696Q359 673 364 654T374 614L444 635L455 588L384 566Q390 530 392 496T394 424Q394 381 389 332T372 235T343 142T300 63T241 9T167 -12Q91 -12 55 32T19 155Q19 202 32 257T70 360T131 440T213 472Q248 472 271 452T301 396Q300 426 297 463T289 538L186 507L175 555ZM169 71Q196 71 217 97T252 161T273 240T281 309Q281 322 279 336T270 362T253 381T226 389Q199 389 178 362T143 298T122 220T115 154Q115 106 129 89T169 71Z"  />
<glyph unicode="&#xF1;" horiz-adv-x="402" d="M204 0L283 355Q284 360 285 366T286 377Q286 412 252 412Q240 412 228 406T204 389T182 366T165 340L90 0H-4L103 483H197L183 421Q205 451 235 473T303 495Q342 495 364 474T387 417Q387 412 386 402T383 387L298 0H204ZM319 554Q296 554 288 567T275 595T267 624T247 637Q233 637 222 619T202 560H151Q164 617 188 655T253 694Q276 694 284 681T297 653T306 624T326 611Q340 611 351 629T371 688H423Q410 631 385 593T319 554Z"  />
<glyph unicode="&#xF2;" horiz-adv-x="402" d="M163 -12Q94 -12 57 31T20 156Q20 208 34 267T75 377T143 461T237 495Q306 495 343 452T380 327Q380 275 366 216T325 106T257 22T163 -12ZM169 71Q197 71 218 100T255 171T277 255T285 328Q285 376 271 394T232 412Q203 412 182 383T145 312T123 227T115 154Q115 106 129 89T169 71ZM268 556L196 700H281L328 556H268Z"  />
<glyph unicode="&#xF3;" horiz-adv-x="402" d="M163 -12Q94 -12 57 31T20 156Q20 208 34 267T75 377T143 461T237 495Q306 495 343 452T380 327Q380 275 366 216T325 106T257 22T163 -12ZM169 71Q197 71 218 100T255 171T277 255T285 328Q285 376 271 394T232 412Q203 412 182 383T145 312T123 227T115 154Q115 106 129 89T169 71ZM274 556H211L322 700H409L274 556Z"  />
<glyph unicode="&#xF4;" horiz-adv-x="402" d="M163 -12Q94 -12 57 31T20 156Q20 208 34 267T75 377T143 461T237 495Q306 495 343 452T380 327Q380 275 366 216T325 106T257 22T163 -12ZM169 71Q197 71 218 100T255 171T277 255T285 328Q285 376 271 394T232 412Q203 412 182 383T145 312T123 227T115 154Q115 106 129 89T169 71ZM328 556L292 654L218 556H162L258 700H345L380 556H328Z"  />
<glyph unicode="&#xF5;" horiz-adv-x="402" d="M163 -12Q94 -12 57 31T20 156Q20 208 34 267T75 377T143 461T237 495Q306 495 343 452T380 327Q380 275 366 216T325 106T257 22T163 -12ZM169 71Q197 71 218 100T255 171T277 255T285 328Q285 376 271 394T232 412Q203 412 182 383T145 312T123 227T115 154Q115 106 129 89T169 71ZM317 554Q294 554 286 567T273 595T265 624T245 637Q231 637 220 619T200 560H149Q162 617 186 655T251 694Q274 694 282 681T295 653T304 624T324 611Q338 611 349 629T369 688H421Q408 631 383 593T317 554Z"  />
<glyph unicode="&#xF6;" horiz-adv-x="402" d="M163 -12Q94 -12 57 31T20 156Q20 208 34 267T75 377T143 461T237 495Q306 495 343 452T380 327Q380 275 366 216T325 106T257 22T163 -12ZM169 71Q197 71 218 100T255 171T277 255T285 328Q285 376 271 394T232 412Q203 412 182 383T145 312T123 227T115 154Q115 106 129 89T169 71ZM412 612Q412 589 394 571T351 553Q331 553 317 566T303 601Q303 624 321 642T364 660Q384 660 398 647T412 612ZM259 612Q259 589 241 571T198 553Q178 553 164 566T150 601Q150 624 168 642T211 660Q231 660 245 647T259 612Z"  />
<glyph unicode="&#xF7;" horiz-adv-x="374" d="M43 306L56 368H372L359 306H43ZM171 141Q151 141 138 154T124 187Q124 210 140 226T180 243Q200 243 213 230T227 196Q227 173 211 157T171 141ZM235 429Q215 429 202 442T189 476Q189 499 205 515T245 531Q265 531 278 518T291 484Q291 461 275 445T235 429Z"  />
<glyph unicode="&#xF8;" horiz-adv-x="402" d="M-16 0L35 66Q20 103 20 156Q20 208 34 267T75 377T143 461T237 495Q302 495 338 457L359 483H417L364 415Q380 377 380 327Q380 275 366 216T325 106T257 22T163 -12Q98 -12 62 26L42 0H-16ZM232 412Q205 412 184 386T149 322T126 242T115 169L278 378Q271 397 260 404T232 412ZM169 71Q195 71 216 97T251 160T274 239T284 312L122 103Q129 85 140 78T169 71Z"  />
<glyph unicode="&#xF9;" horiz-adv-x="402" d="M197 483L118 128Q117 123 116 117T115 106Q115 71 149 71Q174 71 196 92T235 140L311 483H405L298 0H204L218 62Q196 32 166 10T98 -12Q59 -12 37 9T14 66Q14 71 15 81T18 96L103 483H197ZM269 556L197 700H282L329 556H269Z"  />
<glyph unicode="&#xFA;" horiz-adv-x="402" d="M197 483L118 128Q117 123 116 117T115 106Q115 71 149 71Q174 71 196 92T235 140L311 483H405L298 0H204L218 62Q196 32 166 10T98 -12Q59 -12 37 9T14 66Q14 71 15 81T18 96L103 483H197ZM274 556H211L322 700H409L274 556Z"  />
<glyph unicode="&#xFB;" horiz-adv-x="402" d="M197 483L118 128Q117 123 116 117T115 106Q115 71 149 71Q174 71 196 92T235 140L311 483H405L298 0H204L218 62Q196 32 166 10T98 -12Q59 -12 37 9T14 66Q14 71 15 81T18 96L103 483H197ZM328 556L292 654L218 556H162L258 700H345L380 556H328Z"  />
<glyph unicode="&#xFC;" horiz-adv-x="402" d="M197 483L118 128Q117 123 116 117T115 106Q115 71 149 71Q174 71 196 92T235 140L311 483H405L298 0H204L218 62Q196 32 166 10T98 -12Q59 -12 37 9T14 66Q14 71 15 81T18 96L103 483H197ZM414 612Q414 589 396 571T353 553Q333 553 319 566T305 601Q305 624 323 642T366 660Q386 660 400 647T414 612ZM261 612Q261 589 243 571T200 553Q180 553 166 566T152 601Q152 624 170 642T213 660Q233 660 247 647T261 612Z"  />
<glyph unicode="&#xFD;" horiz-adv-x="402" d="M273 556H210L321 700H408L273 556ZM106 -196Q58 -196 19 -180T-39 -137L12 -64Q28 -87 53 -100T105 -113Q144 -113 167 -86T203 -3L220 76Q198 45 167 23T101 1Q60 1 38 22T16 80Q16 87 17 94T20 109L103 483H197L120 141Q119 135 119 130T118 119Q118 84 152 84Q177 84 200 106T238 154L311 483H405L296 -3Q273 -105 226 -150T106 -196Z"  />
<glyph unicode="&#xFE;" horiz-adv-x="406" d="M196 -12Q164 -12 140 6T104 65L49 -184H-44L143 667H237L183 423Q206 461 232 478T285 495Q335 495 361 457T387 346Q387 315 382 277T367 199T341 121T304 54T255 6T196 -12ZM177 71Q205 71 226 101T262 174T283 261T290 335Q290 412 239 412Q219 412 199 392T166 345L120 139Q123 110 139 91T177 71Z"  />
<glyph unicode="&#xFF;" horiz-adv-x="402" d="M412 612Q412 589 394 571T351 553Q331 553 317 566T303 601Q303 624 321 642T364 660Q384 660 398 647T412 612ZM259 612Q259 589 241 571T198 553Q178 553 164 566T150 601Q150 624 168 642T211 660Q231 660 245 647T259 612ZM106 -196Q58 -196 19 -180T-39 -137L12 -64Q28 -87 53 -100T105 -113Q144 -113 167 -86T203 -3L220 76Q198 45 167 23T101 1Q60 1 38 22T16 80Q16 87 17 94T20 109L103 483H197L120 141Q119 135 119 130T118 119Q118 84 152 84Q177 84 200 106T238 154L311 483H405L296 -3Q273 -105 226 -150T106 -196Z"  />
<glyph unicode="&#x152;" horiz-adv-x="616" d="M253 0L265 57Q251 36 237 23T208 2T181 -9T158 -12Q100 -12 67 41T33 190Q33 230 40 281T62 387T99 493T152 586T220 652T305 677Q317 677 329 674T353 663T374 642T388 610L400 667H673L653 575H485L443 386H605L584 294H422L378 92H546L526 0H253ZM360 482Q358 535 344 559T304 584Q277 584 255 563T214 507T182 429T159 342T145 257T140 187Q140 141 151 111T193 81Q219 81 246 108T294 185L360 482Z"  />
<glyph unicode="&#x153;" horiz-adv-x="632" d="M359 211Q358 208 357 201T356 185T355 169T354 158Q354 116 373 91T434 65Q454 65 475 76T517 113L553 54Q522 20 488 4T419 -12Q368 -12 338 13T298 86Q269 39 238 14T161 -12Q89 -12 55 32T20 156Q20 212 34 272T76 381T144 463T235 495Q322 495 347 400Q372 446 406 470T480 495Q544 495 580 457T616 337Q616 302 610 269T597 211H359ZM522 278Q525 289 527 308T530 338Q530 376 516 397T473 418Q450 418 434 405T405 370T385 325T373 278H522ZM281 328Q281 368 270 390T229 412Q201 412 180 384T144 315T123 230T115 154Q115 115 126 93T167 71Q195 71 216 100T252 171T274 256T281 328Z"  />
<glyph unicode="&#x160;" horiz-adv-x="369" d="M271 728L236 872H288L323 774L398 872H454L358 728H271ZM140 -12Q89 -12 46 8T-20 61L42 138Q58 112 85 97T140 81Q157 81 173 88T202 110T222 144T230 190Q230 225 207 254T157 314T106 382T83 472Q83 515 98 552T140 618T201 662T276 678Q315 678 353 663T417 618L360 541Q345 561 323 573T275 585Q237 585 216 557T194 490Q194 458 216 430T266 369T315 298T338 207Q338 162 324 122T283 52T220 5T140 -12Z"  />
<glyph unicode="&#x161;" horiz-adv-x="330" d="M123 -12Q74 -12 35 7T-21 57L32 118Q46 95 69 79T125 63Q154 63 174 83T194 132Q194 150 184 164T158 193T124 221T91 252T65 291T54 343Q54 373 64 400T94 449T142 482T209 495Q247 495 282 479T341 432L290 373Q280 392 257 406T207 420Q179 420 162 403T145 359Q145 343 155 330T182 303T216 275T251 242T277 202T288 150Q288 118 277 89T243 37T191 1T123 -12ZM197 556L162 700H214L249 602L324 700H380L284 556H197Z"  />
<glyph unicode="&#x178;" horiz-adv-x="405" d="M454 783Q454 760 436 742T393 724Q373 724 359 737T345 772Q345 795 363 813T406 831Q426 831 440 818T454 783ZM301 783Q301 760 283 742T240 724Q220 724 206 737T192 772Q192 795 210 813T253 831Q273 831 287 818T301 783ZM97 0L158 279L90 667H197L228 382L386 667H501L262 279L201 0H97Z"  />
<glyph unicode="&#x17D;" horiz-adv-x="360" d="M246 728L211 872H263L298 774L373 872H429L333 728H246ZM-23 0L-4 89L273 575H104L124 667H416L397 582L117 92H296L276 0H-23Z"  />
<glyph unicode="&#x17E;" horiz-adv-x="321" d="M-24 0L-9 72L208 401H65L83 483H340L325 414L107 82H255L237 0H-24ZM185 556L150 700H202L237 602L312 700H368L272 556H185Z"  />
<glyph unicode="&#x192;" horiz-adv-x="383" d="M-37 -161L53 248H9V332H72L122 557Q134 613 167 645T253 677Q275 677 298 671T338 651L306 572Q294 585 273 585Q251 585 240 570T223 532L179 332H262V248H160L69 -161H-37Z"  />
<glyph unicode="&#x2C6;" horiz-adv-x="217" d="M235 556L199 654L125 556H69L165 700H252L287 556H235Z"  />
<glyph unicode="&#x2DC;" horiz-adv-x="243" d="M238 554Q215 554 207 567T194 595T186 624T166 637Q152 637 141 619T121 560H70Q83 617 107 655T172 694Q195 694 203 681T216 653T225 624T245 611Q259 611 270 629T290 688H342Q329 631 304 593T238 554Z"  />
<glyph unicode="&#x2013;" horiz-adv-x="460" d="M20 201L38 283H438L420 201H20Z"  />
<glyph unicode="&#x2014;" horiz-adv-x="640" d="M20 201L38 283H618L600 201H20Z"  />
<glyph unicode="&#x2018;" horiz-adv-x="241" d="M109 502Q109 527 119 553T146 602T186 644T236 677L272 640Q245 626 219 604T183 556H192Q212 556 226 542T241 504Q241 475 220 455T171 435Q146 435 128 452T109 502Z"  />
<glyph unicode="&#x2019;" horiz-adv-x="241" d="M269 611Q269 585 259 560T232 511T191 468T142 435L106 472Q133 486 159 508T195 556H186Q166 556 152 570T137 608Q137 637 158 657T207 677Q232 677 250 660T269 611Z"  />
<glyph unicode="&#x201A;" horiz-adv-x="241" d="M145 52Q145 26 135 1T108 -48T67 -91T18 -124L-18 -86Q9 -73 35 -51T71 -2Q70 -3 67 -3T62 -3Q42 -3 28 11T13 49Q13 78 34 98T83 118Q108 118 126 101T145 52Z"  />
<glyph unicode="&#x201C;" horiz-adv-x="416" d="M285 502Q285 527 295 553T322 602T363 644T412 677L448 640Q421 626 395 604T359 556H368Q388 556 402 542T417 504Q417 475 396 455T347 435Q322 435 304 452T285 502ZM111 502Q111 527 121 553T148 602T188 644T238 677L273 640Q246 626 220 604T184 556H193Q213 556 228 542T243 504Q243 475 222 455T173 435Q148 435 130 452T111 502Z"  />
<glyph unicode="&#x201D;" horiz-adv-x="416" d="M269 611Q269 585 259 560T232 511T191 468T142 435L106 472Q133 486 159 508T195 556H186Q166 556 152 570T137 608Q137 637 158 657T207 677Q232 677 250 660T269 611ZM443 611Q443 585 433 560T406 511T365 468T316 435L281 472Q308 486 334 508T370 556H361Q341 556 326 570T311 608Q311 637 332 657T381 677Q406 677 424 660T443 611Z"  />
<glyph unicode="&#x201E;" horiz-adv-x="416" d="M145 52Q145 26 135 1T108 -48T67 -91T18 -124L-18 -86Q9 -73 35 -51T71 -2Q70 -3 67 -3T62 -3Q42 -3 28 11T13 49Q13 78 34 98T83 118Q108 118 126 101T145 52ZM319 52Q319 26 309 1T282 -48T241 -91T192 -124L157 -86Q184 -73 210 -51T246 -2Q244 -3 242 -3T237 -3Q217 -3 202 11T187 49Q187 78 208 98T257 118Q283 118 301 101T319 52Z"  />
<glyph unicode="&#x2020;" horiz-adv-x="268" d="M221 532L179 327H124L174 532L84 528L95 578L184 575L202 677H257L230 575L320 578L309 528L221 532Z"  />
<glyph unicode="&#x2021;" horiz-adv-x="268" d="M309 528L221 532L175 326L265 330L254 280L166 283L146 180H91L119 283L29 280L40 330L128 326L174 532L84 528L95 578L183 575L202 677H257L230 575L320 578L309 528Z"  />
<glyph unicode="&#x2022;" horiz-adv-x="358" d="M292 253Q292 228 282 206T254 168T215 141T167 131Q124 131 95 160T66 232Q66 257 76 279T103 317T143 344T191 354Q235 354 263 326T292 253Z"  />
<glyph unicode="&#x2026;" horiz-adv-x="717" d="M71 -11Q46 -11 30 6T13 48Q13 77 33 97T83 118Q108 118 125 101T142 59Q142 30 121 10T71 -11ZM310 -11Q285 -11 269 6T252 48Q252 77 272 97T322 118Q347 118 364 101T381 59Q381 30 360 10T310 -11ZM549 -11Q524 -11 508 6T491 48Q491 77 511 97T561 118Q586 118 603 101T620 59Q620 30 599 10T549 -11Z"  />
<glyph unicode="&#x2030;" horiz-adv-x="855" d="M75 0L498 667H545L121 0H75ZM388 -12Q361 -12 341 -2T307 25T286 64T279 111Q279 154 292 192T326 258T374 302T431 318Q458 318 478 308T512 282T533 243T540 195Q540 151 527 114T493 48T445 4T388 -12ZM392 49Q406 49 420 60T446 90T465 134T473 189Q473 258 427 258Q413 258 399 247T372 217T353 172T345 117Q345 49 392 49ZM188 347Q161 347 141 357T107 383T86 422T79 470Q79 513 92 551T126 617T174 661T230 677Q257 677 277 667T311 640T332 601T339 554Q339 510 326 473T292 407T244 363T188 347ZM192 407Q206 407 220 418T246 448T265 493T273 548Q273 616 226 616Q212 616 198 605T172 575T153 531T145 476Q145 407 192 407ZM664 -12Q637 -12 617 -2T583 25T562 64T555 111Q555 154 568 192T602 258T650 302T706 318Q733 318 753 308T787 282T808 243T815 195Q815 151 802 114T768 48T720 4T664 -12ZM667 49Q681 49 695 60T722 90T741 134T749 189Q749 258 702 258Q688 258 674 247T648 217T629 172T621 117Q621 49 667 49Z"  />
<glyph unicode="&#x2039;" horiz-adv-x="225" d="M79 63L29 243L159 420H236L103 239L152 63H79Z"  />
<glyph unicode="&#x203A;" horiz-adv-x="225" d="M146 420L196 240L66 63H-11L122 244L73 420H146Z"  />
<glyph unicode="&#x20AC;" horiz-adv-x="427" d="M206 -12Q131 -12 90 40T49 190Q49 200 49 211T51 233H12L26 294H57Q60 313 64 333T73 374H44L58 436H91Q107 483 128 527T178 604T242 658T321 678Q360 678 387 663T432 624T458 568T469 503L372 484Q369 530 356 557T314 585Q296 585 280 573T249 541T222 494T200 436H313L299 374H182Q177 354 173 334T166 294H281L268 233H158Q157 219 157 208T156 187Q156 130 170 106T212 81Q237 81 258 102T300 164L383 128Q351 62 309 25T206 -12Z"  />
<glyph unicode="&#x2122;" horiz-adv-x="374" d="M356 447L396 629L301 447H293L278 629L238 447H210L258 667H301L311 510L389 667H432L384 447H356ZM175 641L132 447H104L147 641H105L110 667H222L217 641H175Z"  />


</font>
</defs>
</svg>
