<?xml version="1.0" encoding="utf-8"?>
<!-- Generator: Adobe Illustrator 17.1.0, SVG Export Plug-In . SVG Version: 6.00 Build 0)  -->
<!DOCTYPE svg PUBLIC "-//W3C//DTD SVG 1.1//EN" "http://www.w3.org/Graphics/SVG/1.1/DTD/svg11.dtd">
<svg version="1.1" id="Layer_1" xmlns="http://www.w3.org/2000/svg" xmlns:xlink="http://www.w3.org/1999/xlink" x="0px" y="0px"
	 viewBox="0 0 384.5 112.8" enable-background="new 0 0 384.5 112.8" xml:space="preserve">
<g>
	<defs>
		<rect id="SVGID_1_" x="0" y="-178.2" width="384.5" height="415.5"/>
	</defs>
	<clipPath id="SVGID_2_">
		<use xlink:href="#SVGID_1_"  overflow="visible"/>
	</clipPath>
	<g clip-path="url(#SVGID_2_)">
		<defs>
			<rect id="SVGID_3_" x="0" y="-178.2" width="384.5" height="415.5"/>
		</defs>
		<clipPath id="SVGID_4_">
			<use xlink:href="#SVGID_3_"  overflow="visible"/>
		</clipPath>
		<path clip-path="url(#SVGID_4_)" fill="#FFCA05" d="M79.8,74.9C250.6,114.6,410.9,52.4,438-64c1.8-7.5,2.9-15.1,3.5-22.7
			c-0.3,11.6-1.7,23.2-4.4,34.7c-28.8,124.2-190.7,192.7-361.4,153C-88,63.1-200.5-60.5-184.2-180.1
			C-188.9-71.9-77.6,38.4,79.8,74.9"/>
		<g clip-path="url(#SVGID_4_)">
			<g>
				<defs>
					<rect id="SVGID_5_" x="-132.3" y="-190" width="629.2" height="310.4"/>
				</defs>
				<clipPath id="SVGID_6_">
					<use xlink:href="#SVGID_5_"  overflow="visible"/>
				</clipPath>
				<path clip-path="url(#SVGID_6_)" fill="#0060AE" d="M134.2,74C305,113.7,465.4,51.5,492.4-64.9c1.8-7.5,2.9-15.1,3.5-22.7
					c-0.3,11.6-1.7,23.2-4.4,34.7C462.6,71.3,300.8,139.8,130,100.2C-33.6,62.1-146.1-61.5-129.7-181
					C-134.4-72.8-23.1,37.5,134.2,74"/>
			</g>
		</g>
		<g opacity="0.6" clip-path="url(#SVGID_4_)">
			<defs>
				<path id="SVGID_7_" opacity="0.6" d="M134.2,74C305,113.7,465.4,51.5,492.4-64.9c1.8-7.5,2.9-15.1,3.5-22.7
					c-0.3,11.6-1.7,23.2-4.4,34.7C462.6,71.3,300.8,139.8,130,100.2C-33.6,62.1-146.1-61.5-129.7-181
					C-134.4-72.8-23.1,37.5,134.2,74"/>
			</defs>
			<clipPath id="SVGID_8_">
				<use xlink:href="#SVGID_7_"  overflow="visible"/>
			</clipPath>
			<path opacity="0.6" clip-path="url(#SVGID_8_)" fill="#FFCA05" d="M79.8,74.9C250.6,114.6,410.9,52.4,438-64
				c1.8-7.5,2.9-15.1,3.5-22.7c-0.3,11.6-1.7,23.2-4.4,34.7c-28.8,124.2-190.7,192.7-361.4,153C-88,63.1-200.5-60.5-184.2-180.1
				C-188.9-71.9-77.6,38.4,79.8,74.9"/>
		</g>
		<path clip-path="url(#SVGID_4_)" fill="#E48D1A" d="M102.2,36.8C273,76.4,433.3,14.3,460.4-102.1c1.8-7.5,2.9-15.1,3.5-22.7
			c-0.3,11.6-1.7,23.2-4.4,34.7C430.6,34,268.8,102.6,98,62.9c-163.7-38-276.1-161.6-259.8-281.2C-166.4-110.1-55.1,0.2,102.2,36.8"
			/>
		<path clip-path="url(#SVGID_4_)" fill="#FFCA05" d="M224.1,53.8C134.5,58.7,51.3,37.3-12.4-1.7C51.5,35.4,135.3,55.7,226,50.7
			c62-3.4,119.6-18.1,168.8-41.2C345.2,34.5,287,50.4,224.1,53.8"/>
	</g>
</g>
<path fill="#0079C1" d="M384.5,17C377.8,22.3,335,55.4,255,68.8c-18.3,2.7-77.9,14.2-170.4-9.2C103.3,69.9,179,86.8,218,85.4
	c24.9-2.3,111.5-12.1,166.5-63.6C384.5,19.4,384.5,17,384.5,17z"/>
<path fill="#0079C1" d="M384.5,37.5c-2.6,2.6-26.2,24.2-49.3,36c19-4.4,42.1-13.9,49.3-17.8C384.5,55.7,384.5,37.6,384.5,37.5z"/>
<path fill="#0079C1" d="M0,45.9c0,0.6,0,2.6,0,2.6s12,5.2,12.9,5.5C11.6,53.2,0,46.3,0,45.9z"/>
</svg>
