<?xml version="1.0" encoding="utf-8"?>
<!-- Generator: Adobe Illustrator 17.1.0, SVG Export Plug-In . SVG Version: 6.00 Build 0)  -->
<!DOCTYPE svg PUBLIC "-//W3C//DTD SVG 1.1//EN" "http://www.w3.org/Graphics/SVG/1.1/DTD/svg11.dtd">
<svg version="1.1" id="Layer_1" xmlns="http://www.w3.org/2000/svg" xmlns:xlink="http://www.w3.org/1999/xlink" x="0px" y="0px"
	 viewBox="0 0 116 384.5" enable-background="new 0 0 116 384.5" xml:space="preserve">
<g>
	<defs>
		<rect id="SVGID_1_" x="-176" width="415.5" height="384.5"/>
	</defs>
	<clipPath id="SVGID_2_">
		<use xlink:href="#SVGID_1_"  overflow="visible"/>
	</clipPath>
	<g clip-path="url(#SVGID_2_)">
		<defs>
			<rect id="SVGID_3_" x="-176" width="415.5" height="384.5"/>
		</defs>
		<clipPath id="SVGID_4_">
			<use xlink:href="#SVGID_3_"  overflow="visible"/>
		</clipPath>
		<path clip-path="url(#SVGID_4_)" fill="#FFCA05" d="M77.2,304.7C116.8,133.9,54.7-26.4-61.7-53.5c-7.5-1.8-15.1-2.9-22.7-3.5
			c11.6,0.3,23.2,1.7,34.7,4.4C74.4-23.7,143,138.1,103.3,308.9C65.3,472.5-58.3,585-177.8,568.7C-69.7,573.3,40.6,462,77.2,304.7"
			/>
		<g clip-path="url(#SVGID_4_)">
			<g>
				<defs>
					<rect id="SVGID_5_" x="-187.8" y="-112.3" width="310.4" height="629.2"/>
				</defs>
				<clipPath id="SVGID_6_">
					<use xlink:href="#SVGID_5_"  overflow="visible"/>
				</clipPath>
				<path clip-path="url(#SVGID_6_)" fill="#0060AE" d="M76.3,250.2C115.9,79.5,53.7-80.9-62.6-107.9c-7.5-1.8-15.1-2.9-22.7-3.5
					c11.6,0.3,23.2,1.7,34.7,4.4c124.2,28.8,192.7,190.7,153,361.4c-38,163.7-161.6,276.1-281.2,259.8
					C-70.6,518.9,39.7,407.6,76.3,250.2"/>
			</g>
		</g>
		<g opacity="0.6" clip-path="url(#SVGID_4_)">
			<defs>
				<path id="SVGID_7_" opacity="0.6" d="M76.3,250.2C115.9,79.5,53.7-80.9-62.6-107.9c-7.5-1.8-15.1-2.9-22.7-3.5
					c11.6,0.3,23.2,1.7,34.7,4.4c124.2,28.8,192.7,190.7,153,361.4c-38,163.7-161.6,276.1-281.2,259.8
					C-70.6,518.9,39.7,407.6,76.3,250.2"/>
			</defs>
			<clipPath id="SVGID_8_">
				<use xlink:href="#SVGID_7_"  overflow="visible"/>
			</clipPath>
			<path opacity="0.6" clip-path="url(#SVGID_8_)" fill="#FFCA05" d="M77.2,304.7C116.8,133.9,54.7-26.4-61.7-53.5
				c-7.5-1.8-15.1-2.9-22.7-3.5c11.6,0.3,23.2,1.7,34.7,4.4C74.4-23.7,143,138.1,103.3,308.9C65.3,472.5-58.3,585-177.8,568.7
				C-69.7,573.3,40.6,462,77.2,304.7"/>
		</g>
		<path clip-path="url(#SVGID_4_)" fill="#E48D1A" d="M39,282.2C78.7,111.5,16.5-48.9-99.9-75.9c-7.5-1.8-15.1-2.9-22.7-3.5
			c11.6,0.3,23.2,1.7,34.7,4.4c124.2,28.8,192.7,190.7,153,361.4C27.1,450.1-96.5,562.6-216,546.2C-107.8,550.9,2.5,439.6,39,282.2"
			/>
		<path clip-path="url(#SVGID_4_)" fill="#FFCA05" d="M56.1,160.3C61,250,39.6,333.1,0.6,396.9C37.7,333,57.9,249.2,53,158.5
			c-3.4-62-18.1-119.6-41.2-168.8C36.8,39.3,52.7,97.5,56.1,160.3"/>
	</g>
</g>
<path fill="#0079C1" d="M19.2,0C24.6,6.7,57.7,49.5,71,129.5c2.7,18.3,14.2,77.9-9.2,170.4c10.3-18.7,27.2-94.4,25.9-133.4
	C85.4,141.6,75.5,55,24,0C21.6,0,19.3,0,19.2,0z"/>
<path fill="#0079C1" d="M39.8,0c2.6,2.6,24.2,26.2,36,49.3C71.4,30.3,61.8,7.1,58,0C58,0,39.9,0,39.8,0z"/>
<path fill="#0079C1" d="M48.2,384.5c0.6,0,2.6,0,2.6,0s5.2-12,5.5-12.9C55.5,372.9,48.5,384.5,48.2,384.5z"/>
</svg>
