<?xml version="1.0" encoding="utf-8"?>
<!-- Generator: Adobe Illustrator 17.1.0, SVG Export Plug-In . SVG Version: 6.00 Build 0)  -->
<!DOCTYPE svg PUBLIC "-//W3C//DTD SVG 1.1//EN" "http://www.w3.org/Graphics/SVG/1.1/DTD/svg11.dtd">
<svg version="1.1" xmlns="http://www.w3.org/2000/svg" xmlns:xlink="http://www.w3.org/1999/xlink" x="0px" y="0px"
	 viewBox="0 0 45 45" enable-background="new 0 0 45 45" xml:space="preserve">
<g id="Layer_1">
	<g id="_x31_0_3_">
		<g>
			<path fill="#FFFFFF" d="M22.5,0.2c-12.3,0-22.3,10-22.3,22.3s10,22.3,22.3,22.3s22.3-10,22.3-22.3S34.8,0.2,22.5,0.2z M22.5,42
				C11.7,42,3,33.3,3,22.5S11.7,3,22.5,3C33.3,3,42,11.7,42,22.5S33.3,42,22.5,42z"/>
		</g>
	</g>
</g>
<g id="Layer_2" display="none">
	<g display="inline">
		<path fill="#FFFFFF" d="M16.4,31.2h5.3V14.3h-4.2v-1.9c1.1-0.2,2-0.4,2.8-0.7c0.8-0.3,1.5-0.6,2.1-1h2.3v20.5h4.8v2.4h-13V31.2z"
			/>
	</g>
</g>
<g id="Layer_2_copy">
	<g>
		<path fill="#FFFFFF" d="M15,31.9c1.7-1.7,3.3-3.3,4.6-4.7c1.3-1.4,2.5-2.7,3.4-3.9c0.9-1.2,1.6-2.3,2.1-3.3c0.5-1,0.7-2,0.7-2.9
			c0-1.3-0.4-2.4-1.1-3.2c-0.7-0.8-1.8-1.3-3.3-1.3c-1,0-1.8,0.3-2.7,0.8c-0.8,0.5-1.6,1.2-2.2,2l-1.7-1.7c1-1.1,2-1.9,3.1-2.5
			c1.1-0.6,2.4-1,3.9-1c2.1,0,3.8,0.6,5,1.9c1.2,1.2,1.8,2.9,1.8,4.9c0,1.1-0.2,2.2-0.7,3.3c-0.5,1.1-1.1,2.2-1.9,3.4
			c-0.8,1.2-1.8,2.4-3,3.6s-2.4,2.6-3.8,4c0.6,0,1.3-0.1,1.9-0.1c0.7,0,1.3-0.1,1.9-0.1h6.7v2.6H15V31.9z"/>
	</g>
</g>
<g id="Layer_2_copy_2" display="none">
	<text transform="matrix(1 0 0 1 13.5539 33.6875)" display="inline" font-family="'SourceSansPro-Regular'" font-size="36">3</text>
</g>
<g id="Layer_2_copy_3" display="none">
	<text transform="matrix(1 0 0 1 13.5539 33.6875)" display="inline" font-family="'SourceSansPro-Regular'" font-size="36">4</text>
</g>
<g id="Layer_2_copy_4" display="none">
	<text transform="matrix(1 0 0 1 13.5539 33.6875)" display="inline" font-family="'SourceSansPro-Regular'" font-size="36">5</text>
</g>
</svg>
