<?xml version="1.0" standalone="no"?>
<!DOCTYPE svg PUBLIC "-//W3C//DTD SVG 1.1//EN" "http://www.w3.org/Graphics/SVG/1.1/DTD/svg11.dtd" >
<svg xmlns="http://www.w3.org/2000/svg">
<metadata>
This is a custom SVG webfont generated by Font Squirrel.
Copyright   : Copyright c 2010 by tyPoland Lukasz Dziedzic with Reserved Font Name Lato Licensed under the SIL Open Font License Version 11 
Designer    : Lukasz Dziedzic
Foundry     : tyPoland Lukasz Dziedzic
Foundry URL : httpwwwtypolandcom
</metadata>
<defs>
<font id="LatoRegular" horiz-adv-x="1187" >
<font-face units-per-em="2048" ascent="1649" descent="-399" />
<missing-glyph horiz-adv-x="395" />
<glyph unicode=" "  horiz-adv-x="395" />
<glyph unicode="&#x09;" horiz-adv-x="395" />
<glyph unicode="&#xa0;" horiz-adv-x="395" />
<glyph unicode="!" horiz-adv-x="702" d="M223 113q0 27 10 50t26.5 40.5t40.5 28t50 10.5q27 0 50.5 -10.5t41 -28t27 -41t9.5 -49.5q0 -28 -9.5 -51t-27 -40.5t-41 -27t-50.5 -9.5t-50.5 9.5t-40 27t-26.5 40.5t-10 51zM267 882v585h173v-585q0 -46 -1.5 -90t-4.5 -89t-7.5 -91.5t-10.5 -99.5h-124l-11 99.5 t-8 91.5t-4.5 89t-1.5 90z" />
<glyph unicode="&#x22;" horiz-adv-x="813" d="M156 1170v297h158v-297l-16 -158q-3 -33 -17.5 -51t-46.5 -18q-27 0 -41.5 18t-20.5 51zM497 1170v297h158v-297l-16 -158q-3 -33 -17.5 -51t-46.5 -18q-27 0 -41.5 18t-20.5 51z" />
<glyph unicode="#" d="M55 485q0 5 0.5 11.5t1.5 12.5l9 58h208l67 334h-238l14 76q5 30 23.5 44t58.5 14h161l74 367q6 31 28 48t53 17h82l-86 -432h253l86 432h81q26 0 42.5 -15t16.5 -40q0 -8 -1 -13l-75 -364h218l-14 -77q-5 -30 -24 -43.5t-58 -13.5h-141l-67 -334h184q25 0 38 -11.5 t13 -41.5q0 -5 -0.5 -10.5t-1.5 -11.5l-9 -59h-243l-86 -433h-83q-24 0 -40 17.5t-16 44.5q0 4 0.5 8t1.5 9l72 354h-252l-73 -363q-8 -38 -31 -54t-53 -16h-81l87 433h-150q-24 0 -37 11.5t-13 40.5zM425 567h253l66 334h-252z" />
<glyph unicode="$" d="M109 175l54 84q7 11 20.5 18.5t27.5 7.5q19 0 44 -19.5t60.5 -44.5t85.5 -49t119 -32l38 544q-72 22 -141 49t-123.5 70.5t-88 109.5t-33.5 165q0 75 29 146t85 126.5t138 91t188 39.5l11 147q2 19 15 34.5t36 15.5h67l-14 -202q108 -13 185.5 -55.5t139.5 -101.5 l-44 -68q-20 -31 -47 -30q-14 0 -36 12l-51 30q-30 17 -68.5 34t-88.5 24l-34 -496q74 -23 145.5 -49t129 -68t92.5 -105t35 -158q0 -92 -30.5 -173t-89.5 -142t-144.5 -99.5t-194.5 -44.5l-13 -181q-2 -19 -15.5 -34t-35.5 -15h-67l15 232q-124 11 -225.5 60.5 t-175.5 126.5zM344 1097q0 -49 17.5 -85.5t48 -64t71.5 -48t89 -37.5l31 462q-67 -6 -115.5 -26.5t-79.5 -51.5t-46.5 -69t-15.5 -80zM636 140q67 6 118.5 29.5t87 59t53 83t17.5 105.5q0 51 -19 88t-51.5 63.5t-76.5 46t-94 35.5z" />
<glyph unicode="%" horiz-adv-x="1609" d="M74 1113q0 88 24.5 156.5t68.5 116t103 72t128 24.5t129 -24.5t103.5 -72t68.5 -116t25 -156.5q0 -86 -26.5 -154t-71 -114.5t-104 -71t-124.5 -24.5q-70 0 -128.5 24.5t-102.5 71t-68.5 114.5t-24.5 154zM170 0l1067 1431q13 17 28 26.5t40 9.5h131l-1072 -1437 q-10 -13 -24.5 -21.5t-34.5 -8.5h-135zM217 1113q0 -67 14 -113.5t38.5 -75.5t57.5 -42t71 -13t71.5 13t58.5 42t39.5 76t14.5 113q0 68 -14.5 115t-39.5 77t-58.5 43.5t-71.5 13.5t-71 -13.5t-57.5 -43.5t-38.5 -77t-14 -115zM886 346q0 88 24.5 157t68.5 116.5t103 72 t128 24.5t128.5 -24.5t103.5 -72t68.5 -116.5t24.5 -157q0 -86 -26.5 -153.5t-71 -114t-103.5 -71t-124 -24.5q-70 0 -128.5 24.5t-102.5 71t-68.5 114t-24.5 153.5zM1029 346q0 -67 14 -113t38.5 -75t57.5 -42t71 -13t71.5 13t58.5 42t39.5 75.5t14.5 112.5 q0 68 -14.5 115.5t-39.5 77t-58.5 43t-71.5 13.5t-71 -13.5t-57.5 -43t-38.5 -77t-14 -115.5z" />
<glyph unicode="&#x26;" horiz-adv-x="1439" d="M84 391q0 72 24 136t66.5 118t101 97t127.5 74q-62 79 -91.5 153.5t-29.5 154.5q0 75 27 140.5t78 114t124.5 77t164.5 28.5q81 0 147.5 -26t115 -69t76.5 -100t33 -119l-114 -22q-5 -1 -9 -1q-13 0 -25 7t-17 26q-7 27 -23 55.5t-41 52t-60.5 38.5t-82.5 15 q-51 0 -92 -16t-70.5 -45.5t-45 -69t-15.5 -85.5q0 -36 8.5 -68.5t26 -66t45 -68.5t66.5 -74l422 -429q39 69 62 144t31 151q2 19 12.5 30.5t28.5 11.5h113q-2 -118 -38 -231.5t-104 -213.5l308 -311h-177q-30 0 -48 7t-41 30l-147 148q-96 -93 -221.5 -147t-276.5 -54 q-82 0 -160.5 27.5t-140.5 80t-100 128.5t-38 171zM269 406q0 -67 24.5 -117.5t64.5 -85.5t91.5 -53t104.5 -18q115 0 206 42t161 112l-434 437q-109 -58 -163.5 -139.5t-54.5 -177.5z" />
<glyph unicode="'" horiz-adv-x="471" d="M156 1170v297h158v-297l-16 -158q-3 -33 -17.5 -51t-46.5 -18q-27 0 -41.5 18t-20.5 51z" />
<glyph unicode="(" horiz-adv-x="614" d="M137 644q0 124 15.5 243t48.5 235t87 231.5t131 234.5l81 -50q11 -7 18 -16.5t7 -23.5q0 -15 -10 -35q-108 -186 -163.5 -393t-55.5 -426t56.5 -425.5t162.5 -393.5q6 -11 8 -19.5t2 -16.5q0 -14 -7 -23.5t-18 -16.5l-81 -49q-77 118 -131 233.5t-87 232.5t-48.5 235 t-15.5 243z" />
<glyph unicode=")" horiz-adv-x="614" d="M76 -211q0 8 2 16.5t8 19.5q106 187 162.5 393.5t56.5 425.5t-55.5 426t-163.5 393q-10 19 -10 35q0 14 7 23.5t18 16.5l81 50q77 -119 131 -234.5t87 -231.5t48.5 -235t15.5 -243q0 -125 -15.5 -243t-48.5 -235t-87 -232.5t-131 -233.5l-81 49q-11 7 -18 16.5t-7 23.5z " />
<glyph unicode="*" horiz-adv-x="819" d="M98 1341l45 77l178 -102q36 -20 58 -53q-9 18 -13 37t-4 39v203h91v-202q0 -42 -15 -73q11 15 25 26.5t32 22.5l176 101l45 -77l-176 -102q-17 -11 -34.5 -17.5t-35.5 -8.5q18 -2 35 -7.5t35 -16.5l177 -104l-45 -76l-177 102q-18 11 -33 22.5t-26 27.5q16 -34 17 -74 v-202h-91v201q0 19 3 37t10 34q-20 -26 -54 -46l-177 -101l-45 76l176 103q37 22 75 24q-20 2 -38 8t-37 18z" />
<glyph unicode="+" d="M102 618v139h415v437h150v-437h416v-139h-416v-440h-150v440h-415z" />
<glyph unicode="," horiz-adv-x="434" d="M96 126q0 24 9 44.5t24.5 36.5t38 25.5t49.5 9.5q31 0 55 -11.5t40 -31.5t24 -46t8 -57q0 -46 -13.5 -95.5t-38 -98t-60.5 -95t-82 -85.5l-31 30q-13 12 -14 29q0 13 15 28l26 30q16 19 32.5 43.5t30 54t19.5 63.5h-13q-27 0 -48.5 9t-37 26t-24.5 40t-9 51z" />
<glyph unicode="-" horiz-adv-x="710" d="M102 537v154h506v-154h-506z" />
<glyph unicode="." horiz-adv-x="434" d="M90 113q0 27 10 50t26.5 40.5t40 28t50.5 10.5t50.5 -10.5t41 -28t27 -41t9.5 -49.5q0 -28 -9.5 -51t-27 -40.5t-41 -27t-50.5 -9.5t-50.5 9.5t-40 27t-26.5 40.5t-10 51z" />
<glyph unicode="/" horiz-adv-x="763" d="M-12 -92l615 1533q13 33 38 50t58 17h77l-611 -1530q-14 -36 -42.5 -53t-57.5 -17h-77z" />
<glyph unicode="0" d="M61 733q0 193 41 334t113 234t168.5 138t209.5 45q112 0 209.5 -45t169 -138t113 -234t41.5 -334t-41.5 -333.5t-113 -232.5t-169 -137t-209.5 -45q-113 0 -209.5 45t-168.5 137t-113 232.5t-41 333.5zM250 733q0 -168 28 -281.5t75 -183t109.5 -100t130.5 -30.5 t130 30.5t110 100t76 183t28 281.5t-28 282t-76 184t-110.5 100t-129.5 30q-68 0 -130.5 -30t-109.5 -100t-75 -184t-28 -282z" />
<glyph unicode="1" d="M207 1093l436 377h149v-1331h288v-139h-786v139h315v1001q0 45 3 91l-262 -224q-10 -8 -20.5 -12t-19.5 -4q-15 0 -27.5 7t-18.5 16z" />
<glyph unicode="2" d="M106 0v62q0 19 8 40t25 38l470 472q58 59 106.5 114t83 110.5t52.5 112.5t18 121q0 65 -20.5 113.5t-56 80t-84 47.5t-103.5 16t-102 -16.5t-83.5 -45.5t-61.5 -69t-35 -88q-8 -30 -24.5 -43t-43.5 -13q-5 0 -10.5 0.5t-13.5 1.5l-95 16q14 100 55 177.5t104 130 t144.5 79.5t175.5 27q93 0 174 -28t140 -80.5t93 -128.5t34 -172q0 -82 -24.5 -151.5t-66.5 -133.5t-97 -124l-116 -122l-386 -396q41 11 82.5 18t80.5 7h492q30 0 47 -17.5t17 -44.5v-111h-979z" />
<glyph unicode="3" d="M111 367l77 32q22 9 43 10q20 0 36.5 -9t24.5 -27q2 -4 4 -9l4 -10q14 -30 34.5 -67t55.5 -70t86.5 -55.5t128.5 -22.5t135 25t96 65t57.5 89.5t19.5 97.5q0 59 -15.5 108t-57 85t-115 56.5t-187.5 20.5v132q93 1 159 20.5t108 53.5t61 81t19 104q0 63 -20 110.5t-55 78 t-82.5 46t-102.5 15.5t-102.5 -16.5t-84 -45.5t-61 -69.5t-36.5 -87.5q-8 -30 -24.5 -43t-42.5 -13q-5 0 -10.5 0.5t-12.5 1.5l-95 16q14 100 55 177.5t104 130t144.5 79.5t175.5 27q93 0 172 -26.5t135.5 -76t88.5 -119t32 -154.5q0 -70 -18 -124.5t-51 -96t-80.5 -70.5 t-105.5 -46q143 -38 215.5 -127t72.5 -223q0 -101 -38.5 -182t-105 -138t-155 -87t-190.5 -30q-117 0 -199.5 29t-140 80t-94 121.5t-62.5 152.5z" />
<glyph unicode="4" d="M41 520l714 947h170v-938h222v-104q0 -16 -10 -27.5t-30 -11.5h-182v-386h-161v386h-650q-20 0 -35.5 12t-19.5 29zM239 529h525v606q0 27 1.5 57.5t6.5 62.5z" />
<glyph unicode="5" d="M111 138l55 78q18 27 49 27q19 0 45.5 -16t63 -35.5t86.5 -35.5t118 -16q77 0 138.5 24.5t105 70.5t67 109.5t23.5 141.5q0 69 -20 124.5t-60.5 94t-100.5 60t-141 21.5q-55 0 -114.5 -9t-123.5 -29l-115 33l119 686h695v-79q0 -39 -24.5 -64.5t-82.5 -25.5h-461 l-67 -385q115 25 212 25q115 0 202 -34t146.5 -93t90 -140t30.5 -176q0 -117 -41 -211.5t-112.5 -161.5t-167.5 -102.5t-208 -35.5q-65 0 -124 12.5t-110.5 34t-95 49t-77.5 58.5z" />
<glyph unicode="6" d="M111 484q0 96 43 205t136 234l372 500q14 18 39.5 31t58.5 13h162l-509 -644q52 36 115.5 56t137.5 20q88 0 166.5 -29t138 -85t94.5 -137.5t35 -185.5q0 -101 -37 -188.5t-103 -152t-159 -101t-205 -36.5q-111 0 -200.5 35t-153 100t-97.5 157.5t-34 207.5zM287 453 q0 -71 20.5 -129.5t60 -100.5t96 -65t129.5 -23q74 0 133 23.5t101.5 65.5t65.5 99.5t23 125.5q0 72 -22.5 129.5t-63 98t-98 62t-126.5 21.5q-74 0 -133 -25t-100.5 -67.5t-63.5 -98.5t-22 -116z" />
<glyph unicode="7" d="M113 1343v124h997v-82q0 -35 -7.5 -57t-16.5 -38l-607 -1225q-13 -27 -36.5 -46t-63.5 -19h-130l616 1210q13 26 27 47.5t32 40.5h-766q-17 0 -31 14t-14 31z" />
<glyph unicode="8" d="M98 401q0 141 74 233t211 131q-116 43 -174.5 128.5t-58.5 204.5q0 81 31.5 151.5t90 122.5t140 82t181.5 30q99 0 181 -30t140.5 -82t90 -122.5t31.5 -151.5q0 -119 -59 -204.5t-174 -128.5q137 -39 210.5 -130.5t73.5 -233.5q0 -96 -36 -173t-101 -131.5t-156.5 -83.5 t-200.5 -29q-110 0 -201 29t-156.5 83.5t-101.5 131.5t-36 173zM287 404q0 -61 21 -111.5t60.5 -87t96 -56.5t128.5 -20t128.5 20t96 56.5t60.5 87t21 111.5q0 76 -25 130t-67.5 87.5t-98 49.5t-115.5 16t-115.5 -16t-98 -49.5t-67.5 -87.5t-25 -130zM328 1095 q0 -50 14 -97.5t46 -83.5t82.5 -58t122.5 -22t122.5 22t82 58t46 83t14.5 98t-17 96t-50 79t-83 53t-115 19q-66 0 -115.5 -19t-83 -53t-50 -79t-16.5 -96z" />
<glyph unicode="9" d="M152 1023q0 96 35.5 180t100 146.5t153.5 98.5t196 36q105 0 191 -35t147.5 -97.5t95 -149.5t33.5 -192q0 -63 -12 -120t-34.5 -111.5t-53.5 -108.5t-71 -111l-358 -516q-13 -19 -37.5 -31t-56.5 -12h-168l447 585l42 56l37 53q-56 -45 -127 -68.5t-150 -23.5 q-83 0 -157 27.5t-130.5 81.5t-89.5 132.5t-33 179.5zM334 1036q0 -70 20 -124.5t57.5 -92.5t91 -57.5t120.5 -19.5q74 0 130.5 24.5t95.5 64t59.5 92t20.5 108.5q0 69 -22 124.5t-61 94.5t-93 60t-118 21q-68 0 -123.5 -22t-95 -61t-61 -93t-21.5 -119z" />
<glyph unicode=":" horiz-adv-x="516" d="M131 113q0 27 10 50t26.5 40.5t40 28t50.5 10.5t50.5 -10.5t41 -28t27 -41t9.5 -49.5q0 -28 -9.5 -51t-27 -40.5t-41 -27t-50.5 -9.5t-50.5 9.5t-40 27t-26.5 40.5t-10 51zM131 881q0 27 10 50t26.5 40.5t40 28t50.5 10.5t50.5 -10.5t41 -28t27 -41t9.5 -49.5 q0 -28 -9.5 -51t-27 -40.5t-41 -27t-50.5 -9.5t-50.5 9.5t-40 27t-26.5 40.5t-10 51z" />
<glyph unicode=";" horiz-adv-x="516" d="M131 881q0 27 10 50t26.5 40.5t40 28t50.5 10.5t50.5 -10.5t41 -28t27 -41t9.5 -49.5q0 -28 -9.5 -51t-27 -40.5t-41 -27t-50.5 -9.5t-50.5 9.5t-40 27t-26.5 40.5t-10 51zM137 126q0 24 9 44.5t24.5 36.5t38 25.5t49.5 9.5q31 0 55 -11.5t40 -31.5t24 -46t8 -57 q0 -46 -13.5 -95.5t-38 -98t-60.5 -95t-83 -85.5l-30 30q-13 12 -14 29q0 13 15 28l26 30q16 19 32.5 43.5t30 54t19.5 63.5h-13q-27 0 -48.5 9t-37 26t-24.5 40t-9 51z" />
<glyph unicode="&#x3c;" d="M152 651v76l792 411v-130q0 -17 -8 -30t-29 -24l-460 -233q-20 -11 -43 -19t-49 -14q26 -5 49 -13t43 -19l460 -232q20 -10 28.5 -23.5t8.5 -29.5v-131z" />
<glyph unicode="=" d="M154 450v138h879v-138h-879zM154 793v138h879v-138h-879z" />
<glyph unicode="&#x3e;" d="M244 240v131q0 16 8 29.5t29 23.5l459 232q20 10 42.5 18.5t47.5 13.5q-26 6 -47.5 14t-42.5 19l-459 233q-20 10 -28.5 23t-8.5 31v130l791 -411v-76z" />
<glyph unicode="?" horiz-adv-x="815" d="M35 1336q32 30 70 56.5t83.5 47t98.5 32.5t114 12q81 0 150.5 -23.5t119.5 -66.5t78.5 -104.5t28.5 -138.5q0 -78 -23 -134t-58 -98.5t-77 -74.5l-79 -59q-36 -28 -62 -55.5t-30 -60.5l-19 -157h-125l-12 170v11q0 43 23 76.5t58.5 62.5t75.5 58.5t75.5 64.5t58.5 80 t23 107q0 44 -17.5 79.5t-47 61t-70 38.5t-86.5 13q-62 0 -107 -15t-75.5 -33.5t-49.5 -34t-31 -15.5q-26 0 -40 24zM236 113q0 27 9.5 50t26.5 40.5t40.5 28t49.5 10.5q27 0 50.5 -10.5t41 -28t27 -41t9.5 -49.5q0 -28 -9.5 -51t-27 -40.5t-41 -27t-50.5 -9.5t-50 9.5 t-40 27t-26.5 40.5t-9.5 51z" />
<glyph unicode="@" horiz-adv-x="1683" d="M88 582q0 112 28 215t79.5 192.5t123 164t159.5 127t189.5 82t212.5 29.5q94 0 184 -20.5t170.5 -60.5t148 -99t116 -135.5t76 -170t27.5 -203.5q0 -111 -31.5 -204t-86 -162t-129 -108t-160.5 -39q-80 0 -130 38.5t-64 118.5q-59 -83 -128.5 -118.5t-149.5 -35.5 q-61 0 -106.5 20.5t-75.5 58t-45 89t-15 110.5q0 87 33.5 175.5t99 160t163 116.5t225.5 45q69 0 121 -11t98 -31l-96 -370q-19 -77 -19 -127q0 -37 9 -61t25 -38t37 -19t45 -5q50 0 95 29t79.5 81t54 125t19.5 162q0 141 -45.5 248t-124.5 178t-187 106.5t-233 35.5 q-137 0 -257 -52.5t-209 -144.5t-140.5 -218t-51.5 -274q0 -174 55 -306t149.5 -221t222 -134t274.5 -45q156 0 275 34t206 86q15 9 28 9q22 0 31 -24l26 -68q-110 -74 -249.5 -116t-316.5 -42t-330 56.5t-265 162.5t-176 259.5t-64 348.5zM625 476q0 -74 33.5 -118.5 t100.5 -44.5q32 0 64 10.5t62 36t55.5 69.5t42.5 111l78 302q-40 9 -87 9q-77 0 -141 -32.5t-110 -84.5t-72 -119.5t-26 -138.5z" />
<glyph unicode="A" horiz-adv-x="1392" d="M10 0l587 1467h202l586 -1467h-153q-27 0 -43.5 13.5t-24.5 33.5l-137 354h-658l-138 -354q-7 -18 -24.5 -32.5t-42.5 -14.5h-154zM424 545h548l-231 597q-23 55 -44 138q-11 -42 -21.5 -77.5t-21.5 -61.5z" />
<glyph unicode="B" horiz-adv-x="1325" d="M178 0v1467h468q135 0 233 -26.5t161 -75.5t93 -120t30 -161q0 -54 -17 -104t-51 -93t-86 -77t-121 -55q161 -32 242.5 -116t81.5 -221q0 -93 -34 -170t-100 -132.5t-162 -85.5t-219 -30h-519zM377 158h317q85 0 146 19.5t100.5 54.5t58 84t18.5 107q0 114 -80.5 180 t-243.5 66h-316v-511zM377 810h262q84 0 145.5 18.5t102 51t60 79.5t19.5 102q0 129 -78 189.5t-242 60.5h-269v-501z" />
<glyph unicode="C" horiz-adv-x="1402" d="M92 733q0 166 54 304.5t151 237.5t233 154t299 55q162 0 279.5 -50.5t208.5 -136.5l-65 -91q-7 -10 -16 -16.5t-27 -6.5q-13 0 -28 9l-35 25q-20 14 -48 30.5t-66 30.5t-88 24t-116 10q-118 0 -215.5 -40.5t-168 -115.5t-110 -182.5t-39.5 -240.5q0 -137 39.5 -244.5 t107.5 -182t161 -113t201 -38.5q66 0 118 7.5t96.5 24t83 41.5t77.5 60q17 15 33 15t30 -13l78 -85q-90 -104 -218.5 -162.5t-309.5 -58.5q-159 0 -288 54.5t-220 153.5t-141.5 237t-50.5 304z" />
<glyph unicode="D" horiz-adv-x="1542" d="M178 0v1467h549q162 0 295 -52.5t228.5 -149.5t147.5 -232t52 -300t-52 -300t-147.5 -231.5t-228.5 -149t-295 -52.5h-549zM378 161h349q118 0 214 39t163.5 112t104.5 179.5t37 241.5t-37 241.5t-104.5 180.5t-163.5 113t-214 39h-349v-1146z" />
<glyph unicode="E" horiz-adv-x="1189" d="M178 0v1467h904v-161h-704v-488h570v-155h-570v-501h704v-162h-904z" />
<glyph unicode="F" horiz-adv-x="1159" d="M178 0v1467h904v-161h-704v-513h602v-162h-602v-631h-200z" />
<glyph unicode="G" horiz-adv-x="1503" d="M92 733q0 168 53 306.5t150.5 237t236.5 153t311 54.5q87 0 161.5 -13t138.5 -37t118.5 -58.5t101.5 -77.5l-56 -90q-17 -28 -45 -27q-16 0 -36 11q-26 14 -57.5 34.5t-77 39.5t-107.5 32.5t-147 13.5q-124 0 -224.5 -40.5t-171 -116t-108.5 -182.5t-38 -240 q0 -139 39.5 -248t111 -185t170 -116t217.5 -40q59 0 108.5 6t93.5 17t83 27t78 36v324h-227q-19 0 -31 11.5t-12 27.5v113h450v-564q-55 -40 -115 -69.5t-128 -49.5t-146 -29.5t-169 -9.5q-160 0 -293 54.5t-229 153.5t-150 237t-54 304z" />
<glyph unicode="H" horiz-adv-x="1548" d="M178 0v1467h200v-654h790v654h200v-1467h-200v668h-790v-668h-200z" />
<glyph unicode="I" horiz-adv-x="628" d="M215 0v1467h199v-1467h-199z" />
<glyph unicode="J" horiz-adv-x="909" d="M61 12q2 30 6 59l6 58q2 17 12.5 28t32.5 11q18 0 49 -9t82 -9q68 0 120.5 20t89 63t55 110.5t18.5 159.5v964h198v-960q0 -123 -30 -220.5t-89 -164.5t-145 -102.5t-198 -35.5q-99 -1 -207 28z" />
<glyph unicode="K" horiz-adv-x="1394" d="M199 0v1467h197v-643h75q39 0 62 10t44 33l488 553q23 26 43.5 36.5t53.5 10.5h169l-559 -631q-22 -24 -40.5 -40.5t-40.5 -26.5q29 -9 50.5 -27.5t44.5 -46.5l584 -695h-172q-19 0 -32.5 3t-23 8t-18 13.5t-16.5 17.5l-507 583q-11 12 -21 20.5t-22.5 15t-29.5 9 t-42 2.5h-90v-672h-197z" />
<glyph unicode="L" horiz-adv-x="1052" d="M178 0v1467h199v-1300h635v-167h-834z" />
<glyph unicode="M" horiz-adv-x="1884" d="M178 0v1467h147q27 0 41 -5t27 -28l507 -904q14 -25 25 -51l21 -55q10 29 21.5 55t25.5 52l497 903q13 24 27.5 28.5t41.5 4.5h146v-1467h-174v1078q0 22 1 46.5t3 50.5l-503 -918q-26 -46 -71 -46h-29q-46 0 -72 46l-514 921q3 -27 4.5 -52.5t1.5 -47.5v-1078h-174z" />
<glyph unicode="N" horiz-adv-x="1548" d="M178 0v1467h103q27 0 39.5 -6.5t28.5 -26.5l850 -1106q-3 27 -4 51.5t-1 48.5v1039h174v-1467h-100q-24 0 -40 8t-31 28l-849 1105q2 -26 3 -50.5t1 -44.5v-1046h-174z" />
<glyph unicode="O" horiz-adv-x="1634" d="M94 733q0 165 52.5 303t147.5 237.5t228 155t295 55.5t295.5 -55.5t229 -155t147.5 -237.5t52 -303t-52 -302.5t-147.5 -237t-229 -154t-295.5 -54.5t-295 54.5t-228 154t-147.5 237t-52.5 302.5zM297 733q0 -135 37 -242t105 -181t164 -113.5t214 -39.5q119 0 215 39.5 t164 113.5t104.5 181t36.5 242t-36.5 242.5t-104.5 182t-164 114.5t-215 40q-118 0 -214 -40t-164 -114.5t-105 -182t-37 -242.5z" />
<glyph unicode="P" horiz-adv-x="1251" d="M199 0v1467h433q139 0 242 -32t170.5 -91.5t101 -143.5t33.5 -187q0 -102 -36 -187.5t-105 -147t-171.5 -95.5t-234.5 -34h-236v-549h-197zM396 707h236q85 0 150 22.5t109 63t66.5 96.5t22.5 124q0 140 -86.5 219t-261.5 79h-236v-604z" />
<glyph unicode="Q" horiz-adv-x="1634" d="M94 733q0 165 52.5 303t147.5 237.5t228 155t295 55.5t295.5 -55.5t229 -155t147.5 -237.5t52 -303q0 -103 -21 -196.5t-61 -173.5t-97 -145.5t-129 -114.5l377 -406h-164q-37 0 -65.5 10t-52.5 36l-258 281q-58 -18 -121 -28.5t-132 -10.5q-162 0 -295 54.5t-228 154 t-147.5 237t-52.5 302.5zM297 733q0 -135 37 -242t105 -181t164 -113.5t214 -39.5q119 0 215 39.5t164 113.5t104.5 181t36.5 242t-36.5 242.5t-104.5 182t-164 114.5t-215 40q-118 0 -214 -40t-164 -114.5t-105 -182t-37 -242.5z" />
<glyph unicode="R" horiz-adv-x="1318" d="M199 0v1467h414q139 0 240.5 -28t167.5 -81t98 -128.5t32 -168.5q0 -78 -24.5 -145.5t-71 -121.5t-114 -91.5t-151.5 -57.5q37 -22 65 -62l428 -583h-176q-54 0 -80 42l-381 524q-17 25 -37.5 35.5t-61.5 10.5h-151v-612h-197zM396 757h208q87 0 153 21t110.5 59.5 t67 91.5t22.5 118q0 131 -86.5 197.5t-257.5 66.5h-217v-554z" />
<glyph unicode="S" horiz-adv-x="1085" d="M59 175l58 94q8 11 19.5 19t26.5 8q22 0 49.5 -23t69 -50.5t100 -51t143.5 -23.5q71 0 126.5 19.5t93.5 55t58.5 84.5t20.5 110q0 67 -30 109t-79 71t-112 49l-129 41q-66 21 -129 48.5t-112.5 71.5t-79.5 110t-30 163q0 78 30 151t87.5 129t142 90t194.5 34 q123 0 224 -39t177 -113l-48 -94q-9 -15 -19.5 -23t-26.5 -8q-17 0 -40.5 17.5t-58.5 38.5t-85 38.5t-120 17.5q-67 0 -118 -18t-85.5 -48.5t-52 -72t-17.5 -89.5q0 -61 30.5 -102t80 -69.5t112.5 -49.5l129 -44q66 -23 129 -50.5t112.5 -70.5t80 -105.5t30.5 -154.5 q0 -96 -33 -180.5t-96 -147t-154.5 -98t-208.5 -35.5q-142 0 -259.5 51.5t-200.5 139.5z" />
<glyph unicode="T" horiz-adv-x="1208" d="M29 1300v167h1149v-167h-475v-1300h-198v1300h-476z" />
<glyph unicode="U" horiz-adv-x="1495" d="M164 575v892h197v-890q0 -92 26.5 -169t76 -132.5t121.5 -86.5t164 -31q91 0 162.5 30.5t121 86t76 132t26.5 168.5v892h197v-892q0 -127 -40.5 -235.5t-115.5 -187.5t-183.5 -124t-243.5 -45t-244 45t-184.5 124t-116 187.5t-40.5 235.5z" />
<glyph unicode="V" horiz-adv-x="1392" d="M8 1467h159q27 0 43 -13t24 -34l415 -1035q14 -35 26 -76t23 -85q9 44 20 85t25 76l413 1035q7 17 24.5 32t43.5 15h159l-598 -1467h-179z" />
<glyph unicode="W" horiz-adv-x="2086" d="M14 1467h165q27 0 44.5 -13t23.5 -34l303 -1020q8 -28 14.5 -59.5l13.5 -66.5l14 68q7 32 16 58l345 1020q6 17 24 32t44 15h57q27 0 44 -13t24 -34l343 -1020q18 -53 33 -121l11 64q5 31 13 57l304 1020q5 18 23 32.5t44 14.5h155l-458 -1467h-178l-372 1119 q-11 32 -21 74l-9 -39q-5 -19 -10 -35l-374 -1119h-178z" />
<glyph unicode="X" horiz-adv-x="1316" d="M14 0l505 754l-484 713h197q22 0 32 -7t19 -20l383 -588q7 22 21 47l362 537q9 14 19.5 22.5t26.5 8.5h189l-486 -704l502 -763h-196q-23 0 -35.5 12t-20.5 26l-394 615q-7 -22 -18 -41l-383 -574q-9 -14 -21 -26t-33 -12h-185z" />
<glyph unicode="Y" horiz-adv-x="1288" d="M8 1467h174q27 0 42.5 -13t26.5 -33l336 -570q20 -36 34 -67.5t25 -62.5q11 32 24.5 63.5t34.5 66.5l334 570q9 16 25 31t42 15h176l-539 -883v-584h-197v584z" />
<glyph unicode="Z" horiz-adv-x="1277" d="M88 0v78q0 31 20 58l831 1170h-812v161h1073v-73q0 -35 -21 -66l-831 -1166h838v-162h-1098z" />
<glyph unicode="[" horiz-adv-x="614" d="M145 -296v1866h377v-72q0 -23 -13.5 -35.5t-36.5 -12.5h-173v-1625h173q23 0 36.5 -13t13.5 -36v-72h-377z" />
<glyph unicode="\" horiz-adv-x="768" d="M-20 1508h77q34 0 58.5 -17t38.5 -50l615 -1533h-77q-30 0 -58.5 17.5t-41.5 52.5z" />
<glyph unicode="]" horiz-adv-x="614" d="M92 -224q0 20 14 34.5t36 14.5h173v1625h-173q-23 0 -36.5 14t-13.5 34v72h377v-1866h-377v72z" />
<glyph unicode="^" d="M162 806l366 661h118l367 -661h-132q-17 0 -29.5 10t-21.5 25l-200 360q-13 24 -23 46t-17 43q-14 -45 -38 -89l-199 -360q-8 -14 -19.5 -24.5t-32.5 -10.5h-139z" />
<glyph unicode="_" horiz-adv-x="806" d="M0 -169h807v-123h-807v123z" />
<glyph unicode="`" horiz-adv-x="628" d="M39 1484h173q34 0 50.5 -11t30.5 -34l152 -248h-104q-22 0 -35 6.5t-27 22.5z" />
<glyph unicode="a" horiz-adv-x="1038" d="M94 259q0 61 34 118t109 101t197 72.5t298 32.5v81q0 121 -51.5 182.5t-153.5 61.5q-67 0 -112 -17t-78.5 -37.5t-57.5 -37.5t-48 -17q-18 0 -32 9.5t-22 24.5l-33 58q86 83 185.5 124t220.5 41q87 0 154.5 -29t113.5 -80t69.5 -123.5t23.5 -159.5v-664h-81q-27 0 -43 8 t-21 35l-21 96q-41 -37 -79.5 -66t-81.5 -49t-92 -30t-108 -10q-60 0 -113 16.5t-92 50.5t-62 85.5t-23 122.5zM269 267q0 -41 13.5 -70.5t36 -48.5t53 -27.5t66.5 -8.5q48 0 88 9.5t75.5 27.5t67.5 43.5t63 58.5v216q-126 -4 -214 -20t-143.5 -41.5t-80.5 -60.5t-25 -78z " />
<glyph unicode="b" horiz-adv-x="1144" d="M156 0v1508h183v-620q65 75 148 120.5t191 45.5q90 0 162.5 -34t124 -101t79 -166t27.5 -228q0 -115 -30.5 -213.5t-88.5 -170.5t-141.5 -113.5t-187.5 -41.5q-100 0 -170.5 38.5t-122.5 108.5l-9 -94q-8 -39 -48 -39h-117zM339 250q49 -68 109 -95.5t134 -27.5 q145 0 223 103.5t78 294.5q0 101 -18 174t-52 119.5t-83 68t-112 21.5q-89 0 -156 -41t-123 -115v-502z" />
<glyph unicode="c" horiz-adv-x="956" d="M76 519q0 116 32 214t94 169.5t153 111.5t209 40q109 0 193 -35.5t148 -99.5l-48 -66q-8 -11 -16 -17.5t-24 -6.5q-15 0 -33 13t-45.5 28.5t-67 28t-97.5 12.5q-76 0 -134 -27t-97.5 -78t-59.5 -124t-20 -163q0 -94 21.5 -167t60.5 -123t95 -76t125 -26q67 0 110 16 t71.5 35.5t47 35t36.5 15.5q24 0 35 -17l51 -67q-68 -83 -169 -121t-213 -38q-97 0 -181 35.5t-145.5 104t-96.5 167.5t-35 226z" />
<glyph unicode="d" horiz-adv-x="1144" d="M74 515q0 115 30.5 213.5t88.5 171.5t141 114.5t188 41.5q95 0 163 -32.5t121 -90.5v575h182v-1508h-108q-39 0 -50 38l-16 126q-67 -81 -152 -129.5t-196 -48.5q-89 0 -162 34t-124 100.5t-78.5 166t-27.5 228.5zM262 515q0 -101 17.5 -173.5t51.5 -119t83 -68 t112 -21.5q89 0 156.5 41t123.5 116v502q-50 68 -110 94.5t-133 26.5q-145 0 -223 -103.5t-78 -294.5z" />
<glyph unicode="e" horiz-adv-x="1073" d="M76 540q0 109 33 203t95.5 163t152.5 108.5t203 39.5q93 0 172 -31.5t136.5 -90.5t89.5 -145.5t32 -196.5q0 -43 -9 -57.5t-35 -14.5h-690q2 -98 26.5 -171t67.5 -121.5t102.5 -72.5t133.5 -24q69 0 118.5 16t85 34.5t59.5 34t42 15.5q23 0 35 -17l51 -67 q-34 -41 -81 -71t-101 -49.5t-111 -29t-114 -9.5q-108 0 -198 36t-156 106.5t-103 174t-37 237.5zM262 632h564q0 63 -17 116t-51 91.5t-82.5 59.5t-111.5 21q-132 0 -208 -76.5t-94 -211.5z" />
<glyph unicode="f" horiz-adv-x="690" d="M27 942v75h163v100q0 89 25.5 158.5t72 117t112 72t147.5 24.5q70 0 129 -21l-4 -91q-1 -20 -17.5 -24t-46.5 -4h-31q-47 0 -85.5 -12.5t-66.5 -40t-42.5 -72.5t-14.5 -112v-95h300v-132h-294v-885h-184v882l-114 13q-22 5 -35.5 16t-13.5 31z" />
<glyph unicode="g" horiz-adv-x="1046" d="M51 -99q0 77 48.5 130.5t133.5 85.5q-44 20 -70 54.5t-26 91.5q0 23 8.5 47t25 47.5t41.5 45t57 37.5q-77 43 -120.5 114.5t-43.5 166.5q0 76 29.5 138t81.5 105.5t124.5 67t158.5 23.5q68 0 126.5 -15t106.5 -44h282v-67q0 -34 -43 -43l-118 -17q35 -67 35 -148 q0 -76 -29.5 -138t-81 -106t-122.5 -67.5t-156 -23.5q-73 0 -138 17q-33 -20 -49.5 -43.5t-16.5 -46.5q0 -37 29.5 -55.5t79 -27t112 -10.5t127.5 -6.5t127.5 -16t111.5 -37t78.5 -70.5t29.5 -117q0 -67 -33 -129t-95.5 -110.5t-153 -78t-203.5 -29.5q-114 0 -199.5 22.5 t-141.5 60.5t-84.5 88t-28.5 104zM211 -76q0 -35 18 -65t55 -52t92.5 -35t131.5 -13q74 0 132 13.5t98.5 38t62 58.5t21.5 75q0 39 -21.5 62.5t-58 36t-85 19t-101.5 9t-108.5 5.5t-105.5 11q-58 -28 -94.5 -68t-36.5 -95zM273 716q0 -46 15 -84.5t43.5 -66t70.5 -43 t97 -15.5t97.5 15.5t71 43t43 66t14.5 84.5q0 95 -58 151.5t-168 56.5t-168 -56.5t-58 -151.5z" />
<glyph unicode="h" horiz-adv-x="1138" d="M150 0v1508h182v-610q67 71 147.5 113.5t186.5 42.5q85 0 150 -28.5t108.5 -80t66 -124t22.5 -161.5v-660h-183v660q0 118 -53.5 183t-164.5 65q-81 0 -151 -39t-129 -105v-764h-182z" />
<glyph unicode="i" horiz-adv-x="524" d="M133 1363q0 27 10.5 51t28 42t41 28t49.5 10q27 0 50.5 -10t41.5 -28t28.5 -42t10.5 -51t-10.5 -50t-28.5 -41t-41.5 -28t-50.5 -10t-50 10t-40.5 28t-28 41t-10.5 50zM170 0v1037h182v-1037h-182z" />
<glyph unicode="j" horiz-adv-x="520" d="M-57 -352l8 98q2 13 9 17t23 4q8 0 17 -0.5t23 -0.5q80 0 113.5 37t33.5 120v1114h182v-1114q0 -62 -16.5 -116t-51.5 -94t-91 -63t-134 -23q-34 0 -61 5.5t-55 15.5zM133 1363q0 27 10.5 51t28 42t41 28t49.5 10q27 0 50.5 -10t41.5 -28t28.5 -42t10.5 -51t-10.5 -50 t-28.5 -41t-41.5 -28t-50.5 -10t-50 10t-40.5 28t-28 41t-10.5 50z" />
<glyph unicode="k" horiz-adv-x="1073" d="M156 0v1508h183v-887h47q20 0 33.5 5.5t30.5 22.5l327 351q15 16 30.5 26.5t41.5 10.5h166l-382 -406q-14 -17 -28 -30.5t-32 -23.5q18 -12 33.5 -28.5t28.5 -36.5l405 -512h-163q-23 0 -39 8.5t-30 27.5l-341 425q-15 22 -30.5 28.5t-46.5 6.5h-51v-496h-183z" />
<glyph unicode="l" horiz-adv-x="524" d="M170 0v1508h182v-1508h-182z" />
<glyph unicode="m" horiz-adv-x="1681" d="M150 0v1037h108q39 0 49 -38l14 -106q57 71 128 116t165 45q105 0 170.5 -58.5t94.5 -157.5q22 56 57 97t79 67.5t93.5 39t100.5 12.5q82 0 146 -26.5t108.5 -76.5t68 -123t23.5 -168v-660h-182v660q0 122 -53 185t-155 63q-45 0 -85.5 -15.5t-71 -46.5t-48.5 -77.5 t-18 -108.5v-660h-182v660q0 125 -50.5 186.5t-146.5 61.5q-68 0 -125.5 -36t-105.5 -99v-773h-182z" />
<glyph unicode="n" horiz-adv-x="1138" d="M150 0v1037h108q39 0 49 -38l15 -112q68 75 151 121t193 46q85 0 150 -28.5t108.5 -80t66 -124t22.5 -161.5v-660h-183v660q0 118 -53.5 183t-164.5 65q-81 0 -151 -39t-129 -105v-764h-182z" />
<glyph unicode="o" horiz-adv-x="1138" d="M74 519q0 122 34.5 221t99 168.5t156.5 107.5t205 38q114 0 205.5 -38t155.5 -107.5t98.5 -168.5t34.5 -221q0 -123 -34.5 -221t-98.5 -168t-155.5 -107t-205.5 -37t-205.5 37t-156 107t-99 168t-34.5 221zM262 518q0 -92 19 -164.5t57.5 -122.5t96 -76.5t134.5 -26.5 q154 0 229.5 103t75.5 287q0 185 -75.5 288.5t-229.5 103.5q-78 0 -135 -26.5t-95.5 -76.5t-57.5 -123.5t-19 -165.5z" />
<glyph unicode="p" horiz-adv-x="1130" d="M150 -351v1388h108q39 0 49 -38l16 -122q67 81 152 130t197 49q89 0 161.5 -34.5t124 -101.5t79 -166.5t27.5 -228.5q0 -115 -31 -213.5t-88 -170.5t-140.5 -113.5t-188.5 -41.5q-96 0 -164 31.5t-120 90.5v-459h-182zM332 250q50 -68 110 -95.5t133 -27.5 q144 0 222.5 103.5t78.5 294.5q0 101 -18 174t-52 119.5t-83 68t-112 21.5q-89 0 -156 -41t-123 -115v-502z" />
<glyph unicode="q" horiz-adv-x="1144" d="M74 515q0 115 30.5 213.5t88.5 171.5t141 114.5t188 41.5q100 0 170.5 -36t125.5 -101l12 80q10 38 50 38h108v-1388h-182v505q-66 -76 -149.5 -122t-190.5 -46q-89 0 -162 34t-124 100.5t-78.5 166t-27.5 228.5zM262 515q0 -101 17.5 -173.5t51.5 -119t83 -68t112 -21.5 q89 0 156.5 41t123.5 116v502q-49 66 -109.5 93.5t-133.5 27.5q-145 0 -223 -103.5t-78 -294.5z" />
<glyph unicode="r" horiz-adv-x="825" d="M150 0v1037h104q30 0 41 -11t15 -39l13 -162q53 109 131 170t184 61q43 0 78 -10t64 -27l-23 -136q-7 -26 -32 -26q-14 0 -44 10t-83 10q-95 0 -159 -55.5t-107 -161.5v-660h-182z" />
<glyph unicode="s" horiz-adv-x="888" d="M63 110l43 69q8 13 19.5 20.5t30.5 7.5q18 0 38.5 -14.5t49.5 -32t70.5 -31.5t104.5 -14q53 0 93 13.5t66.5 37t39.5 54.5t13 66q0 43 -23 71t-61 48t-87 35l-99 31q-51 16 -99.5 37t-86.5 53t-61 78.5t-23 113.5q0 59 24.5 114t71.5 96.5t116 66t157 24.5 q102 0 183.5 -32.5t140.5 -88.5l-41 -67q-12 -23 -37 -22q-15 0 -35 11t-48 25t-67 26t-92 12q-46 0 -83 -12t-63 -32.5t-40 -47.5t-14 -59q0 -40 23 -66.5t61 -46t86 -34.5l99 -32q51 -17 99 -37.5t86 -51t61 -75t23 -107.5q0 -72 -25.5 -132.5t-76 -105t-123 -70 t-167.5 -25.5q-109 0 -197.5 35.5t-149.5 90.5z" />
<glyph unicode="t" horiz-adv-x="763" d="M45 925v72l170 22l42 320q2 15 13.5 25t28.5 10h92v-357h297v-132h-297v-623q0 -66 32 -97.5t82 -31.5q29 0 49.5 7.5t36 17t26.5 17t19 7.5q14 0 26 -17l53 -87q-47 -44 -113.5 -69t-137.5 -25q-123 0 -189 68.5t-66 197.5v635h-125q-16 0 -27.5 10t-11.5 30z" />
<glyph unicode="u" horiz-adv-x="1138" d="M125 376v661h182v-661q0 -118 54.5 -182.5t163.5 -64.5q80 0 150.5 38t130.5 105v765h182v-1037h-108q-39 0 -50 38l-14 112q-68 -75 -151.5 -120.5t-192.5 -45.5q-85 0 -150 28t-109 79t-66 124t-22 161z" />
<glyph unicode="v" horiz-adv-x="1048" d="M18 1037h150q22 0 36 -11t20 -27l263 -667q14 -37 22.5 -74t15.5 -73l18 73q9 37 23 74l267 667q6 16 19.5 27t34.5 11h142l-423 -1037h-165z" />
<glyph unicode="w" horiz-adv-x="1568" d="M14 1037h144q23 0 37 -11t19 -27l199 -667l15 -71q7 -34 12 -70q8 35 19 70l21 71l219 672q5 15 18 25t33 10h78q20 0 34 -10t19 -25l214 -672q11 -36 20 -71l17 -68q5 34 13 70.5t17 68.5l203 667q5 16 19.5 27t33.5 11h137l-335 -1037h-145q-27 0 -37 35l-229 703 q-8 24 -13 48l-11 48l-10 -49q-5 -25 -13 -48l-233 -702q-11 -35 -42 -35h-137z" />
<glyph unicode="x" horiz-adv-x="1032" d="M29 0l363 531l-349 506h175q23 0 33 -7t18 -20l254 -389q9 29 27 57l223 328q10 14 20.5 22.5t25.5 8.5h168l-349 -495l363 -542h-175q-23 0 -35.5 12t-20.5 26l-261 406q-7 -30 -22 -53l-241 -353q-10 -14 -22 -26t-33 -12h-162z" />
<glyph unicode="y" horiz-adv-x="1048" d="M14 1037h158q24 0 37 -11.5t19 -26.5l278 -653q9 -23 15.5 -45t12.5 -46l14 46q7 23 16 46l270 652q6 16 20.5 27t32.5 11h145l-578 -1343q-9 -20 -23 -32.5t-43 -12.5h-135l189 411z" />
<glyph unicode="z" horiz-adv-x="946" d="M72 0v76q0 13 6.5 31t18.5 34l565 753h-559v143h770v-78q0 -19 -7 -37t-18 -32l-561 -748h566v-142h-781z" />
<glyph unicode="{" horiz-adv-x="614" d="M45 583v109q69 0 104.5 41t35.5 107q0 51 -8 101t-17.5 100.5t-18 101.5t-8.5 104q0 71 21 130.5t63.5 102.5t105.5 66.5t147 23.5h54v-81q0 -20 -14 -29.5t-27 -9.5h-20q-79 0 -124.5 -51.5t-45.5 -140.5q0 -57 7 -110t16.5 -104t16.5 -101t7 -101q0 -39 -11.5 -72.5 t-32.5 -59.5t-49 -45t-62 -28q34 -9 62 -28t49 -45.5t32.5 -59.5t11.5 -71q0 -51 -7 -101t-16.5 -101t-16.5 -104t-7 -111q0 -89 45.5 -140t124.5 -51h20q12 0 26.5 -9.5t14.5 -29.5v-82h-54q-84 0 -147 24t-105.5 67t-63.5 102.5t-21 130.5q0 53 8.5 103.5t18 101.5 t17.5 101t8 101q0 65 -35.5 106.5t-104.5 41.5z" />
<glyph unicode="|" horiz-adv-x="614" d="M236 -351v1921h141v-1921h-141z" />
<glyph unicode="}" horiz-adv-x="614" d="M90 -214q0 20 14.5 29.5t26.5 9.5h21q79 0 124.5 51t45.5 140q0 57 -7.5 110.5t-16.5 104.5t-16.5 101t-7.5 101q0 38 11.5 71t32.5 59.5t49 45.5t62 28q-34 9 -62 28t-49 45t-32.5 59.5t-11.5 72.5q0 51 7.5 101t16.5 101t16.5 104t7.5 110q0 88 -46 140t-124 52h-21 q-12 0 -26.5 9t-14.5 30v81h54q84 0 147 -23.5t105 -66.5t63.5 -102.5t21.5 -130.5q0 -53 -8 -104t-18 -101.5t-18 -100.5t-8 -101q0 -66 36 -107t104 -41v-109q-69 0 -104.5 -41.5t-35.5 -106.5q0 -51 8 -101t18 -101t18 -101.5t8 -103.5q0 -71 -21.5 -130.5t-63.5 -102.5 t-105 -67t-147 -24h-54v82z" />
<glyph unicode="~" d="M119 424q0 69 19 126t54 98t87 64t118 23q53 0 105.5 -17t101.5 -37l92 -36q44 -17 81 -17q67 0 104.5 43.5t38.5 114.5h147q0 -69 -19 -126t-54.5 -98t-87.5 -63.5t-118 -22.5q-53 0 -105 16.5t-101 36.5l-93 37q-44 17 -80 17q-67 0 -104.5 -43t-38.5 -116h-147z" />
<glyph unicode="&#xa1;" horiz-adv-x="702" d="M223 926q0 28 10 50.5t27.5 40t40.5 27.5t50 10t50 -10t40.5 -27.5t27.5 -40.5t10 -50t-10 -50.5t-27.5 -41t-40.5 -27.5t-50 -10q-28 0 -50.5 10t-40 27.5t-27.5 41t-10 50.5zM268 203q0 46 1.5 89.5t5 88t8 91.5t10.5 100h124q6 -53 10.5 -100t7.5 -91.5t4.5 -88 t1.5 -89.5v-554h-173v554z" />
<glyph unicode="&#xa2;" d="M141 518q0 114 34 209.5t98.5 166.5t158.5 112.5t216 44.5l12 183q2 20 16 35t36 15h67l-16 -238q84 -12 151.5 -44.5t122.5 -82.5l-47 -64q-8 -11 -15.5 -16.5t-22.5 -5.5q-12 0 -29 8l-40 21q-23 12 -55 24.5t-75 19.5l-54 -780q65 4 108.5 20t73.5 33.5t49.5 31.5 t36.5 14q11 0 20 -4.5t14 -11.5l50 -65q-61 -74 -156 -111.5t-205 -44.5l-12 -179q-2 -19 -16 -34.5t-35 -15.5h-68l15 230q-94 10 -173 50.5t-137 108t-90.5 160.5t-32.5 210zM323 518q0 -166 69 -264t193 -122l53 778q-78 -6 -137 -35t-99 -80t-59.5 -120.5t-19.5 -156.5z " />
<glyph unicode="&#xa3;" d="M53 629v59q0 27 16.5 45.5t46.5 18.5h137v267q0 96 27.5 180.5t84 147.5t140.5 99.5t196 36.5q80 0 142 -20t110 -55t83.5 -81t60.5 -99l-74 -47q-10 -6 -21 -9t-21 -3q-14 0 -27 6t-24 20l-42 50q-21 24 -47 42t-59.5 28.5t-80.5 10.5q-65 0 -113.5 -21.5t-81.5 -61.5 t-49.5 -96t-16.5 -126v-269h452v-74q0 -18 -15.5 -33.5t-37.5 -15.5h-399v-249q0 -77 -29 -133t-80 -102q30 5 59 9t60 4h692v-78q0 -14 -6 -28t-16 -26t-24.5 -19t-32.5 -7h-987v118q35 10 66.5 27.5t56 43.5t39.5 61.5t15 82.5v296h-200z" />
<glyph unicode="&#xa4;" d="M135 1052l93 92l155 -156q45 32 98.5 49.5t112.5 17.5q58 0 110.5 -17t96.5 -48l156 157l92 -93l-155 -156q32 -45 49.5 -97.5t17.5 -112.5q0 -58 -17 -110.5t-47 -96.5l156 -154l-94 -95l-155 156q-45 -31 -98.5 -48t-111.5 -17t-110 16.5t-97 46.5l-157 -157l-91 94 l155 155q-31 45 -48.5 98t-17.5 112q0 58 17 110t47 97zM364 688q0 -47 17.5 -88.5t49.5 -72.5t73.5 -49.5t89.5 -18.5t90.5 18.5t74 49.5t49.5 72.5t18 88.5q0 48 -18 90t-49.5 74t-74 50t-90.5 18t-89.5 -18t-73.5 -50t-49.5 -74t-17.5 -90z" />
<glyph unicode="&#xa5;" d="M45 1467h153q27 0 42.5 -12.5t25.5 -33.5l283 -579q14 -36 24.5 -66t17.5 -59q7 30 16 60t24 65l281 579q8 17 25 31.5t43 14.5h154l-419 -827h314v-104h-348v-108h348v-105h-348v-323h-183v323h-348v105h348v108h-348v104h313z" />
<glyph unicode="&#xa6;" horiz-adv-x="614" d="M236 -351v814h141v-814h-141zM236 757v813h141v-813h-141z" />
<glyph unicode="&#xa7;" horiz-adv-x="1030" d="M117 715q0 80 44 144t139 99q-51 39 -83.5 93t-32.5 131q0 59 24.5 114t72 96t116 65.5t156.5 24.5q102 0 183.5 -32t141.5 -88l-41 -67q-12 -23 -38 -22q-15 0 -35 11t-48 25t-67 26t-92 12q-49 0 -88.5 -13t-66.5 -34.5t-41.5 -50t-14.5 -60.5q0 -39 25 -68t65.5 -53.5 t92.5 -46.5l106 -45q54 -24 106.5 -52t92.5 -64.5t65.5 -83.5t25.5 -109q0 -83 -40 -148t-126 -104q50 -38 81.5 -88.5t31.5 -120.5q0 -72 -25.5 -133t-75 -105.5t-123 -70t-167.5 -25.5q-109 0 -196.5 35.5t-149.5 90.5l42 70q8 13 20 20t29 7q18 0 39 -14t50.5 -32 t73 -32.5t108.5 -14.5q51 0 91.5 13t68 36t42 54.5t14.5 70.5q0 46 -25.5 80t-67.5 60t-96 48l-109 44q-56 23 -109.5 48.5t-95.5 61.5t-67.5 83.5t-25.5 113.5zM279 743q0 -52 35.5 -88.5t91.5 -65.5t123.5 -56t130.5 -59q55 27 80 65.5t25 86.5q0 37 -15.5 65.5t-42 52 t-62.5 43t-76 37.5l-84 36q-43 18 -84 38q-68 -31 -95 -68.5t-27 -86.5z" />
<glyph unicode="&#xa8;" horiz-adv-x="628" d="M14 1320q0 24 9.5 45t25.5 37t36 25.5t43 9.5q24 0 45 -9.5t37 -25.5t25.5 -37.5t9.5 -44.5q0 -24 -9.5 -44.5t-25.5 -35.5t-37 -24.5t-45 -9.5q-23 0 -43 9.5t-36 24.5t-25.5 35.5t-9.5 44.5zM382 1320q0 24 9 45t24.5 37t36.5 25.5t45 9.5t44.5 -9.5t36.5 -25.5 t25 -37.5t9 -44.5q0 -24 -9 -44.5t-25 -35.5t-37 -24.5t-44 -9.5q-24 0 -45 9.5t-36.5 24.5t-24.5 35.5t-9 44.5z" />
<glyph unicode="&#xa9;" horiz-adv-x="1634" d="M70 733q0 103 26.5 199t75 179.5t117 151.5t151.5 117.5t178.5 76t198.5 26.5t199 -26.5t179 -76t151.5 -117.5t117 -151.5t75.5 -179t27 -199.5q0 -102 -27 -198t-75.5 -179t-117 -151t-151.5 -117t-178.5 -75.5t-199.5 -26.5q-103 0 -198.5 26.5t-178.5 75.5 t-151.5 117t-117 151t-75 178.5t-26.5 198.5zM172 733q0 -91 22.5 -175t64.5 -157t100.5 -132.5t130 -102t154.5 -65.5t173 -23q135 0 253.5 51t206 139.5t138 208t50.5 256.5q0 91 -23 176t-65 158.5t-100.5 134t-130.5 103t-155.5 66t-173.5 23.5q-135 0 -253 -52 t-205 -141.5t-137 -210t-50 -257.5zM374 735q0 103 35 190t97.5 149t148 96t186.5 34q111 0 188.5 -34.5t135.5 -91.5l-47 -66q-5 -6 -13 -12.5t-21 -6.5q-14 0 -30 11.5t-41.5 25t-64.5 25.5t-99 12q-72 0 -129.5 -23t-98 -66t-62.5 -104.5t-22 -138.5q0 -79 22 -141 t60.5 -103.5t93 -64t117.5 -22.5q49 0 83 6.5t58.5 16.5t43.5 23l40 24l14 9q6 4 11 3q11 0 15.5 -3t10.5 -9l62 -65q-58 -68 -143 -105.5t-204 -37.5q-100 0 -182.5 35t-141.5 97.5t-91 148.5t-32 188z" />
<glyph unicode="&#xaa;" horiz-adv-x="700" d="M94 1017q0 35 19.5 69t64.5 61.5t119.5 45t183.5 19.5v38q0 65 -29.5 95.5t-87.5 30.5q-39 0 -65 -9t-45 -20l-33 -19q-15 -9 -32 -9q-14 0 -24 7.5t-15 18.5l-23 43q53 50 115 73.5t137 23.5q55 0 98 -17.5t73 -48t45 -73.5t15 -96v-390h-61q-18 0 -27.5 5.5t-17.5 24.5 l-12 50q-25 -22 -48.5 -38t-49 -28t-54.5 -17.5t-64 -5.5q-39 0 -72 10t-57.5 31t-38.5 52t-14 73zM222 1023q0 -43 26.5 -60.5t67.5 -17.5q52 0 90 19.5t75 55.5v107q-72 -2 -121.5 -10.5t-80 -22.5t-44 -31.5t-13.5 -39.5z" />
<glyph unicode="&#xab;" horiz-adv-x="948" d="M141 530v24l255 398l60 -28q14 -7 21 -18.5t7 -24.5q0 -17 -10 -34l-163 -267q-14 -25 -28 -38q15 -14 28 -37l163 -267q5 -8 7.5 -17.5t2.5 -17.5q0 -29 -28 -42l-60 -29zM444 530v24l255 398l60 -28q14 -7 21 -18.5t7 -24.5q0 -17 -10 -34l-163 -267q-14 -25 -28 -38 q15 -14 28 -37l163 -267q5 -8 7.5 -17.5t2.5 -17.5q0 -29 -28 -42l-60 -29z" />
<glyph unicode="&#xac;" d="M152 618v139h880v-434h-154v295h-726z" />
<glyph unicode="&#xad;" horiz-adv-x="0" />
<glyph unicode="&#xae;" horiz-adv-x="1634" d="M70 733q0 103 26.5 199t75 179.5t117 151.5t151.5 117.5t178.5 76t198.5 26.5t199 -26.5t179 -76t151.5 -117.5t117 -151.5t75.5 -179t27 -199.5q0 -102 -27 -198t-75.5 -179t-117 -151t-151.5 -117t-178.5 -75.5t-199.5 -26.5q-103 0 -198.5 26.5t-178.5 75.5 t-151.5 117t-117 151t-75 178.5t-26.5 198.5zM172 733q0 -91 22.5 -175t64.5 -157t100.5 -132.5t130 -102t154.5 -65.5t173 -23q135 0 253.5 51t206 139.5t138 208t50.5 256.5q0 91 -23 176t-65 158.5t-100.5 134t-130.5 103t-155.5 66t-173.5 23.5q-135 0 -253 -52 t-205 -141.5t-137 -210t-50 -257.5zM510 279v913h295q176 0 261 -64t85 -189q0 -96 -55 -163.5t-163 -93.5q17 -10 30 -25.5t24 -35.5l234 -342h-152q-34 0 -50 25l-206 309q-9 13 -22 20.5t-39 7.5h-82v-362h-160zM670 758h118q56 0 96 10.5t64 31t34.5 50.5t10.5 69 q0 38 -9.5 66.5t-31.5 47t-58 27.5t-89 9h-135v-311z" />
<glyph unicode="&#xaf;" horiz-adv-x="628" d="M20 1261v119h588v-119h-588z" />
<glyph unicode="&#xb0;" horiz-adv-x="813" d="M72 1155q0 69 25.5 129.5t70.5 105t106 70t132 25.5t131.5 -25.5t105.5 -70t70.5 -105t25.5 -129.5q0 -68 -25.5 -127.5t-70.5 -104t-106 -71t-131 -26.5q-71 0 -132 26.5t-106 71t-70.5 104t-25.5 127.5zM202 1154q0 -43 15 -80.5t43 -65t65 -43.5t81 -16q43 0 79.5 16 t64.5 43.5t43 65t15 80.5t-15 81t-43 66t-64.5 44t-79.5 16t-80.5 -16t-65.5 -44t-43 -66t-15 -81z" />
<glyph unicode="&#xb1;" d="M102 82v138h981v-138h-981zM102 707v139h415v385h150v-385h416v-139h-416v-377h-150v377h-415z" />
<glyph unicode="&#xb2;" horiz-adv-x="679" d="M84 922v44q0 13 5 27.5t17 26.5l227 224q26 26 48 52.5t38.5 53.5t26.5 54.5t10 54.5q0 52 -31 80.5t-77 28.5q-47 0 -76 -24.5t-44 -67.5q-8 -14 -17.5 -22.5t-27.5 -8.5q-4 0 -8.5 0.5t-9.5 1.5l-73 12q15 109 86 163t176 54q53 0 97 -15t74.5 -43t47.5 -67.5t17 -87.5 q0 -41 -13 -76t-34.5 -67t-48.5 -62l-59 -60l-166 -169q24 6 48 10t45 4h200q22 0 33.5 -11t11.5 -32v-78h-523z" />
<glyph unicode="&#xb3;" horiz-adv-x="679" d="M86 1111l56 25q15 6 30 6q30 0 41 -24q6 -13 15.5 -29.5t24.5 -31t37 -24t55 -9.5q32 0 56 10t40.5 26t24.5 36.5t8 42.5q0 31 -8.5 52.5t-28.5 36t-53.5 21.5t-81.5 7v90q89 1 125.5 31.5t36.5 83.5q0 51 -30 78t-79 27t-78 -24t-41 -65q-8 -16 -17 -24t-24 -8 q-4 0 -9 0.5t-10 1.5l-68 12q7 54 29.5 94.5t55.5 68t76 41t93 13.5q52 0 94.5 -14.5t72.5 -41t46.5 -61t16.5 -75.5q0 -131 -122 -177q68 -19 103 -59.5t35 -103.5q0 -56 -21.5 -99.5t-56.5 -72.5t-82 -44t-96 -15q-58 0 -101 13t-74.5 38t-53.5 62t-37 85z" />
<glyph unicode="&#xb4;" horiz-adv-x="628" d="M201 1191l151 248q14 24 31 34.5t50 10.5h178l-238 -264q-14 -15 -28 -22t-36 -7h-108z" />
<glyph unicode="&#xb5;" horiz-adv-x="1138" d="M125 -273v1310h182v-673q0 -112 55.5 -173.5t162.5 -61.5q80 0 150.5 38t130.5 105v765h182v-1037h-108q-39 0 -50 38l-14 112q-69 -74 -141 -109t-161 -35q-76 0 -133 26t-97 73q7 -43 10 -87.5t3 -83.5v-285h-91q-39 0 -60 20.5t-21 57.5z" />
<glyph unicode="&#xb6;" horiz-adv-x="1370" d="M43 1074q0 88 32.5 160.5t92 124t144.5 80t192 28.5h829v-156h-224v-1517h-161v1517h-283v-1517h-161v882q-106 0 -191.5 31t-145 85t-92 126.5t-32.5 155.5z" />
<glyph unicode="&#xb7;" horiz-adv-x="559" d="M127 607q0 32 12 60.5t33 49t48.5 33t58.5 12.5q32 0 60.5 -12.5t49 -33t32.5 -49t12 -60.5q0 -31 -12 -58.5t-32.5 -48.5t-49.5 -32.5t-60 -11.5t-58.5 11.5t-48.5 32.5t-33 48.5t-12 58.5z" />
<glyph unicode="&#xb8;" horiz-adv-x="628" d="M135 -328l18 57q6 18 23 18q6 0 14 -4l20 -8q11 -5 27.5 -8t37.5 -3q43 0 65 16.5t22 43.5q0 19 -11 32.5t-32 22.5t-51.5 15.5t-69.5 11.5l44 144h114l-24 -82q92 -20 133.5 -55.5t41.5 -90.5q0 -33 -16.5 -59t-45.5 -44.5t-70 -28t-90 -9.5q-42 0 -80 8.5t-70 22.5z " />
<glyph unicode="&#xb9;" horiz-adv-x="679" d="M123 1476l227 194h111v-661h133v-87h-417v87h151v450l4 44l-110 -90q-12 -9 -26 -9q-24 0 -33 14z" />
<glyph unicode="&#xba;" horiz-adv-x="780" d="M74 1167q0 73 22.5 132t64 100t99.5 63t131 22q72 0 130 -22t98.5 -63t63.5 -100t23 -132q0 -74 -23 -133t-63.5 -100.5t-98.5 -63.5t-130 -22q-73 0 -131 22t-99.5 63.5t-64 100.5t-22.5 133zM217 1166q0 -102 42.5 -156t131.5 -54q86 0 128.5 54t42.5 156t-42.5 155.5 t-128.5 53.5q-89 0 -131.5 -53.5t-42.5 -155.5z" />
<glyph unicode="&#xbb;" horiz-adv-x="948" d="M154 203q0 17 10 35l163 267q13 25 27 37q-12 11 -27 38l-163 267q-10 17 -10 35q0 29 28 42l60 28l255 -398v-24l-255 -398l-60 29q-28 13 -28 42zM457 203q0 17 10 35l163 267q13 25 27 37q-12 11 -27 38l-163 267q-10 17 -10 35q0 29 28 42l60 28l255 -398v-24 l-255 -398l-60 29q-28 13 -28 42z" />
<glyph unicode="&#xbc;" horiz-adv-x="1458" d="M104 1274l228 194h110v-661h133v-87h-416v87h150v450l4 45l-109 -91q-12 -9 -27 -9q-24 0 -33 15zM272 0l838 1405q18 30 42 46t56 16h79l-843 -1413q-19 -32 -41.5 -43t-52.5 -11h-78zM849 267l350 479h127v-473h112v-66q0 -11 -7.5 -19t-20.5 -8h-84v-180h-112v180 h-313q-18 0 -29 8.5t-13 20.5zM973 273h241v247q0 19 1.5 42t4.5 46z" />
<glyph unicode="&#xbd;" horiz-adv-x="1458" d="M104 1274l228 194h110v-661h133v-87h-416v87h150v450l4 45l-109 -91q-12 -9 -27 -9q-24 0 -33 15zM227 0l838 1405q18 30 41.5 46t56.5 16h79l-843 -1413q-19 -32 -41.5 -43t-52.5 -11h-78zM883 0v44q0 13 5 27.5t17 26.5l227 225q26 26 48 52t38.5 53.5t26 54.5t9.5 55 q0 52 -30.5 80t-76.5 28q-47 0 -76.5 -24.5t-43.5 -67.5q-8 -14 -18 -22.5t-27 -8.5q-4 0 -8.5 0.5t-9.5 1.5l-73 13q15 109 86 163t176 54q53 0 96.5 -15.5t74.5 -43t48 -67t17 -87.5q0 -41 -13 -76.5t-34.5 -67t-49.5 -61.5l-58 -61l-166 -168q24 6 48 10t45 4h200 q22 0 33.5 -11.5t11.5 -31.5v-79h-523z" />
<glyph unicode="&#xbe;" horiz-adv-x="1460" d="M70 909l56 25q15 6 30 6q30 0 41 -24q6 -13 15 -29.5t24.5 -30.5t37.5 -24t55 -10q32 0 56 10.5t40 26t24.5 36t8.5 42.5q0 31 -9 53t-29 36t-53 21.5t-81 7.5v89q89 1 125 31.5t36 84.5q0 51 -29.5 77.5t-78.5 26.5t-78.5 -24t-41.5 -65q-8 -16 -16.5 -24t-24.5 -8 q-4 0 -8.5 0.5t-9.5 1.5l-69 12q7 54 29.5 95t56 68t76.5 41t93 14q52 0 94 -15t72.5 -41t46.5 -61t16 -76q0 -131 -121 -177q68 -19 103 -59t35 -104q0 -56 -21.5 -99t-57 -72.5t-82 -44t-95.5 -14.5q-58 0 -101.5 12.5t-74.5 37.5t-53 62t-37 85zM278 0l837 1405 q18 30 42 46t56 16h79l-842 -1413q-19 -32 -42 -43t-53 -11h-77zM850 267l350 479h127v-473h112v-66q0 -11 -7.5 -19t-20.5 -8h-84v-180h-112v180h-313q-18 0 -29 8.5t-13 20.5zM974 273h241v247q0 19 1.5 42t4.5 46z" />
<glyph unicode="&#xbf;" horiz-adv-x="815" d="M45 -38q0 78 23 132t58.5 93t77.5 67l78 52q36 25 62.5 50t30.5 59l18 157h125l12 -171v-12q0 -45 -23 -76.5t-58 -57.5t-75.5 -50t-76 -54.5t-58.5 -71.5t-23 -102q0 -45 17.5 -80t47 -60t70 -38.5t86.5 -13.5q62 0 107 15.5t75.5 34t50 33.5t31.5 15q14 0 23 -6t16 -17 l48 -77q-32 -30 -70 -56.5t-83 -47t-98.5 -32.5t-114.5 -12q-81 0 -150 23t-119.5 64.5t-79 102t-28.5 137.5zM332 925q0 27 9.5 50t26.5 40.5t40.5 28t50.5 10.5t50 -10.5t40.5 -28t27.5 -41t10 -49.5q0 -28 -10 -51t-27.5 -40.5t-41 -27t-49.5 -9.5q-27 0 -50.5 9.5 t-40.5 27t-26.5 40.5t-9.5 51z" />
<glyph unicode="&#xc0;" horiz-adv-x="1392" d="M10 0l587 1467h202l586 -1467h-153q-27 0 -43.5 13.5t-24.5 33.5l-137 354h-658l-138 -354q-7 -18 -24.5 -32.5t-42.5 -14.5h-154zM424 545h548l-231 597q-23 55 -44 138q-11 -42 -21.5 -77.5t-21.5 -61.5zM327 1825h206q16 0 28 -1.5t21.5 -5t18 -10.5t18.5 -17 l216 -208h-142q-22 0 -34.5 3.5t-29.5 16.5z" />
<glyph unicode="&#xc1;" horiz-adv-x="1392" d="M10 0l587 1467h202l586 -1467h-153q-27 0 -43.5 13.5t-24.5 33.5l-137 354h-658l-138 -354q-7 -18 -24.5 -32.5t-42.5 -14.5h-154zM424 545h548l-231 597q-23 55 -44 138q-11 -42 -21.5 -77.5t-21.5 -61.5zM538 1583l216 208q10 10 18.5 17t17.5 10.5t21 5t29 1.5h206 l-301 -221q-17 -12 -30.5 -16.5t-35.5 -4.5h-141z" />
<glyph unicode="&#xc2;" horiz-adv-x="1392" d="M10 0l587 1467h202l586 -1467h-153q-27 0 -43.5 13.5t-24.5 33.5l-137 354h-658l-138 -354q-7 -18 -24.5 -32.5t-42.5 -14.5h-154zM424 545h548l-231 597q-23 55 -44 138q-11 -42 -21.5 -77.5t-21.5 -61.5zM363 1583l243 215h180l244 -215h-138q-12 0 -26.5 3.5 t-23.5 9.5l-133 98q-8 4 -13 8q-8 -6 -12 -8l-133 -98q-9 -6 -23.5 -9.5t-26.5 -3.5h-138z" />
<glyph unicode="&#xc3;" horiz-adv-x="1392" d="M10 0l587 1467h202l586 -1467h-153q-27 0 -43.5 13.5t-24.5 33.5l-137 354h-658l-138 -354q-7 -18 -24.5 -32.5t-42.5 -14.5h-154zM424 545h548l-231 597q-23 55 -44 138q-11 -42 -21.5 -77.5t-21.5 -61.5zM410 1585q0 44 11.5 81.5t33.5 64t54.5 42t72.5 15.5 q36 0 68.5 -13.5t62.5 -29.5l56 -29q27 -13 51 -13q36 0 55 21t20 59h100q0 -44 -11 -81t-32.5 -64t-53.5 -42t-73 -15q-36 0 -68.5 13.5t-62.5 29.5l-57 29q-27 13 -51 13q-35 0 -54 -22t-20 -59h-102z" />
<glyph unicode="&#xc4;" horiz-adv-x="1392" d="M10 0l587 1467h202l586 -1467h-153q-27 0 -43.5 13.5t-24.5 33.5l-137 354h-658l-138 -354q-7 -18 -24.5 -32.5t-42.5 -14.5h-154zM424 545h548l-231 597q-23 55 -44 138q-11 -42 -21.5 -77.5t-21.5 -61.5zM367 1706q0 24 9 45t24.5 36t35.5 24.5t41 9.5q24 0 45 -9.5 t36 -24.5t24.5 -36t9.5 -45q0 -23 -9.5 -42.5t-24.5 -35t-36 -24.5t-45 -9q-22 0 -41.5 9t-35 24.5t-24.5 35t-9 42.5zM803 1706q0 24 8.5 45t24 36t36 24.5t43.5 9.5t43.5 -9.5t36 -24.5t24.5 -36t9 -45q0 -23 -9 -42.5t-24.5 -35t-36 -24.5t-43.5 -9q-24 0 -44 9 t-35.5 24.5t-24 35t-8.5 42.5z" />
<glyph unicode="&#xc5;" horiz-adv-x="1392" d="M10 0l587 1467h202l586 -1467h-153q-27 0 -43.5 13.5t-24.5 33.5l-137 354h-658l-138 -354q-7 -18 -24.5 -32.5t-42.5 -14.5h-154zM424 545h548l-231 597q-23 55 -44 138q-11 -42 -21.5 -77.5t-21.5 -61.5zM501 1699q0 40 16 73.5t42 57.5t60.5 37.5t73.5 13.5 q40 0 75.5 -13.5t62.5 -37.5t42.5 -57.5t15.5 -73.5q0 -39 -15.5 -72t-42.5 -56.5t-62.5 -36.5t-75.5 -13q-39 0 -73.5 13t-60.5 36.5t-42 56.5t-16 72zM592 1699q0 -44 27.5 -73.5t75.5 -29.5q46 0 74.5 29.5t28.5 73.5q0 46 -28.5 74.5t-74.5 28.5q-48 0 -75.5 -28.5 t-27.5 -74.5z" />
<glyph unicode="&#xc6;" horiz-adv-x="1902" d="M-25 0l776 1467h1045v-161h-767l62 -488h572v-155h-553l62 -501h624v-162h-790l-51 401h-569l-183 -355q-11 -20 -30 -33t-46 -13h-152zM461 545h476l-96 771q-12 -42 -27 -77l-30 -68z" />
<glyph unicode="&#xc7;" horiz-adv-x="1402" d="M92 733q0 166 54 304.5t151 237.5t233 154t299 55q162 0 279.5 -50.5t208.5 -136.5l-65 -91q-7 -10 -16 -16.5t-27 -6.5q-13 0 -28 9l-35 25q-20 14 -48 30.5t-66 30.5t-88 24t-116 10q-118 0 -215.5 -40.5t-168 -115.5t-110 -182.5t-39.5 -240.5q0 -137 39.5 -244.5 t107.5 -182t161 -113t201 -38.5q66 0 118 7.5t96.5 24t83 41.5t77.5 60q17 15 33 15t30 -13l78 -85q-85 -99 -204.5 -156.5t-285.5 -63.5l-16 -57q92 -20 133.5 -55.5t41.5 -90.5q0 -33 -16.5 -59t-45.5 -44.5t-70 -28t-90 -9.5q-42 0 -80 8.5t-70 22.5l18 57q6 18 23 18 q6 0 15 -4l19 -8q11 -5 27.5 -8t38.5 -3q43 0 65 16.5t22 43.5q0 19 -11.5 32.5t-32.5 22.5t-51.5 15.5t-69.5 11.5l37 121q-142 12 -258 72t-197.5 157.5t-125.5 228.5t-44 288z" />
<glyph unicode="&#xc8;" horiz-adv-x="1189" d="M178 0v1467h904v-161h-704v-488h570v-155h-570v-501h704v-162h-904zM273 1825h206q16 0 28 -1.5t21.5 -5t18 -10.5t18.5 -17l216 -208h-142q-22 0 -34.5 3.5t-29.5 16.5z" />
<glyph unicode="&#xc9;" horiz-adv-x="1189" d="M178 0v1467h904v-161h-704v-488h570v-155h-570v-501h704v-162h-904zM484 1583l216 208q10 10 18.5 17t17.5 10.5t21 5t29 1.5h206l-301 -221q-17 -12 -30.5 -16.5t-35.5 -4.5h-141z" />
<glyph unicode="&#xca;" horiz-adv-x="1189" d="M178 0v1467h904v-161h-704v-488h570v-155h-570v-501h704v-162h-904zM310 1583l243 215h180l244 -215h-138q-12 0 -26.5 3.5t-23.5 9.5l-133 98q-8 4 -13 8q-8 -6 -12 -8l-133 -98q-9 -6 -23.5 -9.5t-26.5 -3.5h-138z" />
<glyph unicode="&#xcb;" horiz-adv-x="1189" d="M178 0v1467h904v-161h-704v-488h570v-155h-570v-501h704v-162h-904zM314 1706q0 24 9 45t24.5 36t35.5 24.5t41 9.5q24 0 45 -9.5t36 -24.5t24.5 -36t9.5 -45q0 -23 -9.5 -42.5t-24.5 -35t-36 -24.5t-45 -9q-22 0 -41.5 9t-35 24.5t-24.5 35t-9 42.5zM750 1706 q0 24 8.5 45t24 36t36 24.5t43.5 9.5t43.5 -9.5t36 -24.5t24.5 -36t9 -45q0 -23 -9 -42.5t-24.5 -35t-36 -24.5t-43.5 -9q-24 0 -44 9t-35.5 24.5t-24 35t-8.5 42.5z" />
<glyph unicode="&#xcc;" horiz-adv-x="628" d="M215 0v1467h199v-1467h-199zM-53 1825h206q16 0 28 -1.5t21.5 -5t18 -10.5t18.5 -17l216 -208h-142q-22 0 -34.5 3.5t-29.5 16.5z" />
<glyph unicode="&#xcd;" horiz-adv-x="628" d="M215 0v1467h199v-1467h-199zM158 1583l216 208q10 10 18.5 17t17.5 10.5t21 5t29 1.5h206l-301 -221q-17 -12 -30.5 -16.5t-35.5 -4.5h-141z" />
<glyph unicode="&#xce;" horiz-adv-x="628" d="M215 0v1467h199v-1467h-199zM-17 1583l243 215h180l244 -215h-138q-12 0 -26.5 3.5t-23.5 9.5l-133 98q-8 4 -13 8q-8 -6 -12 -8l-133 -98q-9 -6 -23.5 -9.5t-26.5 -3.5h-138z" />
<glyph unicode="&#xcf;" horiz-adv-x="628" d="M215 0v1467h199v-1467h-199zM-14 1706q0 24 9 45t24.5 36t35.5 24.5t41 9.5q24 0 45 -9.5t36 -24.5t24.5 -36t9.5 -45q0 -23 -9.5 -42.5t-24.5 -35t-36 -24.5t-45 -9q-22 0 -41.5 9t-35 24.5t-24.5 35t-9 42.5zM422 1706q0 24 8.5 45t24 36t36 24.5t43.5 9.5t43.5 -9.5 t36 -24.5t24.5 -36t9 -45q0 -23 -9 -42.5t-24.5 -35t-36 -24.5t-43.5 -9q-24 0 -44 9t-35.5 24.5t-24 35t-8.5 42.5z" />
<glyph unicode="&#xd0;" horiz-adv-x="1615" d="M51 682v117h202v668h548q162 0 295.5 -52.5t228.5 -149.5t147.5 -232t52.5 -300t-52.5 -300t-147.5 -231.5t-228.5 -149t-295.5 -52.5h-548v682h-202zM452 161h349q119 0 215 39t163.5 112t104.5 179.5t37 241.5t-37 241.5t-104.5 180.5t-163.5 113t-215 39h-349v-508 h390v-117h-390v-521z" />
<glyph unicode="&#xd1;" horiz-adv-x="1548" d="M178 0v1467h103q27 0 39.5 -6.5t28.5 -26.5l850 -1106q-3 27 -4 51.5t-1 48.5v1039h174v-1467h-100q-24 0 -40 8t-31 28l-849 1105q2 -26 3 -50.5t1 -44.5v-1046h-174zM512 1585q0 44 11.5 81.5t33.5 64t54.5 42t72.5 15.5q36 0 68.5 -13.5t62.5 -29.5l56 -29 q27 -13 51 -13q36 0 55 21t20 59h100q0 -44 -11 -81t-32.5 -64t-53.5 -42t-73 -15q-36 0 -68.5 13.5t-62.5 29.5l-57 29q-27 13 -51 13q-35 0 -54 -22t-20 -59h-102z" />
<glyph unicode="&#xd2;" horiz-adv-x="1634" d="M94 733q0 165 52.5 303t147.5 237.5t228 155t295 55.5t295.5 -55.5t229 -155t147.5 -237.5t52 -303t-52 -302.5t-147.5 -237t-229 -154t-295.5 -54.5t-295 54.5t-228 154t-147.5 237t-52.5 302.5zM297 733q0 -135 37 -242t105 -181t164 -113.5t214 -39.5q119 0 215 39.5 t164 113.5t104.5 181t36.5 242t-36.5 242.5t-104.5 182t-164 114.5t-215 40q-118 0 -214 -40t-164 -114.5t-105 -182t-37 -242.5zM450 1825h206q16 0 28 -1.5t21.5 -5t18 -10.5t18.5 -17l216 -208h-142q-22 0 -34.5 3.5t-29.5 16.5z" />
<glyph unicode="&#xd3;" horiz-adv-x="1634" d="M94 733q0 165 52.5 303t147.5 237.5t228 155t295 55.5t295.5 -55.5t229 -155t147.5 -237.5t52 -303t-52 -302.5t-147.5 -237t-229 -154t-295.5 -54.5t-295 54.5t-228 154t-147.5 237t-52.5 302.5zM297 733q0 -135 37 -242t105 -181t164 -113.5t214 -39.5q119 0 215 39.5 t164 113.5t104.5 181t36.5 242t-36.5 242.5t-104.5 182t-164 114.5t-215 40q-118 0 -214 -40t-164 -114.5t-105 -182t-37 -242.5zM661 1583l216 208q10 10 18.5 17t17.5 10.5t21 5t29 1.5h206l-301 -221q-17 -12 -30.5 -16.5t-35.5 -4.5h-141z" />
<glyph unicode="&#xd4;" horiz-adv-x="1634" d="M94 733q0 165 52.5 303t147.5 237.5t228 155t295 55.5t295.5 -55.5t229 -155t147.5 -237.5t52 -303t-52 -302.5t-147.5 -237t-229 -154t-295.5 -54.5t-295 54.5t-228 154t-147.5 237t-52.5 302.5zM297 733q0 -135 37 -242t105 -181t164 -113.5t214 -39.5q119 0 215 39.5 t164 113.5t104.5 181t36.5 242t-36.5 242.5t-104.5 182t-164 114.5t-215 40q-118 0 -214 -40t-164 -114.5t-105 -182t-37 -242.5zM486 1583l243 215h180l244 -215h-138q-12 0 -26.5 3.5t-23.5 9.5l-133 98q-8 4 -13 8q-8 -6 -12 -8l-133 -98q-9 -6 -23.5 -9.5t-26.5 -3.5 h-138z" />
<glyph unicode="&#xd5;" horiz-adv-x="1634" d="M94 733q0 165 52.5 303t147.5 237.5t228 155t295 55.5t295.5 -55.5t229 -155t147.5 -237.5t52 -303t-52 -302.5t-147.5 -237t-229 -154t-295.5 -54.5t-295 54.5t-228 154t-147.5 237t-52.5 302.5zM297 733q0 -135 37 -242t105 -181t164 -113.5t214 -39.5q119 0 215 39.5 t164 113.5t104.5 181t36.5 242t-36.5 242.5t-104.5 182t-164 114.5t-215 40q-118 0 -214 -40t-164 -114.5t-105 -182t-37 -242.5zM533 1585q0 44 11.5 81.5t33.5 64t54.5 42t72.5 15.5q36 0 68.5 -13.5t62.5 -29.5l56 -29q27 -13 51 -13q36 0 55 21t20 59h100q0 -44 -11 -81 t-32.5 -64t-53.5 -42t-73 -15q-36 0 -68.5 13.5t-62.5 29.5l-57 29q-27 13 -51 13q-35 0 -54 -22t-20 -59h-102z" />
<glyph unicode="&#xd6;" horiz-adv-x="1634" d="M94 733q0 165 52.5 303t147.5 237.5t228 155t295 55.5t295.5 -55.5t229 -155t147.5 -237.5t52 -303t-52 -302.5t-147.5 -237t-229 -154t-295.5 -54.5t-295 54.5t-228 154t-147.5 237t-52.5 302.5zM297 733q0 -135 37 -242t105 -181t164 -113.5t214 -39.5q119 0 215 39.5 t164 113.5t104.5 181t36.5 242t-36.5 242.5t-104.5 182t-164 114.5t-215 40q-118 0 -214 -40t-164 -114.5t-105 -182t-37 -242.5zM490 1706q0 24 9 45t24.5 36t35.5 24.5t41 9.5q24 0 45 -9.5t36 -24.5t24.5 -36t9.5 -45q0 -23 -9.5 -42.5t-24.5 -35t-36 -24.5t-45 -9 q-22 0 -41.5 9t-35 24.5t-24.5 35t-9 42.5zM926 1706q0 24 8.5 45t24 36t36 24.5t43.5 9.5t43.5 -9.5t36 -24.5t24.5 -36t9 -45q0 -23 -9 -42.5t-24.5 -35t-36 -24.5t-43.5 -9q-24 0 -44 9t-35.5 24.5t-24 35t-8.5 42.5z" />
<glyph unicode="&#xd7;" d="M129 323l365 364l-354 353l98 99l353 -355l352 353l98 -99l-352 -352l363 -361l-98 -99l-362 363l-366 -365z" />
<glyph unicode="&#xd8;" horiz-adv-x="1634" d="M94 733q0 165 52.5 303t147.5 237.5t228 155t295 55.5q118 0 220.5 -30t187.5 -85l84 114q20 28 36.5 39.5t49.5 11.5h102l-176 -241q105 -100 162.5 -242.5t57.5 -317.5q0 -165 -52 -302.5t-147.5 -237t-229 -154t-295.5 -54.5q-111 0 -207 25t-177 74l-102 -139 q-23 -30 -52.5 -43.5t-59.5 -13.5h-80l196 267q-115 100 -178 247.5t-63 330.5zM297 733q0 -138 38.5 -246t108.5 -183l675 921q-61 43 -137 65t-165 22q-118 0 -214 -40t-164 -114.5t-105 -182t-37 -242.5zM539 228q119 -72 278 -71q119 0 215 39.5t164 113.5t104.5 181 t36.5 242q0 129 -33 232t-95 177z" />
<glyph unicode="&#xd9;" horiz-adv-x="1495" d="M164 575v892h197v-890q0 -92 26.5 -169t76 -132.5t121.5 -86.5t164 -31q91 0 162.5 30.5t121 86t76 132t26.5 168.5v892h197v-892q0 -127 -40.5 -235.5t-115.5 -187.5t-183.5 -124t-243.5 -45t-244 45t-184.5 124t-116 187.5t-40.5 235.5zM378 1825h206q16 0 28 -1.5 t21.5 -5t18 -10.5t18.5 -17l216 -208h-142q-22 0 -34.5 3.5t-29.5 16.5z" />
<glyph unicode="&#xda;" horiz-adv-x="1495" d="M164 575v892h197v-890q0 -92 26.5 -169t76 -132.5t121.5 -86.5t164 -31q91 0 162.5 30.5t121 86t76 132t26.5 168.5v892h197v-892q0 -127 -40.5 -235.5t-115.5 -187.5t-183.5 -124t-243.5 -45t-244 45t-184.5 124t-116 187.5t-40.5 235.5zM589 1583l216 208 q10 10 18.5 17t17.5 10.5t21 5t29 1.5h206l-301 -221q-17 -12 -30.5 -16.5t-35.5 -4.5h-141z" />
<glyph unicode="&#xdb;" horiz-adv-x="1495" d="M164 575v892h197v-890q0 -92 26.5 -169t76 -132.5t121.5 -86.5t164 -31q91 0 162.5 30.5t121 86t76 132t26.5 168.5v892h197v-892q0 -127 -40.5 -235.5t-115.5 -187.5t-183.5 -124t-243.5 -45t-244 45t-184.5 124t-116 187.5t-40.5 235.5zM414 1583l243 215h180l244 -215 h-138q-12 0 -26.5 3.5t-23.5 9.5l-133 98q-8 4 -13 8q-8 -6 -12 -8l-133 -98q-9 -6 -23.5 -9.5t-26.5 -3.5h-138z" />
<glyph unicode="&#xdc;" horiz-adv-x="1495" d="M164 575v892h197v-890q0 -92 26.5 -169t76 -132.5t121.5 -86.5t164 -31q91 0 162.5 30.5t121 86t76 132t26.5 168.5v892h197v-892q0 -127 -40.5 -235.5t-115.5 -187.5t-183.5 -124t-243.5 -45t-244 45t-184.5 124t-116 187.5t-40.5 235.5zM418 1706q0 24 9 45t24.5 36 t35.5 24.5t41 9.5q24 0 45 -9.5t36 -24.5t24.5 -36t9.5 -45q0 -23 -9.5 -42.5t-24.5 -35t-36 -24.5t-45 -9q-22 0 -41.5 9t-35 24.5t-24.5 35t-9 42.5zM854 1706q0 24 8.5 45t24 36t36 24.5t43.5 9.5t43.5 -9.5t36 -24.5t24.5 -36t9 -45q0 -23 -9 -42.5t-24.5 -35t-36 -24.5 t-43.5 -9q-24 0 -44 9t-35.5 24.5t-24 35t-8.5 42.5z" />
<glyph unicode="&#xdd;" horiz-adv-x="1288" d="M8 1467h174q27 0 42.5 -13t26.5 -33l336 -570q20 -36 34 -67.5t25 -62.5q11 32 24.5 63.5t34.5 66.5l334 570q9 16 25 31t42 15h176l-539 -883v-584h-197v584zM487 1583l216 208q10 10 18.5 17t17.5 10.5t21 5t29 1.5h206l-301 -221q-17 -12 -30.5 -16.5t-35.5 -4.5h-141 z" />
<glyph unicode="&#xde;" horiz-adv-x="1251" d="M199 0v1467h197v-270h236q139 0 242 -32t170.5 -91.5t101 -143.5t33.5 -188q0 -102 -36 -187t-105 -146.5t-171.5 -95.5t-234.5 -34h-236v-279h-197zM396 436h236q85 0 150 22.5t109 63t66.5 97t22.5 123.5q0 140 -86.5 219t-261.5 79h-236v-604z" />
<glyph unicode="&#xdf;" horiz-adv-x="1247" d="M190 0v1016q0 106 35.5 193t101 149.5t158 96.5t204.5 34q105 0 182.5 -31t128 -78.5t74.5 -103.5t24 -109q0 -61 -22 -105t-55 -78t-71.5 -59.5t-71 -50t-54.5 -50.5t-22 -59q0 -40 27 -66.5t68 -49.5t88.5 -47t88.5 -60t68 -88.5t27 -131.5q0 -80 -29 -142.5t-80 -106 t-120.5 -66.5t-149.5 -23q-99 0 -180.5 35t-142.5 91l42 69q8 13 20 20.5t29 7.5q18 0 38.5 -14.5t49 -32t67 -31.5t92.5 -14q45 0 81 13.5t61 37t38 56.5t13 71q0 57 -28.5 93t-71.5 62t-93 47.5t-93 51.5t-72 72.5t-29 109.5q0 54 23 94.5t57.5 73t74.5 60t74 58.5 t57.5 67t23.5 85q0 33 -13 66.5t-41.5 60t-74.5 43.5t-110 17q-70 0 -126.5 -21.5t-97 -64.5t-62.5 -107.5t-22 -150.5v-1010h-184z" />
<glyph unicode="&#xe0;" horiz-adv-x="1038" d="M94 259q0 61 34 118t109 101t197 72.5t298 32.5v81q0 121 -51.5 182.5t-153.5 61.5q-67 0 -112 -17t-78.5 -37.5t-57.5 -37.5t-48 -17q-18 0 -32 9.5t-22 24.5l-33 58q86 83 185.5 124t220.5 41q87 0 154.5 -29t113.5 -80t69.5 -123.5t23.5 -159.5v-664h-81q-27 0 -43 8 t-21 35l-21 96q-41 -37 -79.5 -66t-81.5 -49t-92 -30t-108 -10q-60 0 -113 16.5t-92 50.5t-62 85.5t-23 122.5zM269 267q0 -41 13.5 -70.5t36 -48.5t53 -27.5t66.5 -8.5q48 0 88 9.5t75.5 27.5t67.5 43.5t63 58.5v216q-126 -4 -214 -20t-143.5 -41.5t-80.5 -60.5t-25 -78z M265 1484h173q34 0 50.5 -11t30.5 -34l152 -248h-104q-22 0 -35 6.5t-27 22.5z" />
<glyph unicode="&#xe1;" horiz-adv-x="1038" d="M94 259q0 61 34 118t109 101t197 72.5t298 32.5v81q0 121 -51.5 182.5t-153.5 61.5q-67 0 -112 -17t-78.5 -37.5t-57.5 -37.5t-48 -17q-18 0 -32 9.5t-22 24.5l-33 58q86 83 185.5 124t220.5 41q87 0 154.5 -29t113.5 -80t69.5 -123.5t23.5 -159.5v-664h-81q-27 0 -43 8 t-21 35l-21 96q-41 -37 -79.5 -66t-81.5 -49t-92 -30t-108 -10q-60 0 -113 16.5t-92 50.5t-62 85.5t-23 122.5zM269 267q0 -41 13.5 -70.5t36 -48.5t53 -27.5t66.5 -8.5q48 0 88 9.5t75.5 27.5t67.5 43.5t63 58.5v216q-126 -4 -214 -20t-143.5 -41.5t-80.5 -60.5t-25 -78z M427 1191l151 248q14 24 31 34.5t50 10.5h178l-238 -264q-14 -15 -28 -22t-36 -7h-108z" />
<glyph unicode="&#xe2;" horiz-adv-x="1038" d="M94 259q0 61 34 118t109 101t197 72.5t298 32.5v81q0 121 -51.5 182.5t-153.5 61.5q-67 0 -112 -17t-78.5 -37.5t-57.5 -37.5t-48 -17q-18 0 -32 9.5t-22 24.5l-33 58q86 83 185.5 124t220.5 41q87 0 154.5 -29t113.5 -80t69.5 -123.5t23.5 -159.5v-664h-81q-27 0 -43 8 t-21 35l-21 96q-41 -37 -79.5 -66t-81.5 -49t-92 -30t-108 -10q-60 0 -113 16.5t-92 50.5t-62 85.5t-23 122.5zM269 267q0 -41 13.5 -70.5t36 -48.5t53 -27.5t66.5 -8.5q48 0 88 9.5t75.5 27.5t67.5 43.5t63 58.5v216q-126 -4 -214 -20t-143.5 -41.5t-80.5 -60.5t-25 -78z M226 1197l228 270h170l229 -270h-122q-22 0 -41 14l-131 129l-18 18l-16 -18l-132 -129q-6 -5 -17.5 -9.5t-23.5 -4.5h-126z" />
<glyph unicode="&#xe3;" horiz-adv-x="1038" d="M94 259q0 61 34 118t109 101t197 72.5t298 32.5v81q0 121 -51.5 182.5t-153.5 61.5q-67 0 -112 -17t-78.5 -37.5t-57.5 -37.5t-48 -17q-18 0 -32 9.5t-22 24.5l-33 58q86 83 185.5 124t220.5 41q87 0 154.5 -29t113.5 -80t69.5 -123.5t23.5 -159.5v-664h-81q-27 0 -43 8 t-21 35l-21 96q-41 -37 -79.5 -66t-81.5 -49t-92 -30t-108 -10q-60 0 -113 16.5t-92 50.5t-62 85.5t-23 122.5zM269 267q0 -41 13.5 -70.5t36 -48.5t53 -27.5t66.5 -8.5q48 0 88 9.5t75.5 27.5t67.5 43.5t63 58.5v216q-126 -4 -214 -20t-143.5 -41.5t-80.5 -60.5t-25 -78z M244 1231q0 49 13.5 89.5t38 69.5t58.5 45t74 16q36 0 67 -15t59 -32l51 -32q24 -15 48 -15q37 0 57 21.5t21 66.5h110q0 -48 -12.5 -88.5t-36.5 -69.5t-57.5 -44.5t-74.5 -15.5q-36 0 -67 14.5t-59 32.5l-52 32q-25 15 -48 15q-74 0 -76 -90h-114z" />
<glyph unicode="&#xe4;" horiz-adv-x="1038" d="M94 259q0 61 34 118t109 101t197 72.5t298 32.5v81q0 121 -51.5 182.5t-153.5 61.5q-67 0 -112 -17t-78.5 -37.5t-57.5 -37.5t-48 -17q-18 0 -32 9.5t-22 24.5l-33 58q86 83 185.5 124t220.5 41q87 0 154.5 -29t113.5 -80t69.5 -123.5t23.5 -159.5v-664h-81q-27 0 -43 8 t-21 35l-21 96q-41 -37 -79.5 -66t-81.5 -49t-92 -30t-108 -10q-60 0 -113 16.5t-92 50.5t-62 85.5t-23 122.5zM269 267q0 -41 13.5 -70.5t36 -48.5t53 -27.5t66.5 -8.5q48 0 88 9.5t75.5 27.5t67.5 43.5t63 58.5v216q-126 -4 -214 -20t-143.5 -41.5t-80.5 -60.5t-25 -78z M240 1320q0 24 9.5 45t25.5 37t36 25.5t43 9.5q24 0 45 -9.5t37 -25.5t25.5 -37.5t9.5 -44.5q0 -24 -9.5 -44.5t-25.5 -35.5t-37 -24.5t-45 -9.5q-23 0 -43 9.5t-36 24.5t-25.5 35.5t-9.5 44.5zM608 1320q0 24 9 45t24.5 37t36.5 25.5t45 9.5t44.5 -9.5t36.5 -25.5t25 -37.5 t9 -44.5q0 -24 -9 -44.5t-25 -35.5t-37 -24.5t-44 -9.5q-24 0 -45 9.5t-36.5 24.5t-24.5 35.5t-9 44.5z" />
<glyph unicode="&#xe5;" horiz-adv-x="1038" d="M94 259q0 61 34 118t109 101t197 72.5t298 32.5v81q0 121 -51.5 182.5t-153.5 61.5q-67 0 -112 -17t-78.5 -37.5t-57.5 -37.5t-48 -17q-18 0 -32 9.5t-22 24.5l-33 58q86 83 185.5 124t220.5 41q87 0 154.5 -29t113.5 -80t69.5 -123.5t23.5 -159.5v-664h-81q-27 0 -43 8 t-21 35l-21 96q-41 -37 -79.5 -66t-81.5 -49t-92 -30t-108 -10q-60 0 -113 16.5t-92 50.5t-62 85.5t-23 122.5zM269 267q0 -41 13.5 -70.5t36 -48.5t53 -27.5t66.5 -8.5q48 0 88 9.5t75.5 27.5t67.5 43.5t63 58.5v216q-126 -4 -214 -20t-143.5 -41.5t-80.5 -60.5t-25 -78z M336 1347q0 43 16 77.5t44.5 60t65 39.5t77.5 14q42 0 79.5 -14t66 -39.5t45 -60t16.5 -77.5q0 -42 -16.5 -77t-45 -59.5t-66 -38.5t-79.5 -14q-41 0 -77.5 14t-65 38.5t-44.5 59.5t-16 77zM438 1347q0 -45 27.5 -74t75.5 -29q46 0 74.5 29t28.5 74q0 46 -28.5 74.5 t-74.5 28.5q-48 0 -75.5 -28.5t-27.5 -74.5z" />
<glyph unicode="&#xe6;" horiz-adv-x="1671" d="M94 273q0 61 34 121t109 107t197 77t298 34v52q0 121 -51.5 185t-153.5 64q-67 0 -112 -17.5t-78.5 -39t-57.5 -39.5t-48 -18q-18 0 -32 9.5t-22 24.5l-33 58q86 83 179 124t208 41q123 0 198 -52.5t109 -145.5q55 90 143.5 143t212.5 53q84 0 156 -33t125 -95.5t83 -152 t30 -204.5q0 -42 -8 -56.5t-34 -14.5h-642q4 -93 27.5 -162.5t63 -115.5t93.5 -68.5t120 -22.5q71 0 118 15t78.5 33.5t51 33t35.5 14.5q14 0 23.5 -4.5t15.5 -12.5l48 -63q-34 -41 -78.5 -71t-95 -49.5t-105 -29t-107.5 -9.5q-120 0 -217.5 57.5t-154.5 176.5 q-28 -63 -72.5 -108t-98.5 -74t-115 -41.5t-121 -12.5q-71 0 -129.5 17.5t-101 53.5t-65.5 90t-23 128zM269 283q0 -89 51.5 -130t134.5 -41q58 0 108.5 18t88 56t59 94.5t21.5 132.5v85q-126 -5 -214 -23t-143.5 -47t-80.5 -65.5t-25 -79.5zM906 611h520q0 67 -15.5 124 t-46.5 97.5t-75.5 64t-101.5 23.5q-62 0 -111.5 -21t-85 -61t-56.5 -97.5t-28 -129.5z" />
<glyph unicode="&#xe7;" horiz-adv-x="956" d="M76 519q0 116 32 214t94 169.5t153 111.5t209 40q109 0 193 -35.5t148 -99.5l-48 -66q-8 -11 -16 -17.5t-24 -6.5q-15 0 -33 13t-45.5 28.5t-67 28t-97.5 12.5q-76 0 -134 -27t-97.5 -78t-59.5 -124t-20 -163q0 -94 21.5 -167t60.5 -123t95 -76t125 -26q67 0 110 16 t71.5 35.5t47 35t36.5 15.5q11 0 20 -4.5t15 -12.5l51 -67q-60 -74 -147 -111.5t-186 -45.5l-18 -60q92 -20 133.5 -55.5t41.5 -90.5q0 -33 -16 -59t-45.5 -44.5t-70.5 -28t-90 -9.5q-42 0 -80 8.5t-69 22.5l17 57q6 18 24 18q6 0 14 -4l19 -8q11 -5 27.5 -8t38.5 -3 q43 0 65 16.5t22 43.5q0 19 -11.5 32.5t-32.5 22.5t-51.5 15.5t-69.5 11.5l38 124q-85 11 -157 51.5t-124.5 108t-82 160.5t-29.5 209z" />
<glyph unicode="&#xe8;" horiz-adv-x="1073" d="M76 540q0 109 33 203t95.5 163t152.5 108.5t203 39.5q93 0 172 -31.5t136.5 -90.5t89.5 -145.5t32 -196.5q0 -43 -9 -57.5t-35 -14.5h-690q2 -98 26.5 -171t67.5 -121.5t102.5 -72.5t133.5 -24q69 0 118.5 16t85 34.5t59.5 34t42 15.5q23 0 35 -17l51 -67 q-34 -41 -81 -71t-101 -49.5t-111 -29t-114 -9.5q-108 0 -198 36t-156 106.5t-103 174t-37 237.5zM262 632h564q0 63 -17 116t-51 91.5t-82.5 59.5t-111.5 21q-132 0 -208 -76.5t-94 -211.5zM289 1484h173q34 0 50.5 -11t30.5 -34l152 -248h-104q-22 0 -35 6.5t-27 22.5z " />
<glyph unicode="&#xe9;" horiz-adv-x="1073" d="M76 540q0 109 33 203t95.5 163t152.5 108.5t203 39.5q93 0 172 -31.5t136.5 -90.5t89.5 -145.5t32 -196.5q0 -43 -9 -57.5t-35 -14.5h-690q2 -98 26.5 -171t67.5 -121.5t102.5 -72.5t133.5 -24q69 0 118.5 16t85 34.5t59.5 34t42 15.5q23 0 35 -17l51 -67 q-34 -41 -81 -71t-101 -49.5t-111 -29t-114 -9.5q-108 0 -198 36t-156 106.5t-103 174t-37 237.5zM262 632h564q0 63 -17 116t-51 91.5t-82.5 59.5t-111.5 21q-132 0 -208 -76.5t-94 -211.5zM451 1191l151 248q14 24 31 34.5t50 10.5h178l-238 -264q-14 -15 -28 -22t-36 -7 h-108z" />
<glyph unicode="&#xea;" horiz-adv-x="1073" d="M76 540q0 109 33 203t95.5 163t152.5 108.5t203 39.5q93 0 172 -31.5t136.5 -90.5t89.5 -145.5t32 -196.5q0 -43 -9 -57.5t-35 -14.5h-690q2 -98 26.5 -171t67.5 -121.5t102.5 -72.5t133.5 -24q69 0 118.5 16t85 34.5t59.5 34t42 15.5q23 0 35 -17l51 -67 q-34 -41 -81 -71t-101 -49.5t-111 -29t-114 -9.5q-108 0 -198 36t-156 106.5t-103 174t-37 237.5zM262 632h564q0 63 -17 116t-51 91.5t-82.5 59.5t-111.5 21q-132 0 -208 -76.5t-94 -211.5zM250 1197l228 270h170l229 -270h-122q-22 0 -41 14l-131 129l-18 18l-16 -18 l-132 -129q-6 -5 -17.5 -9.5t-23.5 -4.5h-126z" />
<glyph unicode="&#xeb;" horiz-adv-x="1073" d="M76 540q0 109 33 203t95.5 163t152.5 108.5t203 39.5q93 0 172 -31.5t136.5 -90.5t89.5 -145.5t32 -196.5q0 -43 -9 -57.5t-35 -14.5h-690q2 -98 26.5 -171t67.5 -121.5t102.5 -72.5t133.5 -24q69 0 118.5 16t85 34.5t59.5 34t42 15.5q23 0 35 -17l51 -67 q-34 -41 -81 -71t-101 -49.5t-111 -29t-114 -9.5q-108 0 -198 36t-156 106.5t-103 174t-37 237.5zM262 632h564q0 63 -17 116t-51 91.5t-82.5 59.5t-111.5 21q-132 0 -208 -76.5t-94 -211.5zM264 1320q0 24 9.5 45t25.5 37t36 25.5t43 9.5q24 0 45 -9.5t37 -25.5t25.5 -37.5 t9.5 -44.5q0 -24 -9.5 -44.5t-25.5 -35.5t-37 -24.5t-45 -9.5q-23 0 -43 9.5t-36 24.5t-25.5 35.5t-9.5 44.5zM632 1320q0 24 9 45t24.5 37t36.5 25.5t45 9.5t44.5 -9.5t36.5 -25.5t25 -37.5t9 -44.5q0 -24 -9 -44.5t-25 -35.5t-37 -24.5t-44 -9.5q-24 0 -45 9.5t-36.5 24.5 t-24.5 35.5t-9 44.5z" />
<glyph unicode="&#xec;" horiz-adv-x="524" d="M170 0v1037h182v-1037h-182zM-7 1484h173q34 0 50.5 -11t30.5 -34l152 -248h-104q-22 0 -35 6.5t-27 22.5z" />
<glyph unicode="&#xed;" horiz-adv-x="524" d="M170 0v1037h182v-1037h-182zM155 1191l151 248q14 24 31 34.5t50 10.5h178l-238 -264q-14 -15 -28 -22t-36 -7h-108z" />
<glyph unicode="&#xee;" horiz-adv-x="524" d="M170 0v1037h182v-1037h-182zM-47 1197l228 270h170l229 -270h-122q-22 0 -41 14l-131 129l-18 18l-16 -18l-132 -129q-6 -5 -17.5 -9.5t-23.5 -4.5h-126z" />
<glyph unicode="&#xef;" horiz-adv-x="524" d="M170 0v1037h182v-1037h-182zM-32 1320q0 24 9.5 45t25.5 37t36 25.5t43 9.5q24 0 45 -9.5t37 -25.5t25.5 -37.5t9.5 -44.5q0 -24 -9.5 -44.5t-25.5 -35.5t-37 -24.5t-45 -9.5q-23 0 -43 9.5t-36 24.5t-25.5 35.5t-9.5 44.5zM336 1320q0 24 9 45t24.5 37t36.5 25.5t45 9.5 t44.5 -9.5t36.5 -25.5t25 -37.5t9 -44.5q0 -24 -9 -44.5t-25 -35.5t-37 -24.5t-44 -9.5q-24 0 -45 9.5t-36.5 24.5t-24.5 35.5t-9 44.5z" />
<glyph unicode="&#xf0;" horiz-adv-x="1132" d="M78 477q0 96 31.5 181.5t91 150t144 102.5t191.5 38q102 0 192.5 -44t157.5 -133q-20 139 -80.5 236.5t-156.5 162.5l-188 -138l-34 58q-4 7 -6.5 13.5t-2.5 12.5q0 23 23 38l106 74q-46 20 -98 37.5t-110 31.5q-18 5 -31 19t-13 38q0 15 5 29l21 64q98 -16 190 -47 t175 -80l171 125l36 -58q8 -13 8 -25q0 -22 -22 -38l-100 -69q61 -50 112 -113.5t87 -142.5t56 -174t20 -208q0 -146 -32 -262.5t-95 -198.5t-156.5 -126t-216.5 -44q-100 0 -187 33.5t-151 96.5t-101 154t-37 206zM260 475q0 -83 23.5 -148t64.5 -109t95 -67t115 -23 q73 0 132 27.5t100 83.5t65 140.5t27 198.5q-16 44 -43 85.5t-65.5 73.5t-89 51t-114.5 19q-77 0 -134.5 -25.5t-96.5 -70t-59 -105.5t-20 -131z" />
<glyph unicode="&#xf1;" horiz-adv-x="1138" d="M150 0v1037h108q39 0 49 -38l15 -112q68 75 151 121t193 46q85 0 150 -28.5t108.5 -80t66 -124t22.5 -161.5v-660h-183v660q0 118 -53.5 183t-164.5 65q-81 0 -151 -39t-129 -105v-764h-182zM282 1231q0 49 13.5 89.5t38 69.5t58.5 45t74 16q36 0 67 -15t59 -32l51 -32 q24 -15 48 -15q37 0 57 21.5t21 66.5h110q0 -48 -12.5 -88.5t-36.5 -69.5t-57.5 -44.5t-74.5 -15.5q-36 0 -67 14.5t-59 32.5l-52 32q-25 15 -48 15q-74 0 -76 -90h-114z" />
<glyph unicode="&#xf2;" horiz-adv-x="1138" d="M74 519q0 122 34.5 221t99 168.5t156.5 107.5t205 38q114 0 205.5 -38t155.5 -107.5t98.5 -168.5t34.5 -221q0 -123 -34.5 -221t-98.5 -168t-155.5 -107t-205.5 -37t-205.5 37t-156 107t-99 168t-34.5 221zM262 518q0 -92 19 -164.5t57.5 -122.5t96 -76.5t134.5 -26.5 q154 0 229.5 103t75.5 287q0 185 -75.5 288.5t-229.5 103.5q-78 0 -135 -26.5t-95.5 -76.5t-57.5 -123.5t-19 -165.5zM296 1484h173q34 0 50.5 -11t30.5 -34l152 -248h-104q-22 0 -35 6.5t-27 22.5z" />
<glyph unicode="&#xf3;" horiz-adv-x="1138" d="M74 519q0 122 34.5 221t99 168.5t156.5 107.5t205 38q114 0 205.5 -38t155.5 -107.5t98.5 -168.5t34.5 -221q0 -123 -34.5 -221t-98.5 -168t-155.5 -107t-205.5 -37t-205.5 37t-156 107t-99 168t-34.5 221zM262 518q0 -92 19 -164.5t57.5 -122.5t96 -76.5t134.5 -26.5 q154 0 229.5 103t75.5 287q0 185 -75.5 288.5t-229.5 103.5q-78 0 -135 -26.5t-95.5 -76.5t-57.5 -123.5t-19 -165.5zM458 1191l151 248q14 24 31 34.5t50 10.5h178l-238 -264q-14 -15 -28 -22t-36 -7h-108z" />
<glyph unicode="&#xf4;" horiz-adv-x="1138" d="M74 519q0 122 34.5 221t99 168.5t156.5 107.5t205 38q114 0 205.5 -38t155.5 -107.5t98.5 -168.5t34.5 -221q0 -123 -34.5 -221t-98.5 -168t-155.5 -107t-205.5 -37t-205.5 37t-156 107t-99 168t-34.5 221zM262 518q0 -92 19 -164.5t57.5 -122.5t96 -76.5t134.5 -26.5 q154 0 229.5 103t75.5 287q0 185 -75.5 288.5t-229.5 103.5q-78 0 -135 -26.5t-95.5 -76.5t-57.5 -123.5t-19 -165.5zM257 1197l228 270h170l229 -270h-122q-22 0 -41 14l-131 129l-18 18l-16 -18l-132 -129q-6 -5 -17.5 -9.5t-23.5 -4.5h-126z" />
<glyph unicode="&#xf5;" horiz-adv-x="1138" d="M74 519q0 122 34.5 221t99 168.5t156.5 107.5t205 38q114 0 205.5 -38t155.5 -107.5t98.5 -168.5t34.5 -221q0 -123 -34.5 -221t-98.5 -168t-155.5 -107t-205.5 -37t-205.5 37t-156 107t-99 168t-34.5 221zM262 518q0 -92 19 -164.5t57.5 -122.5t96 -76.5t134.5 -26.5 q154 0 229.5 103t75.5 287q0 185 -75.5 288.5t-229.5 103.5q-78 0 -135 -26.5t-95.5 -76.5t-57.5 -123.5t-19 -165.5zM275 1231q0 49 13.5 89.5t38 69.5t58.5 45t74 16q36 0 67 -15t59 -32l51 -32q24 -15 48 -15q37 0 57 21.5t21 66.5h110q0 -48 -12.5 -88.5t-36.5 -69.5 t-57.5 -44.5t-74.5 -15.5q-36 0 -67 14.5t-59 32.5l-52 32q-25 15 -48 15q-74 0 -76 -90h-114z" />
<glyph unicode="&#xf6;" horiz-adv-x="1138" d="M74 519q0 122 34.5 221t99 168.5t156.5 107.5t205 38q114 0 205.5 -38t155.5 -107.5t98.5 -168.5t34.5 -221q0 -123 -34.5 -221t-98.5 -168t-155.5 -107t-205.5 -37t-205.5 37t-156 107t-99 168t-34.5 221zM262 518q0 -92 19 -164.5t57.5 -122.5t96 -76.5t134.5 -26.5 q154 0 229.5 103t75.5 287q0 185 -75.5 288.5t-229.5 103.5q-78 0 -135 -26.5t-95.5 -76.5t-57.5 -123.5t-19 -165.5zM271 1320q0 24 9.5 45t25.5 37t36 25.5t43 9.5q24 0 45 -9.5t37 -25.5t25.5 -37.5t9.5 -44.5q0 -24 -9.5 -44.5t-25.5 -35.5t-37 -24.5t-45 -9.5 q-23 0 -43 9.5t-36 24.5t-25.5 35.5t-9.5 44.5zM639 1320q0 24 9 45t24.5 37t36.5 25.5t45 9.5t44.5 -9.5t36.5 -25.5t25 -37.5t9 -44.5q0 -24 -9 -44.5t-25 -35.5t-37 -24.5t-44 -9.5q-24 0 -45 9.5t-36.5 24.5t-24.5 35.5t-9 44.5z" />
<glyph unicode="&#xf7;" d="M102 618v139h981v-139h-981zM465 322q0 27 9.5 50t26.5 40.5t40 28t51 10.5q27 0 50 -10.5t40 -28t27.5 -41t10.5 -49.5q0 -28 -10.5 -51t-27.5 -40.5t-40.5 -27t-49.5 -9.5q-28 0 -51 9.5t-40 27t-26.5 40.5t-9.5 51zM465 1051q0 27 9.5 50t26.5 40.5t40 28t51 10.5 q27 0 50 -10.5t40 -28t27.5 -41t10.5 -49.5q0 -28 -10.5 -51t-27.5 -40.5t-40.5 -27t-49.5 -9.5q-28 0 -51 9.5t-40 27t-26.5 40.5t-9.5 51z" />
<glyph unicode="&#xf8;" horiz-adv-x="1138" d="M66 -78l148 201q-68 71 -103.5 170t-35.5 226q0 122 34.5 221t99 168.5t156.5 107.5t205 38q81 0 150.5 -19.5t126.5 -55.5l69 93q20 28 37 39.5t49 11.5h93l-161 -218q62 -70 96 -167.5t34 -218.5q0 -123 -34.5 -221t-98.5 -168t-155.5 -107t-205.5 -37q-78 0 -145 17 t-122 50l-56 -76q-23 -30 -53 -42.5t-60 -12.5h-68zM252 518q0 -164 60 -263l447 604q-75 57 -189 57q-78 0 -137 -27.5t-99.5 -78.5t-61 -125.5t-20.5 -166.5zM390 172q72 -49 180 -49q77 0 136 27t99.5 78.5t61 124.5t20.5 165q0 155 -53 253z" />
<glyph unicode="&#xf9;" horiz-adv-x="1138" d="M125 376v661h182v-661q0 -118 54.5 -182.5t163.5 -64.5q80 0 150.5 38t130.5 105v765h182v-1037h-108q-39 0 -50 38l-14 112q-68 -75 -151.5 -120.5t-192.5 -45.5q-85 0 -150 28t-109 79t-66 124t-22 161zM290 1484h173q34 0 50.5 -11t30.5 -34l152 -248h-104 q-22 0 -35 6.5t-27 22.5z" />
<glyph unicode="&#xfa;" horiz-adv-x="1138" d="M125 376v661h182v-661q0 -118 54.5 -182.5t163.5 -64.5q80 0 150.5 38t130.5 105v765h182v-1037h-108q-39 0 -50 38l-14 112q-68 -75 -151.5 -120.5t-192.5 -45.5q-85 0 -150 28t-109 79t-66 124t-22 161zM452 1191l151 248q14 24 31 34.5t50 10.5h178l-238 -264 q-14 -15 -28 -22t-36 -7h-108z" />
<glyph unicode="&#xfb;" horiz-adv-x="1138" d="M125 376v661h182v-661q0 -118 54.5 -182.5t163.5 -64.5q80 0 150.5 38t130.5 105v765h182v-1037h-108q-39 0 -50 38l-14 112q-68 -75 -151.5 -120.5t-192.5 -45.5q-85 0 -150 28t-109 79t-66 124t-22 161zM251 1197l228 270h170l229 -270h-122q-22 0 -41 14l-131 129 l-18 18l-16 -18l-132 -129q-6 -5 -17.5 -9.5t-23.5 -4.5h-126z" />
<glyph unicode="&#xfc;" horiz-adv-x="1138" d="M125 376v661h182v-661q0 -118 54.5 -182.5t163.5 -64.5q80 0 150.5 38t130.5 105v765h182v-1037h-108q-39 0 -50 38l-14 112q-68 -75 -151.5 -120.5t-192.5 -45.5q-85 0 -150 28t-109 79t-66 124t-22 161zM265 1320q0 24 9.5 45t25.5 37t36 25.5t43 9.5q24 0 45 -9.5 t37 -25.5t25.5 -37.5t9.5 -44.5q0 -24 -9.5 -44.5t-25.5 -35.5t-37 -24.5t-45 -9.5q-23 0 -43 9.5t-36 24.5t-25.5 35.5t-9.5 44.5zM633 1320q0 24 9 45t24.5 37t36.5 25.5t45 9.5t44.5 -9.5t36.5 -25.5t25 -37.5t9 -44.5q0 -24 -9 -44.5t-25 -35.5t-37 -24.5t-44 -9.5 q-24 0 -45 9.5t-36.5 24.5t-24.5 35.5t-9 44.5z" />
<glyph unicode="&#xfd;" horiz-adv-x="1048" d="M14 1037h158q24 0 37 -11.5t19 -26.5l278 -653q9 -23 15.5 -45t12.5 -46l14 46q7 23 16 46l270 652q6 16 20.5 27t32.5 11h145l-578 -1343q-9 -20 -23 -32.5t-43 -12.5h-135l189 411zM434 1191l151 248q14 24 31 34.5t50 10.5h178l-238 -264q-14 -15 -28 -22t-36 -7h-108 z" />
<glyph unicode="&#xfe;" horiz-adv-x="1130" d="M150 -351v1859h182v-621q65 76 148.5 121.5t191.5 45.5q89 0 161.5 -34t124 -101t79 -166t27.5 -228q0 -115 -31 -213.5t-88 -170.5t-140.5 -113.5t-188.5 -41.5q-97 0 -164.5 35t-119.5 100v-472h-182zM332 250q50 -68 110 -95.5t133 -27.5q144 0 222.5 103.5 t78.5 294.5q0 101 -18 174t-52 119.5t-83 68t-112 21.5q-89 0 -156 -41t-123 -115v-502z" />
<glyph unicode="&#xff;" horiz-adv-x="1048" d="M14 1037h158q24 0 37 -11.5t19 -26.5l278 -653q9 -23 15.5 -45t12.5 -46l14 46q7 23 16 46l270 652q6 16 20.5 27t32.5 11h145l-578 -1343q-9 -20 -23 -32.5t-43 -12.5h-135l189 411zM247 1320q0 24 9.5 45t25.5 37t36 25.5t43 9.5q24 0 45 -9.5t37 -25.5t25.5 -37.5 t9.5 -44.5q0 -24 -9.5 -44.5t-25.5 -35.5t-37 -24.5t-45 -9.5q-23 0 -43 9.5t-36 24.5t-25.5 35.5t-9.5 44.5zM615 1320q0 24 9 45t24.5 37t36.5 25.5t45 9.5t44.5 -9.5t36.5 -25.5t25 -37.5t9 -44.5q0 -24 -9 -44.5t-25 -35.5t-37 -24.5t-44 -9.5q-24 0 -45 9.5t-36.5 24.5 t-24.5 35.5t-9 44.5z" />
<glyph unicode="&#x131;" horiz-adv-x="524" d="M170 0v1037h182v-1037h-182z" />
<glyph unicode="&#x152;" horiz-adv-x="2244" d="M94 733q0 165 47 303t133 237.5t206 155t265 55.5q165 0 295 -69t216 -193v245h881v-161h-704v-488h570v-155h-570v-501h704v-162h-881v246q-86 -123 -216 -191.5t-295 -68.5q-145 0 -265 54.5t-206 153.5t-133 236.5t-47 302.5zM297 733q0 -135 33.5 -243t94.5 -183.5 t147.5 -115t193.5 -39.5q106 0 193 39.5t147.5 115t93.5 183.5t33 243t-33 243t-93.5 184t-147.5 116.5t-193 40.5t-193 -40.5t-148 -116.5t-94.5 -184t-33.5 -243z" />
<glyph unicode="&#x153;" horiz-adv-x="1775" d="M74 519q0 122 32.5 221t93.5 168.5t146.5 107.5t190.5 38q134 0 231 -62t152 -175q51 108 146.5 172.5t231.5 64.5q84 0 156.5 -33t125 -95.5t83 -152t30.5 -204.5q0 -42 -8.5 -56.5t-33.5 -14.5h-642q4 -93 27.5 -162.5t63 -115.5t93 -68.5t120.5 -22.5q62 0 107.5 16 t78.5 34.5t56 34t41 15.5q22 0 34 -17l52 -67q-34 -41 -78 -71t-95 -49.5t-105 -29t-108 -9.5q-122 0 -219.5 58.5t-153.5 180.5q-55 -115 -154 -177t-240 -62q-102 0 -186 37t-144 107t-92.5 168t-32.5 221zM262 518q0 -184 70 -287t215 -103q142 0 211.5 103t69.5 287 q0 92 -17 165.5t-52 123.5t-88.5 76.5t-123.5 26.5q-73 0 -126 -26.5t-88.5 -76.5t-53 -123.5t-17.5 -165.5zM1011 611h520q0 67 -16 124t-46.5 97.5t-75 64t-101.5 23.5q-62 0 -111 -21t-84.5 -61t-57 -97.5t-28.5 -129.5z" />
<glyph unicode="&#x178;" horiz-adv-x="1288" d="M8 1467h174q27 0 42.5 -13t26.5 -33l336 -570q20 -36 34 -67.5t25 -62.5q11 32 24.5 63.5t34.5 66.5l334 570q9 16 25 31t42 15h176l-539 -883v-584h-197v584zM316 1706q0 24 9 45t24.5 36t35.5 24.5t41 9.5q24 0 45 -9.5t36 -24.5t24.5 -36t9.5 -45q0 -23 -9.5 -42.5 t-24.5 -35t-36 -24.5t-45 -9q-22 0 -41.5 9t-35 24.5t-24.5 35t-9 42.5zM752 1706q0 24 8.5 45t24 36t36 24.5t43.5 9.5t43.5 -9.5t36 -24.5t24.5 -36t9 -45q0 -23 -9 -42.5t-24.5 -35t-36 -24.5t-43.5 -9q-24 0 -44 9t-35.5 24.5t-24 35t-8.5 42.5z" />
<glyph unicode="&#x2c6;" horiz-adv-x="628" d="M0 1197l228 270h170l229 -270h-122q-22 0 -41 14l-131 129l-18 18l-16 -18l-132 -129q-6 -5 -17.5 -9.5t-23.5 -4.5h-126z" />
<glyph unicode="&#x2da;" horiz-adv-x="628" d="M109 1347q0 43 16 77.5t44.5 60t65 39.5t77.5 14q42 0 79.5 -14t66 -39.5t45 -60t16.5 -77.5q0 -42 -16.5 -77t-45 -59.5t-66 -38.5t-79.5 -14q-41 0 -77.5 14t-65 38.5t-44.5 59.5t-16 77zM211 1347q0 -45 27.5 -74t75.5 -29q46 0 74.5 29t28.5 74q0 46 -28.5 74.5 t-74.5 28.5q-48 0 -75.5 -28.5t-27.5 -74.5z" />
<glyph unicode="&#x2dc;" horiz-adv-x="628" d="M18 1231q0 49 13.5 89.5t38 69.5t58.5 45t74 16q36 0 67 -15t59 -32l51 -32q24 -15 48 -15q37 0 57 21.5t21 66.5h110q0 -48 -12.5 -88.5t-36.5 -69.5t-57.5 -44.5t-74.5 -15.5q-36 0 -67 14.5t-59 32.5l-52 32q-25 15 -48 15q-74 0 -76 -90h-114z" />
<glyph unicode="&#x2013;" horiz-adv-x="1138" d="M160 538v133h819v-133h-819z" />
<glyph unicode="&#x2014;" horiz-adv-x="1681" d="M160 538v133h1362v-133h-1362z" />
<glyph unicode="&#x2018;" horiz-adv-x="434" d="M59 1234q0 92 46 176.5t127 155.5l57 -35q8 -5 10.5 -11.5t2.5 -12.5q0 -14 -10 -24q-16 -20 -31.5 -43t-28 -48t-19.5 -52.5t-7 -58.5q0 -33 9.5 -67.5t33.5 -73.5q7 -11 7 -24q0 -25 -28 -35l-111 -45q-30 49 -44 99t-14 99z" />
<glyph unicode="&#x2019;" horiz-adv-x="434" d="M92 1073q0 14 10 25q16 19 32 42t28 48t19 53t7 58q0 33 -9.5 68t-33.5 74q-7 11 -7 22q0 25 28 36l112 45q30 -49 43 -98t13 -98q0 -93 -45.5 -178t-126.5 -155l-57 35q-8 5 -10.5 11t-2.5 12z" />
<glyph unicode="&#x201a;" horiz-adv-x="434" d="M92 -224q0 14 10 24q16 19 32 42.5t28 48.5t19 52.5t7 58.5q0 33 -9.5 67.5t-33.5 73.5q-7 11 -7 23q0 25 28 36l112 45q30 -49 43 -98.5t13 -98.5q0 -93 -45.5 -177.5t-126.5 -155.5l-57 35q-8 5 -10.5 11.5t-2.5 12.5z" />
<glyph unicode="&#x201c;" horiz-adv-x="745" d="M59 1234q0 92 46 176.5t127 155.5l57 -35q8 -5 10.5 -11.5t2.5 -12.5q0 -14 -10 -24q-16 -20 -31.5 -43t-28 -48t-19.5 -52.5t-7 -58.5q0 -33 9.5 -67.5t33.5 -73.5q7 -11 7 -24q0 -25 -28 -35l-111 -45q-30 49 -44 99t-14 99zM371 1234q0 92 45.5 176.5t127.5 155.5 l56 -35q8 -5 10.5 -11.5t2.5 -12.5q0 -14 -10 -24q-16 -20 -31.5 -43t-28 -48t-19.5 -52.5t-7 -58.5q0 -33 10 -67.5t33 -73.5q7 -11 7 -24q0 -25 -27 -35l-112 -45q-30 49 -43.5 99t-13.5 99z" />
<glyph unicode="&#x201d;" horiz-adv-x="745" d="M92 1073q0 14 10 25q16 19 32 42t28 48t19 53t7 58q0 33 -9.5 68t-33.5 74q-7 11 -7 22q0 25 28 36l112 45q30 -49 43 -98t13 -98q0 -93 -45.5 -178t-126.5 -155l-57 35q-8 5 -10.5 11t-2.5 12zM403 1073q0 14 11 25q16 19 31.5 42t27.5 48t19.5 53t7.5 58q0 33 -10 68 t-33 74q-7 11 -7 22q0 25 27 36l112 45q30 -49 43 -98t13 -98q0 -93 -45.5 -178t-126.5 -155l-56 35q-8 5 -11 11t-3 12z" />
<glyph unicode="&#x201e;" horiz-adv-x="745" d="M92 -224q0 14 10 24q16 19 32 42.5t28 48.5t19 52.5t7 58.5q0 33 -9.5 67.5t-33.5 73.5q-7 11 -7 23q0 25 28 36l112 45q30 -49 43 -98.5t13 -98.5q0 -93 -45.5 -177.5t-126.5 -155.5l-57 35q-8 5 -10.5 11.5t-2.5 12.5zM403 -224q0 14 11 24q16 19 31.5 42.5t27.5 48.5 t19.5 52.5t7.5 58.5q0 33 -10 67.5t-33 73.5q-7 11 -7 23q0 25 27 36l112 45q30 -49 43 -98.5t13 -98.5q0 -93 -45.5 -177.5t-126.5 -155.5l-56 35q-8 5 -11 11.5t-3 12.5z" />
<glyph unicode="&#x2022;" d="M213 609q0 79 30 148.5t81.5 121.5t120.5 82t147 30q79 0 148.5 -30t121 -82t82 -121.5t30.5 -148.5t-30.5 -148t-82 -120t-121 -81.5t-148.5 -30.5q-78 0 -147 30.5t-120.5 81.5t-81.5 120t-30 148z" />
<glyph unicode="&#x2026;" horiz-adv-x="1488" d="M90 113q0 27 10 50t26.5 40.5t40 28t50.5 10.5t50.5 -10.5t41 -28t27 -41t9.5 -49.5q0 -28 -9.5 -51t-27 -40.5t-41 -27t-50.5 -9.5t-50.5 9.5t-40 27t-26.5 40.5t-10 51zM616 113q0 27 10 50t27 40.5t40.5 28t49.5 10.5q27 0 50.5 -10.5t41 -28t27 -41t9.5 -49.5 q0 -28 -9.5 -51t-27 -40.5t-41 -27t-50.5 -9.5t-50 9.5t-40 27t-27 40.5t-10 51zM1144 113q0 27 9.5 50t26.5 40.5t40.5 28t50.5 10.5t50.5 -10.5t40.5 -28t27 -41t10 -49.5q0 -28 -10 -51t-27 -40.5t-41 -27t-50 -9.5q-27 0 -50.5 9.5t-40.5 27t-26.5 40.5t-9.5 51z" />
<glyph unicode="&#x2039;" horiz-adv-x="647" d="M141 530v24l255 398l60 -28q14 -7 21 -18.5t7 -24.5q0 -17 -10 -34l-163 -267q-14 -25 -28 -38q15 -14 28 -37l163 -267q5 -8 7.5 -17.5t2.5 -17.5q0 -29 -28 -42l-60 -29z" />
<glyph unicode="&#x203a;" horiz-adv-x="647" d="M154 203q0 17 10 35l163 267q13 25 27 37q-12 11 -27 38l-163 267q-10 17 -10 35q0 29 28 42l60 28l255 -398v-24l-255 -398l-60 29q-28 13 -28 42z" />
<glyph unicode="&#x20ac;" d="M35 566v105h137q-1 15 -1 30v32q0 20 0.5 41.5t1.5 41.5h-138v105h150q20 129 69 232.5t121 177t166.5 112.5t204.5 39q137 0 234.5 -51.5t169.5 -141.5l-63 -69q-8 -9 -16 -16t-22 -7q-17 0 -36.5 19.5t-51 43t-81.5 43t-126 19.5q-150 0 -248.5 -102.5t-131.5 -298.5 h560v-57q0 -18 -14 -33t-38 -15h-521q-1 -20 -1.5 -40.5t-0.5 -42.5v-32q0 -15 1 -30h479v-58q0 -17 -14.5 -32t-39.5 -15h-415q29 -211 127 -316.5t247 -105.5q55 0 97.5 11t73 27.5t52.5 35.5t38.5 35t29.5 27t25 11q8 0 14 -3.5t15 -11.5l76 -71q-72 -104 -178 -162 t-253 -58q-119 0 -214 40.5t-164.5 115.5t-114 183t-61.5 242h-145z" />
<glyph unicode="&#x2122;" horiz-adv-x="1474" d="M66 1360v107h497v-107h-184v-499h-129v499h-184zM662 861v606h108q17 0 24.5 -4t18.5 -17l173 -310l12 -28q6 -13 10 -27q5 14 9 27t12 28l173 310q9 13 17.5 17t24.5 4h109v-606h-113v374l9 77l-187 -344q-13 -29 -45 -29h-19q-32 0 -44 29l-188 341l8 -74v-374h-112z " />
<glyph unicode="&#xe000;" horiz-adv-x="1035" d="M0 1035h1035v-1035h-1035v1035z" />
<glyph unicode="&#xfb01;" horiz-adv-x="1167" d="M27 942v75h163v57q0 95 30 174.5t89.5 137t148 89t206.5 31.5q39 0 79 -5t70 -15l-6 -95q-2 -13 -12.5 -17t-29.5 -4q-11 0 -23.5 0.5t-27.5 0.5q-181 0 -263.5 -75t-82.5 -227v-52h626v-1017h-182v885h-438v-885h-184v882l-114 13q-22 5 -35.5 16t-13.5 31z" />
<glyph unicode="&#xfb02;" horiz-adv-x="1216" d="M27 942v75h163v55q0 86 27 163.5t80 134.5t133 91t186 34q85 0 163.5 -6.5t152.5 -6.5h102v-1482h-182v1354q-55 2 -111 5t-97 3q-133 0 -204.5 -76.5t-71.5 -213.5v-55h270v-132h-264v-885h-184v882l-114 13q-22 5 -35.5 16t-13.5 31z" />
<glyph unicode="&#xfb03;" horiz-adv-x="1904" d="M1513 1363q0 27 10.5 51t28 42t41 28t49.5 10q27 0 50.5 -10t41.5 -28t28.5 -42t10.5 -51t-10.5 -50t-28.5 -41t-41.5 -28t-50.5 -10t-50 10t-40.5 28t-28 41t-10.5 50zM1550 0v1037h182v-1037h-182zM717 942v75h163v100q0 89 25.5 158.5t72 117t112 72t147.5 24.5 q70 0 129 -21l-4 -91q-1 -20 -17.5 -24t-46.5 -4h-31q-47 0 -85.5 -12.5t-66.5 -40t-42.5 -72.5t-14.5 -112v-95h300v-132h-294v-885h-184v882l-114 13q-22 5 -35.5 16t-13.5 31zM27 942v75h163v100q0 89 25.5 158.5t72 117t112 72t147.5 24.5q70 0 129 -21l-4 -91 q-1 -20 -17.5 -24t-46.5 -4h-31q-47 0 -85.5 -12.5t-66.5 -40t-42.5 -72.5t-14.5 -112v-95h300v-132h-294v-885h-184v882l-114 13q-22 5 -35.5 16t-13.5 31z" />
<glyph unicode="&#xfb04;" horiz-adv-x="1904" d="M1550 0v1508h182v-1508h-182zM717 942v75h163v100q0 89 25.5 158.5t72 117t112 72t147.5 24.5q70 0 129 -21l-4 -91q-1 -20 -17.5 -24t-46.5 -4h-31q-47 0 -85.5 -12.5t-66.5 -40t-42.5 -72.5t-14.5 -112v-95h300v-132h-294v-885h-184v882l-114 13q-22 5 -35.5 16 t-13.5 31zM27 942v75h163v100q0 89 25.5 158.5t72 117t112 72t147.5 24.5q70 0 129 -21l-4 -91q-1 -20 -17.5 -24t-46.5 -4h-31q-47 0 -85.5 -12.5t-66.5 -40t-42.5 -72.5t-14.5 -112v-95h300v-132h-294v-885h-184v882l-114 13q-22 5 -35.5 16t-13.5 31z" />
<glyph horiz-adv-x="628" d="M-45 1825h206q16 0 28 -1.5t21.5 -5t18 -10.5t18.5 -17l216 -208h-142q-22 0 -34.5 3.5t-29.5 16.5z" />
<glyph horiz-adv-x="628" d="M-16 1706q0 24 9 45t24.5 36t35.5 24.5t41 9.5q24 0 45 -9.5t36 -24.5t24.5 -36t9.5 -45q0 -23 -9.5 -42.5t-24.5 -35t-36 -24.5t-45 -9q-22 0 -41.5 9t-35 24.5t-24.5 35t-9 42.5zM420 1706q0 24 8.5 45t24 36t36 24.5t43.5 9.5t43.5 -9.5t36 -24.5t24.5 -36t9 -45 q0 -23 -9 -42.5t-24.5 -35t-36 -24.5t-43.5 -9q-24 0 -44 9t-35.5 24.5t-24 35t-8.5 42.5z" />
<glyph horiz-adv-x="628" d="M166 1583l216 208q10 10 18.5 17t17.5 10.5t21 5t29 1.5h206l-301 -221q-17 -12 -30.5 -16.5t-35.5 -4.5h-141z" />
<glyph horiz-adv-x="628" d="M-20 1583l243 215h180l244 -215h-138q-12 0 -26.5 3.5t-23.5 9.5l-133 98q-8 4 -13 8q-8 -6 -12 -8l-133 -98q-9 -6 -23.5 -9.5t-26.5 -3.5h-138z" />
<glyph horiz-adv-x="628" d="M121 1699q0 40 16 73.5t42 57.5t60.5 37.5t73.5 13.5q40 0 75.5 -13.5t62.5 -37.5t42.5 -57.5t15.5 -73.5q0 -39 -15.5 -72t-42.5 -56.5t-62.5 -36.5t-75.5 -13q-39 0 -73.5 13t-60.5 36.5t-42 56.5t-16 72zM212 1699q0 -44 27.5 -73.5t75.5 -29.5q46 0 74.5 29.5 t28.5 73.5q0 46 -28.5 74.5t-74.5 28.5q-48 0 -75.5 -28.5t-27.5 -74.5z" />
<glyph horiz-adv-x="628" d="M27 1585q0 44 11.5 81.5t33.5 64t54.5 42t72.5 15.5q36 0 68.5 -13.5t62.5 -29.5l56 -29q27 -13 51 -13q36 0 55 21t20 59h100q0 -44 -11 -81t-32.5 -64t-53.5 -42t-73 -15q-36 0 -68.5 13.5t-62.5 29.5l-57 29q-27 13 -51 13q-35 0 -54 -22t-20 -59h-102z" />
</font>
</defs></svg> 