<?xml  version="1.0" encoding="UTF-8"?>
<!DOCTYPE svg PUBLIC "-//W3C//DTD SVG 1.0//EN" "http://www.w3.org/TR/2001/REC-SVG-20010904/DTD/svg10.dtd" >
<svg xmlns="http://www.w3.org/2000/svg" >
<metadata>
<version>1.0</version>
<id><![CDATA[AccordAlternate Bold Italic]]></id>
<vendor>Monotype Imaging Inc.</vendor>
<credits>
<name>Fonts.com WebFonts</name>
<URL>http://webfonts.fonts.com</URL>
<role>Home of the Web fonts</role>
</credits>
<license>
<URL>http://webfonts.fonts.com/Legal</URL>
</license>
<copyright><![CDATA[Copyright (c) 2010 by Aakash Soneri. All rights reserved.]]></copyright>
<trademark><![CDATA[AccordAlternate Bold Italic is a trademark of Aakash Soneri.]]></trademark>
<licensee>
<name></name>
</licensee>
</metadata>
<defs >
<font horiz-adv-x="908" id="ed53b1c9-a4b4-48fd-8873-8cbaec3945a6">
<font-face font-family="" panose-1="2 0 0 0 0 0 0 0 0 0" ascent="1913" descent="-540" units-per-em="2048" alphabetic="0">
</font-face>
<missing-glyph horiz-adv-x="748" d="M68 0V1365H612V0H68ZM136 68H544V1297H136V68Z"  />

<glyph unicode="&#xA;" />
<glyph unicode="&#xD;" horiz-adv-x="2048" />
<glyph unicode=" " horiz-adv-x="491" />
<glyph unicode="!" horiz-adv-x="591" d="M422 1319H641L563 874Q550 795 505 634T446 393H289Q302 469 315 630T344 874L422 1319ZM176 63T176 121T217 220T315 262Q374 262 415 221T457 121T416 22T315 -20Q258 -20 217 21Z"  />
<glyph unicode="&quot;" horiz-adv-x="643" d="M532 1053L608 1481H772L696 1053H532ZM319 1053L395 1481H559L483 1053H319Z"  />
<glyph unicode="#" horiz-adv-x="1421" d="M682 0L809 303H535L408 0H211L338 303H154L182 471H412L575 854H340L369 1022H645L770 1319H967L840 1022H1116L1243 1319H1440L1313 1022H1501L1473 854H1243L1079 471H1315L1284 303H1006L879 0H682ZM770 854L606 471H883L1047 854H770Z"  />
<glyph unicode="$" horiz-adv-x="1071" d="M391 -190L424 0Q237 15 111 111L215 322Q277 270 363 242T537 213Q659 213 738 259T817 389Q817 424 799 452T748 499T675 536T589 570T499 606T412 652T339 714T289 799T270 913Q270 1001 300 1072T385 1191T506 1266T653 1303L690 1507H883L848 1317Q1035 1301 1149 1204L1044 995Q986 1047 909 1074T756 1102Q647 1102 577 1059T506 934Q506 888 536 854T615 798T721 756T839 708T946 646T1024 551T1055 412Q1055 320 1020 245T923 121T784 43T618 6L584 -190H391Z"  />
<glyph unicode="%" horiz-adv-x="1861" d="M1378 1319H1632L715 0H463L1378 1319ZM938 995Q921 817 814 717T547 616Q431 616 358 679T266 848Q252 922 260 985Q281 1157 388 1248T645 1339Q799 1339 876 1246T938 995ZM745 995Q767 1165 631 1165Q546 1165 494 1089T449 903Q455 793 567 793Q638 793 685 842T745 995ZM1831 356Q1814 178 1707 78T1440 -23Q1324 -23 1251 40T1159 209Q1145 283 1153 344Q1174 518 1280 609T1538 700Q1692 700 1769 607T1831 356ZM1638 356Q1660 524 1524 524Q1438 524 1386 448T1341 264Q1346 154 1460 154Q1531 154 1578 203T1638 356Z"  />
<glyph unicode="&amp;" horiz-adv-x="1318" d="M1378 590H1202L1178 451Q1095 -23 629 -23Q424 -23 299 66T174 330Q174 581 449 690Q326 768 326 934Q326 1068 394 1160T577 1295T842 1337Q969 1337 1067 1311L991 1090Q912 1120 807 1120Q689 1120 623 1069T557 928Q557 780 745 780H1004L1034 950H1268L1237 780H1413L1378 590ZM414 358Q414 269 477 230T643 190Q898 190 946 451L971 590H713Q586 590 500 527T414 358Z"  />
<glyph unicode="&apos;" horiz-adv-x="344" d="M274 1053L350 1481H518L442 1053H274Z"  />
<glyph unicode="(" horiz-adv-x="770" d="M184 332Q188 461 209 586T277 843T390 1089T559 1310T788 1495L911 1337Q787 1258 690 1145T530 900T433 622T393 322Q381 119 439 -61T610 -387L438 -496Q292 -302 232 -100T184 332Z"  />
<glyph unicode=")" horiz-adv-x="770" d="M764 664Q753 302 601 -6T158 -496L35 -336Q269 -193 406 76T555 672Q577 1075 338 1389L510 1495Q785 1127 764 664Z"  />
<glyph unicode="*" horiz-adv-x="976" d="M844 1501L780 1214L1065 1272L1090 1094L801 1063L938 811L776 731L662 997L463 791L338 918L555 1108L295 1235L377 1393L627 1245L666 1532L844 1501Z"  />
<glyph unicode="+" horiz-adv-x="1167" d="M1171 754V563H803V195H596V563H227V754H596V1122H803V754H1171Z"  />
<glyph unicode="&#x2c;" horiz-adv-x="468" d="M98 117Q98 179 140 218T240 258Q305 258 344 211T383 88Q383 45 369 -9T324 -123T235 -237T102 -319L41 -244Q99 -204 142 -145T203 -18Q159 -7 129 29T98 117Z"  />
<glyph unicode="-" horiz-adv-x="849" d="M922 754L889 563H162L195 754H922Z"  />
<glyph unicode="." horiz-adv-x="481" d="M121 61T121 119T162 218T260 260Q318 260 359 219T401 119T360 19T260 -23Q203 -23 162 19Z"  />
<glyph unicode="/" horiz-adv-x="729" d="M776 1524H999L207 -61H-10L776 1524Z"  />
<glyph unicode="0" horiz-adv-x="1218" d="M659 195Q849 195 934 426Q966 513 990 653T1014 879Q1014 917 1009 948T990 1013T952 1068T887 1105T791 1120Q625 1120 539 936Q492 839 465 684T438 440Q438 195 659 195ZM647 -25Q552 -25 476 1T350 72T267 176T220 300T205 434Q205 584 245 770T352 1073Q425 1209 536 1274T805 1339Q921 1339 1008 1302T1146 1198T1222 1050T1247 868Q1247 761 1215 591T1128 295Q1061 138 948 57T647 -25Z"  />
<glyph unicode="1" horiz-adv-x="714" d="M258 885L221 1120L586 1319H799L565 0H332L512 1030L258 885Z"  />
<glyph unicode="2" horiz-adv-x="1079" d="M1141 956Q1141 880 1118 812T1049 682T949 569T817 455L512 217H1012L973 0H104L141 215L635 590Q775 698 840 778T905 952Q905 1120 684 1120Q603 1120 509 1091T348 1020L315 1227Q500 1337 707 1337Q910 1337 1025 1241T1141 956Z"  />
<glyph unicode="3" horiz-adv-x="1064" d="M479 582L514 782H592Q662 782 715 794T798 826T846 872T871 923T877 973Q877 1048 831 1084T680 1120Q515 1120 338 1014L303 1225Q489 1337 707 1337Q900 1337 1006 1247T1112 991Q1112 868 1053 795T885 676Q1030 586 1030 401Q1030 209 882 93T475 -23Q343 -23 259 7T86 100L195 311Q324 195 520 195Q600 195 656 214T741 266T782 333T795 408Q795 582 557 582H479Z"  />
<glyph unicode="4" horiz-adv-x="1140" d="M162 467L596 1319H854L434 496H858L946 991H1178L1004 0H772L821 276H129L162 467Z"  />
<glyph unicode="5" horiz-adv-x="1157" d="M289 614L414 1319H1202L1163 1102H610L563 831H655Q1122 831 1122 444Q1122 216 968 97T530 -23Q402 -23 318 5T147 98L254 305Q384 195 569 195Q732 195 808 262T885 436Q885 541 807 577T539 614H289Z"  />
<glyph unicode="6" horiz-adv-x="1148" d="M723 823Q831 823 912 793T1040 711T1107 590T1120 440Q1100 219 959 98T600 -23Q257 -23 209 309Q189 449 215 653Q238 820 284 943T388 1140T525 1260T684 1321T862 1337Q1099 1337 1239 1217L1135 1012Q1077 1064 995 1092T825 1120Q671 1120 589 1030T477 776Q590 823 723 823ZM684 621Q559 621 440 565Q423 456 425 374T477 243T625 195Q736 195 804 254T885 426Q899 537 845 579T684 621Z"  />
<glyph unicode="7" horiz-adv-x="1048" d="M451 0H176L866 1102H274L313 1319H1196L1163 1137L451 0Z"  />
<glyph unicode="8" horiz-adv-x="1177" d="M795 1337Q992 1337 1101 1247T1210 1012Q1210 910 1156 818T993 672Q1070 631 1104 571T1139 422Q1139 220 996 99T614 -23Q502 -23 416 5T278 84T199 198T172 336Q172 457 238 552T422 698Q359 739 332 791T305 920Q305 1118 441 1227T795 1337ZM403 362Q403 284 461 240T625 195Q752 195 826 257T901 414Q901 489 844 534T682 580Q555 580 479 517T403 362ZM532 920Q532 847 584 808T731 768Q848 768 913 822T979 967Q979 1040 931 1081T784 1122Q664 1122 598 1063T532 920Z"  />
<glyph unicode="9" horiz-adv-x="1148" d="M641 494Q454 494 350 586T246 829Q246 1062 392 1199T770 1337Q980 1337 1075 1220T1171 895Q1171 717 1134 543T1026 248Q951 115 829 46T518 -23Q384 -23 296 6T129 100L233 305Q291 253 373 224T547 195Q687 195 772 277T893 541Q776 494 641 494ZM684 694Q808 694 930 750Q942 817 945 870T942 971T913 1051T850 1101T750 1120Q620 1120 551 1048T481 848Q481 694 684 694Z"  />
<glyph unicode=":" horiz-adv-x="481" d="M254 834T254 893T295 993T395 1034T495 993T537 893T496 794T395 752T295 793ZM121 61T121 119T162 218T260 260Q318 260 359 219T401 119T360 19T260 -23Q203 -23 162 19Z"  />
<glyph unicode=";" horiz-adv-x="479" d="M115 117Q115 179 157 218T256 258Q321 258 360 211T399 88Q399 55 391 14T362 -77T310 -171T230 -256T119 -319L57 -244Q114 -204 158 -144T219 -18Q175 -7 145 29T115 117ZM252 834T252 893T293 993T393 1034T493 993T535 893T494 794T393 752T293 793Z"  />
<glyph unicode="&lt;" horiz-adv-x="966" d="M1018 334V115L225 563V750L1018 1198V979L451 655L1018 334Z"  />
<glyph unicode="=" horiz-adv-x="1126" d="M1130 528V338H227V528H1130ZM1130 985V795H227V985H1130Z"  />
<glyph unicode="&gt;" horiz-adv-x="966" d="M180 115V334L748 655L180 979V1198L973 750V563L180 115Z"  />
<glyph unicode="?" horiz-adv-x="892" d="M991 977Q991 939 983 903T965 839T933 781T896 732T850 688T802 651T751 618T704 590T657 565Q575 522 536 486T487 397H256Q266 456 294 507T369 600T455 670T553 733Q558 736 584 752T617 773T646 793T676 816T700 840T723 869T739 899T751 936T754 977Q754 1048 707 1085T571 1122Q509 1122 439 1105T328 1065L297 1274Q427 1337 590 1337Q771 1337 881 1242T991 977ZM180 63T180 121T221 220T322 262Q380 262 421 221T463 121T422 21T322 -20Q263 -20 222 21Z"  />
<glyph unicode="@" horiz-adv-x="2025" d="M1815 717Q1815 942 1651 1076T1225 1210Q1043 1210 892 1147T638 973T480 712T424 387Q424 247 463 137T573 -44T739 -151T948 -188Q1060 -188 1168 -154T1358 -53L1452 -205Q1360 -272 1216 -324T905 -377Q692 -377 535 -276T299 -3T219 389Q219 594 288 777T483 1099T801 1319T1225 1401Q1350 1401 1464 1377T1681 1299T1858 1167T1977 976T2021 725Q2021 664 2012 596T1983 449T1928 302T1845 175T1726 83T1571 49Q1466 49 1406 100T1323 240Q1282 157 1200 103T993 49Q918 49 860 72T768 132T713 218T684 311T676 403Q676 475 691 549T745 700T839 837T985 935T1186 973Q1321 973 1421 922T1569 797L1503 436Q1495 384 1496 341T1520 269T1587 240Q1639 240 1681 278T1747 373T1787 498T1809 621T1815 717ZM1305 516L1341 721Q1269 784 1167 784Q1098 784 1045 754T963 682T916 583T893 482T887 397Q887 323 919 282T1038 240Q1258 240 1305 516Z"  />
<glyph unicode="A" horiz-adv-x="1359" d="M1079 0L1020 293H465L301 0H51L793 1319H1032L1309 0H1079ZM874 1024L580 500H981L874 1024Z"  />
<glyph unicode="B" horiz-adv-x="1253" d="M389 1319H809Q920 1319 1004 1301T1140 1253T1224 1180T1268 1091T1280 991Q1280 866 1223 791T1049 682Q1219 609 1219 428Q1219 231 1076 116T659 0H156L389 1319ZM760 573H487L426 217H696Q981 217 981 424Q981 501 931 537T760 573ZM829 1102H584L524 774H772Q916 774 976 823T1036 965Q1036 1040 990 1071T829 1102Z"  />
<glyph unicode="C" horiz-adv-x="1157" d="M451 469Q451 331 520 263T737 195Q832 195 926 220T1077 281L1073 63Q918 -23 707 -23Q600 -23 515 5T375 79T282 190T229 325T213 473Q213 632 270 826T432 1143Q518 1244 638 1290T924 1337Q1047 1337 1123 1314T1276 1247L1204 1030Q1150 1068 1067 1094T891 1120Q698 1120 596 991Q526 900 489 743T451 469Z"  />
<glyph unicode="D" horiz-adv-x="1277" d="M156 0L389 1319H793Q1048 1319 1173 1194T1298 838Q1298 701 1258 540T1149 264Q1060 117 922 59T569 0H156ZM598 217Q713 217 789 245T922 348Q984 423 1021 557T1059 825Q1059 894 1046 942T999 1028T905 1084T754 1102H584L426 217H598Z"  />
<glyph unicode="E" horiz-adv-x="1181" d="M489 569L426 217H1114L1075 0H156L389 1319H1309L1270 1102H584L528 786H1133L1094 569H489Z"  />
<glyph unicode="F" horiz-adv-x="1128" d="M485 553L387 0H156L389 1319H1276L1237 1102H584L524 772H1098L1059 553H485Z"  />
<glyph unicode="G" horiz-adv-x="1243" d="M745 535L780 735H1245L1126 66Q1057 27 955 2T737 -23Q477 -23 345 111T213 477Q213 623 257 785T373 1059Q459 1196 596 1266T950 1337Q1043 1337 1120 1322T1239 1291T1331 1247L1257 1030Q1200 1068 1110 1094T913 1120Q800 1120 719 1085T580 961Q524 879 488 744T451 481Q451 412 465 363T514 274T612 215T770 195Q851 195 936 215L993 535H745Z"  />
<glyph unicode="H" horiz-adv-x="1312" d="M492 586L387 0H156L389 1319H621L528 803H1065L1157 1319H1391L1157 0H924L1028 586H492Z"  />
<glyph unicode="I" horiz-adv-x="573" d="M170 0L403 1319H637L403 0H170Z"  />
<glyph unicode="J" horiz-adv-x="935" d="M1038 1319L883 430Q862 313 827 229T750 97T650 22T536 -14T406 -23Q297 -23 233 -6T104 51L178 266Q287 195 418 195Q516 195 568 241T645 416L766 1102H350L389 1319H1038Z"  />
<glyph unicode="K" horiz-adv-x="1304" d="M561 713L1100 1319H1401L819 688L1210 0H954L561 713ZM156 0L389 1319H621L387 0H156Z"  />
<glyph unicode="L" horiz-adv-x="1036" d="M156 0L389 1319H621L426 217H1032L993 0H156Z"  />
<glyph unicode="M" horiz-adv-x="1529" d="M156 0L389 1319H610L877 705L1372 1319H1608L1374 0H1141L1298 895L936 442H758L551 922L387 0H156Z"  />
<glyph unicode="N" horiz-adv-x="1312" d="M156 0L389 1319H604L999 428L1157 1319H1391L1157 0H950L545 897L387 0H156Z"  />
<glyph unicode="O" horiz-adv-x="1327" d="M1116 866Q1116 995 1062 1056T864 1118Q750 1118 677 1077T553 940Q501 848 470 701T438 442Q438 318 494 256T694 193Q812 193 887 239T1014 389Q1056 473 1086 613T1116 866ZM676 -25Q546 -25 454 8T308 105T231 252T207 446Q207 605 252 782T375 1079Q461 1215 586 1275T883 1335Q1014 1335 1106 1302T1251 1205T1327 1061T1350 874Q1350 729 1312 565T1217 293Q1134 130 1004 53T676 -25Z"  />
<glyph unicode="P" horiz-adv-x="1239" d="M389 1319H887Q1103 1319 1211 1223T1319 967Q1319 875 1305 802T1251 662T1147 550T979 480T735 453H467L387 0H156L389 1319ZM850 1102H584L506 670H772Q866 670 929 689T1026 745T1073 826T1087 932Q1087 1017 1031 1059T850 1102Z"  />
<glyph unicode="Q" horiz-adv-x="1327" d="M252 -303L291 -84Q362 -29 444 -29Q500 -29 573 -58T720 -116T852 -145Q936 -145 1006 -86L967 -305Q897 -362 813 -362Q757 -362 684 -333T537 -275T406 -246Q326 -246 252 -303ZM1116 866Q1116 995 1062 1056T864 1118Q750 1118 677 1077T553 940Q501 848 470 701T438 442Q438 318 494 256T694 193Q812 193 887 239T1014 389Q1056 473 1086 613T1116 866ZM676 -25Q546 -25 454 8T308 105T231 252T207 446Q207 605 252 782T375 1079Q461 1215 586 1275T883 1335Q1014 1335 1106 1302T1251 1205T1327 1061T1350 874Q1350 729 1312 565T1217 293Q1134 130 1004 53T676 -25Z"  />
<glyph unicode="R" horiz-adv-x="1284" d="M1323 1134T1323 961T1228 680T961 535L1210 0H963L727 506H477L387 0H156L389 1319H893Q1113 1319 1218 1227ZM854 1102H584L514 715H784Q1090 715 1090 940Q1090 1022 1037 1062T854 1102Z"  />
<glyph unicode="S" horiz-adv-x="1079" d="M106 94L211 303Q274 252 361 224T537 195Q658 195 739 243T821 381Q821 429 791 464T712 521T605 563T488 611T381 676T303 777T272 926Q272 1027 311 1106T421 1235T586 1311T791 1337Q1025 1337 1161 1223L1057 1014Q998 1066 920 1093T762 1120Q654 1120 584 1075T514 942Q514 892 544 856T623 797T729 755T847 708T954 645T1032 547T1063 401Q1063 264 989 167T791 24T506 -23Q255 -23 106 94Z"  />
<glyph unicode="T" horiz-adv-x="1177" d="M260 1102L299 1319H1343L1307 1102H901L707 0H471L666 1102H260Z"  />
<glyph unicode="U" horiz-adv-x="1312" d="M238 575L369 1319H600L463 539Q432 353 491 274T692 195Q832 195 920 274T1040 539L1178 1319H1411L1274 539Q1220 236 1072 107T653 -23Q416 -23 302 130T238 575Z"  />
<glyph unicode="V" horiz-adv-x="1296" d="M1483 1319L768 0H528L279 1319H508L690 297L1237 1319H1483Z"  />
<glyph unicode="W" horiz-adv-x="1947" d="M1309 1319L1430 354L1884 1319H2126L1491 0H1260L1139 932L692 0H457L287 1319H512L627 354L1081 1319H1309Z"  />
<glyph unicode="X" horiz-adv-x="1325" d="M598 1319L801 881L1151 1319H1427L909 690L1249 0H1001L756 520L340 0H63L651 713L350 1319H598Z"  />
<glyph unicode="Y" horiz-adv-x="1327" d="M1522 1319L872 512L782 0H547L637 508L270 1319H520L774 721L1245 1319H1522Z"  />
<glyph unicode="Z" horiz-adv-x="1173" d="M301 1102L338 1319H1300L1268 1137L432 217H1147L1110 0H66L98 182L934 1102H301Z"  />
<glyph unicode="[" horiz-adv-x="722" d="M571 -315L539 -500H78L432 1524H895L864 1339H610L317 -315H571Z"  />
<glyph unicode="\" horiz-adv-x="710" d="M268 1524H471L698 -61H500L268 1524Z"  />
<glyph unicode="]" horiz-adv-x="722" d="M6 -500L39 -315H295L588 1339H332L362 1524H825L469 -500H6Z"  />
<glyph unicode="^" horiz-adv-x="1114" d="M778 1442L1100 743H893L686 1229L481 743H279L598 1442H778Z"  />
<glyph unicode="_" horiz-adv-x="1058" d="M1049 -33L1018 -207H-33L-2 -33H1049Z"  />
<glyph unicode="`" horiz-adv-x="608" d="M604 1536L438 1815H651L758 1536H604Z"  />
<glyph unicode="a" horiz-adv-x="1026" d="M1026 666L920 57Q723 -23 506 -23Q323 -23 228 46T133 270Q133 445 255 529T602 614H795L807 690Q820 765 776 796T618 827Q458 827 334 780V985Q503 1032 653 1032Q745 1032 819 1011T946 946T1020 831T1026 666ZM721 201L764 442H573Q365 442 365 285Q365 217 400 194T526 170Q639 170 721 201Z"  />
<glyph unicode="b" horiz-adv-x="1114" d="M145 41L389 1421H614L541 1004Q610 1032 719 1032Q913 1032 1014 927T1116 621Q1116 500 1084 379T991 172Q919 70 805 24T512 -23Q461 -23 420 -20T338 -9T277 3T209 22T145 41ZM893 631Q893 672 884 703T852 762T783 804T668 819Q564 819 504 788L399 211Q472 190 563 190Q716 190 786 274Q836 330 864 435T893 631Z"  />
<glyph unicode="c" horiz-adv-x="944" d="M174 395Q174 506 215 641T336 868Q480 1034 748 1034Q919 1034 1030 983L956 770Q860 819 739 819Q635 819 574 785T473 684Q441 632 422 558T403 412Q403 298 461 244T645 190Q755 190 881 238V25Q721 -23 604 -23Q415 -23 295 90T174 395Z"  />
<glyph unicode="d" horiz-adv-x="1114" d="M1227 1421L987 57Q894 18 788 -2T598 -23Q388 -23 281 84T174 385Q174 495 209 623T303 838Q370 936 473 984T739 1032Q862 1032 928 1004L1001 1421H1227ZM401 393Q401 291 452 241T623 190Q710 190 791 221L889 788Q825 819 717 819Q628 819 569 792T471 696Q442 644 422 556T401 393Z"  />
<glyph unicode="e" horiz-adv-x="1073" d="M1075 684Q1075 565 1016 422H379Q375 406 375 379Q367 292 429 241T623 190Q698 190 790 209T940 256Q940 220 939 149T938 41Q780 -23 584 -23Q491 -23 417 -2T295 55T214 143T168 251T154 373Q154 473 170 563T227 741T327 892T483 993T698 1032Q870 1032 972 941T1075 684ZM414 616Q414 614 413 611T412 606H854Q854 609 855 614T856 623Q879 724 828 780T670 836Q456 836 414 616Z"  />
<glyph unicode="f" horiz-adv-x="735" d="M135 0L328 1096Q345 1195 377 1266T447 1378T540 1444T645 1475T764 1483Q903 1483 1004 1450L934 1239Q853 1270 760 1270Q671 1270 622 1235T555 1112L539 1012H887L848 799H502L360 0H135Z"  />
<glyph unicode="g" horiz-adv-x="1114" d="M1143 946L967 -49Q947 -163 902 -243T785 -370T627 -438T426 -459Q234 -459 84 -393L158 -182Q216 -212 300 -229T463 -246Q583 -246 653 -201T743 -49L754 6Q665 -23 571 -23Q443 -23 351 33T217 178T174 379Q174 500 215 642T330 874Q398 955 499 993T764 1032Q850 1032 958 1007T1143 946ZM401 383Q401 290 453 240T627 190Q706 190 791 225L891 788Q815 819 723 819Q629 819 569 792T473 692Q441 636 421 552T401 383Z"  />
<glyph unicode="h" horiz-adv-x="1132" d="M137 0L389 1434H614L539 1004Q637 1032 774 1032Q971 1032 1065 925T1122 602L1016 0H793L903 627Q922 734 876 776T729 819Q588 819 502 795L362 0H137Z"  />
<glyph unicode="i" horiz-adv-x="503" d="M139 0L317 1012H543L365 0H139ZM346 1272T346 1329T386 1426T485 1466Q542 1466 582 1426T623 1329T583 1232T485 1192Q427 1192 387 1232Z"  />
<glyph unicode="j" horiz-adv-x="495" d="M539 1012L340 -119Q327 -197 300 -256T238 -353T157 -413T62 -446T-45 -455Q-127 -455 -188 -430L-117 -221Q-65 -242 -18 -242Q37 -242 71 -209T119 -92L313 1012H539ZM342 1272T342 1329T382 1426T479 1466Q537 1466 577 1426T618 1329T578 1232T479 1192Q422 1192 382 1232Z"  />
<glyph unicode="k" horiz-adv-x="1138" d="M485 532L938 1012H1247L750 530L1110 0H846L485 532ZM137 0L387 1421H612L362 0H137Z"  />
<glyph unicode="l" horiz-adv-x="569" d="M180 317L377 1421H602L412 344Q398 260 412 228T469 195Q510 195 541 209V2Q486 -18 412 -18Q282 -18 217 69T180 317Z"  />
<glyph unicode="m" horiz-adv-x="1687" d="M137 0L307 967Q392 1001 514 1016T731 1032Q833 1032 895 1009T995 934Q1058 983 1153 1007T1346 1032Q1546 1032 1632 925T1681 612L1573 0H1348L1460 631Q1479 736 1440 777T1303 819Q1169 819 1083 768Q1089 705 1077 623L967 0H743L854 631Q873 736 834 777T696 819Q589 819 502 795L362 0H137Z"  />
<glyph unicode="n" horiz-adv-x="1132" d="M137 0L307 967Q388 998 519 1015T752 1032Q1198 1032 1124 606L1016 0H793L903 627Q922 736 876 777T717 819Q600 819 502 795L362 0H137Z"  />
<glyph unicode="o" horiz-adv-x="1132" d="M911 629Q911 725 868 772T711 819Q615 819 559 785T465 676Q436 622 418 543T399 389Q399 287 444 239T604 190Q702 190 760 229T854 356Q878 409 894 485T911 629ZM582 -23Q471 -23 390 6T262 88T193 211T170 367Q170 488 205 611T293 813Q427 1032 729 1032Q943 1032 1041 931T1139 655Q1139 556 1112 443T1044 248Q978 112 867 45T582 -23Z"  />
<glyph unicode="p" horiz-adv-x="1114" d="M59 -434L307 971Q378 997 485 1014T688 1032Q1116 1032 1116 627Q1116 522 1089 402T1008 195Q866 -23 541 -23Q438 -23 365 6L285 -434H59ZM893 623Q893 722 845 770T666 819Q569 819 504 797L401 223Q455 190 567 190Q751 190 819 315Q853 375 873 469T893 623Z"  />
<glyph unicode="q" horiz-adv-x="1114" d="M1143 946L899 -434H674L752 6Q663 -23 569 -23Q395 -23 285 84T174 381Q174 506 218 652T338 883Q405 961 506 996T758 1032Q855 1032 965 1004T1143 946ZM401 387Q401 292 450 241T627 190Q731 190 791 223L891 788Q814 819 725 819Q642 819 587 799T492 727Q451 671 426 570T401 387Z"  />
<glyph unicode="r" horiz-adv-x="751" d="M137 0L309 971Q451 1032 678 1032Q796 1032 881 1008L809 797Q749 819 655 819Q557 819 504 799L362 0H137Z"  />
<glyph unicode="s" horiz-adv-x="968" d="M100 29L174 246Q309 190 504 190Q591 190 645 219T700 305Q700 332 680 352T627 383T552 406T466 430T380 463T304 511T251 583T231 688Q231 778 263 845T355 952T493 1012T668 1032Q785 1032 853 1017T991 971L920 752Q869 780 791 799T641 819Q463 819 463 717Q463 688 488 668T555 635T645 609T743 576T834 527T900 448T926 330Q926 -23 440 -23Q248 -23 100 29Z"  />
<glyph unicode="t" horiz-adv-x="821" d="M186 399L342 1278H567L520 1012H885L846 799H483L406 358Q389 268 422 231T535 193Q649 193 752 238V25Q634 -20 500 -20Q321 -20 235 85T186 399Z"  />
<glyph unicode="u" horiz-adv-x="1132" d="M1174 1012L1008 61Q819 -23 557 -23Q337 -23 243 83T186 399L297 1012H518L408 385Q388 274 436 232T592 190T809 227L948 1012H1174Z"  />
<glyph unicode="v" horiz-adv-x="1120" d="M442 1012L600 274L1016 1012H1262L678 0H442L215 1012H442Z"  />
<glyph unicode="w" horiz-adv-x="1691" d="M440 1012L541 295L897 1012H1128L1231 295L1585 1012H1831L1307 0H1073L963 664L618 0H383L217 1012H440Z"  />
<glyph unicode="x" horiz-adv-x="1189" d="M528 1012L702 700L985 1012H1280L827 530L1139 0H881L678 360L346 0H49L549 532L268 1012H528Z"  />
<glyph unicode="y" horiz-adv-x="1132" d="M1176 1012L987 -49Q966 -169 922 -250T807 -376T653 -440T453 -459Q240 -459 86 -399L160 -186Q289 -246 479 -246Q612 -246 677 -201T762 -49L772 10Q685 -23 547 -23Q340 -23 246 83T190 410L297 1012H520L410 385Q391 274 437 232T604 190Q711 190 811 233L948 1012H1176Z"  />
<glyph unicode="z" horiz-adv-x="1013" d="M233 807L270 1012H1100L1069 834L457 205H958L922 0H92L123 178L735 807H233Z"  />
<glyph unicode="{" horiz-adv-x="862" d="M143 438L176 623H233Q321 623 381 702T465 924L510 1167Q526 1256 553 1319T615 1422T699 1485T800 1516T922 1524H1032L999 1339H911Q821 1339 778 1295T711 1122L668 885Q617 615 432 530Q587 447 543 174L504 -39Q478 -191 505 -253T623 -315H711L680 -500H567Q465 -500 394 -443T297 -291T289 -82L328 137Q353 280 321 359T201 438H143Z"  />
<glyph unicode="|" horiz-adv-x="538" d="M463 1524V-500H256V1524H463Z"  />
<glyph unicode="}" horiz-adv-x="862" d="M905 623L872 438H815Q727 438 667 359T582 137L532 -143Q513 -253 478 -325T387 -434T271 -486T121 -500H10L43 -315H131Q221 -315 265 -271T332 -98L381 176Q432 445 616 530Q461 613 506 887L539 1063Q567 1214 539 1276T420 1339H332L362 1524H475Q577 1524 648 1468T746 1316T754 1106L721 924Q696 781 728 702T848 623H905Z"  />
<glyph unicode="~" horiz-adv-x="1169" d="M160 410Q192 603 275 682T492 762Q553 762 603 742T687 693T751 636T816 587T889 567Q1008 567 1036 752H1212Q1181 560 1100 480T887 399Q828 399 778 419T694 467T628 525T561 574T485 594Q368 594 338 410H160Z"  />
<glyph unicode="&#xA0;" horiz-adv-x="491" />
<glyph unicode="&#xA1;" horiz-adv-x="591" d="M354 -307H135L219 170Q233 249 277 410T334 651H492Q479 575 466 413T438 170L354 -307ZM311 874Q311 938 361 985T477 1032Q529 1032 563 997T598 909Q598 845 548 798T432 750Q380 750 346 786T311 874Z"  />
<glyph unicode="&#xA2;" horiz-adv-x="940" d="M201 541Q201 628 218 712T272 878T364 1022T498 1128T674 1180L705 1350H885L854 1184Q968 1173 1053 1137L981 924Q881 973 762 973Q688 973 630 949T535 886T474 792T440 681T430 561Q430 456 485 400T668 344Q777 344 903 391V178Q781 141 670 133L641 -33H459L494 154Q364 184 283 288T201 541Z"  />
<glyph unicode="&#xA3;" horiz-adv-x="1083" d="M1053 217L1014 0H217L319 575H147L176 739H348L371 868Q393 1000 435 1091T541 1236T686 1313T872 1337Q980 1337 1050 1318T1184 1264L1083 1063Q990 1120 858 1120Q734 1120 680 1059T598 846L582 739H920L891 575H551L487 217H1053Z"  />
<glyph unicode="&#xA4;" horiz-adv-x="1388" d="M811 358Q751 358 690 381L401 90L242 250L514 518Q479 580 479 657Q479 736 514 795L244 1067L401 1225L688 936Q749 958 811 958T934 936L1219 1223L1376 1067L1108 801Q1143 741 1143 657Q1143 578 1108 516L1378 252L1219 90L930 381Q869 358 811 358ZM746 510T811 510T919 551T963 657T920 764T811 807Q747 807 705 765T662 657Q662 593 704 552Z"  />
<glyph unicode="&#xA5;" horiz-adv-x="1300" d="M1221 594L1192 434H846L823 307H1169L1141 147H795L768 0H535L559 147H209L238 307H588L610 434H260L289 594H586L297 1319H537L762 727L1192 1319H1466L924 594H1221Z"  />
<glyph unicode="&#xA6;" horiz-adv-x="536" d="M463 1524V711H256V1524H463ZM463 356V-500H256V356H463Z"  />
<glyph unicode="&#xA7;" horiz-adv-x="1107" d="M53 -338L152 -137Q208 -175 299 -204T477 -236Q604 -241 684 -191T764 -53Q764 -32 758 -15T743 16T714 44T678 67T630 90T576 111T510 135Q217 237 217 475Q217 592 276 678T424 803Q370 835 342 900T313 1053Q313 1142 342 1213T420 1330T538 1405T682 1445T844 1450Q956 1443 1047 1412T1194 1335L1092 1133Q1049 1170 962 1201T791 1233Q709 1235 648 1206T567 1122Q548 1083 551 1042Q553 1017 566 996T593 962T636 934T684 911T741 890T797 870Q956 809 1027 732T1098 543Q1098 430 1037 346T872 215Q997 131 997 -31Q997 -172 917 -272T709 -416T424 -453Q305 -446 209 -412T53 -338ZM451 508Q451 477 462 452T487 411T531 379T582 354T644 331T707 307Q777 337 818 388T860 504Q860 521 856 536T847 562T831 586T810 606T783 625T752 641T716 658T677 673T633 690T586 707Q522 679 487 624T451 508Z"  />
<glyph unicode="&#xA8;" horiz-adv-x="874" d="M395 1657Q395 1709 430 1745T516 1782Q568 1782 604 1746T641 1657Q641 1607 605 1572T516 1536Q466 1536 431 1572T395 1657ZM817 1657Q817 1709 853 1745T940 1782Q990 1782 1026 1746T1063 1657Q1063 1608 1027 1572T940 1536Q889 1536 853 1571T817 1657Z"  />
<glyph unicode="&#xA9;" horiz-adv-x="1746" d="M621 717Q621 920 730 1033T1024 1147Q1125 1147 1237 1106L1206 934Q1114 975 1030 975Q921 975 867 914T813 723Q813 471 1034 471Q1132 471 1225 506L1251 334Q1154 297 1030 297Q839 297 730 406T621 717ZM264 721Q264 872 322 1008T478 1243T713 1400T999 1458Q1201 1458 1371 1360T1640 1093T1739 721Q1739 520 1640 351T1371 84T999 -14Q799 -14 630 84T363 351T264 721ZM397 721Q397 599 445 488T574 296T766 167T999 119Q1122 119 1234 166T1427 295T1556 487T1604 721Q1604 844 1556 956T1427 1148T1234 1277T999 1325Q877 1325 766 1277T574 1149T445 956T397 721Z"  />
<glyph unicode="&#xAB;" horiz-adv-x="1124" d="M614 88H422L156 512L537 936H766L367 510L614 88ZM1040 88H848L580 512L963 936H1190L791 510L1040 88Z"  />
<glyph unicode="&#xAC;" horiz-adv-x="1140" d="M1188 961V391H981V770H213V961H1188Z"  />
<glyph unicode="&#xAD;" horiz-adv-x="849" d="M922 754L889 563H162L195 754H922Z"  />
<glyph unicode="&#xAE;" horiz-adv-x="1746" d="M1124 315L993 612H905V315H713V1126H1030Q1175 1126 1251 1059T1327 872Q1327 784 1287 722T1174 631L1335 315H1124ZM1030 954H905V776H1030Q1086 776 1110 797T1135 864T1111 931T1030 954ZM264 721Q264 872 322 1008T478 1243T712 1400T999 1458Q1201 1458 1370 1360T1638 1093T1737 721Q1737 520 1639 351T1371 84T999 -14Q849 -14 713 44T478 200T322 434T264 721ZM397 721Q397 599 445 488T574 296T766 167T999 119Q1122 119 1234 166T1427 295T1556 487T1604 721Q1604 844 1556 956T1427 1148T1234 1277T999 1325Q877 1325 766 1277T574 1149T445 956T397 721Z"  />
<glyph unicode="&#xB0;" horiz-adv-x="847" d="M1124 1204Q1124 1069 1032 977T805 885Q668 885 576 976T483 1204Q483 1340 576 1432T805 1524Q938 1524 1031 1431T1124 1204ZM958 1204Q958 1272 915 1317T805 1362Q738 1362 694 1317T649 1204Q649 1137 694 1092T805 1047Q866 1047 912 1093T958 1204Z"  />
<glyph unicode="&#xB1;" horiz-adv-x="1167" d="M1124 219V29H178V219H547V563H178V754H547V1122H756V754H1124V563H756V219H1124Z"  />
<glyph unicode="&#xB4;" horiz-adv-x="620" d="M600 1815H819L575 1536H389L600 1815Z"  />
<glyph unicode="&#xB5;" horiz-adv-x="1153" d="M1196 1012L1030 61Q849 -20 621 -20Q434 -20 371 59L285 -434H61L317 1012H541L430 385Q411 276 457 233T608 190Q663 190 707 196T771 208T831 227L971 1012H1196Z"  />
<glyph unicode="&#xB6;" horiz-adv-x="1200" d="M213 860Q213 1057 356 1188T743 1319H1280L1014 -193H831L1065 1130H844L610 -193H428L551 508Q401 508 307 608T213 860Z"  />
<glyph unicode="&#xB7;" horiz-adv-x="471" d="M209 600T209 659T250 759T350 801T450 760T492 659Q492 601 451 560T350 518Q292 518 251 559Z"  />
<glyph unicode="&#xB8;" horiz-adv-x="528" d="M184 51H305L252 -78Q317 -75 359 -116T401 -215Q401 -314 328 -360T147 -406Q81 -406 23 -381L61 -266Q88 -283 143 -283Q188 -283 220 -267T252 -215Q252 -188 227 -175T164 -162Q128 -162 92 -170L184 51Z"  />
<glyph unicode="&#xBB;" horiz-adv-x="1124" d="M264 936H459L725 512L342 88H115L514 514L264 936ZM690 936H883L1149 512L768 88H541L940 514L690 936Z"  />
<glyph unicode="&#xBF;" horiz-adv-x="892" d="M80 37Q80 75 88 111T106 175T138 233T175 282T221 326T268 363T319 396T366 424T412 449Q495 493 534 528T582 614H815Q807 567 784 523T735 448T667 383T596 329T518 279Q421 222 388 191Q317 126 317 35Q317 -35 363 -72T498 -109Q562 -109 632 -92T743 -51L772 -260Q644 -324 481 -324Q299 -324 190 -229T80 37ZM891 952T891 893T850 793T750 752Q691 752 650 793T608 893T649 992T750 1034Q808 1034 849 993Z"  />
<glyph unicode="&#xC0;" horiz-adv-x="1359" d="M1079 0L1020 293H465L301 0H51L793 1319H1032L1309 0H1079ZM874 1024L580 500H981L874 1024ZM874 1427L711 1706H922L1030 1427H874Z"  />
<glyph unicode="&#xC1;" horiz-adv-x="1359" d="M1079 0L1020 293H465L301 0H51L793 1319H1032L1309 0H1079ZM874 1024L580 500H981L874 1024ZM1036 1706H1257L1012 1427H827L1036 1706Z"  />
<glyph unicode="&#xC2;" horiz-adv-x="1359" d="M1079 0L1020 293H465L301 0H51L793 1319H1032L1309 0H1079ZM874 1024L580 500H981L874 1024ZM647 1427L883 1706H1073L1212 1427H1055L975 1606H971L827 1427H647Z"  />
<glyph unicode="&#xC3;" horiz-adv-x="1359" d="M1079 0L1020 293H465L301 0H51L793 1319H1032L1309 0H1079ZM874 1024L580 500H981L874 1024ZM582 1440Q626 1702 815 1702Q868 1702 913 1681T984 1634T1040 1587T1098 1565Q1169 1565 1188 1692H1329Q1287 1432 1094 1432Q1041 1432 996 1453T925 1499T869 1546T811 1567Q783 1567 764 1546T737 1501T723 1440H582Z"  />
<glyph unicode="&#xC4;" horiz-adv-x="1359" d="M1079 0L1020 293H465L301 0H51L793 1319H1032L1309 0H1079ZM874 1024L580 500H981L874 1024ZM623 1516T623 1567T658 1654T743 1690Q794 1690 830 1654T866 1567T830 1480T743 1444Q693 1444 658 1480ZM1042 1516T1042 1567T1078 1654T1165 1690T1252 1654T1288 1567T1252 1480T1165 1444Q1114 1444 1078 1480Z"  />
<glyph unicode="&#xC5;" horiz-adv-x="1359" d="M1079 0L1020 293H465L301 0H51L793 1319H1032L1309 0H1079ZM874 1024L580 500H981L874 1024ZM954 1380Q876 1380 822 1430T768 1567Q768 1655 822 1705T954 1755Q1035 1755 1091 1705T1147 1567Q1147 1480 1091 1430T954 1380ZM954 1470Q999 1470 1027 1498T1055 1567Q1055 1610 1027 1637T954 1665Q913 1665 886 1638T858 1567Q858 1527 885 1499T954 1470Z"  />
<glyph unicode="&#xC6;" horiz-adv-x="1894" d="M47 0L788 1319H2021L1982 1102H1294L1241 786H1845L1806 569H1202L1139 217H1827L1788 0H868L934 375H508L297 0H47ZM913 1102L623 582H971L1063 1102H913Z"  />
<glyph unicode="&#xC7;" horiz-adv-x="1157" d="M451 469Q451 331 520 263T737 195Q832 195 926 220T1077 281L1073 63Q937 -11 752 -20L731 -78Q796 -75 837 -116T879 -215Q879 -314 806 -360T627 -406Q561 -406 500 -381L539 -266Q570 -283 621 -283Q667 -283 699 -267T731 -215Q731 -188 705 -175T641 -162Q609 -162 569 -170L633 -18Q543 -9 471 23T352 101T272 208T227 335T213 473Q213 632 270 826T432 1143Q518 1244 638 1290T924 1337Q1047 1337 1123 1314T1276 1247L1204 1030Q1150 1068 1067 1094T891 1120Q698 1120 596 991Q526 900 489 743T451 469Z"  />
<glyph unicode="&#xC8;" horiz-adv-x="1181" d="M489 569L426 217H1114L1075 0H156L389 1319H1309L1270 1102H584L528 786H1133L1094 569H489ZM821 1427L657 1706H868L977 1427H821Z"  />
<glyph unicode="&#xC9;" horiz-adv-x="1181" d="M489 569L426 217H1114L1075 0H156L389 1319H1309L1270 1102H584L528 786H1133L1094 569H489ZM991 1706H1210L967 1427H780L991 1706Z"  />
<glyph unicode="&#xCA;" horiz-adv-x="1181" d="M489 569L426 217H1114L1075 0H156L389 1319H1309L1270 1102H584L528 786H1133L1094 569H489ZM600 1427L834 1706H1026L1163 1427H1008L928 1606H924L780 1427H600Z"  />
<glyph unicode="&#xCB;" horiz-adv-x="1181" d="M489 569L426 217H1114L1075 0H156L389 1319H1309L1270 1102H584L528 786H1133L1094 569H489ZM573 1516T573 1567T608 1654T694 1690Q745 1690 782 1654T819 1567T782 1480T694 1444Q644 1444 609 1480ZM995 1516T995 1567T1031 1654T1118 1690Q1168 1690 1203 1654T1239 1567Q1239 1517 1203 1481T1118 1444Q1067 1444 1031 1480Z"  />
<glyph unicode="&#xCC;" horiz-adv-x="573" d="M170 0L403 1319H637L403 0H170ZM471 1427L307 1706H518L627 1427H471Z"  />
<glyph unicode="&#xCD;" horiz-adv-x="573" d="M170 0L403 1319H637L403 0H170ZM657 1706H879L633 1427H449L657 1706Z"  />
<glyph unicode="&#xCE;" horiz-adv-x="573" d="M170 0L403 1319H637L403 0H170ZM256 1427L489 1706H682L819 1427H664L584 1606H580L436 1427H256Z"  />
<glyph unicode="&#xCF;" horiz-adv-x="573" d="M170 0L403 1319H637L403 0H170ZM231 1516T231 1567T266 1654T352 1690Q404 1690 440 1654T477 1567T441 1480T352 1444Q302 1444 267 1480ZM653 1516T653 1567T689 1654T776 1690Q826 1690 862 1654T899 1567T863 1480T776 1444Q725 1444 689 1480Z"  />
<glyph unicode="&#xD0;" horiz-adv-x="1320" d="M143 578L174 741H328L432 1319H836Q1092 1319 1217 1194T1343 838Q1343 701 1302 540T1192 264Q1103 117 965 59T612 0H199L301 578H143ZM641 217Q757 217 833 245T967 348Q1028 424 1066 558T1104 825Q1104 966 1038 1034T797 1102H627L561 741H745L717 578H532L469 217H641Z"  />
<glyph unicode="&#xD1;" horiz-adv-x="1312" d="M156 0L389 1319H604L999 428L1157 1319H1391L1157 0H950L545 897L387 0H156ZM559 1440Q600 1702 793 1702Q846 1702 890 1681T960 1634T1015 1587T1073 1565Q1144 1565 1163 1692H1305Q1263 1432 1069 1432Q1026 1432 989 1446T926 1480T878 1519T832 1553T786 1567Q746 1567 727 1532T698 1440H559Z"  />
<glyph unicode="&#xD2;" horiz-adv-x="1327" d="M1116 866Q1116 995 1062 1056T864 1118Q750 1118 677 1077T553 940Q501 848 470 701T438 442Q438 318 494 256T694 193Q812 193 887 239T1014 389Q1056 473 1086 613T1116 866ZM676 -25Q546 -25 454 8T308 105T231 252T207 446Q207 605 252 782T375 1079Q461 1215 586 1275T883 1335Q1014 1335 1106 1302T1251 1205T1327 1061T1350 874Q1350 729 1312 565T1217 293Q1134 130 1004 53T676 -25ZM858 1427L692 1706H905L1012 1427H858Z"  />
<glyph unicode="&#xD3;" horiz-adv-x="1327" d="M1116 866Q1116 995 1062 1056T864 1118Q750 1118 677 1077T553 940Q501 848 470 701T438 442Q438 318 494 256T694 193Q812 193 887 239T1014 389Q1056 473 1086 613T1116 866ZM676 -25Q546 -25 454 8T308 105T231 252T207 446Q207 605 252 782T375 1079Q461 1215 586 1275T883 1335Q1014 1335 1106 1302T1251 1205T1327 1061T1350 874Q1350 729 1312 565T1217 293Q1134 130 1004 53T676 -25ZM989 1706H1208L963 1427H778L989 1706Z"  />
<glyph unicode="&#xD4;" horiz-adv-x="1327" d="M1116 866Q1116 995 1062 1056T864 1118Q750 1118 677 1077T553 940Q501 848 470 701T438 442Q438 318 494 256T694 193Q812 193 887 239T1014 389Q1056 473 1086 613T1116 866ZM676 -25Q546 -25 454 8T308 105T231 252T207 446Q207 605 252 782T375 1079Q461 1215 586 1275T883 1335Q1014 1335 1106 1302T1251 1205T1327 1061T1350 874Q1350 729 1312 565T1217 293Q1134 130 1004 53T676 -25ZM631 1427L864 1706H1057L1196 1427H1038L958 1606H954L811 1427H631Z"  />
<glyph unicode="&#xD5;" horiz-adv-x="1327" d="M1116 866Q1116 995 1062 1056T864 1118Q750 1118 677 1077T553 940Q501 848 470 701T438 442Q438 318 494 256T694 193Q812 193 887 239T1014 389Q1056 473 1086 613T1116 866ZM676 -25Q546 -25 454 8T308 105T231 252T207 446Q207 605 252 782T375 1079Q461 1215 586 1275T883 1335Q1014 1335 1106 1302T1251 1205T1327 1061T1350 874Q1350 729 1312 565T1217 293Q1134 130 1004 53T676 -25ZM563 1440Q607 1702 797 1702Q850 1702 895 1681T965 1634T1021 1587T1079 1565Q1118 1565 1138 1599T1169 1692H1309Q1269 1432 1073 1432Q1030 1432 993 1446T931 1480T884 1519T839 1553T793 1567Q765 1567 746 1546T719 1501T705 1440H563Z"  />
<glyph unicode="&#xD6;" horiz-adv-x="1327" d="M1116 866Q1116 995 1062 1056T864 1118Q750 1118 677 1077T553 940Q501 848 470 701T438 442Q438 318 494 256T694 193Q812 193 887 239T1014 389Q1056 473 1086 613T1116 866ZM676 -25Q546 -25 454 8T308 105T231 252T207 446Q207 605 252 782T375 1079Q461 1215 586 1275T883 1335Q1014 1335 1106 1302T1251 1205T1327 1061T1350 874Q1350 729 1312 565T1217 293Q1134 130 1004 53T676 -25ZM600 1516T600 1567T635 1654T721 1690Q772 1690 809 1654T846 1567T809 1480T721 1444Q671 1444 636 1480ZM1020 1516T1020 1567T1056 1654T1145 1690Q1195 1690 1230 1654T1266 1567Q1266 1517 1230 1481T1145 1444Q1093 1444 1057 1480Z"  />
<glyph unicode="&#xD7;" horiz-adv-x="1153" d="M829 659L1153 334L1018 199L692 522L369 199L233 334L557 659L233 985L369 1118L692 795L1018 1118L1153 985L829 659Z"  />
<glyph unicode="&#xD8;" horiz-adv-x="1327" d="M676 -25Q440 -25 328 84L215 -27L100 82L240 223Q207 313 207 446Q207 605 252 782T375 1079Q461 1215 586 1275T883 1335Q1116 1335 1229 1225L1346 1343L1460 1235L1317 1090Q1350 1000 1350 874Q1350 750 1321 606T1247 356Q1164 160 1029 68T676 -25ZM553 940Q512 869 484 760T446 547Q438 484 444 424L1061 1057Q1003 1118 864 1118Q750 1118 677 1077T553 940ZM1014 389Q1045 453 1072 556T1108 754Q1114 802 1110 883L496 254Q554 193 694 193Q812 193 887 239T1014 389Z"  />
<glyph unicode="&#xD9;" horiz-adv-x="1312" d="M238 575L369 1319H600L463 539Q432 353 491 274T692 195Q832 195 920 274T1040 539L1178 1319H1411L1274 539Q1220 236 1072 107T653 -23Q416 -23 302 130T238 575ZM846 1427L680 1706H891L999 1427H846Z"  />
<glyph unicode="&#xDA;" horiz-adv-x="1312" d="M238 575L369 1319H600L463 539Q432 353 491 274T692 195Q832 195 920 274T1040 539L1178 1319H1411L1274 539Q1220 236 1072 107T653 -23Q416 -23 302 130T238 575ZM1026 1706H1245L1001 1427H815L1026 1706Z"  />
<glyph unicode="&#xDB;" horiz-adv-x="1312" d="M238 575L369 1319H600L463 539Q432 353 491 274T692 195Q832 195 920 274T1040 539L1178 1319H1411L1274 539Q1220 236 1072 107T653 -23Q416 -23 302 130T238 575ZM627 1427L860 1706H1053L1190 1427H1032L954 1606H950L805 1427H627Z"  />
<glyph unicode="&#xDC;" horiz-adv-x="1312" d="M238 575L369 1319H600L463 539Q432 353 491 274T692 195Q832 195 920 274T1040 539L1178 1319H1411L1274 539Q1220 236 1072 107T653 -23Q416 -23 302 130T238 575ZM600 1516T600 1567T635 1654T721 1690Q773 1690 809 1654T846 1567T810 1480T721 1444Q671 1444 636 1480ZM1022 1516T1022 1567T1058 1654T1145 1690Q1195 1690 1230 1654T1266 1567Q1266 1517 1230 1481T1145 1444Q1094 1444 1058 1480Z"  />
<glyph unicode="&#xDD;" horiz-adv-x="1327" d="M1522 1319L872 512L782 0H547L637 508L270 1319H520L774 721L1245 1319H1522ZM1036 1706H1257L1012 1427H827L1036 1706Z"  />
<glyph unicode="&#xDE;" horiz-adv-x="1239" d="M156 0L389 1319H621L578 1077H844Q1064 1077 1171 979T1278 719Q1278 642 1261 575T1202 446T1098 340T937 270T715 244H432L387 0H156ZM807 860H541L469 461H737Q813 461 869 476T958 513T1011 570T1037 636T1044 707Q1044 782 989 821T807 860Z"  />
<glyph unicode="&#xDF;" horiz-adv-x="1167" d="M1116 313Q1116 208 1048 131T874 15T639 -23Q530 -23 459 12L500 223Q569 188 674 188T831 223T883 317Q883 353 854 379T784 425T700 468T629 533T600 635Q600 701 633 750T712 830T805 885T885 944T918 1020Q918 1066 879 1097T768 1128Q666 1128 602 1059T510 838L362 0H131L276 829Q301 973 348 1074T462 1232T605 1312T776 1337Q962 1337 1055 1253T1149 1030Q1149 959 1125 904T1064 819T985 764T906 725T846 692T821 651Q821 631 843 613T897 579T968 540T1039 489T1094 415T1116 313Z"  />
<glyph unicode="&#xE0;" horiz-adv-x="1026" d="M1026 666L920 57Q723 -23 506 -23Q323 -23 228 46T133 270Q133 445 255 529T602 614H795L807 690Q820 765 776 796T618 827Q458 827 334 780V985Q503 1032 653 1032Q745 1032 819 1011T946 946T1020 831T1026 666ZM721 201L764 442H573Q365 442 365 285Q365 217 400 194T526 170Q639 170 721 201ZM709 1143L543 1421H756L862 1143H709Z"  />
<glyph unicode="&#xE1;" horiz-adv-x="1026" d="M1026 666L920 57Q723 -23 506 -23Q323 -23 228 46T133 270Q133 445 255 529T602 614H795L807 690Q820 765 776 796T618 827Q458 827 334 780V985Q503 1032 653 1032Q745 1032 819 1011T946 946T1020 831T1026 666ZM721 201L764 442H573Q365 442 365 285Q365 217 400 194T526 170Q639 170 721 201ZM823 1421H1042L799 1143H612L823 1421Z"  />
<glyph unicode="&#xE2;" horiz-adv-x="1026" d="M1026 666L920 57Q723 -23 506 -23Q323 -23 228 46T133 270Q133 445 255 529T602 614H795L807 690Q820 765 776 796T618 827Q458 827 334 780V985Q503 1032 653 1032Q745 1032 819 1011T946 946T1020 831T1026 666ZM721 201L764 442H573Q365 442 365 285Q365 217 400 194T526 170Q639 170 721 201ZM432 1143L668 1421H858L997 1143H840L760 1321H756L612 1143H432Z"  />
<glyph unicode="&#xE3;" horiz-adv-x="1026" d="M1026 666L920 57Q723 -23 506 -23Q323 -23 228 46T133 270Q133 445 255 529T602 614H795L807 690Q820 765 776 796T618 827Q458 827 334 780V985Q503 1032 653 1032Q745 1032 819 1011T946 946T1020 831T1026 666ZM721 201L764 442H573Q365 442 365 285Q365 217 400 194T526 170Q639 170 721 201ZM360 1155Q401 1415 594 1415Q637 1415 674 1401T736 1368T783 1328T828 1294T874 1280Q946 1280 965 1407H1106Q1064 1147 870 1147Q827 1147 790 1161T727 1194T679 1234T634 1268T588 1282Q548 1282 529 1247T500 1155H360Z"  />
<glyph unicode="&#xE4;" horiz-adv-x="1026" d="M1026 666L920 57Q723 -23 506 -23Q323 -23 228 46T133 270Q133 445 255 529T602 614H795L807 690Q820 765 776 796T618 827Q458 827 334 780V985Q503 1032 653 1032Q745 1032 819 1011T946 946T1020 831T1026 666ZM721 201L764 442H573Q365 442 365 285Q365 217 400 194T526 170Q639 170 721 201ZM416 1282Q416 1333 452 1369T539 1405T626 1369T662 1282Q662 1232 626 1197T539 1161T452 1196T416 1282ZM838 1282Q838 1333 874 1369T961 1405T1047 1369T1083 1282Q1083 1233 1047 1197T961 1161Q910 1161 874 1196T838 1282Z"  />
<glyph unicode="&#xE5;" horiz-adv-x="1026" d="M1026 666L920 57Q723 -23 506 -23Q323 -23 228 46T133 270Q133 445 255 529T602 614H795L807 690Q820 765 776 796T618 827Q458 827 334 780V985Q503 1032 653 1032Q745 1032 819 1011T946 946T1020 831T1026 666ZM721 201L764 442H573Q365 442 365 285Q365 217 400 194T526 170Q639 170 721 201ZM735 1094Q657 1094 602 1144T547 1280Q547 1369 602 1419T735 1470Q816 1470 871 1420T926 1280Q926 1194 871 1144T735 1094ZM735 1186Q779 1186 807 1213T836 1280Q836 1324 808 1352T735 1380Q692 1380 666 1352T639 1280Q639 1240 666 1213T735 1186Z"  />
<glyph unicode="&#xE6;" horiz-adv-x="1673" d="M1663 684Q1663 549 1606 422H977L975 412Q953 308 1015 249T1214 190Q1288 190 1379 209T1528 256V41Q1369 -23 1174 -23Q1050 -23 960 17T838 141Q784 53 701 15T494 -23Q316 -23 225 49T133 264Q133 614 606 614H795L807 690Q820 765 776 796T618 827Q462 827 334 780V985Q503 1032 666 1032Q763 1032 845 1002T967 909Q1012 953 1048 976T1145 1016T1296 1032Q1459 1032 1561 941T1663 684ZM758 412L764 442H575Q462 442 414 401T365 276Q365 213 403 192T518 170Q580 170 623 187T693 240T733 314T758 412ZM1012 616L1010 606H1444L1446 621Q1469 724 1420 780T1264 836Q1051 836 1012 616Z"  />
<glyph unicode="&#xE7;" horiz-adv-x="944" d="M174 395Q174 506 215 641T336 868Q480 1034 748 1034Q919 1034 1030 983L956 770Q860 819 739 819Q635 819 574 785T473 684Q441 632 422 558T403 412Q403 298 461 244T645 190Q755 190 881 238V25Q746 -15 643 -20L621 -78Q686 -75 728 -116T770 -215Q770 -314 697 -360T516 -406Q449 -406 391 -381L430 -266Q457 -283 512 -283Q558 -283 589 -267T621 -215Q621 -188 595 -175T532 -162Q497 -162 461 -170L524 -16Q365 8 270 116T174 395Z"  />
<glyph unicode="&#xE8;" horiz-adv-x="1073" d="M1075 684Q1075 565 1016 422H379Q375 406 375 379Q367 292 429 241T623 190Q698 190 790 209T940 256Q940 220 939 149T938 41Q780 -23 584 -23Q491 -23 417 -2T295 55T214 143T168 251T154 373Q154 473 170 563T227 741T327 892T483 993T698 1032Q870 1032 972 941T1075 684ZM414 616Q414 614 413 611T412 606H854Q854 609 855 614T856 623Q879 724 828 780T670 836Q456 836 414 616ZM698 1143L535 1421H745L854 1143H698Z"  />
<glyph unicode="&#xE9;" horiz-adv-x="1073" d="M1075 684Q1075 565 1016 422H379Q375 406 375 379Q367 292 429 241T623 190Q698 190 790 209T940 256Q940 220 939 149T938 41Q780 -23 584 -23Q491 -23 417 -2T295 55T214 143T168 251T154 373Q154 473 170 563T227 741T327 892T483 993T698 1032Q870 1032 972 941T1075 684ZM414 616Q414 614 413 611T412 606H854Q854 609 855 614T856 623Q879 724 828 780T670 836Q456 836 414 616ZM827 1421H1047L803 1143H616L827 1421Z"  />
<glyph unicode="&#xEA;" horiz-adv-x="1073" d="M1075 684Q1075 565 1016 422H379Q375 406 375 379Q367 292 429 241T623 190Q698 190 790 209T940 256Q940 220 939 149T938 41Q780 -23 584 -23Q491 -23 417 -2T295 55T214 143T168 251T154 373Q154 473 170 563T227 741T327 892T483 993T698 1032Q870 1032 972 941T1075 684ZM414 616Q414 614 413 611T412 606H854Q854 609 855 614T856 623Q879 724 828 780T670 836Q456 836 414 616ZM444 1143L678 1421H870L1008 1143H852L772 1321H768L625 1143H444Z"  />
<glyph unicode="&#xEB;" horiz-adv-x="1073" d="M1075 684Q1075 565 1016 422H379Q375 406 375 379Q367 292 429 241T623 190Q698 190 790 209T940 256Q940 220 939 149T938 41Q780 -23 584 -23Q491 -23 417 -2T295 55T214 143T168 251T154 373Q154 473 170 563T227 741T327 892T483 993T698 1032Q870 1032 972 941T1075 684ZM414 616Q414 614 413 611T412 606H854Q854 609 855 614T856 623Q879 724 828 780T670 836Q456 836 414 616ZM414 1282Q414 1333 450 1369T537 1405T623 1369T659 1282Q659 1232 624 1197T537 1161T450 1196T414 1282ZM836 1282Q836 1333 871 1369T958 1405Q1008 1405 1044 1369T1081 1282Q1081 1233 1045 1197T958 1161Q907 1161 872 1196T836 1282Z"  />
<glyph unicode="&#xEC;" horiz-adv-x="503" d="M139 0L317 1012H543L365 0H139ZM397 1143L233 1421H444L553 1143H397Z"  />
<glyph unicode="&#xED;" horiz-adv-x="503" d="M139 0L317 1012H543L365 0H139ZM563 1421H784L539 1143H354L563 1421Z"  />
<glyph unicode="&#xEE;" horiz-adv-x="503" d="M139 0L317 1012H543L365 0H139ZM170 1143L406 1421H596L735 1143H578L498 1321H494L350 1143H170Z"  />
<glyph unicode="&#xEF;" horiz-adv-x="503" d="M139 0L317 1012H543L365 0H139ZM145 1282Q145 1333 180 1369T266 1405Q317 1405 353 1369T389 1282Q389 1232 353 1197T266 1161Q216 1161 181 1196T145 1282ZM565 1282Q565 1333 601 1369T688 1405T775 1369T811 1282Q811 1233 775 1197T688 1161Q637 1161 601 1196T565 1282Z"  />
<glyph unicode="&#xF0;" horiz-adv-x="1155" d="M510 1051L713 1223Q612 1269 451 1284L541 1477Q744 1458 885 1374L1051 1511L1143 1401L1001 1282Q1082 1193 1121 1086T1161 834Q1161 702 1132 554T1053 297Q981 129 865 53T563 -23Q452 -23 362 19T215 148T158 354Q158 580 297 701T678 823Q818 823 928 772Q941 900 919 986T834 1135L602 938L510 1051ZM651 621Q533 621 460 552T387 360Q387 272 445 231T596 190Q665 190 716 217T801 298T855 415T891 565Q789 621 651 621Z"  />
<glyph unicode="&#xF1;" horiz-adv-x="1132" d="M137 0L307 967Q388 998 519 1015T752 1032Q1198 1032 1124 606L1016 0H793L903 627Q922 736 876 777T717 819Q600 819 502 795L362 0H137ZM412 1155Q456 1415 645 1415Q698 1415 743 1394T814 1348T870 1301T928 1280Q999 1280 1018 1407H1159Q1117 1147 924 1147Q871 1147 826 1168T755 1214T699 1261T641 1282Q601 1282 582 1247T553 1155H412Z"  />
<glyph unicode="&#xF2;" horiz-adv-x="1132" d="M911 629Q911 725 868 772T711 819Q615 819 559 785T465 676Q436 622 418 543T399 389Q399 287 444 239T604 190Q702 190 760 229T854 356Q878 409 894 485T911 629ZM582 -23Q471 -23 390 6T262 88T193 211T170 367Q170 488 205 611T293 813Q427 1032 729 1032Q943 1032 1041 931T1139 655Q1139 556 1112 443T1044 248Q978 112 867 45T582 -23ZM713 1143L547 1421H758L866 1143H713Z"  />
<glyph unicode="&#xF3;" horiz-adv-x="1132" d="M911 629Q911 725 868 772T711 819Q615 819 559 785T465 676Q436 622 418 543T399 389Q399 287 444 239T604 190Q702 190 760 229T854 356Q878 409 894 485T911 629ZM582 -23Q471 -23 390 6T262 88T193 211T170 367Q170 488 205 611T293 813Q427 1032 729 1032Q943 1032 1041 931T1139 655Q1139 556 1112 443T1044 248Q978 112 867 45T582 -23ZM887 1421H1106L860 1143H676L887 1421Z"  />
<glyph unicode="&#xF4;" horiz-adv-x="1132" d="M911 629Q911 725 868 772T711 819Q615 819 559 785T465 676Q436 622 418 543T399 389Q399 287 444 239T604 190Q702 190 760 229T854 356Q878 409 894 485T911 629ZM582 -23Q471 -23 390 6T262 88T193 211T170 367Q170 488 205 611T293 813Q427 1032 729 1032Q943 1032 1041 931T1139 655Q1139 556 1112 443T1044 248Q978 112 867 45T582 -23ZM487 1143L721 1421H913L1053 1143H895L815 1321H811L668 1143H487Z"  />
<glyph unicode="&#xF5;" horiz-adv-x="1132" d="M911 629Q911 725 868 772T711 819Q615 819 559 785T465 676Q436 622 418 543T399 389Q399 287 444 239T604 190Q702 190 760 229T854 356Q878 409 894 485T911 629ZM582 -23Q471 -23 390 6T262 88T193 211T170 367Q170 488 205 611T293 813Q427 1032 729 1032Q943 1032 1041 931T1139 655Q1139 556 1112 443T1044 248Q978 112 867 45T582 -23ZM420 1155Q464 1415 653 1415Q706 1415 751 1394T822 1348T878 1301T936 1280Q1007 1280 1026 1407H1167Q1125 1147 932 1147Q879 1147 834 1168T763 1214T707 1261T649 1282Q609 1282 590 1247T561 1155H420Z"  />
<glyph unicode="&#xF6;" horiz-adv-x="1132" d="M911 629Q911 725 868 772T711 819Q615 819 559 785T465 676Q436 622 418 543T399 389Q399 287 444 239T604 190Q702 190 760 229T854 356Q878 409 894 485T911 629ZM582 -23Q471 -23 390 6T262 88T193 211T170 367Q170 488 205 611T293 813Q427 1032 729 1032Q943 1032 1041 931T1139 655Q1139 556 1112 443T1044 248Q978 112 867 45T582 -23ZM461 1282Q461 1333 497 1369T584 1405T671 1369T707 1282Q707 1232 671 1197T584 1161T497 1196T461 1282ZM883 1282Q883 1333 919 1369T1006 1405Q1056 1405 1092 1369T1128 1282Q1128 1233 1092 1197T1006 1161Q955 1161 919 1196T883 1282Z"  />
<glyph unicode="&#xF7;" horiz-adv-x="1263" d="M557 220T557 279T598 379T698 420Q757 420 798 379T840 279Q840 222 798 180T698 137T599 178ZM557 1040Q557 1099 598 1140T698 1182T798 1140T840 1040Q840 982 799 941T698 899T598 939T557 1040ZM1171 754V563H227V754H1171Z"  />
<glyph unicode="&#xF8;" horiz-adv-x="1132" d="M582 -23Q409 -23 305 51L229 -29L127 70L215 156Q170 242 170 367Q170 478 202 594T281 795Q348 913 455 972T729 1032Q902 1032 1006 961L1085 1040L1186 942L1096 852Q1139 776 1139 655Q1139 560 1115 451T1051 258Q986 118 873 48T582 -23ZM399 389Q399 367 406 346L838 793Q793 819 711 819Q626 819 574 795T485 715Q450 666 425 572T399 389ZM854 356Q895 440 905 561Q911 616 903 659L475 217Q527 190 604 190Q702 190 760 229T854 356Z"  />
<glyph unicode="&#xF9;" horiz-adv-x="1132" d="M1174 1012L1008 61Q819 -23 557 -23Q337 -23 243 83T186 399L297 1012H518L408 385Q388 274 436 232T592 190T809 227L948 1012H1174ZM696 1143L532 1421H743L852 1143H696Z"  />
<glyph unicode="&#xFA;" horiz-adv-x="1132" d="M1174 1012L1008 61Q819 -23 557 -23Q337 -23 243 83T186 399L297 1012H518L408 385Q388 274 436 232T592 190T809 227L948 1012H1174ZM879 1421H1098L854 1143H668L879 1421Z"  />
<glyph unicode="&#xFB;" horiz-adv-x="1132" d="M1174 1012L1008 61Q819 -23 557 -23Q337 -23 243 83T186 399L297 1012H518L408 385Q388 274 436 232T592 190T809 227L948 1012H1174ZM473 1143L709 1421H899L1038 1143H881L801 1321H797L653 1143H473Z"  />
<glyph unicode="&#xFC;" horiz-adv-x="1132" d="M1174 1012L1008 61Q819 -23 557 -23Q337 -23 243 83T186 399L297 1012H518L408 385Q388 274 436 232T592 190T809 227L948 1012H1174ZM449 1282Q449 1333 484 1369T571 1405T658 1369T694 1282Q694 1232 658 1197T571 1161T485 1196T449 1282ZM870 1282Q870 1333 906 1369T993 1405T1080 1369T1116 1282Q1116 1233 1080 1197T993 1161Q942 1161 906 1196T870 1282Z"  />
<glyph unicode="&#xFD;" horiz-adv-x="1132" d="M1176 1012L987 -49Q966 -169 922 -250T807 -376T653 -440T453 -459Q240 -459 86 -399L160 -186Q289 -246 479 -246Q612 -246 677 -201T762 -49L772 10Q685 -23 547 -23Q340 -23 246 83T190 410L297 1012H520L410 385Q391 274 437 232T604 190Q711 190 811 233L948 1012H1176ZM879 1421H1098L854 1143H668L879 1421Z"  />
<glyph unicode="&#xFE;" horiz-adv-x="1114" d="M61 -434L389 1421H614L541 1004Q627 1032 725 1032Q930 1032 1026 924T1122 633Q1122 335 966 156T537 -23Q441 -23 365 6L287 -434H61ZM891 606Q891 715 840 767T666 819Q565 819 504 788L401 223Q465 190 563 190Q727 190 809 288T891 606Z"  />
<glyph unicode="&#xFF;" horiz-adv-x="1132" d="M1176 1012L987 -49Q966 -169 922 -250T807 -376T653 -440T453 -459Q240 -459 86 -399L160 -186Q289 -246 479 -246Q612 -246 677 -201T762 -49L772 10Q685 -23 547 -23Q340 -23 246 83T190 410L297 1012H520L410 385Q391 274 437 232T604 190Q711 190 811 233L948 1012H1176ZM455 1282Q455 1333 491 1369T578 1405T664 1369T700 1282Q700 1232 665 1197T578 1161T491 1196T455 1282ZM877 1282Q877 1333 912 1369T999 1405T1086 1369T1122 1282Q1122 1233 1086 1197T999 1161Q948 1161 913 1196T877 1282Z"  />
<glyph unicode="&#x152;" horiz-adv-x="1996" d="M1305 569L1241 217H1929L1890 0H979L989 80Q943 29 859 2T674 -25Q544 -25 452 8T306 105T229 252T205 446Q205 605 250 782T373 1079Q459 1215 584 1275T881 1335Q1103 1335 1194 1212L1212 1319H2124L2085 1102H1399L1343 786H1948L1911 569H1305ZM1114 866Q1114 995 1060 1056T862 1118Q748 1118 675 1077T551 940Q499 848 468 701T436 442Q436 318 492 256T692 193Q810 193 885 239T1012 389Q1054 473 1084 613T1114 866Z"  />
<glyph unicode="&#x153;" horiz-adv-x="1794" d="M1800 682Q1800 565 1741 422H1108Q1101 394 1104 375Q1098 291 1158 241T1346 190Q1421 190 1514 209T1665 256Q1665 220 1664 149T1663 41Q1508 -23 1305 -23Q1033 -23 963 147Q850 -23 571 -23Q367 -23 269 79T170 371Q170 501 216 644T334 874Q405 957 502 994T735 1032Q863 1032 948 989T1059 872Q1164 1032 1421 1032Q1595 1032 1697 941T1800 682ZM911 631Q911 726 866 772T713 819Q632 819 578 796T483 713Q446 657 423 565T399 381Q399 288 445 239T602 190Q694 190 753 224T848 340Q874 397 892 476T911 631ZM1139 616Q1139 614 1138 611T1137 606H1579Q1579 611 1583 623Q1604 724 1553 780T1397 836Q1181 836 1139 616Z"  />
<glyph unicode="&#x178;" horiz-adv-x="1327" d="M1522 1319L872 512L782 0H547L637 508L270 1319H520L774 721L1245 1319H1522ZM608 1499T608 1550T643 1637T729 1673Q780 1673 816 1637T852 1550T816 1463T729 1427Q679 1427 644 1463ZM1028 1499T1028 1550T1064 1637T1151 1673T1238 1637T1274 1550T1238 1463T1151 1427Q1100 1427 1064 1463Z"  />
<glyph unicode="&#x2C6;" horiz-adv-x="868" d="M422 1536L657 1815H848L987 1536H829L750 1714H745L602 1536H422Z"  />
<glyph unicode="&#x2DC;" horiz-adv-x="1032" d="M440 1554Q481 1815 674 1815Q717 1815 754 1801T816 1767T863 1726T908 1691T954 1677Q1025 1677 1044 1804H1186Q1143 1544 950 1544Q897 1544 852 1565T782 1612T726 1659T668 1681Q628 1681 609 1646T580 1554H440Z"  />
<glyph unicode="&#x2000;" horiz-adv-x="907" />
<glyph unicode="&#x2001;" horiz-adv-x="1815" />
<glyph unicode="&#x2002;" horiz-adv-x="907" />
<glyph unicode="&#x2003;" horiz-adv-x="1815" />
<glyph unicode="&#x2004;" horiz-adv-x="605" />
<glyph unicode="&#x2005;" horiz-adv-x="453" />
<glyph unicode="&#x2006;" horiz-adv-x="302" />
<glyph unicode="&#x2007;" horiz-adv-x="302" />
<glyph unicode="&#x2008;" horiz-adv-x="226" />
<glyph unicode="&#x2009;" horiz-adv-x="363" />
<glyph unicode="&#x200A;" horiz-adv-x="100" />
<glyph unicode="&#x2010;" horiz-adv-x="849" d="M922 754L889 563H162L195 754H922Z"  />
<glyph unicode="&#x2011;" horiz-adv-x="849" d="M922 754L889 563H162L195 754H922Z"  />
<glyph unicode="&#x2012;" horiz-adv-x="849" d="M922 754L889 563H162L195 754H922Z"  />
<glyph unicode="&#x2013;" horiz-adv-x="980" d="M100 563L133 754H1114L1081 563H100Z"  />
<glyph unicode="&#x2014;" horiz-adv-x="1961" d="M100 563L133 754H2095L2062 563H100Z"  />
<glyph unicode="&#x2018;" horiz-adv-x="499" d="M590 1106Q590 1045 548 1005T449 965Q383 965 344 1012T305 1137Q305 1179 320 1232T365 1346T453 1461T586 1542L647 1466Q589 1426 546 1367T485 1241Q529 1230 559 1194T590 1106Z"  />
<glyph unicode="&#x2019;" horiz-adv-x="499" d="M356 1419Q356 1481 398 1521T498 1561Q562 1561 600 1514T639 1391Q639 1349 625 1295T580 1180T492 1066T358 985L299 1059Q431 1156 459 1286Q415 1297 386 1333T356 1419Z"  />
<glyph unicode="&#x201A;" horiz-adv-x="468" d="M98 117Q98 179 140 218T240 258Q305 258 344 211T383 88Q383 45 369 -9T324 -123T235 -237T102 -319L41 -244Q99 -204 142 -145T203 -18Q159 -7 129 29T98 117Z"  />
<glyph unicode="&#x201C;" horiz-adv-x="899" d="M590 1106Q590 1045 548 1005T449 965Q383 965 344 1012T305 1137Q305 1179 320 1232T365 1346T453 1461T586 1542L647 1466Q589 1426 546 1367T485 1241Q529 1230 559 1194T590 1106ZM989 1106Q989 1045 947 1005T848 965Q783 965 744 1012T705 1137Q705 1179 719 1232T764 1346T852 1461T985 1542L1047 1466Q990 1426 946 1367T885 1241Q929 1230 959 1194T989 1106Z"  />
<glyph unicode="&#x201D;" horiz-adv-x="899" d="M356 1419Q356 1481 398 1521T498 1561Q562 1561 600 1514T639 1391Q639 1349 625 1295T580 1180T492 1066T358 985L299 1059Q431 1156 459 1286Q415 1297 386 1333T356 1419ZM756 1419Q756 1481 798 1521T897 1561Q961 1561 1000 1514T1040 1391Q1040 1358 1032 1318T1003 1227T951 1132T871 1047T760 985L698 1059Q830 1156 858 1286Q816 1297 786 1333T756 1419Z"  />
<glyph unicode="&#x201E;" horiz-adv-x="866" d="M98 117Q98 179 140 218T240 258Q305 258 344 211T383 88Q383 45 369 -9T324 -123T235 -237T102 -319L41 -244Q99 -204 142 -145T203 -18Q159 -7 129 29T98 117ZM492 117Q492 179 534 218T633 258Q697 258 736 211T776 88Q776 45 762 -9T717 -123T628 -238T494 -319L434 -244Q492 -203 536 -144T594 -18Q551 -7 522 29T492 117Z"  />
<glyph unicode="&#x2022;" horiz-adv-x="655" d="M682 643Q682 547 615 474T442 401Q336 401 269 473T201 643Q201 738 268 810T442 883Q547 883 614 811T682 643Z"  />
<glyph unicode="&#x2026;" horiz-adv-x="1525" d="M135 60T135 119T176 219T276 260Q335 260 376 219T418 119Q418 60 376 19T276 -23T177 18ZM659 119Q659 177 700 218T801 260T901 219T942 119T901 19T801 -23Q742 -23 701 18T659 119ZM1182 60T1182 119T1223 219T1323 260T1423 219T1464 119T1423 19T1323 -23T1224 18Z"  />
<glyph unicode="&#x202F;" horiz-adv-x="363" />
<glyph unicode="&#x2039;" horiz-adv-x="700" d="M614 88H422L156 512L537 936H766L367 510L614 88Z"  />
<glyph unicode="&#x203A;" horiz-adv-x="700" d="M264 936H459L725 512L342 88H115L514 514L264 936Z"  />
<glyph unicode="&#x205F;" horiz-adv-x="453" />
<glyph unicode="&#x20AC;" horiz-adv-x="1224" d="M150 594H317Q319 614 338 721H174L201 881H385Q472 1117 618 1227T999 1337Q1116 1337 1189 1320T1331 1268L1260 1051Q1209 1080 1131 1100T967 1120Q728 1120 633 881H1176L1110 721H580Q561 636 557 594H1059L991 434H551Q556 393 571 350Q619 195 813 195Q903 195 991 213T1135 260Q1134 224 1132 152T1128 43Q982 -23 784 -23Q677 -23 593 6T454 88T366 207T319 354Q311 412 311 434H123L150 594Z"  />
<glyph unicode="&#x2122;" horiz-adv-x="1923" d="M2028 1319V510H1849V1169L1663 510H1503L1311 1169V510H1133V1319H1434L1585 752L1735 1319H2028ZM958 1319V1157H713V510H535V1157H289V1319H958Z"  />
<glyph unicode="&#xE000;" horiz-adv-x="1013" d="M0 1014H1014V0H0V1014Z"  />
<glyph unicode="&#xFB01;" horiz-adv-x="1239" d="M135 0L328 1096Q345 1195 377 1266T447 1378T540 1444T645 1475T764 1483Q903 1483 1004 1450L934 1239Q853 1270 760 1270Q671 1270 622 1235T555 1112L539 1012H887L848 799H502L360 0H135ZM874 0L1053 1012H1278L1100 0H874ZM1083 1272T1083 1329T1123 1426T1221 1466T1318 1426T1358 1329T1318 1232T1221 1192T1124 1232Z"  />
<glyph unicode="&#xFB02;" horiz-adv-x="1353" d="M135 0L328 1096Q345 1195 377 1266T447 1378T540 1444T645 1475T764 1483Q903 1483 1004 1450L934 1239Q853 1270 760 1270Q671 1270 622 1235T555 1112L539 1012H887L848 799H502L360 0H135ZM967 317L1161 1421H1386L1196 344Q1182 260 1196 228T1253 195Q1292 195 1327 209V2Q1269 -18 1196 -18Q1066 -18 1002 69T967 317Z"  />


</font>
</defs>
<text x="40" y="40" font-family="" font-size="30" fill="#933" >ABCDEFGHIJKLMNOPQRSTUVWXYZ abcdefghijklmnopqrstuvwxyz AÁÀÂÄÅÃÆ CÇ DÐ EÉÈÊË I Í Ì Î Ï NÑ</text>
<text x="40" y="80" font-family="" font-size="30" fill="#933" >OÓÒÔÖÕØŒ SŠ UÚÙÛÜ YÝŸ ZŽ Þ aáàâäåãæ cç dð eéèêë i ı í ì î ï nñ oóòôöõøœ sšß uúùûü yýÿ zž</text>
<text x="40" y="120" font-family="" font-size="30" fill="#933" >þ 1234567890 ½ ¼ ¾ % ‰ $¢£¥ƒ€¤ † ‡ § ¶ # ^~µ +×± &lt; = &gt; ÷¬ !¡?¿ &quot; &amp; &apos; * ° . , : ; () [ \ ] {} / |</text>
<text x="40" y="160" font-family="" font-size="30" fill="#933" >¦ _ ‚ „ … ‹› «» ‘ ’ “ ” • ­ - – — @ © ® ™ ªº ¹²³ ´ ` ˆ ˜ ¨ ¯ · ¸</text>
</svg>
