<?xml  version="1.0" encoding="UTF-8"?>
<!DOCTYPE svg PUBLIC "-//W3C//DTD SVG 1.0//EN" "http://www.w3.org/TR/2001/REC-SVG-20010904/DTD/svg10.dtd" >
<svg xmlns="http://www.w3.org/2000/svg" >
<metadata>
<version>1.0</version>
<id><![CDATA[AccordAlternate ExtraLight]]></id>
<vendor>Monotype Imaging Inc.</vendor>
<credits>
<name>Fonts.com WebFonts</name>
<URL>http://webfonts.fonts.com</URL>
<role>Home of the Web fonts</role>
</credits>
<license>
<URL>http://webfonts.fonts.com/Legal</URL>
</license>
<copyright><![CDATA[Copyright (c) 2010 by Aakash Soneri. All rights reserved.]]></copyright>
<trademark><![CDATA[AccordAlternate ExtraLight is a trademark of Aakash Soneri.]]></trademark>
<licensee>
<name></name>
</licensee>
</metadata>
<defs >
<font horiz-adv-x="483" id="d81afad3-c1f6-4768-aa1b-78e25f999661">
<font-face font-family="" panose-1="2 0 3 6 7 0 0 2 0 4" ascent="886" descent="-223" units-per-em="1000" alphabetic="0">
</font-face>
<missing-glyph horiz-adv-x="188" />

<glyph unicode="&#xA;" />
<glyph unicode="&#xD;" horiz-adv-x="292" />
<glyph unicode=" " horiz-adv-x="292" />
<glyph unicode="!" horiz-adv-x="255" d="M152 623V404Q152 340 149 276T146 148H111Q111 212 108 276T105 404V623H152ZM88 35Q88 52 99 63T128 74Q145 74 156 63T167 35Q167 18 156 7T128 -5Q111 -5 100 6T88 35Z"  />
<glyph unicode="&quot;" horiz-adv-x="251" d="M163 723H198V514H163V723ZM53 723H87V514H53V723Z"  />
<glyph unicode="#" horiz-adv-x="645" d="M372 164H196L155 0H111L151 164H46V206H162L218 432H88V473H229L267 623H311L273 473H450L488 623H532L494 473H599V432H484L427 206H557V164H417L376 0H332L372 164ZM206 206H383L439 432H263L206 206Z"  />
<glyph unicode="$" horiz-adv-x="509" d="M228 -3Q179 -1 135 11T58 47L72 91Q104 68 147 55T234 42Q269 42 300 49T354 71T390 109T404 165Q404 204 379 227T317 266T236 296T155 330T93 381T68 465Q68 504 81 532T116 580T167 609T228 623V705H270V625Q315 623 357 610T429 576L415 532Q386 555 346 568T263 581Q232 581 205 575T158 556T127 520T115 467Q115 425 140 401T202 360T283 330T364 296T426 246T451 165Q451 124 436 95T397 45T339 14T270 0V-82H228V-3Z"  />
<glyph unicode="%" horiz-adv-x="799" d="M585 623L260 0H212L536 623H585ZM352 462Q352 417 341 385T309 333T262 303T205 293Q174 293 148 302T101 332T70 385T58 462Q58 506 69 538T100 590T147 620T205 630Q236 630 262 621T309 591T340 538T352 462ZM309 462Q309 529 279 559T205 590Q162 590 132 560T101 462Q101 425 109 401T131 361T165 340T205 333Q226 333 245 339T278 361T301 400T309 462ZM738 162Q738 117 727 85T696 33T649 3T591 -7Q560 -7 534 2T487 32T456 85T444 162Q444 206 455 238T487 290T534 320T591 330Q622 330 648 321T695 291T726 238T738 162ZM695 162Q695 230 665 260T591 290Q548 290 518 260T487 162Q487 125 495 101T517 61T551 40T591 33Q612 33 631 39T664 61T687 100T695 162Z"  />
<glyph unicode="&amp;" horiz-adv-x="595" d="M488 307V218Q488 153 471 110T426 41T362 3T285 -8Q246 -8 208 1T139 31T91 85T72 166Q72 225 103 267T197 329Q167 338 147 354T115 388T99 427T94 468Q94 542 145 586T294 631Q335 631 371 624T427 610L419 565Q401 573 367 580T294 587Q252 587 223 578T176 552T150 515T142 468Q142 448 148 428T170 390T213 361T281 350H441V433H488V350H567V307H488ZM121 167Q121 129 135 104T173 64T226 43T285 36Q312 36 339 42T389 68T426 123T441 218V307H281Q212 307 167 272T121 167Z"  />
<glyph unicode="&apos;" horiz-adv-x="140" d="M53 723H88V514H53V723Z"  />
<glyph unicode="(" horiz-adv-x="325" d="M68 250Q68 396 114 511T264 723L293 697Q254 663 221 618T163 517T124 394T109 250Q109 173 123 107T162 -16T220 -117T293 -197L264 -223Q160 -127 114 -12T68 250Z"  />
<glyph unicode=")" horiz-adv-x="325" d="M257 250Q257 104 211 -11T61 -223L32 -197Q71 -162 104 -117T162 -16T201 106T216 250Q216 327 202 394T162 517T104 618T32 697L61 723Q165 627 211 512T257 250Z"  />
<glyph unicode="*" horiz-adv-x="464" d="M248 564L400 615L412 580L259 532L354 403L325 381L231 511L138 382L109 403L203 531L52 579L63 614L214 564L213 723H249L248 564Z"  />
<glyph unicode="+" horiz-adv-x="568" d="M500 292H305V97H263V292H68V331H263V526H305V331H500V292Z"  />
<glyph unicode="&#x2c;" horiz-adv-x="201" d="M57 35Q57 52 68 63T97 74Q112 74 121 66T135 46T141 20T143 -8Q143 -42 130 -79T88 -146L65 -128Q88 -102 98 -68T105 -4Q89 -7 73 2T57 35Z"  />
<glyph unicode="-" horiz-adv-x="367" d="M336 292H32V331H336V292Z"  />
<glyph unicode="." horiz-adv-x="201" d="M61 35Q61 52 72 63T101 74Q118 74 129 63T140 35Q140 18 129 7T101 -5Q84 -5 73 6T61 35Z"  />
<glyph unicode="/" horiz-adv-x="284" d="M284 723L43 -30H0L241 723H284Z"  />
<glyph unicode="0" horiz-adv-x="547" d="M439 325Q439 400 428 450T394 531T342 574T274 587Q236 587 206 575T153 532T120 451T108 325V298Q108 223 119 173T153 93T205 51T274 38Q311 38 341 50T394 93T427 173T439 298V325ZM59 325Q59 407 73 465T115 560T183 614T274 631Q325 631 365 614T432 560T474 465T488 325V298Q488 217 474 159T433 64T365 10T274 -7Q223 -7 183 10T116 64T74 159T59 298V325Z"  />
<glyph unicode="1" horiz-adv-x="279" d="M19 537L161 623H200V0H152V564L34 491L19 537Z"  />
<glyph unicode="2" horiz-adv-x="476" d="M426 458Q426 421 414 388T380 322T330 259T272 197L123 44H426V0H52V39L238 227Q268 257 294 285T338 341T367 397T378 454Q378 481 370 505T343 547T295 576T224 587Q179 587 137 574T66 540L50 583Q79 603 125 617T225 631Q320 631 373 584T426 458Z"  />
<glyph unicode="3" horiz-adv-x="477" d="M179 349H217Q259 349 287 358T333 382T357 419T365 465Q365 493 357 515T331 554T284 578T213 587Q165 587 126 574T57 540L40 582Q71 600 112 615T213 631Q318 631 365 586T412 465Q412 408 384 375T315 325Q336 320 355 308T389 276T413 231T422 174Q422 89 370 41T213 -7Q151 -7 109 7T30 43L47 84Q79 64 120 51T213 38Q300 38 337 72T375 174Q375 200 366 223T338 265T288 294T217 305H179V349Z"  />
<glyph unicode="4" horiz-adv-x="496" d="M175 623H224L95 214H379V463H426V0H379V170H44V207L175 623Z"  />
<glyph unicode="5" horiz-adv-x="500" d="M85 624H427V580H132V365H221Q335 365 392 322T449 182Q449 88 395 41T236 -7Q183 -7 142 5T56 43L73 84Q112 59 153 49T240 38Q327 38 364 75T402 181Q402 224 389 251T349 294T279 315T178 321H85V624Z"  />
<glyph unicode="6" horiz-adv-x="511" d="M266 381Q358 381 412 334T466 191Q466 141 452 104T411 43T348 6T268 -7Q205 -7 165 17T101 83T68 183T59 309Q59 390 71 450T109 551T178 611T283 631Q342 631 382 616T449 583L432 542Q405 562 366 574T281 587Q230 587 197 570T145 521T117 445T107 345Q142 363 184 372T266 381ZM263 338Q221 338 182 327T107 297Q107 242 113 195T138 113T188 58T271 38Q336 38 377 73T418 189Q418 269 376 303T263 338Z"  />
<glyph unicode="7" horiz-adv-x="470" d="M124 0L367 579H36V623H421V586L175 0H124Z"  />
<glyph unicode="8" horiz-adv-x="538" d="M269 631Q317 631 353 619T414 584T451 531T464 467Q464 420 441 384T373 328Q425 310 454 268T483 172Q483 136 469 104T428 47T361 8T267 -7Q214 -7 175 7T109 46T69 102T55 171Q55 228 84 268T165 328Q120 347 97 383T74 467Q74 501 86 531T123 583T184 618T269 631ZM102 173Q102 113 145 76T269 38Q350 38 393 75T436 173Q436 233 393 269T269 306Q188 306 145 270T102 173ZM121 465Q121 409 159 378T269 346Q341 346 379 377T417 464Q417 489 409 511T382 550T336 577T268 587Q230 587 202 578T156 552T130 513T121 465Z"  />
<glyph unicode="9" horiz-adv-x="511" d="M245 244Q151 244 98 290T45 433Q45 484 60 521T102 583T165 619T244 631Q307 631 347 608T410 542T443 440T452 311Q452 216 439 155T398 57T330 7T235 -7Q123 -7 57 44L74 84Q106 60 147 49T233 38Q280 38 312 50T365 91T395 166T404 280Q374 265 334 255T245 244ZM249 287Q289 287 326 297T404 328Q404 383 398 430T373 513T323 567T241 587Q210 587 183 579T136 553T104 506T92 435Q92 355 135 321T249 287Z"  />
<glyph unicode=":" horiz-adv-x="201" d="M61 35Q61 52 72 63T101 74Q118 74 129 63T140 35Q140 18 129 7T101 -5Q84 -5 73 6T61 35ZM61 439Q61 456 72 467T101 478Q118 478 129 467T140 439Q140 422 129 411T101 399Q84 399 73 410T61 439Z"  />
<glyph unicode=";" horiz-adv-x="200" d="M58 439Q58 456 69 467T97 478Q114 478 125 467T137 439Q137 422 126 411T97 399Q80 399 69 410T58 439ZM58 35Q58 52 70 63T99 74Q114 74 122 66T136 46T142 20T144 -8Q144 -42 132 -79T90 -146L67 -128Q90 -102 100 -68T107 -4Q91 -7 75 2T58 35Z"  />
<glyph unicode="&lt;" horiz-adv-x="442" d="M383 79L31 293V330L383 545V499L76 311L383 126V79Z"  />
<glyph unicode="=" horiz-adv-x="548" d="M480 177H68V216H480V177ZM480 409H68V447H480V409Z"  />
<glyph unicode="&gt;" horiz-adv-x="442" d="M59 126L366 311L59 499V545L411 330V293L59 79V126Z"  />
<glyph unicode="?" horiz-adv-x="413" d="M86 35Q86 52 97 63T125 74Q142 74 153 63T165 35Q165 18 154 7T125 -5Q108 -5 97 6T86 35ZM351 461Q351 425 341 398T315 351T279 314T237 283Q218 270 202 258T174 231T156 200T149 160H102Q102 190 112 214T138 257T174 293T216 324Q231 334 246 346T275 374T296 411T304 461Q304 494 294 517T266 556T223 579T169 587Q141 587 108 581T53 563L39 606Q61 617 95 624T165 631Q206 631 240 621T299 589T337 535T351 461Z"  />
<glyph unicode="@" horiz-adv-x="926" d="M821 272Q821 370 794 438T721 548T614 608T483 627Q400 627 331 603T213 530T137 410T110 243Q110 147 137 77T211 -38T321 -105T455 -127Q497 -127 531 -120T593 -102T640 -78T675 -52L697 -83Q685 -96 663 -110T610 -136T539 -155T452 -163Q372 -163 302 -139T181 -64T99 62T69 244Q69 341 97 419T178 551T307 634T481 663Q560 663 629 642T750 574T831 454T861 275Q861 237 856 196T836 120T795 63T727 40Q685 40 654 63T611 137Q597 96 561 68T456 40Q397 40 363 60T312 111T290 175T285 236Q285 280 293 320T324 392T382 441T474 460Q538 460 579 440T641 402V206Q641 144 661 110T723 76Q754 76 773 95T803 144T817 207T821 272ZM600 383Q583 396 553 410T475 424Q431 424 402 409T356 369T333 310T326 242Q326 204 332 174T354 122T394 88T456 76Q530 76 565 121T600 240V383Z"  />
<glyph unicode="A" horiz-adv-x="602" d="M447 191H154L79 0H29L276 623H326L572 0H523L447 191ZM171 235H430L301 562L171 235Z"  />
<glyph unicode="B" horiz-adv-x="598" d="M298 623Q357 623 398 611T465 578T502 527T514 461Q514 408 489 375T408 323Q476 308 505 269T534 172Q534 135 522 104T484 49T417 13T317 0H88V623H298ZM135 297V44H317Q365 44 397 53T450 78T478 118T487 170Q487 198 479 221T450 262T398 288T317 297H135ZM135 579V341H298Q346 341 378 350T430 374T458 412T467 460Q467 485 459 507T430 545T378 570T298 579H135Z"  />
<glyph unicode="C" horiz-adv-x="547" d="M116 312Q116 244 125 192T158 106T219 54T315 36Q378 36 423 52T490 86L497 41Q482 31 466 22T428 7T381 -4T321 -8Q252 -8 204 11T125 69T82 167T68 309Q68 390 81 450T123 551T200 611T317 631Q348 631 372 627T417 617T454 602T488 584L481 538Q444 560 405 573T313 587Q256 587 219 570T158 519T126 433T116 312Z"  />
<glyph unicode="D" horiz-adv-x="595" d="M88 623H266Q338 623 387 605T468 548T512 451T526 313Q526 235 513 177T469 79T388 20T266 0H88V623ZM266 44Q329 44 370 60T435 110T469 194T479 311Q479 377 470 427T436 510T371 561T266 579H135V44H266Z"  />
<glyph unicode="E" horiz-adv-x="536" d="M135 44H486V0H88V623H486V579H135V350H446V306H135V44Z"  />
<glyph unicode="F" horiz-adv-x="524" d="M135 0H88V623H484V579H135V349H444V305H135V0Z"  />
<glyph unicode="G" horiz-adv-x="574" d="M300 323H509V41Q480 21 437 7T326 -8Q254 -8 205 11T126 69T82 168T68 311Q68 391 81 451T125 551T203 611T323 631Q354 631 379 628T425 618T464 603T500 584L493 538Q462 555 420 571T318 587Q260 587 221 570T159 519T126 433T116 312Q116 244 125 192T158 106T221 54T321 36Q366 36 399 45T463 68V280H300V323Z"  />
<glyph unicode="H" horiz-adv-x="614" d="M135 0H88V623H135V351H479V623H526V0H479V307H135V0Z"  />
<glyph unicode="I" horiz-adv-x="234" d="M93 623H141V0H93V623Z"  />
<glyph unicode="J" horiz-adv-x="407" d="M338 186Q338 129 325 92T288 33T232 1T162 -8Q126 -8 99 0T45 22L53 68Q73 54 101 45T164 36Q192 36 215 42T255 64T281 109T290 185V579H63V623H338V186Z"  />
<glyph unicode="K" horiz-adv-x="521" d="M410 623H469L225 327L489 0H430L166 327L410 623ZM88 623H135V0H88V623Z"  />
<glyph unicode="L" horiz-adv-x="475" d="M88 623H135V44H446V0H88V623Z"  />
<glyph unicode="M" horiz-adv-x="720" d="M88 623H136L360 252L584 623H632V0H585V539L381 202H339L135 539V0H88V623Z"  />
<glyph unicode="N" horiz-adv-x="614" d="M88 623H138L479 80V623H526V0H476L135 543V0H88V623Z"  />
<glyph unicode="O" horiz-adv-x="624" d="M508 311Q508 375 501 426T472 513T412 568T312 587Q250 587 212 568T152 513T123 426T115 311Q115 247 122 196T152 110T212 55T312 36Q373 36 411 55T471 109T500 196T508 311ZM312 -9Q240 -9 193 13T118 76T79 176T68 311Q68 386 79 445T118 545T193 609T312 631Q384 631 431 610T506 547T545 446T556 311Q556 236 545 177T505 77T430 13T312 -9Z"  />
<glyph unicode="P" horiz-adv-x="566" d="M299 623Q362 623 405 609T475 570T514 510T526 432Q526 390 514 355T474 295T404 255T299 241H135V0H88V623H299ZM135 579V285H299Q350 285 384 295T440 324T470 370T479 432Q479 465 470 492T440 539T385 568T299 579H135Z"  />
<glyph unicode="Q" horiz-adv-x="624" d="M157 -46Q174 -32 190 -26T223 -20Q246 -20 269 -28T314 -46T359 -64T402 -73Q419 -73 435 -67T468 -46V-91Q451 -105 435 -111T402 -117Q378 -117 355 -109T310 -91T266 -73T223 -65Q206 -65 190 -71T157 -91V-46ZM508 311Q508 375 501 426T472 513T412 568T312 587Q250 587 212 568T152 513T123 426T115 311Q115 247 122 196T152 110T212 55T312 36Q373 36 411 55T471 109T500 196T508 311ZM312 -9Q240 -9 193 13T118 76T79 176T68 311Q68 386 79 445T118 545T193 609T312 631Q384 631 431 610T506 547T545 446T556 311Q556 236 545 177T505 77T430 13T312 -9Z"  />
<glyph unicode="R" horiz-adv-x="586" d="M526 446Q526 405 514 375T481 324T432 292T373 276L547 0H493L323 270H135V0H88V623H308Q370 623 412 610T479 574T515 518T526 446ZM135 579V314H308Q359 314 392 324T444 351T471 393T479 446Q479 476 472 500T445 542T392 569T308 579H135Z"  />
<glyph unicode="S" horiz-adv-x="527" d="M72 85Q105 62 150 51T243 39Q280 39 312 45T369 66T408 103T422 159Q422 200 396 224T331 265T245 296T160 331T94 384T68 471Q68 514 85 544T130 594T194 621T269 630Q320 630 367 617T447 582L433 538Q403 560 360 572T273 584Q241 584 212 578T162 559T128 525T115 473Q115 429 141 404T206 361T292 329T377 295T443 244T469 159Q469 115 450 83T399 31T327 2T245 -8Q192 -8 143 5T58 41L72 85Z"  />
<glyph unicode="T" horiz-adv-x="561" d="M39 623H522V579H304V0H257V579H39V623Z"  />
<glyph unicode="U" horiz-adv-x="614" d="M78 623H125V245Q125 186 137 147T172 82T229 47T307 36Q351 36 385 46T442 82T477 146T489 245V623H536V245Q536 176 520 128T475 50T403 6T307 -8Q254 -8 212 6T140 50T94 128T78 245V623Z"  />
<glyph unicode="V" horiz-adv-x="580" d="M315 0H265L29 623H77L290 62L503 623H551L315 0Z"  />
<glyph unicode="W" horiz-adv-x="901" d="M646 78L820 623H867L668 0H625L450 542L276 0H232L34 623H81L254 78L428 623H472L646 78Z"  />
<glyph unicode="X" horiz-adv-x="595" d="M297 366L476 623H532L325 327L552 0H496L297 288L99 0H43L269 327L63 623H119L297 366Z"  />
<glyph unicode="Y" horiz-adv-x="594" d="M321 243V0H274V241L24 623H78L297 287L517 623H570L321 243Z"  />
<glyph unicode="Z" horiz-adv-x="544" d="M63 623H481V586L106 44H501V0H43V37L420 579H63V623Z"  />
<glyph unicode="[" horiz-adv-x="303" d="M262 -223H89V723H262V687H129V-187H262V-223Z"  />
<glyph unicode="\" horiz-adv-x="284" d="M43 723L284 -30H241L0 723H43Z"  />
<glyph unicode="]" horiz-adv-x="303" d="M41 -187H174V687H41V723H214V-223H41V-187Z"  />
<glyph unicode="^" horiz-adv-x="435" d="M391 363H347L216 637L88 362H44L197 683H236L391 363Z"  />
<glyph unicode="_" horiz-adv-x="475" d="M466 -60H8V-23H466V-60Z"  />
<glyph unicode="`" horiz-adv-x="242" d="M60 886H104L183 750H142L60 886Z"  />
<glyph unicode="a" d="M410 20Q380 10 335 2T239 -7Q200 -7 167 0T108 23T68 67T53 136Q53 215 108 247T267 280H365V336Q365 394 329 416T230 438Q188 438 156 432T101 417L94 460Q121 468 154 474T230 480Q269 480 302 473T359 448T396 403T410 335V20ZM365 242H269Q187 242 143 220T98 135Q98 77 136 56T239 34Q268 34 303 38T365 51V242Z"  />
<glyph unicode="b" horiz-adv-x="523" d="M83 673H128V459Q148 468 177 474T243 480Q304 480 345 463T412 413T449 337T461 237Q461 120 410 57T242 -7Q205 -7 163 -1T83 20V673ZM415 236Q415 280 408 317T381 380T327 422T240 437Q195 437 168 429T128 414V53Q153 44 184 40T242 36Q333 36 374 81T415 236Z"  />
<glyph unicode="c" horiz-adv-x="449" d="M63 234Q63 288 74 333T111 411T178 462T278 480Q318 480 347 473T400 453L392 411Q374 421 348 429T280 437Q228 437 195 422T143 380T116 316T108 236Q108 129 149 83T284 36Q312 36 343 41T403 60L410 18Q381 5 347 -1T280 -7Q171 -7 117 52T63 234Z"  />
<glyph unicode="d" horiz-adv-x="523" d="M441 20Q402 6 360 0T282 -7Q169 -7 116 52T63 237Q63 290 74 334T112 411T179 462T280 480Q316 480 346 474T396 459V673H441V20ZM108 236Q108 181 118 143T149 81T202 47T281 36Q309 36 339 40T396 53V414Q382 420 355 428T282 437Q229 437 196 422T143 381T116 317T108 236Z"  />
<glyph unicode="e" horiz-adv-x="516" d="M457 276Q457 260 456 245T450 217H107V213Q107 117 154 77T284 36Q329 36 368 46T435 71L442 30Q407 13 368 3T282 -7Q173 -7 118 51T62 237Q62 288 71 332T104 409T166 461T261 480Q352 480 404 429T457 276ZM107 258H414V264Q414 358 372 398T260 438Q225 438 197 429T149 399T118 345T107 264V258Z"  />
<glyph unicode="f" horiz-adv-x="350" d="M78 546Q78 589 89 618T121 666T170 692T232 700Q267 700 293 693T342 676L336 634Q314 643 290 650T232 657Q182 657 153 634T123 547V473H327V431H123V0H78V546Z"  />
<glyph unicode="g" horiz-adv-x="523" d="M441 -38Q441 -86 427 -118T386 -169T324 -195T245 -203Q194 -203 159 -194T89 -168L95 -126Q128 -143 162 -152T247 -161Q281 -161 308 -156T355 -138T385 -100T396 -38V14Q376 5 346 -1T280 -7Q219 -7 178 10T111 60T74 136T63 236Q63 354 114 417T283 480Q321 480 362 474T441 453V-38ZM108 237Q108 193 115 156T142 93T196 51T283 36Q328 36 355 44T396 60V420Q370 430 339 433T281 437Q235 437 203 427T149 392T118 330T108 237Z"  />
<glyph unicode="h" horiz-adv-x="533" d="M83 700H128V456Q154 467 190 473T272 480Q313 480 347 473T407 444T446 386T460 290V0H416V290Q416 338 406 367T376 411T331 432T272 437Q224 437 189 431T128 412V0H83V700Z"  />
<glyph unicode="i" horiz-adv-x="219" d="M87 473H132V0H87V473ZM77 646Q77 660 86 669T110 679Q124 679 133 670T142 646Q142 632 133 623T110 613Q96 613 87 622T77 646Z"  />
<glyph unicode="j" horiz-adv-x="201" d="M123 -63Q123 -102 114 -127T90 -169T54 -191T11 -198Q-13 -198 -33 -192T-69 -178L-58 -138Q-45 -145 -28 -150T10 -155Q24 -155 36 -151T58 -137T72 -109T78 -63V473H123V-63ZM68 646Q68 660 77 669T101 679Q115 679 124 670T133 646Q133 632 124 623T101 613Q87 613 78 622T68 646Z"  />
<glyph unicode="k" horiz-adv-x="460" d="M361 473H421L215 250L441 0H381L155 250L361 473ZM83 673H128V0H83V673Z"  />
<glyph unicode="l" horiz-adv-x="261" d="M77 673H122V128Q122 74 139 56T185 38Q202 38 213 40T235 47L241 6Q232 1 218 -2T184 -5Q161 -5 142 1T108 23T86 63T77 125V673Z"  />
<glyph unicode="m" horiz-adv-x="790" d="M83 444Q107 455 133 462T183 473T228 478T262 480Q298 480 332 470T390 427Q422 450 462 465T560 480Q594 480 623 473T673 445T706 390T718 300V0H673V299Q673 344 665 371T641 412T605 432T559 437Q508 437 474 425T412 391Q417 374 420 352T423 299V0H378V299Q378 345 370 372T345 414T305 433T253 437Q223 437 187 430T128 412V0H83V444Z"  />
<glyph unicode="n" horiz-adv-x="533" d="M83 444Q110 456 157 468T271 480Q313 480 347 473T407 444T446 386T460 291V0H416V290Q416 338 406 367T376 411T331 432T272 437Q224 437 190 431T128 412V0H83V444Z"  />
<glyph unicode="o" horiz-adv-x="524" d="M417 237Q417 283 410 320T386 383T338 423T262 437Q217 437 187 423T140 383T115 320T108 237Q108 191 115 154T139 91T187 50T262 36Q308 36 338 50T385 90T410 154T417 237ZM262 -7Q205 -7 167 11T106 61T73 139T63 237Q63 289 73 334T106 411T167 461T262 480Q319 480 357 462T419 412T452 335T462 237Q462 184 452 140T419 63T357 12T262 -7Z"  />
<glyph unicode="p" horiz-adv-x="523" d="M83 453Q120 466 161 473T241 480Q359 480 410 420T461 238Q461 184 449 139T411 62T344 11T242 -7Q206 -7 177 -1T128 14V-191H83V453ZM415 237Q415 347 374 392T242 437Q215 437 184 434T128 420V60Q141 53 168 45T240 36Q293 36 327 51T380 92T407 156T415 237Z"  />
<glyph unicode="q" horiz-adv-x="523" d="M441 -191H396V14Q376 5 346 -1T280 -7Q219 -7 178 10T111 60T74 136T63 236Q63 354 114 417T283 480Q321 480 362 473T441 453V-191ZM108 237Q108 193 115 156T142 93T196 51T283 36Q328 36 355 44T396 60V420Q370 430 339 433T281 437Q235 437 203 427T149 392T118 330T108 237Z"  />
<glyph unicode="r" horiz-adv-x="327" d="M83 453Q99 461 135 469T216 478Q242 478 266 475T307 466L297 425Q285 429 263 432T213 436Q180 436 161 431T128 420V0H83V453Z"  />
<glyph unicode="s" horiz-adv-x="471" d="M69 63Q84 58 103 53T144 44T186 38T227 36Q255 36 279 40T323 55T353 83T364 124Q364 157 343 174T289 202T219 221T149 243T95 281T73 350Q73 385 87 409T124 450T179 473T243 480Q282 480 320 472T389 449L382 407Q353 421 315 429T241 437Q216 437 194 433T155 418T128 391T118 352Q118 319 139 302T193 274T263 255T333 233T387 195T409 126Q409 90 395 65T355 24T296 1T224 -7Q182 -7 140 1T63 21L69 63Z"  />
<glyph unicode="t" horiz-adv-x="397" d="M73 603H118V473H322V431H118V164Q118 90 147 63T225 36Q255 36 285 42T337 60L344 18Q321 7 290 0T226 -7Q192 -7 164 2T116 31T84 84T73 164V603Z"  />
<glyph unicode="u" horiz-adv-x="533" d="M450 29Q423 17 375 5T261 -7Q220 -7 186 0T126 29T87 86T73 182V473H117V183Q117 135 127 106T157 62T202 41T261 36Q309 36 343 42T405 61V473H450V29Z"  />
<glyph unicode="v" horiz-adv-x="517" d="M258 55L433 473H480L282 0H235L37 473H84L258 55Z"  />
<glyph unicode="w" horiz-adv-x="802" d="M233 65L379 473H423L569 65L714 473H760L591 0H547L401 404L255 0H210L42 473H88L233 65Z"  />
<glyph unicode="x" horiz-adv-x="519" d="M260 283L411 473H466L287 250L486 0H431L260 216L89 0H34L233 250L54 473H109L260 283Z"  />
<glyph unicode="y" horiz-adv-x="533" d="M450 -38Q450 -87 436 -119T395 -169T333 -195T253 -203Q205 -203 169 -197T98 -177L104 -135Q135 -147 169 -154T255 -161Q289 -161 317 -156T364 -138T394 -100T405 -38V23Q382 9 348 1T271 -7Q226 -7 190 0T127 28T87 86T73 183V473H117V183Q117 133 127 104T158 60T207 41T272 36Q303 36 339 42T405 66V473H450V-38Z"  />
<glyph unicode="z" horiz-adv-x="482" d="M54 473H428V436L113 42H428V0H54V38L369 431H54V473Z"  />
<glyph unicode="{" horiz-adv-x="388" d="M39 277H58Q113 277 140 321T167 444V535Q167 627 201 675T311 723H347V687H309Q259 687 233 646T207 513V425Q207 402 204 378T191 331T165 290T124 259Q148 248 164 230T189 190T203 143T207 93V-13Q207 -104 233 -145T309 -187H347V-223H311Q237 -223 202 -176T167 -35V74Q167 154 140 197T58 241H39V277Z"  />
<glyph unicode="|" horiz-adv-x="221" d="M131 -223H91V723H131V-223Z"  />
<glyph unicode="}" horiz-adv-x="388" d="M349 241H330Q275 241 248 198T221 74V-35Q221 -128 186 -175T77 -223H41V-187H79Q129 -187 155 -146T181 -13V93Q181 118 185 142T198 189T224 230T264 259Q239 271 223 290T198 331T185 377T181 425V513Q181 604 155 645T79 687H41V723H77Q153 723 187 675T221 535V444Q221 365 248 321T330 277H349V241Z"  />
<glyph unicode="~" horiz-adv-x="541" d="M53 205Q53 274 81 309T161 344Q199 344 226 327T278 289T325 251T379 233Q417 233 435 260T453 335H488Q488 266 459 231T380 196Q342 196 315 213T263 251T216 289T162 307Q142 307 128 299T105 276T92 244T88 205H53H53Z"  />
<glyph unicode="&#xA0;" horiz-adv-x="292" />
<glyph unicode="&#xA1;" horiz-adv-x="255" d="M103 -148V73Q103 137 106 201T110 329H144Q144 265 147 201T150 73V-148H103ZM88 440Q88 457 99 468T128 480Q145 480 156 469T167 440Q167 423 156 412T128 401Q111 401 100 412T88 440Z"  />
<glyph unicode="&#xA2;" horiz-adv-x="440" d="M63 311Q63 362 73 405T107 480T168 531T260 554V635H298V555Q325 553 349 548T391 534L383 492Q367 498 342 505T283 512Q230 512 196 497T143 456T116 392T108 311Q108 204 149 158T282 111Q310 111 338 114T394 129L401 87Q377 78 351 74T298 68V-12H260V69Q159 75 111 133T63 311Z"  />
<glyph unicode="&#xA3;" horiz-adv-x="492" d="M444 0H106V293H29V330H106V422Q106 527 148 579T281 631Q338 631 370 620T425 596L413 557Q391 568 361 577T282 587Q209 587 181 544T153 411V330H320V293H153V44H444V0Z"  />
<glyph unicode="&#xA4;" horiz-adv-x="628" d="M314 186Q276 186 241 210L98 67L69 96L211 237Q187 270 187 311Q187 331 193 350T211 385L70 527L98 556L241 413Q275 436 314 436Q353 436 387 413L529 556L559 527L416 386Q429 369 434 350T440 311Q440 291 435 273T416 237L558 96L529 67L387 210Q352 186 314 186ZM314 221Q352 221 378 247T404 311Q404 349 378 375T314 402Q276 402 250 376T224 311Q224 274 250 248T314 221Z"  />
<glyph unicode="&#xA5;" horiz-adv-x="593" d="M491 223H320V120H491V83H320V0H273V83H102V120H273V223H102V260H262L43 623H97L296 288L495 623H549L331 260H491V223Z"  />
<glyph unicode="&#xA6;" horiz-adv-x="218" d="M129 347H89V723H129V347ZM129 -223H89V174H129V-223Z"  />
<glyph unicode="&#xA7;" horiz-adv-x="534" d="M91 -86Q121 -109 164 -120T253 -132Q288 -132 319 -126T373 -107T409 -73T423 -21Q423 18 398 41T336 81T255 111T174 146T112 198T87 283Q87 324 105 353T156 401Q124 420 106 450T87 526Q87 567 103 595T146 642T207 668T279 677Q328 677 373 664T448 629L434 585Q406 605 366 618T282 631Q252 631 226 626T179 608T146 576T134 528Q134 493 151 471T195 432T257 405T326 380Q356 369 382 356T428 324T459 282T470 224Q470 181 450 152T396 103Q429 84 449 55T470 -21Q470 -63 452 -93T403 -142T333 -170T254 -179Q203 -179 157 -166T77 -130L91 -86ZM134 284Q134 244 156 220T211 180T284 151T359 122Q388 136 405 160T423 223Q423 260 401 282T345 321T271 349T194 380Q167 366 151 343T134 284Z"  />
<glyph unicode="&#xA8;" horiz-adv-x="353" d="M59 781Q59 795 68 804T91 814Q105 814 113 805T122 781Q122 768 114 759T91 750Q77 750 68 759T59 781ZM231 781Q231 795 240 804T263 814Q277 814 285 805T294 781Q294 768 286 759T263 750Q249 750 240 759T231 781Z"  />
<glyph unicode="&#xA9;" horiz-adv-x="834" d="M251 349Q251 393 261 430T294 493T351 534T434 549Q464 549 489 543T530 528L524 491Q505 499 485 505T435 512Q392 512 365 500T321 465T298 414T291 350Q291 269 326 231T441 193Q462 193 486 196T532 212L538 174Q516 163 490 159T441 155Q251 155 251 349ZM70 352Q70 424 97 487T171 598T281 673T416 700Q489 700 552 673T663 599T737 488T764 352Q764 280 737 217T663 107T553 32T416 5Q344 5 281 32T171 106T97 217T70 352ZM103 352Q103 287 128 230T195 129T295 62T416 37Q481 37 538 61T638 129T706 229T731 352Q731 417 706 474T639 575T539 643T416 668Q352 668 295 643T196 575T128 475T103 352Z"  />
<glyph unicode="&#xAB;" horiz-adv-x="452" d="M356 53L205 250L356 447H402L252 250L402 53H356ZM189 53L39 250L189 447H236L86 250L236 53H189Z"  />
<glyph unicode="&#xAC;" horiz-adv-x="515" d="M460 198H419V390H30V428H460V198Z"  />
<glyph unicode="&#xAE;" horiz-adv-x="834" d="M420 329H332V162H293V542H422Q493 542 523 513T554 437Q554 396 531 368T461 332L567 162H523L420 329ZM332 507V365H422Q474 365 494 385T515 437Q515 466 495 486T422 507H332ZM70 352Q70 424 97 487T171 598T281 673T416 700Q489 700 552 673T663 599T737 488T764 352Q764 280 737 217T663 107T553 32T416 5Q344 5 281 32T171 106T97 217T70 352ZM103 352Q103 287 128 230T195 129T295 62T416 37Q481 37 538 61T638 129T706 229T731 352Q731 417 706 474T639 575T539 643T416 668Q352 668 295 643T196 575T128 475T103 352Z"  />
<glyph unicode="&#xB0;" horiz-adv-x="385" d="M327 590Q327 562 317 538T288 495T246 467T193 456Q164 456 140 466T97 494T69 536T59 590Q59 618 69 642T97 685T139 713T193 723Q221 723 245 713T288 685T316 643T327 590ZM292 590Q292 633 265 662T194 691Q149 691 121 662T93 590Q93 547 121 518T194 489Q213 489 231 497T262 518T284 550T292 590Z"  />
<glyph unicode="&#xB1;" horiz-adv-x="568" d="M500 60H68V98H263V292H68V331H263V526H305V331H500V292H305V98H500V60Z"  />
<glyph unicode="&#xB4;" horiz-adv-x="243" d="M183 886L100 750H60L139 886H183Z"  />
<glyph unicode="&#xB5;" horiz-adv-x="543" d="M460 29Q433 17 386 5T276 -7Q228 -7 190 3T127 53V-191H83V473H127V183Q127 135 137 106T167 62T212 41T271 36Q318 36 353 42T415 61V473H460V29Z"  />
<glyph unicode="&#xB6;" horiz-adv-x="498" d="M38 450Q38 532 84 577T218 623H414V-80H375V583H253V-80H215V272Q172 272 139 286T84 324T50 380T38 450Z"  />
<glyph unicode="&#xB7;" horiz-adv-x="178" d="M49 312Q49 329 60 340T89 351Q106 351 117 340T129 312Q129 295 118 284T89 272Q72 272 61 283T49 312Z"  />
<glyph unicode="&#xB8;" horiz-adv-x="224" d="M114 25L96 -45Q138 -37 165 -54T192 -109Q192 -130 184 -144T164 -168T135 -181T100 -186Q69 -186 41 -175L46 -144Q64 -154 98 -154Q120 -154 138 -145T157 -109Q157 -87 141 -79T105 -71Q91 -71 79 -73T56 -77L83 25H114Z"  />
<glyph unicode="&#xBB;" horiz-adv-x="452" d="M50 53L200 250L50 447H96L247 250L96 53H50ZM216 53L366 250L216 447H263L413 250L263 53H216Z"  />
<glyph unicode="&#xBF;" horiz-adv-x="413" d="M327 440Q327 423 316 412T287 401Q270 401 259 412T248 440Q248 457 259 468T287 480Q304 480 315 469T327 440ZM61 14Q61 50 71 77T97 124T134 161T176 192Q213 217 238 243T263 315H310Q310 285 300 261T275 218T239 182T197 151Q182 140 166 129T138 101T117 64T109 14Q109 -51 147 -81T244 -112Q271 -112 304 -106T359 -88L373 -131Q352 -142 318 -149T247 -156Q206 -156 172 -146T113 -114T75 -60T61 14Z"  />
<glyph unicode="&#xC0;" horiz-adv-x="602" d="M447 191H154L79 0H29L276 623H326L572 0H523L447 191ZM171 235H430L301 562L171 235ZM193 803H237L316 667H275L193 803Z"  />
<glyph unicode="&#xC1;" horiz-adv-x="602" d="M447 191H154L79 0H29L276 623H326L572 0H523L447 191ZM171 235H430L301 562L171 235ZM400 803L317 667H277L356 803H400Z"  />
<glyph unicode="&#xC2;" horiz-adv-x="602" d="M447 191H154L79 0H29L276 623H326L572 0H523L447 191ZM171 235H430L301 562L171 235ZM279 803H322L412 667H370L302 775H300L233 667H191L279 803Z"  />
<glyph unicode="&#xC3;" horiz-adv-x="602" d="M447 191H154L79 0H29L276 623H326L572 0H523L447 191ZM171 235H430L301 562L171 235ZM160 692Q160 736 177 761T233 787Q255 787 273 776T308 752T339 727T370 716Q393 716 399 734T406 778H441Q441 734 425 709T367 683Q345 683 327 694T293 718T262 743T231 754Q208 754 202 736T195 692H160H160Z"  />
<glyph unicode="&#xC4;" horiz-adv-x="602" d="M447 191H154L79 0H29L276 623H326L572 0H523L447 191ZM171 235H430L301 562L171 235ZM184 734Q184 748 193 757T216 767Q230 767 238 758T247 734Q247 721 239 712T216 703Q202 703 193 712T184 734ZM356 734Q356 748 365 757T388 767Q402 767 410 758T419 734Q419 721 411 712T388 703Q374 703 365 712T356 734Z"  />
<glyph unicode="&#xC5;" horiz-adv-x="602" d="M447 191H154L79 0H29L276 623H326L572 0H523L447 191ZM171 235H430L301 562L171 235ZM300 653Q262 653 240 676T218 734Q218 771 240 793T300 816Q339 816 361 794T383 734Q383 699 361 676T300 653ZM300 682Q327 682 340 698T353 734Q353 757 340 772T300 788Q274 788 261 773T248 734Q248 714 261 698T300 682Z"  />
<glyph unicode="&#xC6;" horiz-adv-x="829" d="M265 623H778V579H428V350H738V306H428V44H778V0H381V231H166L79 0H29L265 623ZM183 275H381V579H298L183 275Z"  />
<glyph unicode="&#xC7;" horiz-adv-x="547" d="M116 312Q116 244 125 192T158 106T219 54T315 36Q378 36 423 52T490 86L497 41Q469 23 434 9T340 -8L331 -45Q372 -37 399 -54T427 -109Q427 -130 419 -144T399 -168T370 -181T335 -186Q305 -186 275 -175L281 -144Q299 -154 332 -154Q355 -154 373 -145T392 -109Q392 -87 376 -79T340 -71Q326 -71 314 -73T290 -77L308 -8Q242 -6 197 14T123 73T81 170T68 309Q68 390 81 450T123 551T200 611T317 631Q348 631 372 627T417 617T454 602T488 584L481 538Q444 560 405 573T313 587Q256 587 219 570T158 519T126 433T116 312Z"  />
<glyph unicode="&#xC8;" horiz-adv-x="536" d="M135 44H486V0H88V623H486V579H135V350H446V306H135V44ZM201 803H245L324 667H283L201 803Z"  />
<glyph unicode="&#xC9;" horiz-adv-x="536" d="M135 44H486V0H88V623H486V579H135V350H446V306H135V44ZM365 803L282 667H242L321 803H365Z"  />
<glyph unicode="&#xCA;" horiz-adv-x="536" d="M135 44H486V0H88V623H486V579H135V350H446V306H135V44ZM266 803H309L399 667H357L289 775H287L220 667H178L266 803Z"  />
<glyph unicode="&#xCB;" horiz-adv-x="536" d="M135 44H486V0H88V623H486V579H135V350H446V306H135V44ZM171 734Q171 748 180 757T203 767Q217 767 225 758T234 734Q234 721 226 712T203 703Q189 703 180 712T171 734ZM343 734Q343 748 352 757T375 767Q389 767 397 758T406 734Q406 721 398 712T375 703Q361 703 352 712T343 734Z"  />
<glyph unicode="&#xCC;" horiz-adv-x="234" d="M93 623H141V0H93V623ZM16 803H60L139 667H98L16 803Z"  />
<glyph unicode="&#xCD;" horiz-adv-x="234" d="M93 623H141V0H93V623ZM217 803L134 667H94L173 803H217Z"  />
<glyph unicode="&#xCE;" horiz-adv-x="234" d="M93 623H141V0H93V623ZM96 803H139L229 667H187L119 775H117L50 667H8L96 803Z"  />
<glyph unicode="&#xCF;" horiz-adv-x="234" d="M93 623H141V0H93V623ZM1 734Q1 748 10 757T33 767Q47 767 55 758T64 734Q64 721 56 712T33 703Q19 703 10 712T1 734ZM173 734Q173 748 182 757T205 767Q219 767 227 758T236 734Q236 721 228 712T205 703Q191 703 182 712T173 734Z"  />
<glyph unicode="&#xD0;" horiz-adv-x="597" d="M24 330H91V623H269Q341 623 390 605T471 548T515 451T529 313Q529 235 516 177T472 79T391 20T269 0H91V293H24V330ZM269 44Q332 44 373 60T438 110T472 194T482 311Q482 377 473 427T439 510T374 561T269 579H138V330H248V293H138V44H269Z"  />
<glyph unicode="&#xD1;" horiz-adv-x="614" d="M88 623H138L479 80V623H526V0H476L135 543V0H88V623ZM166 692Q166 736 183 761T239 787Q261 787 279 776T314 752T345 727T376 716Q399 716 405 734T412 778H447Q447 734 431 709T373 683Q351 683 333 694T299 718T268 743T237 754Q214 754 208 736T201 692H166H166Z"  />
<glyph unicode="&#xD2;" horiz-adv-x="624" d="M508 311Q508 375 501 426T472 513T412 568T312 587Q250 587 212 568T152 513T123 426T115 311Q115 247 122 196T152 110T212 55T312 36Q373 36 411 55T471 109T500 196T508 311ZM312 -9Q240 -9 193 13T118 76T79 176T68 311Q68 386 79 445T118 545T193 609T312 631Q384 631 431 610T506 547T545 446T556 311Q556 236 545 177T505 77T430 13T312 -9ZM230 803H274L353 667H312L230 803Z"  />
<glyph unicode="&#xD3;" horiz-adv-x="624" d="M508 311Q508 375 501 426T472 513T412 568T312 587Q250 587 212 568T152 513T123 426T115 311Q115 247 122 196T152 110T212 55T312 36Q373 36 411 55T471 109T500 196T508 311ZM312 -9Q240 -9 193 13T118 76T79 176T68 311Q68 386 79 445T118 545T193 609T312 631Q384 631 431 610T506 547T545 446T556 311Q556 236 545 177T505 77T430 13T312 -9ZM408 803L325 667H285L364 803H408Z"  />
<glyph unicode="&#xD4;" horiz-adv-x="624" d="M508 311Q508 375 501 426T472 513T412 568T312 587Q250 587 212 568T152 513T123 426T115 311Q115 247 122 196T152 110T212 55T312 36Q373 36 411 55T471 109T500 196T508 311ZM312 -9Q240 -9 193 13T118 76T79 176T68 311Q68 386 79 445T118 545T193 609T312 631Q384 631 431 610T506 547T545 446T556 311Q556 236 545 177T505 77T430 13T312 -9ZM286 803H329L419 667H377L309 775H307L240 667H198L286 803Z"  />
<glyph unicode="&#xD5;" horiz-adv-x="624" d="M508 311Q508 375 501 426T472 513T412 568T312 587Q250 587 212 568T152 513T123 426T115 311Q115 247 122 196T152 110T212 55T312 36Q373 36 411 55T471 109T500 196T508 311ZM312 -9Q240 -9 193 13T118 76T79 176T68 311Q68 386 79 445T118 545T193 609T312 631Q384 631 431 610T506 547T545 446T556 311Q556 236 545 177T505 77T430 13T312 -9ZM167 692Q167 736 184 761T240 787Q262 787 280 776T315 752T346 727T377 716Q400 716 406 734T413 778H448Q448 734 432 709T374 683Q352 683 334 694T300 718T269 743T238 754Q215 754 209 736T202 692H167H167Z"  />
<glyph unicode="&#xD6;" horiz-adv-x="624" d="M508 311Q508 375 501 426T472 513T412 568T312 587Q250 587 212 568T152 513T123 426T115 311Q115 247 122 196T152 110T212 55T312 36Q373 36 411 55T471 109T500 196T508 311ZM312 -9Q240 -9 193 13T118 76T79 176T68 311Q68 386 79 445T118 545T193 609T312 631Q384 631 431 610T506 547T545 446T556 311Q556 236 545 177T505 77T430 13T312 -9ZM190 733Q190 747 199 756T222 766Q236 766 244 757T253 733Q253 720 245 711T222 702Q208 702 199 711T190 733ZM362 733Q362 747 371 756T394 766Q408 766 416 757T425 733Q425 720 417 711T394 702Q380 702 371 711T362 733Z"  />
<glyph unicode="&#xD7;" horiz-adv-x="529" d="M461 144L432 115L265 283L97 115L68 144L236 312L68 479L97 508L265 340L432 508L461 479L293 312L461 144Z"  />
<glyph unicode="&#xD8;" horiz-adv-x="624" d="M119 75Q91 117 80 176T68 311Q68 386 79 445T118 545T193 609T312 631Q369 631 409 618T479 578L509 620L539 598L503 548Q532 507 544 448T556 311Q556 236 545 177T505 77T430 13T312 -9Q254 -9 213 5T144 46L115 5L84 27L119 75ZM508 311Q508 373 501 422T473 507L172 83Q195 60 228 48T312 36Q373 36 411 55T471 109T500 196T508 311ZM115 311Q115 249 122 200T150 116L450 539Q427 562 394 574T312 587Q250 587 212 568T152 513T123 426T115 311Z"  />
<glyph unicode="&#xD9;" horiz-adv-x="614" d="M78 623H125V245Q125 186 137 147T172 82T229 47T307 36Q351 36 385 46T442 82T477 146T489 245V623H536V245Q536 176 520 128T475 50T403 6T307 -8Q254 -8 212 6T140 50T94 128T78 245V623ZM213 803H257L336 667H295L213 803Z"  />
<glyph unicode="&#xDA;" horiz-adv-x="614" d="M78 623H125V245Q125 186 137 147T172 82T229 47T307 36Q351 36 385 46T442 82T477 146T489 245V623H536V245Q536 176 520 128T475 50T403 6T307 -8Q254 -8 212 6T140 50T94 128T78 245V623ZM402 803L319 667H279L358 803H402Z"  />
<glyph unicode="&#xDB;" horiz-adv-x="614" d="M78 623H125V245Q125 186 137 147T172 82T229 47T307 36Q351 36 385 46T442 82T477 146T489 245V623H536V245Q536 176 520 128T475 50T403 6T307 -8Q254 -8 212 6T140 50T94 128T78 245V623ZM285 803H328L418 667H376L308 775H306L239 667H197L285 803Z"  />
<glyph unicode="&#xDC;" horiz-adv-x="614" d="M78 623H125V245Q125 186 137 147T172 82T229 47T307 36Q351 36 385 46T442 82T477 146T489 245V623H536V245Q536 176 520 128T475 50T403 6T307 -8Q254 -8 212 6T140 50T94 128T78 245V623ZM191 733Q191 747 200 756T223 766Q237 766 245 757T254 733Q254 720 246 711T223 702Q209 702 200 711T191 733ZM363 733Q363 747 372 756T395 766Q409 766 417 757T426 733Q426 720 418 711T395 702Q381 702 372 711T363 733Z"  />
<glyph unicode="&#xDD;" horiz-adv-x="594" d="M321 243V0H274V241L24 623H78L297 287L517 623H570L321 243ZM400 803L317 667H277L356 803H400Z"  />
<glyph unicode="&#xDE;" horiz-adv-x="566" d="M88 623H137V502H299Q362 502 405 488T475 449T514 389T526 312Q526 270 514 236T474 176T404 136T299 122H137V0H88V623ZM137 457V166H299Q350 166 384 176T438 205T468 251T477 312Q477 345 468 372T438 417T383 446T299 457H137Z"  />
<glyph unicode="&#xDF;" horiz-adv-x="518" d="M459 132Q459 97 446 71T408 27T352 1T281 -8Q258 -8 235 -5T197 4V54Q216 43 235 40T277 36Q351 36 381 62T412 131Q412 160 400 177T368 205T327 225T286 244T255 273T242 321Q242 345 251 361T273 390T301 412T330 433T352 460T361 497Q361 536 333 561T253 587Q224 587 199 577T156 545T127 489T116 407V0H69V403Q69 463 83 506T121 576T180 617T254 631Q292 631 320 620T368 590T398 547T408 495Q408 455 389 432T348 391T307 359T288 320Q288 302 300 291T332 269T373 250T415 225T446 188T459 132Z"  />
<glyph unicode="&#xE0;" d="M410 20Q380 10 335 2T239 -7Q200 -7 167 0T108 23T68 67T53 136Q53 215 108 247T267 280H365V336Q365 394 329 416T230 438Q188 438 156 432T101 417L94 460Q121 468 154 474T230 480Q269 480 302 473T359 448T396 403T410 335V20ZM365 242H269Q187 242 143 220T98 135Q98 77 136 56T239 34Q268 34 303 38T365 51V242ZM172 660H216L295 524H254L172 660Z"  />
<glyph unicode="&#xE1;" d="M410 20Q380 10 335 2T239 -7Q200 -7 167 0T108 23T68 67T53 136Q53 215 108 247T267 280H365V336Q365 394 329 416T230 438Q188 438 156 432T101 417L94 460Q121 468 154 474T230 480Q269 480 302 473T359 448T396 403T410 335V20ZM365 242H269Q187 242 143 220T98 135Q98 77 136 56T239 34Q268 34 303 38T365 51V242ZM320 660L237 524H197L276 660H320Z"  />
<glyph unicode="&#xE2;" d="M410 20Q380 10 335 2T239 -7Q200 -7 167 0T108 23T68 67T53 136Q53 215 108 247T267 280H365V336Q365 394 329 416T230 438Q188 438 156 432T101 417L94 460Q121 468 154 474T230 480Q269 480 302 473T359 448T396 403T410 335V20ZM365 242H269Q187 242 143 220T98 135Q98 77 136 56T239 34Q268 34 303 38T365 51V242ZM230 660H273L363 524H321L253 632H251L184 524H142L230 660Z"  />
<glyph unicode="&#xE3;" d="M410 20Q380 10 335 2T239 -7Q200 -7 167 0T108 23T68 67T53 136Q53 215 108 247T267 280H365V336Q365 394 329 416T230 438Q188 438 156 432T101 417L94 460Q121 468 154 474T230 480Q269 480 302 473T359 448T396 403T410 335V20ZM365 242H269Q187 242 143 220T98 135Q98 77 136 56T239 34Q268 34 303 38T365 51V242ZM98 548Q98 592 115 617T171 643Q193 643 211 632T246 608T277 583T308 572Q331 572 337 590T344 634H379Q379 590 363 565T305 539Q283 539 265 550T231 574T200 599T169 610Q146 610 140 592T133 548H98H98Z"  />
<glyph unicode="&#xE4;" d="M410 20Q380 10 335 2T239 -7Q200 -7 167 0T108 23T68 67T53 136Q53 215 108 247T267 280H365V336Q365 394 329 416T230 438Q188 438 156 432T101 417L94 460Q121 468 154 474T230 480Q269 480 302 473T359 448T396 403T410 335V20ZM365 242H269Q187 242 143 220T98 135Q98 77 136 56T239 34Q268 34 303 38T365 51V242ZM124 590Q124 604 133 613T156 623Q170 623 178 614T187 590Q187 577 179 568T156 559Q142 559 133 568T124 590ZM296 590Q296 604 305 613T328 623Q342 623 350 614T359 590Q359 577 351 568T328 559Q314 559 305 568T296 590Z"  />
<glyph unicode="&#xE5;" d="M410 20Q380 10 335 2T239 -7Q200 -7 167 0T108 23T68 67T53 136Q53 215 108 247T267 280H365V336Q365 394 329 416T230 438Q188 438 156 432T101 417L94 460Q121 468 154 474T230 480Q269 480 302 473T359 448T396 403T410 335V20ZM365 242H269Q187 242 143 220T98 135Q98 77 136 56T239 34Q268 34 303 38T365 51V242ZM247 510Q209 510 187 533T165 591Q165 628 187 650T247 673Q286 673 308 651T330 591Q330 556 308 533T247 510ZM247 539Q274 539 287 555T300 591Q300 614 287 629T247 645Q221 645 208 630T195 591Q195 571 208 555T247 539Z"  />
<glyph unicode="&#xE6;" horiz-adv-x="820" d="M760 276Q760 260 759 245T753 217H410V213Q410 165 422 131T458 76T514 46T590 36Q631 36 670 43T738 62L745 21Q710 7 670 0T591 -7Q557 -7 525 -1T467 19T420 55T387 111Q378 76 363 54T326 18T280 -1T226 -7Q191 -7 160 0T105 23T67 67T53 136Q53 215 107 247T267 280H365V336Q365 394 329 416T230 438Q188 438 156 432T101 417L94 460Q121 468 154 474T229 480Q291 480 336 460T399 390Q421 432 460 456T564 480Q655 480 707 429T760 276ZM365 242H269Q187 242 143 220T98 135Q98 79 132 57T222 34Q258 34 284 43T329 74T356 129T365 213V242ZM410 258H717V264Q717 358 675 398T563 438Q528 438 500 429T452 399T421 345T410 264V258Z"  />
<glyph unicode="&#xE7;" horiz-adv-x="449" d="M63 234Q63 288 74 333T111 411T178 462T278 480Q318 480 347 473T400 453L392 411Q374 421 348 429T280 437Q228 437 195 422T143 380T116 316T108 236Q108 129 149 83T284 36Q312 36 343 41T403 60L410 18Q384 7 356 1T298 -7L288 -45Q330 -37 357 -54T385 -109Q385 -130 377 -144T356 -168T327 -181T292 -186Q261 -186 233 -175L238 -144Q256 -154 290 -154Q312 -154 330 -145T349 -109Q349 -87 333 -79T297 -71Q283 -71 271 -73T248 -77L266 -6Q163 -2 113 56T63 234Z"  />
<glyph unicode="&#xE8;" horiz-adv-x="516" d="M457 276Q457 260 456 245T450 217H107V213Q107 117 154 77T284 36Q329 36 368 46T435 71L442 30Q407 13 368 3T282 -7Q173 -7 118 51T62 237Q62 288 71 332T104 409T166 461T261 480Q352 480 404 429T457 276ZM107 258H414V264Q414 358 372 398T260 438Q225 438 197 429T149 399T118 345T107 264V258ZM175 659H219L298 523H257L175 659Z"  />
<glyph unicode="&#xE9;" horiz-adv-x="516" d="M457 276Q457 260 456 245T450 217H107V213Q107 117 154 77T284 36Q329 36 368 46T435 71L442 30Q407 13 368 3T282 -7Q173 -7 118 51T62 237Q62 288 71 332T104 409T166 461T261 480Q352 480 404 429T457 276ZM107 258H414V264Q414 358 372 398T260 438Q225 438 197 429T149 399T118 345T107 264V258ZM353 660L270 524H230L309 660H353Z"  />
<glyph unicode="&#xEA;" horiz-adv-x="516" d="M457 276Q457 260 456 245T450 217H107V213Q107 117 154 77T284 36Q329 36 368 46T435 71L442 30Q407 13 368 3T282 -7Q173 -7 118 51T62 237Q62 288 71 332T104 409T166 461T261 480Q352 480 404 429T457 276ZM107 258H414V264Q414 358 372 398T260 438Q225 438 197 429T149 399T118 345T107 264V258ZM246 660H289L379 524H337L269 632H267L200 524H158L246 660Z"  />
<glyph unicode="&#xEB;" horiz-adv-x="516" d="M457 276Q457 260 456 245T450 217H107V213Q107 117 154 77T284 36Q329 36 368 46T435 71L442 30Q407 13 368 3T282 -7Q173 -7 118 51T62 237Q62 288 71 332T104 409T166 461T261 480Q352 480 404 429T457 276ZM107 258H414V264Q414 358 372 398T260 438Q225 438 197 429T149 399T118 345T107 264V258ZM142 591Q142 605 151 614T174 624Q188 624 196 615T205 591Q205 578 197 569T174 560Q160 560 151 569T142 591ZM314 591Q314 605 323 614T346 624Q360 624 368 615T377 591Q377 578 369 569T346 560Q332 560 323 569T314 591Z"  />
<glyph unicode="&#xEC;" horiz-adv-x="219" d="M87 473H132V0H87V473ZM6 659H50L129 523H88L6 659Z"  />
<glyph unicode="&#xED;" horiz-adv-x="219" d="M87 473H132V0H87V473ZM209 659L126 523H86L165 659H209Z"  />
<glyph unicode="&#xEE;" horiz-adv-x="219" d="M87 473H132V0H87V473ZM87 659H130L220 523H178L110 631H108L41 523H-1L87 659Z"  />
<glyph unicode="&#xEF;" horiz-adv-x="219" d="M87 473H132V0H87V473ZM-8 591Q-8 605 1 614T24 624Q38 624 46 615T55 591Q55 578 47 569T24 560Q10 560 1 569T-8 591ZM164 591Q164 605 173 614T196 624Q210 624 218 615T227 591Q227 578 219 569T196 560Q182 560 173 569T164 591Z"  />
<glyph unicode="&#xF0;" horiz-adv-x="524" d="M269 598Q232 618 197 627T119 641L132 684Q174 679 216 667T302 631L382 711L407 687L331 611Q368 584 392 551T430 480T450 397T456 302Q456 236 447 180T414 82T349 16T244 -8Q202 -8 166 3T105 39T65 99T50 186Q50 283 104 328T250 374Q289 374 329 366T408 337Q406 422 382 480T299 579L200 480L175 504L269 598ZM251 331Q219 331 191 324T142 301T109 256T97 185Q97 107 138 72T243 36Q294 36 326 55T376 109T401 189T408 290Q370 309 332 320T251 331Z"  />
<glyph unicode="&#xF1;" horiz-adv-x="533" d="M83 444Q110 456 157 468T271 480Q313 480 347 473T407 444T446 386T460 291V0H416V290Q416 338 406 367T376 411T331 432T272 437Q224 437 190 431T128 412V0H83V444ZM122 549Q122 593 139 618T195 644Q217 644 235 633T270 609T301 584T332 573Q355 573 361 591T368 635H403Q403 591 387 566T329 540Q307 540 289 551T255 575T224 600T193 611Q170 611 164 593T157 549H122H122Z"  />
<glyph unicode="&#xF2;" horiz-adv-x="524" d="M417 237Q417 283 410 320T386 383T338 423T262 437Q217 437 187 423T140 383T115 320T108 237Q108 191 115 154T139 91T187 50T262 36Q308 36 338 50T385 90T410 154T417 237ZM262 -7Q205 -7 167 11T106 61T73 139T63 237Q63 289 73 334T106 411T167 461T262 480Q319 480 357 462T419 412T452 335T462 237Q462 184 452 140T419 63T357 12T262 -7ZM169 660H213L292 524H251L169 660Z"  />
<glyph unicode="&#xF3;" horiz-adv-x="524" d="M417 237Q417 283 410 320T386 383T338 423T262 437Q217 437 187 423T140 383T115 320T108 237Q108 191 115 154T139 91T187 50T262 36Q308 36 338 50T385 90T410 154T417 237ZM262 -7Q205 -7 167 11T106 61T73 139T63 237Q63 289 73 334T106 411T167 461T262 480Q319 480 357 462T419 412T452 335T462 237Q462 184 452 140T419 63T357 12T262 -7ZM357 660L274 524H234L313 660H357Z"  />
<glyph unicode="&#xF4;" horiz-adv-x="524" d="M417 237Q417 283 410 320T386 383T338 423T262 437Q217 437 187 423T140 383T115 320T108 237Q108 191 115 154T139 91T187 50T262 36Q308 36 338 50T385 90T410 154T417 237ZM262 -7Q205 -7 167 11T106 61T73 139T63 237Q63 289 73 334T106 411T167 461T262 480Q319 480 357 462T419 412T452 335T462 237Q462 184 452 140T419 63T357 12T262 -7ZM240 659H283L373 523H331L263 631H261L194 523H152L240 659Z"  />
<glyph unicode="&#xF5;" horiz-adv-x="524" d="M417 237Q417 283 410 320T386 383T338 423T262 437Q217 437 187 423T140 383T115 320T108 237Q108 191 115 154T139 91T187 50T262 36Q308 36 338 50T385 90T410 154T417 237ZM262 -7Q205 -7 167 11T106 61T73 139T63 237Q63 289 73 334T106 411T167 461T262 480Q319 480 357 462T419 412T452 335T462 237Q462 184 452 140T419 63T357 12T262 -7ZM123 549Q123 593 140 618T196 644Q218 644 236 633T271 609T302 584T333 573Q356 573 362 591T369 635H404Q404 591 388 566T330 540Q308 540 290 551T256 575T225 600T194 611Q171 611 165 593T158 549H123H123Z"  />
<glyph unicode="&#xF6;" horiz-adv-x="524" d="M417 237Q417 283 410 320T386 383T338 423T262 437Q217 437 187 423T140 383T115 320T108 237Q108 191 115 154T139 91T187 50T262 36Q308 36 338 50T385 90T410 154T417 237ZM262 -7Q205 -7 167 11T106 61T73 139T63 237Q63 289 73 334T106 411T167 461T262 480Q319 480 357 462T419 412T452 335T462 237Q462 184 452 140T419 63T357 12T262 -7ZM145 591Q145 605 154 614T177 624Q191 624 199 615T208 591Q208 578 200 569T177 560Q163 560 154 569T145 591ZM317 591Q317 605 326 614T349 624Q363 624 371 615T380 591Q380 578 372 569T349 560Q335 560 326 569T317 591Z"  />
<glyph unicode="&#xF7;" horiz-adv-x="575" d="M245 133Q245 150 256 161T284 173Q301 173 312 162T324 133Q324 116 313 105T284 94Q267 94 256 105T245 133ZM245 490Q245 507 256 518T284 529Q301 529 312 518T324 490Q324 473 313 462T284 450Q267 450 256 461T245 490ZM500 292H68V331H500V292Z"  />
<glyph unicode="&#xF8;" horiz-adv-x="524" d="M413 417Q439 385 450 339T462 237Q462 184 452 140T419 63T357 12T262 -7Q220 -7 190 2T136 30L111 -5L83 16L111 55Q85 88 74 134T63 237Q63 289 73 334T106 411T167 461T262 480Q303 480 334 470T388 442L413 479L442 457L413 417ZM108 237Q108 191 115 155T139 93L362 408Q344 422 320 429T262 437Q217 437 187 423T140 383T115 320T108 237ZM417 237Q417 282 410 318T385 380L163 65Q198 36 262 36Q308 36 338 50T385 90T410 154T417 237Z"  />
<glyph unicode="&#xF9;" horiz-adv-x="533" d="M450 29Q423 17 375 5T261 -7Q220 -7 186 0T126 29T87 86T73 182V473H117V183Q117 135 127 106T157 62T202 41T261 36Q309 36 343 42T405 61V473H450V29ZM175 659H219L298 523H257L175 659Z"  />
<glyph unicode="&#xFA;" horiz-adv-x="533" d="M450 29Q423 17 375 5T261 -7Q220 -7 186 0T126 29T87 86T73 182V473H117V183Q117 135 127 106T157 62T202 41T261 36Q309 36 343 42T405 61V473H450V29ZM364 659L281 523H241L320 659H364Z"  />
<glyph unicode="&#xFB;" horiz-adv-x="533" d="M450 29Q423 17 375 5T261 -7Q220 -7 186 0T126 29T87 86T73 182V473H117V183Q117 135 127 106T157 62T202 41T261 36Q309 36 343 42T405 61V473H450V29ZM239 659H282L372 523H330L262 631H260L193 523H151L239 659Z"  />
<glyph unicode="&#xFC;" horiz-adv-x="533" d="M450 29Q423 17 375 5T261 -7Q220 -7 186 0T126 29T87 86T73 182V473H117V183Q117 135 127 106T157 62T202 41T261 36Q309 36 343 42T405 61V473H450V29ZM147 591Q147 605 156 614T179 624Q193 624 201 615T210 591Q210 578 202 569T179 560Q165 560 156 569T147 591ZM319 591Q319 605 328 614T351 624Q365 624 373 615T382 591Q382 578 374 569T351 560Q337 560 328 569T319 591Z"  />
<glyph unicode="&#xFD;" horiz-adv-x="533" d="M450 -38Q450 -87 436 -119T395 -169T333 -195T253 -203Q205 -203 169 -197T98 -177L104 -135Q135 -147 169 -154T255 -161Q289 -161 317 -156T364 -138T394 -100T405 -38V23Q382 9 348 1T271 -7Q226 -7 190 0T127 28T87 86T73 183V473H117V183Q117 133 127 104T158 60T207 41T272 36Q303 36 339 42T405 66V473H450V-38ZM364 659L281 523H241L320 659H364Z"  />
<glyph unicode="&#xFE;" horiz-adv-x="523" d="M83 673H128V459Q148 468 177 474T242 480Q304 480 346 463T413 413T450 337T461 238Q461 182 449 137T410 59T342 10T243 -7Q214 -7 186 -3T128 14V-191H83V673ZM415 236Q415 280 408 317T381 380T327 422T240 437Q196 437 169 429T128 414V60Q152 47 182 42T242 36Q335 36 375 84T415 236Z"  />
<glyph unicode="&#xFF;" horiz-adv-x="533" d="M450 -38Q450 -87 436 -119T395 -169T333 -195T253 -203Q205 -203 169 -197T98 -177L104 -135Q135 -147 169 -154T255 -161Q289 -161 317 -156T364 -138T394 -100T405 -38V23Q382 9 348 1T271 -7Q226 -7 190 0T127 28T87 86T73 183V473H117V183Q117 133 127 104T158 60T207 41T272 36Q303 36 339 42T405 66V473H450V-38ZM153 591Q153 605 162 614T185 624Q199 624 207 615T216 591Q216 578 208 569T185 560Q171 560 162 569T153 591ZM325 591Q325 605 334 614T357 624Q371 624 379 615T388 591Q388 578 380 569T357 560Q343 560 334 569T325 591Z"  />
<glyph unicode="&#x104;" horiz-adv-x="602" d="M523 0L447 191H154L79 0H29L276 623H326L572 0Q541 -19 522 -34T492 -61T477 -85T473 -106Q473 -129 486 -139T522 -150Q530 -150 542 -148T568 -141L572 -175Q553 -180 540 -182T515 -184Q478 -184 457 -164T436 -109Q436 -70 463 -46T530 0H523ZM171 235H430L301 562L171 235Z"  />
<glyph unicode="&#x105;" d="M410 20Q379 1 360 -14T330 -43T315 -67T311 -88Q311 -111 324 -121T360 -132Q368 -132 380 -130T406 -123L410 -157Q391 -162 378 -164T353 -166Q316 -166 295 -146T274 -91Q274 -75 281 -61T299 -33T324 -9T353 10Q329 2 298 -2T239 -7Q200 -7 167 0T108 23T68 67T53 136Q53 215 108 247T267 280H365V336Q365 394 329 416T230 438Q188 438 156 432T101 417L94 460Q121 468 154 474T230 480Q269 480 302 473T359 448T396 403T410 335V20ZM365 242H269Q187 242 143 220T98 135Q98 77 136 56T239 34Q268 34 303 38T365 51V242Z"  />
<glyph unicode="&#x106;" horiz-adv-x="547" d="M116 312Q116 244 125 192T158 106T219 54T315 36Q378 36 423 52T490 86L497 41Q482 31 466 22T428 7T381 -4T321 -8Q252 -8 204 11T125 69T82 167T68 309Q68 390 81 450T123 551T200 611T317 631Q348 631 372 627T417 617T454 602T488 584L481 538Q444 560 405 573T313 587Q256 587 219 570T158 519T126 433T116 312ZM384 803L301 667H261L340 803H384Z"  />
<glyph unicode="&#x107;" horiz-adv-x="449" d="M63 234Q63 288 74 333T111 411T178 462T278 480Q318 480 347 473T400 453L392 411Q374 421 348 429T280 437Q228 437 195 422T143 380T116 316T108 236Q108 129 149 83T284 36Q312 36 343 41T403 60L410 18Q381 5 347 -1T280 -7Q171 -7 117 52T63 234ZM340 659L257 523H217L296 659H340Z"  />
<glyph unicode="&#x118;" horiz-adv-x="536" d="M88 0V623H486V579H135V350H446V306H135V44H486V0Q455 -19 436 -34T405 -61T390 -85T386 -106Q386 -129 400 -139T436 -150Q444 -150 456 -148T482 -141L486 -175Q467 -180 454 -182T429 -184Q392 -184 371 -164T350 -109Q350 -70 377 -46T444 0H88Z"  />
<glyph unicode="&#x119;" horiz-adv-x="516" d="M457 276Q457 260 456 245T450 217H107V213Q107 117 154 77T284 36Q329 36 368 46T435 71L442 30Q411 11 392 -4T361 -33T346 -57T342 -78Q342 -101 356 -111T392 -122Q400 -122 412 -120T438 -113L441 -147Q422 -152 409 -154T385 -156Q347 -156 327 -136T306 -81Q306 -55 324 -32T362 5Q344 -2 323 -4T282 -7Q173 -7 118 51T62 237Q62 288 71 332T104 409T166 461T261 480Q352 480 404 429T457 276ZM107 258H414V264Q414 358 372 398T260 438Q225 438 197 429T149 399T118 345T107 264V258Z"  />
<glyph unicode="&#x131;" horiz-adv-x="219" d="M87 473H132V0H87V473Z"  />
<glyph unicode="&#x141;" horiz-adv-x="477" d="M20 343L90 368V623H137V385L248 425L261 390L137 346V44H448V0H90V329L33 308L20 343Z"  />
<glyph unicode="&#x142;" horiz-adv-x="264" d="M15 362L81 386V673H126V402L200 429L214 395L126 363V128Q126 74 143 56T189 38Q219 38 239 47L245 6Q236 1 222 -2T188 -5Q165 -5 146 1T112 23T89 63T81 125V347L29 328L15 362Z"  />
<glyph unicode="&#x143;" horiz-adv-x="614" d="M88 623H138L479 80V623H526V0H476L135 543V0H88V623ZM419 803L336 667H296L375 803H419Z"  />
<glyph unicode="&#x144;" horiz-adv-x="533" d="M83 444Q110 456 157 468T271 480Q313 480 347 473T407 444T446 386T460 291V0H416V290Q416 338 406 367T376 411T331 432T272 437Q224 437 190 431T128 412V0H83V444ZM356 660L273 524H233L312 660H356Z"  />
<glyph unicode="&#x152;" horiz-adv-x="954" d="M312 -9Q240 -9 193 13T118 76T79 176T68 311Q68 386 79 445T118 545T193 609T312 631Q387 631 437 604T507 521V623H904V579H553V350H864V306H553V44H904V0H507V102Q487 46 437 19T312 -9ZM507 311Q507 375 500 426T471 513T411 568T312 587Q250 587 212 568T152 513T123 426T115 311Q115 247 122 196T152 110T212 55T312 36Q373 36 411 55T470 109T499 196T507 311Z"  />
<glyph unicode="&#x153;" horiz-adv-x="869" d="M810 276Q810 241 803 217H460V213Q460 165 472 131T508 76T564 46T640 36Q681 36 720 43T788 62L795 21Q760 7 721 0T639 -7Q562 -7 512 20T438 117Q419 54 377 24T262 -7Q205 -7 167 11T106 61T73 139T63 237Q63 289 73 334T106 411T167 461T262 480Q336 480 377 450T439 356Q459 418 500 449T614 480Q705 480 757 429T810 276ZM417 237Q417 283 410 320T386 383T338 423T262 437Q217 437 187 423T140 383T115 320T108 237Q108 191 115 154T139 91T187 50T262 36Q308 36 338 50T385 90T410 154T417 237ZM460 258H767V264Q767 358 725 398T613 438Q578 438 550 429T502 399T471 345T460 264V258Z"  />
<glyph unicode="&#x15A;" horiz-adv-x="527" d="M72 85Q105 62 150 51T243 39Q280 39 312 45T369 66T408 103T422 159Q422 200 396 224T331 265T245 296T160 331T94 384T68 471Q68 514 85 544T130 594T194 621T269 630Q320 630 367 617T447 582L433 538Q403 560 360 572T273 584Q241 584 212 578T162 559T128 525T115 473Q115 429 141 404T206 361T292 329T377 295T443 244T469 159Q469 115 450 83T399 31T327 2T245 -8Q192 -8 143 5T58 41L72 85ZM353 803L270 667H230L309 803H353Z"  />
<glyph unicode="&#x15B;" horiz-adv-x="471" d="M69 63Q84 58 103 53T144 44T186 38T227 36Q255 36 279 40T323 55T353 83T364 124Q364 157 343 174T289 202T219 221T149 243T95 281T73 350Q73 385 87 409T124 450T179 473T243 480Q282 480 320 472T389 449L382 407Q353 421 315 429T241 437Q216 437 194 433T155 418T128 391T118 352Q118 319 139 302T193 274T263 255T333 233T387 195T409 126Q409 90 395 65T355 24T296 1T224 -7Q182 -7 140 1T63 21L69 63ZM326 660L243 524H203L282 660H326Z"  />
<glyph unicode="&#x160;" horiz-adv-x="527" d="M72 85Q105 62 150 51T243 39Q280 39 312 45T369 66T408 103T422 159Q422 200 396 224T331 265T245 296T160 331T94 384T68 471Q68 514 85 544T130 594T194 621T269 630Q320 630 367 617T447 582L433 538Q403 560 360 572T273 584Q241 584 212 578T162 559T128 525T115 473Q115 429 141 404T206 361T292 329T377 295T443 244T469 159Q469 115 450 83T399 31T327 2T245 -8Q192 -8 143 5T58 41L72 85ZM158 803H200L267 695H269L337 803H380L289 667H247L158 803Z"  />
<glyph unicode="&#x161;" horiz-adv-x="471" d="M69 63Q84 58 103 53T144 44T186 38T227 36Q255 36 279 40T323 55T353 83T364 124Q364 157 343 174T289 202T219 221T149 243T95 281T73 350Q73 385 87 409T124 450T179 473T243 480Q282 480 320 472T389 449L382 407Q353 421 315 429T241 437Q216 437 194 433T155 418T128 391T118 352Q118 319 139 302T193 274T263 255T333 233T387 195T409 126Q409 90 395 65T355 24T296 1T224 -7Q182 -7 140 1T63 21L69 63ZM139 660H181L248 552H250L318 660H361L270 524H228L139 660Z"  />
<glyph unicode="&#x178;" horiz-adv-x="594" d="M321 243V0H274V241L24 623H78L297 287L517 623H570L321 243ZM180 734Q180 748 189 757T212 767Q226 767 234 758T243 734Q243 721 235 712T212 703Q198 703 189 712T180 734ZM352 734Q352 748 361 757T384 767Q398 767 406 758T415 734Q415 721 407 712T384 703Q370 703 361 712T352 734Z"  />
<glyph unicode="&#x179;" horiz-adv-x="544" d="M63 623H481V586L106 44H501V0H43V37L420 579H63V623ZM360 803L277 667H237L316 803H360Z"  />
<glyph unicode="&#x17A;" horiz-adv-x="482" d="M54 473H428V436L113 42H428V0H54V38L369 431H54V473ZM322 660L239 524H199L278 660H322Z"  />
<glyph unicode="&#x17B;" horiz-adv-x="544" d="M63 623H481V586L106 44H501V0H43V37L420 579H63V623ZM238 734Q238 751 249 762T277 773Q294 773 304 762T315 734Q315 718 305 707T277 696Q260 696 249 707T238 734Z"  />
<glyph unicode="&#x17C;" horiz-adv-x="482" d="M54 473H428V436L113 42H428V0H54V38L369 431H54V473ZM207 591Q207 608 218 619T246 630Q263 630 273 619T284 591Q284 575 274 564T246 553Q229 553 218 564T207 591Z"  />
<glyph unicode="&#x17D;" horiz-adv-x="544" d="M63 623H481V586L106 44H501V0H43V37L420 579H63V623ZM165 803H207L274 695H276L344 803H387L296 667H254L165 803Z"  />
<glyph unicode="&#x17E;" horiz-adv-x="482" d="M54 473H428V436L113 42H428V0H54V38L369 431H54V473ZM132 659H174L241 551H243L311 659H354L263 523H221L132 659Z"  />
<glyph unicode="&#x192;" horiz-adv-x="423" d="M69 330H200L222 472Q227 505 236 534T262 585T304 619T367 632Q384 632 397 630T421 625V583Q404 587 395 588T372 590Q353 590 337 586T308 569T284 533T268 471L246 330H410V293H240L204 67Q196 18 186 -24T159 -96T114 -144T43 -162Q21 -162 2 -156V-113Q10 -116 19 -118T39 -120Q71 -120 91 -106T124 -67T144 -6T158 70L194 293H69V330Z"  />
<glyph unicode="&#x2C6;" horiz-adv-x="345" d="M150 886H193L283 750H241L173 858H171L104 750H62L150 886Z"  />
<glyph unicode="&#x2C7;" horiz-adv-x="340" d="M59 886H101L168 778H170L238 886H281L190 750H148L59 886Z"  />
<glyph unicode="&#x2D8;" horiz-adv-x="419" d="M209 750Q158 750 125 775T91 851V861H127V851Q127 815 150 799T209 782Q244 782 268 798T292 852V861H327V851Q327 802 294 776T209 750Z"  />
<glyph unicode="&#x2D9;" horiz-adv-x="193" d="M58 788Q58 805 69 816T97 827Q114 827 124 816T135 788Q135 772 125 761T97 750Q80 750 69 761T58 788Z"  />
<glyph unicode="&#x2DA;" horiz-adv-x="283" d="M141 750Q103 750 81 773T59 831Q59 868 81 890T141 913Q180 913 202 891T224 831Q224 796 202 773T141 750ZM141 779Q168 779 181 795T194 831Q194 854 181 869T141 885Q115 885 102 870T89 831Q89 811 102 795T141 779Z"  />
<glyph unicode="&#x2DB;" horiz-adv-x="250" d="M195 0Q164 -18 145 -33T115 -60T100 -84T96 -105Q96 -115 99 -124Q108 -150 145 -150Q153 -150 165 -148T191 -141L195 -175Q176 -180 163 -182T138 -184Q101 -184 80 -164T59 -109Q59 -70 86 -46T153 0H195Z"  />
<glyph unicode="&#x2DC;" horiz-adv-x="459" d="M89 777Q89 821 106 846T162 872Q184 872 202 861T237 837T268 812T299 801Q322 801 328 819T335 863H370Q370 819 354 794T296 768Q274 768 256 779T222 803T191 828T160 839Q137 839 131 821T124 777H89H89Z"  />
<glyph unicode="&#x2DD;" horiz-adv-x="338" d="M156 886H200L118 750H77L156 886ZM216 886H260L178 750H138L216 886Z"  />
<glyph unicode="&#x2013;" horiz-adv-x="410" d="M0 331H410V292H0V331Z"  />
<glyph unicode="&#x2014;" horiz-adv-x="821" d="M0 331H821V292H0V331Z"  />
<glyph unicode="&#x2018;" horiz-adv-x="203" d="M144 522Q144 505 133 494T104 482Q89 482 81 490T67 510T61 536T59 564Q59 599 71 636T113 702L136 685Q113 659 103 624T96 560Q112 563 128 554T144 522Z"  />
<glyph unicode="&#x2019;" horiz-adv-x="203" d="M59 669Q59 686 70 697T99 708Q114 708 122 700T136 680T142 654T144 626Q144 592 132 555T90 489L67 506Q90 532 100 567T107 630Q91 627 75 637T59 669Z"  />
<glyph unicode="&#x201A;" horiz-adv-x="201" d="M57 35Q57 52 68 63T97 74Q112 74 121 66T135 46T141 20T143 -8Q143 -42 130 -79T88 -146L65 -128Q88 -102 98 -68T105 -4Q89 -7 73 2T57 35Z"  />
<glyph unicode="&#x201C;" horiz-adv-x="351" d="M292 522Q292 505 281 494T251 482Q236 482 228 490T214 510T208 536T206 564Q206 599 219 636T261 702L283 685Q260 659 251 624T244 560Q260 563 276 554T292 522ZM144 522Q144 505 133 494T104 482Q89 482 81 490T67 510T61 536T59 564Q59 599 71 636T113 702L136 685Q113 659 103 624T96 560Q112 563 128 554T144 522Z"  />
<glyph unicode="&#x201D;" horiz-adv-x="351" d="M59 669Q59 686 70 697T99 708Q114 708 122 700T136 680T142 654T144 626Q144 592 132 555T90 489L67 506Q90 532 100 567T107 630Q91 627 75 637T59 669ZM206 669Q206 686 217 697T246 708Q261 708 270 700T284 680T290 654T292 626Q292 592 279 555T237 489L215 506Q238 532 247 567T254 630Q238 627 222 637T206 669Z"  />
<glyph unicode="&#x201E;" horiz-adv-x="340" d="M195 35Q195 52 206 63T236 74Q251 74 259 66T273 46T279 20T281 -8Q281 -42 268 -79T227 -146L204 -128Q227 -102 237 -68T243 -4Q227 -7 211 2T195 35ZM57 35Q57 52 68 63T97 74Q112 74 121 66T135 46T141 20T143 -8Q143 -42 130 -79T88 -146L65 -128Q88 -102 98 -68T105 -4Q89 -7 73 2T57 35Z"  />
<glyph unicode="&#x2020;" horiz-adv-x="447" d="M411 447H243V-71H204V447H37V483H204V623H243V483H411V447Z"  />
<glyph unicode="&#x2021;" horiz-adv-x="474" d="M50 105H218V447H50V483H218V623H257V483H424V447H257V105H424V69H257V-71H218V69H50V105Z"  />
<glyph unicode="&#x2022;" horiz-adv-x="244" d="M199 310Q199 277 178 255T122 232Q88 232 67 254T45 310Q45 342 66 364T122 387Q156 387 177 365T199 310Z"  />
<glyph unicode="&#x2026;" horiz-adv-x="616" d="M476 35Q476 52 487 63T515 74Q532 74 543 63T555 35Q555 18 544 7T515 -5Q498 -5 487 6T476 35ZM268 35Q268 52 279 63T308 74Q325 74 336 63T347 35Q347 18 336 7T308 -5Q291 -5 280 6T268 35ZM61 35Q61 52 72 63T101 74Q118 74 129 63T140 35Q140 18 129 7T101 -5Q84 -5 73 6T61 35Z"  />
<glyph unicode="&#x2030;" horiz-adv-x="1140" d="M1092 162Q1092 117 1081 85T1049 33T1003 3T945 -7Q914 -7 888 2T841 32T810 85T798 162Q798 206 809 238T841 290T887 320T945 330Q976 330 1002 321T1049 291T1080 238T1092 162ZM1049 162Q1049 230 1019 260T945 290Q902 290 872 260T841 162Q841 125 849 101T871 61T905 40T945 33Q966 33 985 39T1018 61T1041 100T1049 162ZM585 623L260 0H212L536 623H585ZM352 462Q352 417 341 385T309 333T262 303T205 293Q174 293 148 302T101 332T70 385T58 462Q58 506 69 538T100 590T147 620T205 630Q236 630 262 621T309 591T340 538T352 462ZM309 462Q309 529 279 559T205 590Q162 590 132 560T101 462Q101 425 109 401T131 361T165 340T205 333Q226 333 245 339T278 361T301 400T309 462ZM738 162Q738 117 727 85T696 33T649 3T591 -7Q560 -7 534 2T487 32T456 85T444 162Q444 206 455 238T487 290T534 320T591 330Q622 330 648 321T695 291T726 238T738 162ZM695 162Q695 230 665 260T591 290Q548 290 518 260T487 162Q487 125 495 101T517 61T551 40T591 33Q612 33 631 39T664 61T687 100T695 162Z"  />
<glyph unicode="&#x2039;" horiz-adv-x="286" d="M189 53L39 250L189 447H236L86 250L236 53H189Z"  />
<glyph unicode="&#x203A;" horiz-adv-x="286" d="M50 53L200 250L50 447H96L247 250L96 53H50Z"  />
<glyph unicode="&#x2044;" horiz-adv-x="296" d="M296 644L40 -21H0L256 644H296Z"  />
<glyph unicode="&#x20AC;" horiz-adv-x="570" d="M150 312Q150 298 150 285T152 260H419L410 223H156Q170 127 219 82T350 36Q372 36 395 39T439 46T477 56T504 66L511 22Q487 11 446 2T354 -8Q250 -8 187 46T107 223H29V260H104Q103 271 103 283T102 309Q102 323 102 336T104 363H29V400H108Q125 521 187 576T351 631Q399 631 437 623T503 603L492 560Q464 571 425 579T345 587Q267 587 219 543T156 400H453L444 363H152Q150 351 150 339T150 312Z"  />
<glyph unicode="&#x2122;" horiz-adv-x="862" d="M802 242H765V578L624 242H597L452 578V242H414V623H472L611 298L745 623H802V242ZM331 588H200V242H162V588H31V623H331V588Z"  />
<glyph unicode="&#x2212;" horiz-adv-x="568" d="M500 292H68V331H500V292Z"  />
<glyph unicode="&#xFB01;" horiz-adv-x="569" d="M78 546Q78 589 89 618T121 666T170 692T232 700Q267 700 292 693T341 676L335 634Q313 643 289 650T232 657Q182 657 153 634T123 547V473H327V431H123V0H78V546ZM437 473H482V0H437V473ZM427 643Q427 657 436 667T460 677Q474 677 483 667T493 643Q493 629 484 620T460 611Q446 611 437 620T427 643Z"  />
<glyph unicode="&#xFB02;" horiz-adv-x="611" d="M78 546Q78 589 89 618T121 666T170 692T232 700Q267 700 292 693T341 676L335 634Q313 643 289 650T232 657Q182 657 153 634T123 547V473H327V431H123V0H78V546ZM428 673H473V128Q473 74 489 56T535 38Q567 38 585 47L592 6Q582 1 569 -2T535 -5Q512 -5 493 1T459 23T436 63T428 125V673Z"  />


</font>
</defs>
<text x="40" y="40" font-family="" font-size="30" fill="#933" >ABCDEFGHIJKLMNOPQRSTUVWXYZ abcdefghijklmnopqrstuvwxyz AÁÀÂÄÅÃÆ CÇ DÐ EÉÈÊË I Í Ì Î Ï NÑ</text>
<text x="40" y="80" font-family="" font-size="30" fill="#933" >OÓÒÔÖÕØŒ SŠ UÚÙÛÜ YÝŸ ZŽ Þ aáàâäåãæ cç dð eéèêë i ı í ì î ï nñ oóòôöõøœ sšß uúùûü yýÿ zž</text>
<text x="40" y="120" font-family="" font-size="30" fill="#933" >þ 1234567890 ½ ¼ ¾ % ‰ $¢£¥ƒ€¤ † ‡ § ¶ # ^~µ +×± &lt; = &gt; ÷¬ !¡?¿ &quot; &amp; &apos; * ° . , : ; () [ \ ] {} / |</text>
<text x="40" y="160" font-family="" font-size="30" fill="#933" >¦ _ ‚ „ … ‹› «» ‘ ’ “ ” • ­ - – — @ © ® ™ ªº ¹²³ ´ ` ˆ ˜ ¨ ¯ · ¸</text>
</svg>
