<?xml  version="1.0" encoding="UTF-8"?>
<!DOCTYPE svg PUBLIC "-//W3C//DTD SVG 1.0//EN" "http://www.w3.org/TR/2001/REC-SVG-20010904/DTD/svg10.dtd" >
<svg xmlns="http://www.w3.org/2000/svg" >
<metadata>
<version>1.0</version>
<id><![CDATA[AccordAlternate ExtraLight Italic]]></id>
<vendor>Monotype Imaging Inc.</vendor>
<credits>
<name>Fonts.com WebFonts</name>
<URL>http://webfonts.fonts.com</URL>
<role>Home of the Web fonts</role>
</credits>
<license>
<URL>http://webfonts.fonts.com/Legal</URL>
</license>
<copyright><![CDATA[Copyright (c) 2010 by Aakash Soneri. All rights reserved.]]></copyright>
<trademark><![CDATA[AccordAlternate ExtraLight Italic is a trademark of Aakash Soneri.]]></trademark>
<licensee>
<name></name>
</licensee>
</metadata>
<defs >
<font horiz-adv-x="893" id="830a9c09-5482-4200-9682-7a54f02d409f">
<font-face font-family="AccordAlternate" panose-1="2 0 0 0 0 0 0 0 0 0" ascent="1870" descent="-497" units-per-em="2048" alphabetic="0">
</font-face>
<missing-glyph horiz-adv-x="748" d="M68 0V1365H612V0H68ZM136 68H544V1297H136V68Z"  />

<glyph unicode="&#xA;" />
<glyph unicode="&#xD;" glyph-name="uni000D" horiz-adv-x="2048" />
<glyph unicode=" " glyph-name="space" horiz-adv-x="598" />
<glyph unicode="!" glyph-name="exclam" horiz-adv-x="522" d="M193 72Q193 104 216 128T272 152Q306 152 330 128T354 72Q354 38 330 14T272 -10Q240 -10 217 14T193 72ZM283 303Q296 381 320 557T362 827L442 1276H539L459 827Q444 740 406 565T352 303H283Z"  />
<glyph unicode="&quot;" glyph-name="quotedbl" horiz-adv-x="514" d="M328 1053L403 1481H475L399 1053H328ZM487 1053L563 1481H633L557 1053H487Z"  />
<glyph unicode="#" glyph-name="numbersign" horiz-adv-x="1320" d="M152 336L166 422H401L598 885H334L348 969H635L766 1276H862L729 969H1087L1221 1276H1315L1184 969H1399L1384 885H1147L950 422H1214L1200 336H913L772 0H676L817 336H461L319 0H223L365 336H152ZM496 422H854L1053 885H694L496 422Z"  />
<glyph unicode="$" glyph-name="dollar" horiz-adv-x="1042" d="M133 94L178 180Q235 137 321 112T496 86Q606 86 693 115T833 208T887 362Q887 413 862 453T796 517T703 566T595 608T488 654T394 712T328 794T303 907Q303 995 334 1064T421 1177T543 1246T690 1276L721 1444H807L778 1280Q868 1276 951 1249T1090 1182L1044 1096Q983 1140 904 1164T750 1188Q652 1188 575 1161T450 1072T401 924Q401 877 421 840T475 777T552 730T644 691T741 653T833 609T911 553T965 476T985 373Q985 304 962 245T898 144T802 70T684 22T553 0L524 -168H438L465 -4Q279 2 133 94Z"  />
<glyph unicode="%" glyph-name="percent" horiz-adv-x="1638" d="M283 850Q281 901 291 969Q320 1125 413 1207T639 1290Q755 1290 825 1221T893 1016Q891 828 794 714T535 600Q420 600 352 665T283 850ZM367 864Q367 769 415 726T543 682Q654 682 729 769T805 1016Q808 1116 762 1162T635 1208Q523 1208 445 1112T367 864ZM434 0L1321 1276H1427L539 0H434ZM963 236Q960 289 971 354Q1000 510 1093 593T1317 676Q1435 676 1505 607T1573 403Q1571 214 1473 100T1214 -14Q1098 -14 1031 52T963 236ZM1047 250Q1047 155 1095 112T1223 68Q1335 68 1409 155T1485 401Q1486 501 1440 547T1315 594Q1203 594 1125 498T1047 250Z"  />
<glyph unicode="&amp;" glyph-name="ampersand" horiz-adv-x="1218" d="M205 291Q205 424 288 529T524 674Q360 735 360 918Q360 1086 481 1189T823 1292Q979 1292 1096 1249L1065 1157Q1024 1174 955 1188T813 1202Q720 1202 649 1178T537 1111T477 1021T457 918Q457 878 468 844T506 781T583 734T702 717H1032L1061 887H1157L1128 717H1290L1274 629H1112L1079 446Q1057 318 1011 226T900 83T760 8T594 -16Q512 -16 444 1T321 55T236 151T205 291ZM303 301Q303 236 328 190T396 120T488 85T594 74Q661 74 716 89T826 142T922 257T983 446L1016 629H688Q525 629 414 537T303 301Z"  />
<glyph unicode="&apos;" glyph-name="quotesingle" horiz-adv-x="286" d="M295 1053L371 1481H442L367 1053H295Z"  />
<glyph unicode="(" glyph-name="parenleft" horiz-adv-x="665" d="M227 549Q273 851 410 1079T793 1464L840 1401Q642 1279 499 1058T309 537Q262 253 323 14T524 -401L457 -444Q289 -222 234 20T227 549Z"  />
<glyph unicode=")" glyph-name="parenright" horiz-adv-x="665" d="M4 -381Q203 -258 345 -38T535 483Q583 767 522 1007T322 1421L389 1464Q555 1244 609 1001T618 471Q571 168 433 -60T53 -444L4 -381Z"  />
<glyph unicode="*" glyph-name="asterisk" horiz-adv-x="950" d="M322 1249L354 1315L641 1161L696 1483L770 1468L711 1151L1034 1198L1047 1124L721 1079L866 786L799 752L657 1049L424 821L373 872L608 1098L322 1249Z"  />
<glyph unicode="+" glyph-name="plus" horiz-adv-x="1163" d="M248 598V678H649V1077H733V678H1135V598H733V199H649V598H248Z"  />
<glyph unicode="&#x2c;" glyph-name="comma" horiz-adv-x="411" d="M82 -258Q138 -207 174 -137T213 -8Q183 -13 155 10T127 70Q127 104 150 128T207 152Q249 152 273 118T297 41Q297 -49 253 -141T127 -297L82 -258Z"  />
<glyph unicode="-" glyph-name="hyphen" horiz-adv-x="751" d="M170 598L184 678H807L793 598H170Z"  />
<glyph unicode="." glyph-name="period" horiz-adv-x="411" d="M137 72Q137 104 161 128T217 152Q251 152 275 128T299 72Q299 38 275 14T217 -10Q185 -10 161 14T137 72Z"  />
<glyph unicode="/" glyph-name="slash" horiz-adv-x="583" d="M-10 -61L752 1481H846L82 -61H-10Z"  />
<glyph unicode="0" glyph-name="zero" horiz-adv-x="1120" d="M209 389Q209 539 255 745T385 1081Q517 1292 780 1292Q874 1292 945 1261T1057 1175T1119 1051T1139 899Q1139 758 1101 576T1006 274Q964 183 909 122T765 24T561 -14Q482 -14 420 9T319 71T255 163T219 272T209 389ZM305 391Q305 78 571 78Q649 78 712 101T819 167T893 261T946 377Q985 481 1012 637T1040 895Q1040 945 1034 986T1010 1068T963 1138T884 1184T768 1202Q663 1202 589 1157T459 1022Q405 933 368 788T318 543T305 391Z"  />
<glyph unicode="1" glyph-name="one" horiz-adv-x="571" d="M233 1100L555 1276H635L410 0H311L514 1147L250 999L233 1100Z"  />
<glyph unicode="2" glyph-name="two" horiz-adv-x="974" d="M106 0L119 80L571 467Q644 530 691 574T791 674T873 776T922 876T942 983Q942 1083 877 1142T672 1202Q583 1202 492 1176T330 1106L309 1194Q380 1236 482 1264T684 1292Q852 1292 945 1210T1038 987Q1038 908 1009 832T919 681T797 544T641 403L279 90H885L870 0H106Z"  />
<glyph unicode="3" glyph-name="three" horiz-adv-x="976" d="M80 88L127 172Q257 78 451 78Q542 78 612 100T724 155T791 233T825 317T834 397Q834 503 765 564T553 625H475L492 713H569Q651 713 715 732T818 780T880 848T913 925T922 1001Q922 1100 859 1151T657 1202Q478 1202 311 1106L293 1192Q473 1292 666 1292Q839 1292 928 1218T1018 1006Q1018 881 948 786T756 662Q930 597 930 395Q930 339 917 286T868 177T779 80T636 13T434 -14Q225 -14 80 88Z"  />
<glyph unicode="4" glyph-name="four" horiz-adv-x="1015" d="M152 348L166 424L584 1276H688L279 438H854L944 948H1040L874 0H778L840 348H152Z"  />
<glyph unicode="5" glyph-name="five" horiz-adv-x="1024" d="M129 88L180 172Q307 78 500 78Q588 78 657 98T771 153T843 233T883 328T895 430Q895 564 804 610T479 657H289L399 1278H1102L1085 1188H481L403 748H553Q680 748 768 726T905 660T974 560T995 428Q995 225 862 106T481 -14Q374 -14 292 10T129 88Z"  />
<glyph unicode="6" glyph-name="six" horiz-adv-x="1046" d="M213 367Q210 507 244 694Q272 837 313 943T404 1115T519 1222T652 1277T805 1292Q994 1292 1126 1194L1079 1110Q964 1202 784 1202Q702 1202 637 1179T525 1115T444 1010T385 874T344 707Q499 780 678 780Q848 780 939 696T1028 457Q1026 358 995 274T906 125T758 23T555 -14Q220 -14 213 367ZM303 399T305 337T325 230T371 149T450 96T567 78Q656 78 726 108T841 192T908 312T932 457Q935 582 863 637T657 692Q510 692 328 608Q314 528 309 464Z"  />
<glyph unicode="7" glyph-name="seven" horiz-adv-x="964" d="M250 0L954 1186H281L297 1276H1090L1077 1200L360 0H250Z"  />
<glyph unicode="8" glyph-name="eight" horiz-adv-x="1101" d="M170 299Q170 432 249 536T459 678Q315 742 315 903Q315 1071 434 1181T768 1292Q939 1292 1030 1214T1122 1008Q1122 892 1056 797T874 666Q960 634 1007 565T1055 403Q1055 319 1021 244T925 111T767 20T555 -14Q366 -14 268 74T170 299ZM266 307Q266 201 342 140T565 78Q744 78 851 172T958 406Q958 508 881 567T659 627Q478 627 372 537T266 307ZM412 909Q412 816 477 763T670 709Q838 709 932 790T1026 997Q1026 1090 961 1146T762 1202Q592 1202 502 1117T412 909Z"  />
<glyph unicode="9" glyph-name="nine" horiz-adv-x="1046" d="M133 90L180 174Q296 78 489 78Q672 78 775 196T926 573Q777 500 592 500Q425 500 334 582T242 811Q242 1040 374 1166T717 1292Q895 1292 977 1189T1059 901Q1059 686 1003 473T858 152Q722 -14 479 -14Q364 -14 283 11T133 90ZM338 823Q338 697 408 643T614 588Q762 588 944 672Q958 751 963 815T966 942T946 1049T900 1130T821 1184T705 1202Q539 1202 439 1097T338 823Z"  />
<glyph unicode=":" glyph-name="colon" horiz-adv-x="411" d="M137 72Q137 104 161 128T217 152Q251 152 275 128T299 72Q299 38 275 14T217 -10Q185 -10 161 14T137 72ZM283 899Q283 931 306 955T362 979Q396 979 420 955T444 899Q444 865 420 841T362 817Q330 817 307 841T283 899Z"  />
<glyph unicode=";" glyph-name="semicolon" horiz-adv-x="409" d="M84 -258Q140 -207 176 -137T215 -8Q185 -13 157 10T129 70Q129 104 152 128T209 152Q251 152 275 118T299 41Q299 -49 255 -141T129 -297L84 -258ZM274 899Q274 931 298 955T356 979Q388 979 412 955T436 899Q436 865 412 841T356 817Q322 817 298 841T274 899Z"  />
<glyph unicode="&lt;" glyph-name="less" horiz-adv-x="905" d="M215 600V676L936 1116V1022L307 637L936 258V162L215 600Z"  />
<glyph unicode="=" glyph-name="equal" horiz-adv-x="1122" d="M252 362V442H1098V362H252ZM252 838V915H1098V838H252Z"  />
<glyph unicode="&gt;" glyph-name="greater" horiz-adv-x="905" d="M195 162V258L823 637L195 1022V1116L915 676V600L195 162Z"  />
<glyph unicode="?" glyph-name="question" horiz-adv-x="845" d="M186 72Q186 104 210 128T268 152T326 128T350 72Q350 38 326 14T268 -10T210 14T186 72ZM266 328Q276 387 304 438T378 531T462 601T559 664Q593 685 603 691T647 721T693 758T731 800T766 853T786 914T795 987Q795 1098 732 1150T559 1202Q499 1202 428 1189T313 1153L301 1241Q346 1264 418 1278T559 1292Q711 1292 802 1213T893 983Q893 923 875 870T832 779T761 702T679 639T586 580Q477 513 428 463T362 328H266Z"  />
<glyph unicode="@" glyph-name="at" horiz-adv-x="1896" d="M227 393Q227 675 344 893T684 1234T1202 1358Q1346 1358 1468 1319T1682 1204T1827 1007T1880 729Q1880 694 1876 649T1861 540T1833 415T1787 293T1719 185T1626 111T1505 82Q1419 82 1367 133T1309 283Q1263 192 1173 137T950 82Q881 82 829 101T746 150T696 220T671 296T664 371Q664 440 675 510T719 660T802 800T939 901T1137 942Q1320 942 1460 819L1391 422Q1367 294 1396 225T1509 156Q1579 156 1634 205T1719 323T1768 477T1794 623T1800 731Q1800 907 1722 1034T1513 1222T1214 1284Q1016 1284 851 1224T565 1052T377 768T309 383Q309 88 469 -86T889 -260Q1042 -260 1163 -215T1364 -106L1399 -170Q1330 -232 1187 -283T872 -334Q681 -334 534 -243T307 13T227 393ZM745 367Q745 269 797 213T963 156Q1110 156 1201 246T1319 492L1372 784Q1274 868 1126 868Q1047 868 984 843T881 774T813 679T771 569T751 461T745 367Z"  />
<glyph unicode="A" glyph-name="A" horiz-adv-x="1232" d="M59 0L788 1276H891L1171 0H1075L989 391H391L168 0H59ZM440 479H971L825 1151L440 479Z"  />
<glyph unicode="B" glyph-name="B" horiz-adv-x="1206" d="M180 0L406 1276H809Q915 1276 994 1253T1118 1189T1184 1097T1206 985Q1206 855 1141 776T928 655Q1039 630 1092 561T1145 397Q1145 213 1021 107T631 0H180ZM293 90H647Q760 90 839 113T962 180T1025 276T1044 397Q1044 499 973 553T739 608H385L293 90ZM399 698H715Q1110 698 1110 983Q1110 1186 801 1186H485L399 698Z"  />
<glyph unicode="C" glyph-name="C" horiz-adv-x="1120" d="M229 408Q229 583 283 789T420 1100Q504 1210 612 1251T877 1292Q994 1292 1064 1268T1210 1196L1180 1102Q1105 1151 1030 1176T854 1202Q735 1202 643 1163T483 1028Q413 929 370 738T326 395Q326 241 401 158T659 74Q775 74 874 104T1034 176L1032 78Q876 -16 657 -16Q229 -16 229 408Z"  />
<glyph unicode="D" glyph-name="D" horiz-adv-x="1218" d="M180 0L406 1276H770Q1004 1276 1108 1168T1212 858Q1212 723 1177 553T1092 283Q1021 132 886 66T547 0H180ZM293 90H561Q730 90 837 145T1004 319Q1048 403 1081 562T1114 858Q1114 1024 1032 1105T754 1186H485L293 90Z"  />
<glyph unicode="E" glyph-name="E" horiz-adv-x="1097" d="M180 0L406 1276H1221L1204 1186H485L403 717H1040L1024 627H389L293 90H1012L995 0H180Z"  />
<glyph unicode="F" glyph-name="F" horiz-adv-x="1073" d="M180 0L406 1276H1217L1200 1186H485L403 715H1036L1020 625H387L276 0H180Z"  />
<glyph unicode="G" glyph-name="G" horiz-adv-x="1175" d="M229 408Q229 580 282 782T412 1090Q495 1203 610 1247T891 1292Q977 1292 1044 1277T1148 1245T1235 1196L1204 1102Q1051 1202 866 1202Q742 1202 646 1163T481 1024Q413 925 370 738T326 397Q326 337 335 290T369 202T432 133T531 90T672 74Q836 74 973 139L1051 573H715L731 662H1159L1057 84Q908 -16 670 -16Q441 -16 335 92T229 408Z"  />
<glyph unicode="H" glyph-name="H" horiz-adv-x="1257" d="M180 0L406 1276H502L403 719H1108L1204 1276H1303L1077 0H981L1092 629H389L276 0H180Z"  />
<glyph unicode="I" glyph-name="I" horiz-adv-x="479" d="M190 0L416 1276H512L289 0H190Z"  />
<glyph unicode="J" glyph-name="J" horiz-adv-x="833" d="M100 45L131 139Q221 74 348 74Q412 74 458 86T546 131T617 224T662 379L803 1186H338L354 1276H915L758 381Q741 280 710 207T642 92T553 25T450 -8T332 -16Q210 -16 100 45Z"  />
<glyph unicode="K" glyph-name="K" horiz-adv-x="1067" d="M180 0L406 1276H502L276 0H180ZM467 670L1057 1276H1184L582 659L1001 0H891L467 670Z"  />
<glyph unicode="L" glyph-name="L" horiz-adv-x="972" d="M180 0L406 1276H502L293 90H930L913 0H180Z"  />
<glyph unicode="M" glyph-name="M" horiz-adv-x="1474" d="M180 0L406 1276H504L827 516L1419 1276H1520L1294 0H1198L1389 1090L862 414H772L475 1116L276 0H180Z"  />
<glyph unicode="N" glyph-name="N" horiz-adv-x="1257" d="M180 0L406 1276H506L1008 154L1204 1276H1303L1077 0H977L475 1120L276 0H180Z"  />
<glyph unicode="O" glyph-name="O" horiz-adv-x="1277" d="M227 410Q227 556 268 735T369 1022Q448 1167 569 1229T864 1292Q1082 1292 1178 1183T1274 868Q1274 748 1240 583T1167 326Q1096 146 968 64T639 -18Q420 -18 324 91T227 410ZM324 395Q324 321 338 267T386 167T487 98T651 74Q815 74 917 143T1081 365Q1116 448 1147 606T1178 879Q1178 1042 1104 1122T852 1202Q706 1202 606 1147T442 963Q392 865 358 695T324 395Z"  />
<glyph unicode="P" glyph-name="P" horiz-adv-x="1159" d="M180 0L406 1276H838Q1046 1276 1143 1188T1241 950Q1241 870 1226 804T1172 679T1073 580T918 517T700 494H365L276 0H180ZM379 584H715Q817 584 894 603T1018 654T1094 734T1134 832T1145 946Q1145 1186 821 1186H485L379 584Z"  />
<glyph unicode="Q" glyph-name="Q" horiz-adv-x="1277" d="M227 410Q227 556 268 735T369 1022Q448 1167 569 1229T864 1292Q1082 1292 1178 1183T1274 868Q1274 748 1240 583T1167 326Q1096 146 968 64T639 -18Q420 -18 324 91T227 410ZM289 -186L307 -86Q366 -41 451 -41Q491 -41 538 -58T623 -95T709 -133T797 -150Q872 -150 942 -94L924 -195Q866 -240 780 -240Q740 -240 693 -224T607 -187T521 -150T432 -133Q358 -133 289 -186ZM324 395Q324 321 338 267T386 167T487 98T651 74Q815 74 917 143T1081 365Q1116 448 1147 606T1178 879Q1178 1042 1104 1122T852 1202Q706 1202 606 1147T442 963Q392 865 358 695T324 395Z"  />
<glyph unicode="R" glyph-name="R" horiz-adv-x="1200" d="M180 0L406 1276H856Q962 1276 1039 1253T1161 1187T1226 1092T1247 973Q1247 872 1218 797T1136 674T1015 601T862 567L1120 0H1014L762 553H375L276 0H180ZM389 643H743Q830 643 897 656T1007 693T1080 747T1123 816T1143 891T1149 971Q1149 1074 1079 1130T840 1186H485L389 643Z"  />
<glyph unicode="S" glyph-name="S" horiz-adv-x="1079" d="M135 84L178 170Q240 127 329 102T512 76Q577 76 636 85T748 117T840 170T901 249T924 356Q924 409 898 450T828 517T729 566T615 608T501 654T402 714T332 798T305 918Q305 1093 432 1191T778 1290Q880 1290 973 1263T1128 1192L1083 1108Q944 1200 768 1200Q667 1200 587 1173T455 1082T403 928Q403 874 429 832T500 765T599 715T713 672T827 626T927 567T997 485T1024 369Q1024 248 956 160T771 28T500 -16Q396 -16 299 11T135 84Z"  />
<glyph unicode="T" glyph-name="T" horiz-adv-x="1148" d="M289 1186L305 1276H1294L1278 1186H831L623 0H526L735 1186H289Z"  />
<glyph unicode="U" glyph-name="U" horiz-adv-x="1257" d="M250 506L387 1276H483L346 502Q333 416 334 349Q334 322 335 300Q342 218 382 168T486 96T643 74Q832 74 941 172T1090 502L1227 1276H1325L1188 502Q1161 353 1112 252T990 92T830 9T627 -16Q404 -16 303 115Q235 204 235 352Q235 422 250 506Z"  />
<glyph unicode="V" glyph-name="V" horiz-adv-x="1187" d="M285 1276H381L612 127L1251 1276H1354L645 0H543L285 1276Z"  />
<glyph unicode="W" glyph-name="W" horiz-adv-x="1845" d="M293 1276H389L545 160L1098 1276H1188L1348 160L1896 1276H1999L1368 0H1278L1118 1110L567 0H475L293 1276Z"  />
<glyph unicode="X" glyph-name="X" horiz-adv-x="1218" d="M86 0L670 672L356 1276H461L735 745L1194 1276H1311L780 664L1122 0H1018L713 590L203 0H86Z"  />
<glyph unicode="Y" glyph-name="Y" horiz-adv-x="1216" d="M274 1276H377L705 588L1276 1276H1393L745 498L657 0H561L647 494L274 1276Z"  />
<glyph unicode="Z" glyph-name="Z" horiz-adv-x="1114" d="M88 0L102 76L1061 1186H338L354 1276H1210L1196 1200L238 90H1042L1026 0H88Z"  />
<glyph unicode="[" glyph-name="bracketleft" horiz-adv-x="620" d="M100 -457L442 1481H797L784 1407H512L197 -383H469L455 -457H100Z"  />
<glyph unicode="\" glyph-name="backslash" horiz-adv-x="581" d="M262 1481H346L569 -61H483L262 1481Z"  />
<glyph unicode="]" glyph-name="bracketright" horiz-adv-x="620" d="M2 -457L16 -383H289L604 1407H332L344 1481H698L356 -457H2Z"  />
<glyph unicode="^" glyph-name="asciicircum" horiz-adv-x="890" d="M221 741L535 1399H614L932 743H842L573 1305L311 741H221Z"  />
<glyph unicode="_" glyph-name="underscore" horiz-adv-x="972" d="M-6 -123L6 -47H946L932 -123H-6Z"  />
<glyph unicode="`" glyph-name="grave" horiz-adv-x="495" d="M442 1815H528L641 1536H563L442 1815Z"  />
<glyph unicode="a" glyph-name="a" horiz-adv-x="989" d="M154 242Q154 295 167 340T213 430T298 504T433 554T625 573H850L868 688Q873 717 873 742Q874 815 828 850Q766 897 629 897Q476 897 358 854V942Q518 983 637 983Q715 983 777 967T887 917T954 824Q966 788 966 745Q966 717 961 686L848 43Q671 -14 489 -14Q327 -14 241 46T154 242ZM248 244Q248 150 306 110T500 70Q664 70 768 106L836 496H623Q444 496 346 433T248 244Z"  />
<glyph unicode="b" glyph-name="b" horiz-adv-x="1071" d="M178 41L414 1378H506L428 940Q529 983 670 983Q862 983 951 890T1040 629Q1040 513 1014 395T942 193Q825 -14 528 -14Q349 -14 178 41ZM283 109Q389 74 545 74Q769 74 858 236Q896 305 923 417T950 637Q950 761 883 828T651 895Q529 895 414 848L283 109Z"  />
<glyph unicode="c" glyph-name="c" horiz-adv-x="919" d="M199 338Q199 445 236 588T350 823Q482 983 741 983Q875 983 983 928L952 844Q855 895 731 895Q520 895 412 758Q355 687 323 568T291 338Q291 201 365 138T596 74Q725 74 848 127V37Q720 -14 571 -14Q390 -14 295 78T199 338Z"  />
<glyph unicode="d" glyph-name="d" horiz-adv-x="1071" d="M203 354Q203 478 236 606T334 823Q448 983 711 983Q789 983 863 971T975 940L1053 1378H1145L911 43Q737 -14 575 -14Q385 -14 294 76T203 354ZM293 344Q293 203 364 139T590 74Q726 74 827 109L958 848Q838 895 698 895Q488 895 401 760Q355 688 324 572T293 344Z"  />
<glyph unicode="e" glyph-name="e" horiz-adv-x="1056" d="M199 342Q199 395 204 448T224 566T262 688T325 800T416 895T542 959T705 983Q859 983 951 897T1044 653Q1044 549 1001 444H297Q286 399 286 348Q286 322 289 295Q306 74 594 74Q668 74 759 97T918 154V61Q759 -14 575 -14Q388 -14 294 78T199 342ZM311 530T311 528H940Q940 534 943 546T946 561Q959 616 959 662Q959 751 911 809Q838 897 690 897Q375 897 313 541Q313 539 312 535Z"  />
<glyph unicode="f" glyph-name="f" horiz-adv-x="716" d="M160 0L358 1118Q374 1212 408 1276T493 1373T597 1420T721 1434Q795 1434 843 1422T944 1384L918 1298Q824 1346 717 1346Q607 1346 540 1295T451 1120L424 969H840L825 883H408L252 0H160Z"  />
<glyph unicode="g" glyph-name="g" horiz-adv-x="1071" d="M121 -344L152 -258Q215 -295 282 -312T446 -330Q520 -330 574 -320T675 -282T753 -205T797 -78L815 29Q717 -14 573 -14Q382 -14 294 79T205 338Q205 475 242 622T356 852Q481 983 713 983Q894 983 1067 926L889 -78Q871 -177 834 -243T737 -347T604 -400T430 -416Q330 -416 260 -399T121 -344ZM295 328Q295 274 308 232T352 152T445 95T594 74Q730 74 831 123L963 860Q853 895 707 895Q508 895 416 778Q357 707 326 572T295 328Z"  />
<glyph unicode="h" glyph-name="h" horiz-adv-x="1091" d="M170 0L422 1434H514L426 934Q554 983 729 983Q799 983 853 971T953 932T1023 860Q1047 814 1057 748Q1061 724 1061 698Q1061 650 1049 592L942 0H852L956 594Q966 650 966 694Q966 697 967 699Q968 740 960 770Q952 802 936 824T898 859T847 881T786 892T715 895Q531 895 410 844L262 0H170Z"  />
<glyph unicode="i" glyph-name="i" horiz-adv-x="448" d="M178 0L350 969H442L270 0H178ZM389 1323Q389 1350 408 1370T455 1391T502 1371T522 1323Q522 1295 503 1275T455 1255T408 1275T389 1323Z"  />
<glyph unicode="j" glyph-name="j" horiz-adv-x="411" d="M-207 -365L-170 -283Q-108 -317 -37 -317Q28 -317 73 -276T137 -129L332 969H424L227 -133Q202 -283 132 -344T-51 -406Q-141 -406 -207 -365ZM371 1323Q371 1350 390 1370T436 1391Q464 1391 485 1370T506 1323Q506 1295 485 1275T436 1255Q409 1255 390 1275T371 1323Z"  />
<glyph unicode="k" glyph-name="k" horiz-adv-x="942" d="M170 0L412 1378H504L262 0H170ZM410 512L903 969H1032L524 504L903 0H791L410 512Z"  />
<glyph unicode="l" glyph-name="l" horiz-adv-x="534" d="M203 258L401 1378H494L297 262Q289 217 289 184Q289 141 303 118Q328 78 393 78Q456 78 496 96V12Q446 -10 377 -10Q278 -10 228 60Q195 107 195 180Q195 216 203 258Z"  />
<glyph unicode="m" glyph-name="m" horiz-adv-x="1617" d="M170 0L330 909Q488 983 702 983Q795 983 855 957T948 870Q1112 983 1307 983Q1470 982 1542 896Q1590 838 1591 729Q1591 676 1579 610L1470 0H1378L1487 612Q1499 675 1499 723Q1499 768 1488 796Q1477 826 1461 846T1419 877T1367 891T1307 895Q1126 895 981 791Q985 763 985 730Q985 677 975 612L866 0H774L883 612Q895 676 895 724Q895 768 884 796Q873 826 857 846T813 877T758 891T692 895Q532 895 410 844L262 0H170Z"  />
<glyph unicode="n" glyph-name="n" horiz-adv-x="1091" d="M170 0L330 909Q397 941 502 962T717 983Q780 983 830 975T924 949T994 901T1040 828Q1060 784 1060 726Q1060 723 1060 720Q1060 663 1049 592L942 0H852L956 594Q966 650 966 694Q966 697 967 700Q967 740 960 770Q953 802 936 824T899 859T847 881T785 892T713 895Q534 895 410 844L262 0H170Z"  />
<glyph unicode="o" glyph-name="o" horiz-adv-x="1073" d="M201 332Q201 468 242 611T346 829Q469 983 709 983Q886 983 966 891T1047 639Q1047 521 1014 394T932 188Q809 -14 537 -14Q447 -14 381 12T276 86T219 195T201 332ZM291 326Q291 203 351 139T551 74Q772 74 864 250Q900 318 928 428T956 635Q956 763 896 829T696 895Q594 895 524 862T401 752Q353 685 322 561T291 326Z"  />
<glyph unicode="p" glyph-name="p" horiz-adv-x="1071" d="M100 -391L332 928Q499 983 666 983Q861 983 950 892T1040 616Q1040 501 1010 373T918 156Q859 70 764 28T524 -14Q364 -14 266 29L193 -391H100ZM285 123Q386 74 537 74Q651 74 722 106T838 203Q888 276 919 398T950 623Q950 768 879 831T651 895Q509 895 416 860L285 123Z"  />
<glyph unicode="q" glyph-name="q" horiz-adv-x="1071" d="M205 338Q205 476 243 623T358 852Q477 983 711 983Q887 983 1067 926L834 -391H741L815 29Q714 -14 573 -14Q384 -14 295 79T205 338ZM295 328Q295 274 307 232T351 153T444 95T594 74Q730 74 831 123L963 860Q856 895 707 895Q606 895 538 868T418 784Q358 712 327 574T295 328Z"  />
<glyph unicode="r" glyph-name="r" horiz-adv-x="669" d="M170 0L332 928Q374 948 452 963T616 979Q718 979 795 954L762 870Q691 893 596 893Q494 893 414 860L262 0H170Z"  />
<glyph unicode="s" glyph-name="s" horiz-adv-x="964" d="M137 43L168 129Q228 106 316 90T483 74Q618 74 705 129T793 285Q793 329 765 359T691 407T590 439T479 470T379 512T305 579T276 682Q276 746 297 797T355 883T442 940T548 973T666 983Q825 983 958 920L930 834Q808 895 651 895Q574 895 512 875T410 807T369 692Q369 648 397 618T471 570T571 539T681 507T781 464T854 394T883 287Q883 184 826 115T676 16T461 -14Q302 -14 137 43Z"  />
<glyph unicode="t" glyph-name="t" horiz-adv-x="813" d="M209 340L367 1235H459L412 969H831L815 883H397L301 336Q292 284 292 243Q292 171 321 133Q367 74 475 74T713 127L711 37Q595 -14 463 -14Q320 -14 248 77Q199 139 199 240Q199 286 209 340Z"  />
<glyph unicode="u" glyph-name="u" horiz-adv-x="1091" d="M206 220Q203 242 203 267Q203 317 215 377L319 969H412L307 375Q296 319 296 275Q296 272 296 270Q296 230 304 200Q312 168 328 146T365 110T417 88T478 77T549 74Q715 74 852 127L1001 969H1094L934 61Q748 -14 537 -14Q466 -14 411 -2T310 37T240 109T206 220Z"  />
<glyph unicode="v" glyph-name="v" horiz-adv-x="1058" d="M248 969H340L545 113L1053 969H1153L575 0H481L248 969Z"  />
<glyph unicode="w" glyph-name="w" horiz-adv-x="1642" d="M256 969H348L496 133L944 969H1030L1184 133L1628 969H1729L1208 0H1120L967 827L522 0H430L256 969Z"  />
<glyph unicode="x" glyph-name="x" horiz-adv-x="1062" d="M72 0L565 510L281 969H385L629 575L1010 969H1128L676 504L987 0H885L614 436L190 0H72Z"  />
<glyph unicode="y" glyph-name="y" horiz-adv-x="1091" d="M135 -362L166 -276Q290 -330 461 -330Q539 -330 594 -320T696 -283T773 -206T817 -78L840 47Q718 -14 553 -14Q487 -14 435 -6T339 20T268 68T222 141T204 243T215 377L319 969H412L307 375Q297 318 296 274Q296 268 296 263Q296 225 302 198Q309 166 327 144T367 108T423 87T490 77T571 74Q736 74 854 137L1001 969H1094L909 -78Q891 -179 855 -245T758 -349T624 -401T444 -416Q271 -416 135 -362Z"  />
<glyph unicode="z" glyph-name="z" horiz-adv-x="987" d="M111 0L123 78L903 883H266L281 969H1049L1036 893L256 86H893L877 0H111Z"  />
<glyph unicode="{" glyph-name="braceleft" horiz-adv-x="794" d="M166 494L180 567H219Q330 567 402 656T502 909L555 1204Q570 1291 594 1345T660 1429T753 1470T885 1481H958L944 1407H866Q820 1407 795 1404T739 1388T690 1349T656 1276T627 1159L578 870Q558 759 501 666T340 526Q425 484 451 389T457 180L418 -25Q384 -232 416 -307T565 -383H643L631 -457H557Q263 -457 330 -70L369 152Q399 316 358 405T207 494H166Z"  />
<glyph unicode="|" glyph-name="bar" horiz-adv-x="452" d="M276 -457V1481H358V-457H276Z"  />
<glyph unicode="}" glyph-name="braceright" horiz-adv-x="794" d="M16 -457L31 -383H109Q155 -383 181 -380T237 -364T284 -325T319 -253T348 -135L403 190Q423 301 480 394T641 535Q583 564 551 622T517 746T526 881L557 1049Q593 1256 561 1331T410 1407H332L344 1481H418Q715 1481 645 1094L612 909Q584 744 624 656T774 567H815L801 494H762Q651 494 579 405T479 152L420 -180Q405 -267 381 -321T315 -405T222 -446T90 -457H16Z"  />
<glyph unicode="~" glyph-name="asciitilde" horiz-adv-x="1107" d="M180 420Q207 566 275 635T444 705Q502 705 550 682T632 625T697 558T769 501T856 477Q1003 477 1040 686H1120Q1070 401 856 401Q797 401 748 424T665 481T600 548T529 605T444 629Q367 629 322 569T262 420H180Z"  />
<glyph unicode="&#xA0;" glyph-name="uni00A0" horiz-adv-x="598" />
<glyph unicode="&#xA1;" glyph-name="exclamdown" horiz-adv-x="522" d="M158 -303L240 150Q255 243 292 419T344 674H416Q400 587 376 412T336 150L254 -303H158ZM342 899Q342 933 367 958T426 983Q458 983 481 959T504 903Q504 869 479 845T420 821Q388 821 365 844T342 899Z"  />
<glyph unicode="&#xA2;" glyph-name="cent" horiz-adv-x="901" d="M223 492Q223 543 229 596T250 713T290 834T355 947T447 1042T572 1108T733 1135L762 1300H838L809 1135Q897 1126 989 1081L961 997Q859 1049 745 1049Q634 1049 550 1003T416 878T342 701T317 492Q317 356 388 292T610 227Q728 227 854 281V190Q748 148 635 139L606 -25H528L557 143Q396 149 310 240T223 492Z"  />
<glyph unicode="&#xA3;" glyph-name="sterling" horiz-adv-x="1007" d="M166 600L178 676H336L369 864Q408 1084 514 1188T811 1292Q967 1292 1085 1221L1047 1141Q944 1202 801 1202Q646 1202 571 1117T461 842L432 676H774L762 600H420L330 90H926L909 0H217L324 600H166Z"  />
<glyph unicode="&#xA4;" glyph-name="currency" horiz-adv-x="1286" d="M252 197L545 485Q494 555 494 637Q494 722 545 788L254 1079L313 1139L604 846Q672 893 754 893Q838 893 903 846L1196 1139L1255 1079L965 791Q1014 724 1014 637Q1014 552 965 485L1253 197L1196 137L903 430Q835 381 754 381Q675 381 604 430L313 137L252 197ZM569 637Q569 562 623 508T754 453T885 507T940 637Q940 714 885 768T754 823T624 769T569 637Z"  />
<glyph unicode="&#xA5;" glyph-name="yen" horiz-adv-x="1214" d="M240 170L252 246H602L641 457H291L303 532H631L313 1276H418L705 590L1233 1276H1350L770 532H1100L1087 457H737L698 246H1049L1036 170H686L655 0H559L590 170H240Z"  />
<glyph unicode="&#xA6;" glyph-name="brokenbar" horiz-adv-x="446" d="M272 356H354V-457H272V356ZM272 711V1481H354V711H272Z"  />
<glyph unicode="&#xA7;" glyph-name="section" horiz-adv-x="1093" d="M111 -266L154 -182Q211 -223 296 -248T471 -274Q580 -274 666 -248T808 -161T864 -14Q864 23 847 54T813 104T748 147T679 179T594 211Q580 216 573 219Q522 238 486 253T409 295T342 351T299 423T281 518Q281 622 331 703T469 825Q360 899 360 1032Q360 1126 399 1196T504 1305T649 1364T817 1382Q912 1381 1000 1353T1147 1284L1102 1200Q973 1289 805 1292Q713 1292 638 1268T513 1188T461 1053Q458 1001 479 961Q494 934 520 912T581 871T649 840T728 809Q739 805 745 803Q799 783 836 767T915 724T982 670T1023 600T1040 508Q1040 407 984 332T831 209Q888 177 924 123T961 0Q961 -77 932 -139T855 -244T741 -314T604 -355T457 -367Q358 -366 266 -338T111 -266ZM377 530Q377 488 394 454T436 398T502 354T580 320T668 287T754 252Q839 291 891 353T944 498Q944 540 926 574T879 630T807 674T723 709T630 743T539 782Q465 751 421 683T377 530Z"  />
<glyph unicode="&#xA8;" glyph-name="dieresis" horiz-adv-x="722" d="M401 1599Q401 1627 420 1647T467 1667Q493 1667 512 1647T532 1599Q532 1573 513 1555T467 1536Q439 1536 420 1554T401 1599ZM756 1599Q756 1627 774 1647T819 1667T865 1647T885 1599Q885 1573 866 1555T819 1536Q793 1536 775 1554T756 1599Z"  />
<glyph unicode="&#xA9;" glyph-name="copyright" horiz-adv-x="1708" d="M272 721Q272 867 328 999T480 1226T706 1377T983 1434Q1129 1434 1261 1378T1488 1226T1639 999T1696 721Q1696 576 1640 445T1488 218T1261 67T983 10Q838 10 707 66T480 218T329 444T272 721ZM340 896T340 721T427 398T662 163T983 76Q1158 76 1306 162T1541 397T1628 721T1542 1045T1307 1281T983 1368Q811 1368 663 1281T427 1045ZM643 715Q643 904 737 1014T1020 1124Q1129 1124 1217 1081L1202 1006Q1110 1049 1022 1049Q937 1049 878 1024T787 951T741 847T727 717Q727 550 799 473T1034 395Q1151 395 1221 434L1231 356Q1159 317 1034 317Q643 317 643 715Z"  />
<glyph unicode="&#xAB;" glyph-name="guillemotleft" horiz-adv-x="925" d="M170 512L541 915H643L264 504L498 109H410L170 512ZM510 512L881 915H983L604 504L838 109H750L510 512Z"  />
<glyph unicode="&#xAC;" glyph-name="logicalnot" horiz-adv-x="1054" d="M209 799V877H1090V406H1006V799H209Z"  />
<glyph unicode="&#xAD;" glyph-name="uni00AD" horiz-adv-x="751" d="M170 598L184 678H807L793 598H170Z"  />
<glyph unicode="&#xAE;" glyph-name="registered" horiz-adv-x="1708" d="M270 721Q270 867 326 999T478 1226T704 1377T981 1434Q1127 1434 1259 1378T1486 1226T1637 999T1694 721Q1694 576 1638 445T1486 218T1259 67T981 10Q836 10 705 66T478 218T327 444T270 721ZM338 896T338 721T425 398T660 163T981 76Q1156 76 1304 162T1539 397T1626 721T1540 1045T1305 1281T981 1368Q809 1368 661 1281T425 1045ZM729 332V1110H993Q1132 1110 1198 1053T1264 895Q1264 809 1215 751T1073 680L1288 332H1200L989 674H809V332H729ZM809 748H993Q1182 748 1182 895Q1182 959 1137 998T993 1038H809V748Z"  />
<glyph unicode="&#xB0;" glyph-name="degree" horiz-adv-x="788" d="M356 1208Q356 1325 435 1403T631 1481Q746 1481 824 1403T903 1208T825 1013T631 934Q512 934 434 1012T356 1208ZM426 1208Q426 1120 484 1061T633 1001Q712 1001 773 1062T834 1208Q834 1296 777 1355T633 1415Q542 1415 484 1356T426 1208Z"  />
<glyph unicode="&#xB1;" glyph-name="plusminus" horiz-adv-x="1163" d="M209 123V201H608V598H209V678H608V1077H694V678H1094V598H694V201H1094V123H209Z"  />
<glyph unicode="&#xB4;" glyph-name="acute" horiz-adv-x="497" d="M393 1536L600 1815H694L481 1536H393Z"  />
<glyph unicode="&#xB5;" glyph-name="uni00B5" horiz-adv-x="1112" d="M100 -391L340 969H432L328 375Q318 319 318 275T324 200T348 146T385 110T436 88T497 77T569 74Q744 74 872 127L1022 969H1114L954 61Q777 -14 561 -14Q341 -14 281 109L193 -391H100Z"  />
<glyph unicode="&#xB6;" glyph-name="paragraph" horiz-adv-x="1019" d="M233 860Q233 1050 348 1163T670 1276H1073L819 -164H739L979 1194H731L489 -164H410L539 557Q394 557 314 642T233 860Z"  />
<glyph unicode="&#xB7;" glyph-name="middot" horiz-adv-x="364" d="M213 639Q213 671 237 695T293 719Q327 719 351 695T375 639Q375 605 351 581T293 557Q261 557 237 581T213 639Z"  />
<glyph unicode="&#xB8;" glyph-name="cedilla" horiz-adv-x="458" d="M18 -358L41 -295Q74 -315 143 -315Q200 -315 241 -290T283 -211Q283 -177 256 -161T188 -145Q149 -145 86 -158L178 51H246L180 -92Q257 -79 305 -113T354 -211Q354 -298 291 -339T137 -381Q76 -381 18 -358Z"  />
<glyph unicode="&#xBB;" glyph-name="guillemotright" horiz-adv-x="925" d="M125 109L504 518L268 915H356L596 512L225 109H125ZM467 109L844 518L608 915H696L936 512L565 109H467Z"  />
<glyph unicode="&#xBF;" glyph-name="questiondown" horiz-adv-x="845" d="M121 -10Q121 50 139 103T183 194T255 271T335 334T428 393Q538 460 586 510T651 645H748Q738 586 710 535T636 442T552 372T457 309Q425 290 412 282T368 252T321 215T283 172T248 120T228 59T219 -14Q219 -125 282 -177T455 -229Q515 -229 585 -216T700 -180L713 -268Q668 -291 596 -305T455 -319Q303 -319 212 -240T121 -10ZM666 901Q666 935 689 959T745 983Q779 983 803 959T827 901Q827 869 803 845T745 821Q713 821 690 845T666 901Z"  />
<glyph unicode="&#xC0;" glyph-name="Agrave" horiz-adv-x="1232" d="M59 0L788 1276H891L1171 0H1075L989 391H391L168 0H59ZM440 479H971L825 1151L440 479ZM688 1645H774L887 1366H809L688 1645Z"  />
<glyph unicode="&#xC1;" glyph-name="Aacute" horiz-adv-x="1232" d="M59 0L788 1276H891L1171 0H1075L989 391H391L168 0H59ZM440 479H971L825 1151L440 479ZM807 1366L1014 1645H1108L895 1366H807Z"  />
<glyph unicode="&#xC2;" glyph-name="Acircumflex" horiz-adv-x="1232" d="M59 0L788 1276H891L1171 0H1075L989 391H391L168 0H59ZM440 479H971L825 1151L440 479ZM631 1366L862 1645H948L1085 1366H1004L903 1585H899L723 1366H631Z"  />
<glyph unicode="&#xC3;" glyph-name="Atilde" horiz-adv-x="1232" d="M59 0L788 1276H891L1171 0H1075L989 391H391L168 0H59ZM440 479H971L825 1151L440 479ZM578 1417Q594 1512 635 1562T752 1612Q786 1612 817 1597T871 1560T915 1516T961 1479T1010 1464Q1092 1464 1114 1591H1186Q1168 1496 1126 1448T1004 1399Q969 1399 938 1414T884 1450T840 1493T794 1529T745 1544Q700 1544 679 1510T649 1417H578Z"  />
<glyph unicode="&#xC4;" glyph-name="Adieresis" horiz-adv-x="1232" d="M59 0L788 1276H891L1171 0H1075L989 391H391L168 0H59ZM440 479H971L825 1151L440 479ZM639 1505Q639 1532 657 1551T702 1571T748 1551T768 1505Q768 1478 749 1459T702 1440Q676 1440 658 1458T639 1505ZM991 1505Q991 1531 1010 1551T1055 1571Q1082 1571 1101 1552T1120 1505T1101 1459T1055 1440T1010 1459T991 1505Z"  />
<glyph unicode="&#xC5;" glyph-name="Aring" horiz-adv-x="1232" d="M59 0L788 1276H891L1171 0H1075L989 391H391L168 0H59ZM440 479H971L825 1151L440 479ZM711 1505Q711 1579 757 1625T879 1671Q958 1671 1003 1626T1049 1505Q1049 1431 1003 1384T879 1337Q804 1337 758 1384T711 1505ZM772 1505Q772 1462 800 1430T879 1397Q931 1397 959 1429T987 1505Q987 1552 960 1583T879 1614Q829 1614 801 1583T772 1505Z"  />
<glyph unicode="&#xC6;" glyph-name="AE" horiz-adv-x="1697" d="M41 0L768 1276H1819L1802 1186H1085L1004 717H1638L1624 627H987L891 90H1610L1593 0H780L862 473H418L147 0H41ZM469 561H879L989 1186H823L469 561Z"  />
<glyph unicode="&#xC7;" glyph-name="Ccedilla" horiz-adv-x="1120" d="M229 408Q229 583 283 789T420 1100Q504 1210 612 1251T877 1292Q994 1292 1064 1268T1210 1196L1180 1102Q1105 1151 1030 1176T854 1202Q735 1202 643 1163T483 1028Q413 929 370 738T326 395Q326 241 401 158T659 74Q775 74 874 104T1034 176L1032 78Q887 -9 694 -16L662 -92Q739 -79 787 -113T836 -211Q836 -270 803 -310T722 -365T618 -381Q558 -381 500 -358L522 -295Q555 -315 625 -315Q682 -315 723 -290T764 -211Q764 -177 738 -161T670 -145Q632 -145 565 -158L627 -16Q229 -2 229 408Z"  />
<glyph unicode="&#xC8;" glyph-name="Egrave" horiz-adv-x="1097" d="M180 0L406 1276H1221L1204 1186H485L403 717H1040L1024 627H389L293 90H1012L995 0H180ZM705 1645H791L903 1366H825L705 1645Z"  />
<glyph unicode="&#xC9;" glyph-name="Eacute" horiz-adv-x="1097" d="M180 0L406 1276H1221L1204 1186H485L403 717H1040L1024 627H389L293 90H1012L995 0H180ZM735 1366L944 1645H1038L825 1366H735Z"  />
<glyph unicode="&#xCA;" glyph-name="Ecircumflex" horiz-adv-x="1097" d="M180 0L406 1276H1221L1204 1186H485L403 717H1040L1024 627H389L293 90H1012L995 0H180ZM606 1366L836 1645H924L1059 1366H977L879 1585H874L696 1366H606Z"  />
<glyph unicode="&#xCB;" glyph-name="Edieresis" horiz-adv-x="1097" d="M180 0L406 1276H1221L1204 1186H485L403 717H1040L1024 627H389L293 90H1012L995 0H180ZM612 1505Q612 1531 631 1551T676 1571Q704 1571 723 1552T743 1505Q743 1477 724 1459T676 1440Q650 1440 631 1459T612 1505ZM965 1505Q965 1532 984 1551T1030 1571Q1056 1571 1076 1551T1096 1505Q1096 1478 1077 1459T1030 1440Q1002 1440 984 1458T965 1505Z"  />
<glyph unicode="&#xCC;" glyph-name="Igrave" horiz-adv-x="483" d="M190 0L416 1276H512L289 0H190ZM326 1645H412L524 1366H446L326 1645Z"  />
<glyph unicode="&#xCD;" glyph-name="Iacute" horiz-adv-x="483" d="M190 0L416 1276H512L289 0H190ZM432 1366L639 1645H735L520 1366H432Z"  />
<glyph unicode="&#xCE;" glyph-name="Icircumflex" horiz-adv-x="483" d="M190 0L416 1276H512L289 0H190ZM256 1366L485 1645H573L709 1366H629L528 1585H524L348 1366H256Z"  />
<glyph unicode="&#xCF;" glyph-name="Idieresis" horiz-adv-x="483" d="M190 0L416 1276H512L289 0H190ZM264 1505Q264 1532 283 1551T330 1571Q356 1571 375 1551T395 1505Q395 1478 376 1459T330 1440Q302 1440 283 1458T264 1505ZM618 1505Q618 1531 637 1551T682 1571T728 1551T748 1505Q748 1478 729 1459T682 1440Q656 1440 637 1459T618 1505Z"  />
<glyph unicode="&#xD0;" glyph-name="Eth" horiz-adv-x="1222" d="M154 600L168 676H305L412 1276H776Q1010 1276 1114 1168T1219 858Q1219 726 1183 555T1098 283Q1026 132 891 66T553 0H186L293 600H154ZM299 90H567Q736 90 843 145T1010 319Q1054 403 1087 562T1120 858Q1120 1024 1038 1105T760 1186H492L401 676H627L614 600H387L299 90Z"  />
<glyph unicode="&#xD1;" glyph-name="Ntilde" horiz-adv-x="1257" d="M180 0L406 1276H506L1008 154L1204 1276H1303L1077 0H977L475 1120L276 0H180ZM590 1417Q619 1612 762 1612Q797 1612 828 1597T881 1560T925 1516T971 1479T1020 1464Q1102 1464 1124 1591H1196Q1178 1495 1136 1447T1014 1399Q980 1399 949 1414T895 1450T851 1493T805 1529T756 1544Q681 1544 662 1417H590Z"  />
<glyph unicode="&#xD2;" glyph-name="Ograve" horiz-adv-x="1277" d="M227 410Q227 556 268 735T369 1022Q448 1167 569 1229T864 1292Q1082 1292 1178 1183T1274 868Q1274 748 1240 583T1167 326Q1096 146 968 64T639 -18Q420 -18 324 91T227 410ZM324 395Q324 321 338 267T386 167T487 98T651 74Q815 74 917 143T1081 365Q1116 448 1147 606T1178 879Q1178 1042 1104 1122T852 1202Q706 1202 606 1147T442 963Q392 865 358 695T324 395ZM764 1645H850L963 1366H885L764 1645Z"  />
<glyph unicode="&#xD3;" glyph-name="Oacute" horiz-adv-x="1277" d="M227 410Q227 556 268 735T369 1022Q448 1167 569 1229T864 1292Q1082 1292 1178 1183T1274 868Q1274 748 1240 583T1167 326Q1096 146 968 64T639 -18Q420 -18 324 91T227 410ZM324 395Q324 321 338 267T386 167T487 98T651 74Q815 74 917 143T1081 365Q1116 448 1147 606T1178 879Q1178 1042 1104 1122T852 1202Q706 1202 606 1147T442 963Q392 865 358 695T324 395ZM825 1366L1032 1645H1126L913 1366H825Z"  />
<glyph unicode="&#xD4;" glyph-name="Ocircumflex" horiz-adv-x="1277" d="M227 410Q227 556 268 735T369 1022Q448 1167 569 1229T864 1292Q1082 1292 1178 1183T1274 868Q1274 748 1240 583T1167 326Q1096 146 968 64T639 -18Q420 -18 324 91T227 410ZM324 395Q324 321 338 267T386 167T487 98T651 74Q815 74 917 143T1081 365Q1116 448 1147 606T1178 879Q1178 1042 1104 1122T852 1202Q706 1202 606 1147T442 963Q392 865 358 695T324 395ZM645 1366L874 1645H963L1098 1366H1018L918 1585H913L737 1366H645Z"  />
<glyph unicode="&#xD5;" glyph-name="Otilde" horiz-adv-x="1277" d="M227 410Q227 556 268 735T369 1022Q448 1167 569 1229T864 1292Q1082 1292 1178 1183T1274 868Q1274 748 1240 583T1167 326Q1096 146 968 64T639 -18Q420 -18 324 91T227 410ZM324 395Q324 321 338 267T386 167T487 98T651 74Q815 74 917 143T1081 365Q1116 448 1147 606T1178 879Q1178 1042 1104 1122T852 1202Q706 1202 606 1147T442 963Q392 865 358 695T324 395ZM592 1417Q608 1512 648 1562T764 1612Q799 1612 830 1597T884 1560T928 1516T974 1479T1022 1464Q1104 1464 1126 1591H1198Q1182 1496 1139 1448T1016 1399Q982 1399 951 1414T898 1450T854 1493T808 1529T760 1544Q715 1544 694 1510T664 1417H592Z"  />
<glyph unicode="&#xD6;" glyph-name="Odieresis" horiz-adv-x="1277" d="M227 410Q227 556 268 735T369 1022Q448 1167 569 1229T864 1292Q1082 1292 1178 1183T1274 868Q1274 748 1240 583T1167 326Q1096 146 968 64T639 -18Q420 -18 324 91T227 410ZM324 395Q324 321 338 267T386 167T487 98T651 74Q815 74 917 143T1081 365Q1116 448 1147 606T1178 879Q1178 1042 1104 1122T852 1202Q706 1202 606 1147T442 963Q392 865 358 695T324 395ZM651 1505Q651 1531 670 1551T715 1571Q742 1571 762 1552T782 1505Q782 1477 763 1459T715 1440Q688 1440 670 1459T651 1505ZM1004 1505Q1004 1532 1023 1551T1069 1571Q1095 1571 1115 1551T1135 1505Q1135 1478 1116 1459T1069 1440Q1041 1440 1023 1458T1004 1505Z"  />
<glyph unicode="&#xD7;" glyph-name="multiply" horiz-adv-x="1083" d="M254 295L596 639L254 981L311 1040L655 696L997 1040L1057 981L715 639L1057 295L997 236L655 580L311 236L254 295Z"  />
<glyph unicode="&#xD8;" glyph-name="Oslash" horiz-adv-x="1277" d="M182 55L276 162Q227 254 227 410Q227 556 268 735T369 1022Q444 1167 567 1229T864 1292Q1083 1292 1182 1176L1266 1270L1319 1225L1223 1116Q1274 1017 1274 868Q1274 751 1241 589T1171 334Q1096 148 970 65T639 -18Q412 -18 317 100L236 10L182 55ZM324 410Q324 305 348 240L1118 1104Q1045 1202 852 1202Q706 1202 606 1147T442 963Q394 867 360 703T324 410ZM383 170Q459 74 651 74Q815 74 917 143T1081 365Q1115 445 1146 599T1178 864Q1178 966 1151 1036L383 170Z"  />
<glyph unicode="&#xD9;" glyph-name="Ugrave" horiz-adv-x="1257" d="M250 506L387 1276H483L346 502Q328 382 335 301T382 169T486 96T643 74Q832 74 941 172T1090 502L1227 1276H1325L1188 502Q1161 353 1112 252T990 92T830 9T627 -16Q404 -16 303 115T250 506ZM727 1645H815L926 1366H850L727 1645Z"  />
<glyph unicode="&#xDA;" glyph-name="Uacute" horiz-adv-x="1257" d="M250 506L387 1276H483L346 502Q328 382 335 301T382 169T486 96T643 74Q832 74 941 172T1090 502L1227 1276H1325L1188 502Q1161 353 1112 252T990 92T830 9T627 -16Q404 -16 303 115T250 506ZM811 1366L1020 1645H1114L901 1366H811Z"  />
<glyph unicode="&#xDB;" glyph-name="Ucircumflex" horiz-adv-x="1257" d="M250 506L387 1276H483L346 502Q328 382 335 301T382 169T486 96T643 74Q832 74 941 172T1090 502L1227 1276H1325L1188 502Q1161 353 1112 252T990 92T830 9T627 -16Q404 -16 303 115T250 506ZM645 1366L874 1645H963L1098 1366H1016L918 1585H913L735 1366H645Z"  />
<glyph unicode="&#xDC;" glyph-name="Udieresis" horiz-adv-x="1257" d="M250 506L387 1276H483L346 502Q328 382 335 301T382 169T486 96T643 74Q832 74 941 172T1090 502L1227 1276H1325L1188 502Q1161 353 1112 252T990 92T830 9T627 -16Q404 -16 303 115T250 506ZM653 1505Q653 1531 672 1551T717 1571Q744 1571 764 1552T784 1505Q784 1477 765 1459T717 1440Q690 1440 672 1459T653 1505ZM1006 1505Q1006 1532 1025 1551T1071 1571Q1097 1571 1117 1551T1137 1505Q1137 1478 1118 1459T1071 1440Q1043 1440 1025 1458T1006 1505Z"  />
<glyph unicode="&#xDD;" glyph-name="Yacute" horiz-adv-x="1216" d="M274 1276H377L705 588L1276 1276H1393L745 498L657 0H561L647 494L274 1276ZM807 1366L1014 1645H1108L895 1366H807Z"  />
<glyph unicode="&#xDE;" glyph-name="Thorn" horiz-adv-x="1159" d="M180 0L406 1276H502L459 1028H795Q1003 1028 1100 940T1198 702Q1198 250 659 250H322L276 0H180ZM338 340H674Q798 340 884 367T1017 445T1082 558T1102 700Q1102 936 778 936H442L338 340Z"  />
<glyph unicode="&#xDF;" glyph-name="germandbls" horiz-adv-x="1060" d="M141 0L287 825Q369 1292 739 1292Q873 1292 946 1221T1020 1047Q1020 992 1003 947T957 873T895 819T827 775T765 736T720 692T702 635Q702 603 732 578T804 531T888 484T961 412T991 301Q991 146 879 65T578 -16Q466 -16 406 8L424 98Q501 74 584 74Q746 74 820 135T895 297Q895 343 866 378T794 435T711 481T640 541T610 627Q610 681 633 723T691 790T767 841T842 891T900 953T924 1044Q924 1115 874 1158T731 1202Q603 1202 511 1112T385 834L238 0H141Z"  />
<glyph unicode="&#xE0;" glyph-name="agrave" horiz-adv-x="989" d="M154 242Q154 295 167 340T213 430T298 504T433 554T625 573H850L868 688Q889 803 828 850T629 897Q476 897 358 854V942Q518 983 637 983Q715 983 777 967T887 917T954 824T961 686L848 43Q671 -14 489 -14Q327 -14 241 46T154 242ZM248 244Q248 150 306 110T500 70Q664 70 768 106L836 496H623Q444 496 346 433T248 244ZM592 1352H680L791 1073H715L592 1352Z"  />
<glyph unicode="&#xE1;" glyph-name="aacute" horiz-adv-x="989" d="M154 242Q154 295 167 340T213 430T298 504T433 554T625 573H850L868 688Q889 803 828 850T629 897Q476 897 358 854V942Q518 983 637 983Q715 983 777 967T887 917T954 824T961 686L848 43Q671 -14 489 -14Q327 -14 241 46T154 242ZM248 244Q248 150 306 110T500 70Q664 70 768 106L836 496H623Q444 496 346 433T248 244ZM592 1073L801 1352H895L682 1073H592Z"  />
<glyph unicode="&#xE2;" glyph-name="acircumflex" horiz-adv-x="989" d="M154 242Q154 295 167 340T213 430T298 504T433 554T625 573H850L868 688Q889 803 828 850T629 897Q476 897 358 854V942Q518 983 637 983Q715 983 777 967T887 917T954 824T961 686L848 43Q671 -14 489 -14Q327 -14 241 46T154 242ZM248 244Q248 150 306 110T500 70Q664 70 768 106L836 496H623Q444 496 346 433T248 244ZM479 1073L711 1352H799L934 1073H852L754 1294H750L571 1073H479Z"  />
<glyph unicode="&#xE3;" glyph-name="atilde" horiz-adv-x="989" d="M154 242Q154 295 167 340T213 430T298 504T433 554T625 573H850L868 688Q889 803 828 850T629 897Q476 897 358 854V942Q518 983 637 983Q715 983 777 967T887 917T954 824T961 686L848 43Q671 -14 489 -14Q327 -14 241 46T154 242ZM248 244Q248 150 306 110T500 70Q664 70 768 106L836 496H623Q444 496 346 433T248 244ZM397 1122Q413 1217 454 1267T571 1317Q612 1317 650 1294T712 1244T767 1194T827 1171Q913 1171 932 1298H1006Q988 1203 945 1154T823 1104Q788 1104 757 1119T703 1155T659 1197T613 1234T565 1249Q520 1249 499 1216T469 1122H397Z"  />
<glyph unicode="&#xE4;" glyph-name="adieresis" horiz-adv-x="989" d="M154 242Q154 295 167 340T213 430T298 504T433 554T625 573H850L868 688Q889 803 828 850T629 897Q476 897 358 854V942Q518 983 637 983Q715 983 777 967T887 917T954 824T961 686L848 43Q671 -14 489 -14Q327 -14 241 46T154 242ZM248 244Q248 150 306 110T500 70Q664 70 768 106L836 496H623Q444 496 346 433T248 244ZM465 1208Q465 1236 484 1256T530 1276Q556 1276 576 1256T596 1208Q596 1182 577 1164T530 1145Q502 1145 484 1163T465 1208ZM817 1208Q817 1236 836 1256T883 1276Q909 1276 928 1256T948 1208Q948 1182 929 1164T883 1145Q855 1145 836 1163T817 1208Z"  />
<glyph unicode="&#xE5;" glyph-name="aring" horiz-adv-x="989" d="M154 242Q154 295 167 340T213 430T298 504T433 554T625 573H850L868 688Q889 803 828 850T629 897Q476 897 358 854V942Q518 983 637 983Q715 983 777 967T887 917T954 824T961 686L848 43Q671 -14 489 -14Q327 -14 241 46T154 242ZM248 244Q248 150 306 110T500 70Q664 70 768 106L836 496H623Q444 496 346 433T248 244ZM551 1210Q551 1285 596 1331T717 1378Q798 1378 843 1332T889 1210Q889 1136 843 1090T717 1044Q643 1044 597 1090T551 1210ZM612 1210Q612 1167 639 1136T717 1104Q769 1104 798 1135T827 1210Q827 1258 799 1289T717 1321Q667 1321 640 1290T612 1210Z"  />
<glyph unicode="&#xE6;" glyph-name="ae" horiz-adv-x="1679" d="M154 242Q154 573 637 573H850L868 688Q889 801 828 849T629 897Q481 897 358 854V942Q518 983 643 983Q721 983 784 966T893 906T950 799Q1013 891 1099 937T1327 983Q1485 983 1576 896T1667 653Q1667 549 1624 444H920L918 434Q847 74 1221 74Q1291 74 1383 97T1538 154V61Q1385 -14 1204 -14Q888 -14 842 236Q760 -14 461 -14Q396 -14 343 -1T246 41T178 121T154 242ZM248 244Q248 70 467 70Q618 70 704 154T825 436L838 496H633Q248 496 248 244ZM936 528H1561L1567 551Q1608 718 1535 807T1311 897Q997 897 938 541L936 528Z"  />
<glyph unicode="&#xE7;" glyph-name="ccedilla" horiz-adv-x="919" d="M199 338Q199 445 236 588T350 823Q482 983 741 983Q875 983 983 928L952 844Q855 895 731 895Q520 895 412 758Q355 687 323 568T291 338Q291 201 365 138T596 74Q725 74 848 127V37Q745 -5 610 -12L575 -92Q652 -79 701 -113T750 -211Q750 -270 717 -310T636 -365T532 -381Q472 -381 414 -358L436 -295Q469 -315 539 -315Q596 -315 637 -290T678 -211Q678 -177 652 -161T584 -145Q544 -145 481 -158L545 -12Q375 -5 287 86T199 338Z"  />
<glyph unicode="&#xE8;" glyph-name="egrave" horiz-adv-x="1056" d="M199 342Q199 395 204 448T224 566T262 688T325 800T416 895T542 959T705 983Q859 983 951 897T1044 653Q1044 549 1001 444H297Q281 376 289 295Q306 74 594 74Q668 74 759 97T918 154V61Q759 -14 575 -14Q388 -14 294 78T199 342ZM311 528H940Q940 534 943 546T946 561Q984 721 911 809T690 897Q375 897 313 541Q313 539 312 535T311 528ZM598 1352H686L797 1073H719L598 1352Z"  />
<glyph unicode="&#xE9;" glyph-name="eacute" horiz-adv-x="1056" d="M199 342Q199 395 204 448T224 566T262 688T325 800T416 895T542 959T705 983Q859 983 951 897T1044 653Q1044 549 1001 444H297Q281 376 289 295Q306 74 594 74Q668 74 759 97T918 154V61Q759 -14 575 -14Q388 -14 294 78T199 342ZM311 528H940Q940 534 943 546T946 561Q984 721 911 809T690 897Q375 897 313 541Q313 539 312 535T311 528ZM659 1073L866 1352H961L748 1073H659Z"  />
<glyph unicode="&#xEA;" glyph-name="ecircumflex" horiz-adv-x="1056" d="M199 342Q199 395 204 448T224 566T262 688T325 800T416 895T542 959T705 983Q859 983 951 897T1044 653Q1044 549 1001 444H297Q281 376 289 295Q306 74 594 74Q668 74 759 97T918 154V61Q759 -14 575 -14Q388 -14 294 78T199 342ZM311 528H940Q940 534 943 546T946 561Q984 721 911 809T690 897Q375 897 313 541Q313 539 312 535T311 528ZM512 1073L741 1352H829L965 1073H885L784 1294H780L604 1073H512Z"  />
<glyph unicode="&#xEB;" glyph-name="edieresis" horiz-adv-x="1056" d="M199 342Q199 395 204 448T224 566T262 688T325 800T416 895T542 959T705 983Q859 983 951 897T1044 653Q1044 549 1001 444H297Q281 376 289 295Q306 74 594 74Q668 74 759 97T918 154V61Q759 -14 575 -14Q388 -14 294 78T199 342ZM311 528H940Q940 534 943 546T946 561Q984 721 911 809T690 897Q375 897 313 541Q313 539 312 535T311 528ZM502 1208Q502 1236 521 1256T567 1276Q593 1276 613 1256T633 1208Q633 1182 614 1164T567 1145Q539 1145 521 1163T502 1208ZM856 1208Q856 1236 875 1256T920 1276T965 1256T985 1208Q985 1182 966 1164T920 1145T875 1163T856 1208Z"  />
<glyph unicode="&#xEC;" glyph-name="igrave" horiz-adv-x="448" d="M178 0L350 969H442L270 0H178ZM252 1352H338L451 1073H373L252 1352Z"  />
<glyph unicode="&#xED;" glyph-name="iacute" horiz-adv-x="448" d="M178 0L350 969H442L270 0H178ZM365 1073L571 1352H668L453 1073H365Z"  />
<glyph unicode="&#xEE;" glyph-name="icircumflex" horiz-adv-x="448" d="M178 0L350 969H442L270 0H178ZM186 1073L416 1352H504L639 1073H557L459 1294H455L276 1073H186Z"  />
<glyph unicode="&#xEF;" glyph-name="idieresis" horiz-adv-x="448" d="M178 0L350 969H442L270 0H178ZM195 1208Q195 1236 214 1256T260 1276Q286 1276 306 1256T326 1208Q326 1182 307 1164T260 1145Q232 1145 214 1163T195 1208ZM547 1208Q547 1236 566 1256T612 1276Q638 1276 658 1256T678 1208Q678 1182 659 1164T612 1145Q584 1145 566 1163T547 1208Z"  />
<glyph unicode="&#xF0;" glyph-name="eth" horiz-adv-x="1073" d="M160 307Q160 523 288 644T635 766Q805 766 954 682Q982 870 953 988T825 1184L584 981L541 1034L766 1229Q657 1293 475 1317L518 1403Q717 1374 840 1292L1038 1458L1083 1405L897 1249Q985 1172 1024 1075T1063 844Q1063 734 1037 588T975 344Q910 158 794 71T506 -16Q345 -16 253 66T160 307ZM256 303Q256 187 324 131T514 74Q595 74 659 100T768 172T846 285T901 427T938 594Q862 636 789 657T621 678Q458 678 357 583T256 303Z"  />
<glyph unicode="&#xF1;" glyph-name="ntilde" horiz-adv-x="1091" d="M170 0L330 909Q397 941 502 962T717 983Q780 983 830 975T924 949T994 901T1040 828T1059 726T1049 592L942 0H852L956 594Q966 650 966 694T960 769T936 823T899 859T847 881T785 892T713 895Q534 895 410 844L262 0H170ZM449 1122Q465 1217 506 1267T623 1317Q664 1317 702 1294T764 1244T819 1194T881 1171Q963 1171 985 1298H1057Q1039 1203 996 1154T874 1104Q839 1104 808 1119T754 1155T710 1197T664 1234T616 1249Q571 1249 550 1216T520 1122H449Z"  />
<glyph unicode="&#xF2;" glyph-name="ograve" horiz-adv-x="1073" d="M201 332Q201 468 242 611T346 829Q469 983 709 983Q886 983 966 891T1047 639Q1047 521 1014 394T932 188Q809 -14 537 -14Q447 -14 381 12T276 86T219 195T201 332ZM291 326Q291 203 351 139T551 74Q772 74 864 250Q900 318 928 428T956 635Q956 763 896 829T696 895Q594 895 524 862T401 752Q353 685 322 561T291 326ZM588 1352H674L786 1073H709L588 1352Z"  />
<glyph unicode="&#xF3;" glyph-name="oacute" horiz-adv-x="1073" d="M201 332Q201 468 242 611T346 829Q469 983 709 983Q886 983 966 891T1047 639Q1047 521 1014 394T932 188Q809 -14 537 -14Q447 -14 381 12T276 86T219 195T201 332ZM291 326Q291 203 351 139T551 74Q772 74 864 250Q900 318 928 428T956 635Q956 763 896 829T696 895Q594 895 524 862T401 752Q353 685 322 561T291 326ZM670 1073L877 1352H971L758 1073H670Z"  />
<glyph unicode="&#xF4;" glyph-name="ocircumflex" horiz-adv-x="1073" d="M201 332Q201 468 242 611T346 829Q469 983 709 983Q886 983 966 891T1047 639Q1047 521 1014 394T932 188Q809 -14 537 -14Q447 -14 381 12T276 86T219 195T201 332ZM291 326Q291 203 351 139T551 74Q772 74 864 250Q900 318 928 428T956 635Q956 763 896 829T696 895Q594 895 524 862T401 752Q353 685 322 561T291 326ZM502 1073L731 1352H819L954 1073H874L774 1294H770L594 1073H502Z"  />
<glyph unicode="&#xF5;" glyph-name="otilde" horiz-adv-x="1073" d="M201 332Q201 468 242 611T346 829Q469 983 709 983Q886 983 966 891T1047 639Q1047 521 1014 394T932 188Q809 -14 537 -14Q447 -14 381 12T276 86T219 195T201 332ZM291 326Q291 203 351 139T551 74Q772 74 864 250Q900 318 928 428T956 635Q956 763 896 829T696 895Q594 895 524 862T401 752Q353 685 322 561T291 326ZM451 1122Q480 1317 623 1317Q665 1317 703 1294T766 1244T821 1194T881 1171Q963 1171 985 1298H1057Q1041 1203 998 1154T874 1104Q840 1104 809 1119T755 1155T711 1197T665 1234T616 1249Q573 1249 552 1215T522 1122H451Z"  />
<glyph unicode="&#xF6;" glyph-name="odieresis" horiz-adv-x="1073" d="M201 332Q201 468 242 611T346 829Q469 983 709 983Q886 983 966 891T1047 639Q1047 521 1014 394T932 188Q809 -14 537 -14Q447 -14 381 12T276 86T219 195T201 332ZM291 326Q291 203 351 139T551 74Q772 74 864 250Q900 318 928 428T956 635Q956 763 896 829T696 895Q594 895 524 862T401 752Q353 685 322 561T291 326ZM508 1208Q508 1236 527 1256T573 1276Q599 1276 619 1256T639 1208Q639 1182 620 1164T573 1145Q545 1145 527 1163T508 1208ZM862 1208Q862 1236 881 1256T926 1276T971 1256T991 1208Q991 1182 972 1164T926 1145T881 1163T862 1208Z"  />
<glyph unicode="&#xF7;" glyph-name="divide" horiz-adv-x="1177" d="M250 598V678H1137V598H250ZM612 272Q612 307 635 330T692 354Q727 354 750 331T774 272Q774 238 751 216T692 193Q658 193 635 215T612 272ZM612 1004Q612 1038 635 1060T692 1083Q727 1083 750 1061T774 1004Q774 969 751 946T692 922Q658 922 635 945T612 1004Z"  />
<glyph unicode="&#xF8;" glyph-name="oslash" horiz-adv-x="1073" d="M174 33L252 119Q201 202 201 332Q201 435 226 546T293 745Q354 865 454 924T709 983Q860 983 950 903L1018 981L1069 936L993 852Q1047 769 1047 639Q1047 538 1021 426T954 231Q844 -14 537 -14Q380 -14 295 68L225 -10L174 33ZM291 326Q291 243 317 190L887 836Q825 895 696 895Q596 895 526 864T403 758Q355 696 323 567T291 326ZM356 133Q415 74 551 74Q772 74 864 250Q900 315 927 423T954 627Q957 715 926 778L356 133Z"  />
<glyph unicode="&#xF9;" glyph-name="ugrave" horiz-adv-x="1091" d="M215 154T206 220T215 377L319 969H412L307 375Q297 319 297 275T303 200T328 146T365 110T417 88T478 77T549 74Q715 74 852 127L1001 969H1094L934 61Q748 -14 537 -14Q466 -14 411 -2T310 37T240 109ZM596 1352H684L795 1073H717L596 1352Z"  />
<glyph unicode="&#xFA;" glyph-name="uacute" horiz-adv-x="1091" d="M215 154T206 220T215 377L319 969H412L307 375Q297 319 297 275T303 200T328 146T365 110T417 88T478 77T549 74Q715 74 852 127L1001 969H1094L934 61Q748 -14 537 -14Q466 -14 411 -2T310 37T240 109ZM682 1073L889 1352H985L770 1073H682Z"  />
<glyph unicode="&#xFB;" glyph-name="ucircumflex" horiz-adv-x="1091" d="M215 154T206 220T215 377L319 969H412L307 375Q297 319 297 275T303 200T328 146T365 110T417 88T478 77T549 74Q715 74 852 127L1001 969H1094L934 61Q748 -14 537 -14Q466 -14 411 -2T310 37T240 109ZM496 1073L727 1352H813L950 1073H868L768 1294H764L588 1073H496Z"  />
<glyph unicode="&#xFC;" glyph-name="udieresis" horiz-adv-x="1091" d="M215 154T206 220T215 377L319 969H412L307 375Q297 319 297 275T303 200T328 146T365 110T417 88T478 77T549 74Q715 74 852 127L1001 969H1094L934 61Q748 -14 537 -14Q466 -14 411 -2T310 37T240 109ZM512 1208Q512 1236 531 1256T578 1276Q604 1276 623 1256T643 1208Q643 1182 624 1164T578 1145Q550 1145 531 1163T512 1208ZM864 1208Q864 1236 883 1256T930 1276Q956 1276 975 1256T995 1208Q995 1182 976 1164T930 1145Q902 1145 883 1163T864 1208Z"  />
<glyph unicode="&#xFD;" glyph-name="yacute" horiz-adv-x="1091" d="M135 -362L166 -276Q290 -330 461 -330Q539 -330 594 -320T696 -283T773 -206T817 -78L840 47Q718 -14 553 -14Q487 -14 435 -6T339 20T268 68T222 141T204 243T215 377L319 969H412L307 375Q297 318 296 274T302 198T327 144T367 108T423 87T490 77T571 74Q736 74 854 137L1001 969H1094L909 -78Q891 -179 855 -245T758 -349T624 -401T444 -416Q271 -416 135 -362ZM682 1073L889 1352H985L770 1073H682Z"  />
<glyph unicode="&#xFE;" glyph-name="thorn" horiz-adv-x="1071" d="M100 -391L412 1378H504L428 940Q526 983 670 983Q774 983 847 957T962 880T1022 764T1040 610Q1040 505 1024 415T969 245T873 108T725 19T524 -14Q380 -14 266 29L193 -391H100ZM285 123Q388 74 535 74Q748 74 848 218T948 621Q948 686 935 733T891 819T800 876T655 895Q516 895 414 848L285 123Z"  />
<glyph unicode="&#xFF;" glyph-name="ydieresis" horiz-adv-x="1091" d="M135 -362L166 -276Q290 -330 461 -330Q539 -330 594 -320T696 -283T773 -206T817 -78L840 47Q718 -14 553 -14Q487 -14 435 -6T339 20T268 68T222 141T204 243T215 377L319 969H412L307 375Q297 318 296 274T302 198T327 144T367 108T423 87T490 77T571 74Q736 74 854 137L1001 969H1094L909 -78Q891 -179 855 -245T758 -349T624 -401T444 -416Q271 -416 135 -362ZM524 1208Q524 1236 543 1256T588 1276Q615 1276 634 1256T653 1208Q653 1182 635 1164T588 1145Q562 1145 543 1163T524 1208ZM877 1208Q877 1236 895 1256T940 1276Q968 1276 988 1256T1008 1208Q1008 1182 988 1164T940 1145Q914 1145 896 1163T877 1208Z"  />
<glyph unicode="&#x152;" glyph-name="OE" horiz-adv-x="1953" d="M225 410Q225 556 266 735T367 1022Q446 1167 567 1229T862 1292Q1158 1292 1225 1055L1262 1276H2077L2060 1186H1341L1260 717H1896L1880 627H1245L1149 90H1868L1851 0H1038L1071 190Q942 -18 637 -18Q418 -18 322 91T225 410ZM322 395Q322 321 336 267T384 167T485 98T649 74Q813 74 915 143T1079 365Q1114 448 1145 606T1176 879Q1176 1042 1102 1122T850 1202Q704 1202 604 1147T440 963Q390 865 356 695T322 395Z"  />
<glyph unicode="&#x153;" glyph-name="oe" horiz-adv-x="1779" d="M199 332Q199 470 242 616T350 838Q471 983 707 983Q848 983 929 919T1022 737Q1120 983 1432 983Q1587 983 1679 897T1772 653Q1772 549 1729 444H1024Q1008 376 1016 295Q1033 74 1321 74Q1395 74 1486 97T1645 154Q1645 138 1644 107T1642 61Q1486 -14 1300 -14Q1149 -14 1056 49T946 240Q900 113 794 50T535 -14Q360 -14 280 79T199 332ZM289 324Q289 202 349 138T549 74Q767 74 862 248Q898 316 926 427T954 637Q954 764 894 829T694 895Q595 895 525 864T401 758Q352 690 321 564T289 324ZM1038 528H1665Q1666 532 1669 543T1673 561Q1710 721 1637 809T1417 897Q1102 897 1040 541Q1040 539 1039 535T1038 528Z"  />
<glyph unicode="&#x178;" glyph-name="Ydieresis" horiz-adv-x="1216" d="M274 1276H377L705 588L1276 1276H1393L745 498L657 0H561L647 494L274 1276ZM631 1503Q631 1530 650 1549T696 1569Q722 1569 742 1549T762 1503Q762 1476 743 1457T696 1438Q668 1438 650 1456T631 1503ZM983 1503Q983 1530 1002 1549T1049 1569Q1075 1569 1094 1549T1114 1503Q1114 1476 1095 1457T1049 1438Q1021 1438 1002 1456T983 1503Z"  />
<glyph unicode="&#x2C6;" glyph-name="circumflex" horiz-adv-x="706" d="M397 1536L627 1815H715L850 1536H770L670 1757H666L489 1536H397Z"  />
<glyph unicode="&#x2DC;" glyph-name="tilde" horiz-adv-x="940" d="M463 1591Q479 1686 520 1736T637 1786Q678 1786 716 1763T778 1713T833 1663T895 1640Q978 1640 997 1767H1071Q1053 1671 1010 1622T889 1573Q854 1573 823 1588T769 1624T725 1667T679 1703T631 1718Q586 1718 565 1685T535 1591H463Z"  />
<glyph unicode="&#x2000;" glyph-name="uni2000" horiz-adv-x="907" />
<glyph unicode="&#x2001;" glyph-name="uni2001" horiz-adv-x="1815" />
<glyph unicode="&#x2002;" glyph-name="uni2002" horiz-adv-x="907" />
<glyph unicode="&#x2003;" glyph-name="uni2003" horiz-adv-x="1815" />
<glyph unicode="&#x2004;" glyph-name="uni2004" horiz-adv-x="605" />
<glyph unicode="&#x2005;" glyph-name="uni2005" horiz-adv-x="453" />
<glyph unicode="&#x2006;" glyph-name="uni2006" horiz-adv-x="302" />
<glyph unicode="&#x2007;" glyph-name="uni2007" horiz-adv-x="302" />
<glyph unicode="&#x2008;" glyph-name="uni2008" horiz-adv-x="226" />
<glyph unicode="&#x2009;" glyph-name="uni2009" horiz-adv-x="363" />
<glyph unicode="&#x200A;" glyph-name="uni200A" horiz-adv-x="100" />
<glyph unicode="&#x2010;" glyph-name="uni2010" horiz-adv-x="751" d="M170 598L184 678H807L793 598H170Z"  />
<glyph unicode="&#x2011;" glyph-name="uni2011" horiz-adv-x="751" d="M170 598L184 678H807L793 598H170Z"  />
<glyph unicode="&#x2012;" glyph-name="figuredash" horiz-adv-x="751" d="M170 598L184 678H807L793 598H170Z"  />
<glyph unicode="&#x2013;" glyph-name="endash" horiz-adv-x="839" d="M106 598L119 678H961L946 598H106Z"  />
<glyph unicode="&#x2014;" glyph-name="emdash" horiz-adv-x="1681" d="M106 598L119 678H1800L1788 598H106Z"  />
<glyph unicode="&#x2018;" glyph-name="quoteleft" horiz-adv-x="415" d="M317 1100Q317 1188 361 1280T485 1436L532 1397Q477 1348 441 1277T399 1147Q431 1152 459 1129T487 1069Q487 1036 463 1012T406 987Q366 987 342 1021T317 1100Z"  />
<glyph unicode="&#x2019;" glyph-name="quoteright" horiz-adv-x="415" d="M315 1040Q371 1092 407 1162T446 1292Q416 1286 388 1309T360 1370Q360 1403 383 1426T440 1450Q480 1450 504 1416T528 1339Q528 1250 484 1159T360 1004L315 1040Z"  />
<glyph unicode="&#x201A;" glyph-name="quotesinglbase" horiz-adv-x="411" d="M82 -258Q138 -207 174 -137T213 -8Q183 -13 155 10T127 70Q127 104 150 128T207 152Q249 152 273 118T297 41Q297 -49 253 -141T127 -297L82 -258Z"  />
<glyph unicode="&#x201C;" glyph-name="quotedblleft" horiz-adv-x="718" d="M317 1100Q317 1188 361 1280T485 1436L532 1397Q477 1348 441 1277T399 1147Q431 1152 459 1129T487 1069Q487 1036 463 1012T406 987Q366 987 342 1021T317 1100ZM618 1100Q618 1188 662 1280T788 1436L834 1397Q778 1347 742 1277T702 1147Q732 1152 760 1129T788 1069Q788 1036 764 1012T707 987Q667 987 643 1021T618 1100Z"  />
<glyph unicode="&#x201D;" glyph-name="quotedblright" horiz-adv-x="718" d="M315 1040Q371 1092 407 1162T446 1292Q416 1286 388 1309T360 1370Q360 1403 383 1426T440 1450Q480 1450 504 1416T528 1339Q528 1250 484 1159T360 1004L315 1040ZM616 1040Q672 1092 708 1162T748 1292Q718 1286 690 1309T662 1370Q662 1402 686 1426T743 1450Q783 1450 807 1416T831 1339Q831 1251 787 1160T662 1004L616 1040Z"  />
<glyph unicode="&#x201E;" glyph-name="quotedblbase" horiz-adv-x="696" d="M82 -258Q138 -207 174 -137T213 -8Q183 -13 155 10T127 70Q127 104 150 128T207 152Q249 152 273 118T297 41Q297 -49 253 -141T127 -297L82 -258ZM365 -258Q421 -207 457 -137T496 -8Q466 -13 438 10T410 70Q410 104 434 128T492 152Q532 152 556 118T580 41Q580 -49 536 -141T410 -297L365 -258Z"  />
<glyph unicode="&#x2022;" glyph-name="bullet" horiz-adv-x="499" d="M203 635Q203 699 249 746T360 793T471 746T518 635Q518 570 472 523T360 475T249 522T203 635Z"  />
<glyph unicode="&#x2026;" glyph-name="ellipsis" horiz-adv-x="1261" d="M139 72Q139 104 163 128T219 152Q253 152 277 128T301 72Q301 38 277 14T219 -10Q187 -10 163 14T139 72ZM563 72Q563 104 587 128T645 152Q677 152 701 128T725 72Q725 38 701 14T645 -10Q611 -10 587 14T563 72ZM987 72Q987 104 1011 128T1069 152T1127 128T1151 72Q1151 38 1127 14T1069 -10T1011 14T987 72Z"  />
<glyph unicode="&#x202F;" glyph-name="uni202F" horiz-adv-x="363" />
<glyph unicode="&#x2039;" glyph-name="guilsinglleft" horiz-adv-x="585" d="M170 512L541 915H643L264 504L498 109H410L170 512Z"  />
<glyph unicode="&#x203A;" glyph-name="guilsinglright" horiz-adv-x="585" d="M125 109L504 518L268 915H356L596 512L225 109H125Z"  />
<glyph unicode="&#x205F;" glyph-name="uni205F" horiz-adv-x="453" />
<glyph unicode="&#x20AC;" glyph-name="Euro" horiz-adv-x="1167" d="M141 457L154 532H307Q320 648 344 743H193L205 819H365Q399 934 443 1018T536 1154T650 1238T779 1280T928 1292Q1039 1292 1105 1274T1241 1217L1210 1122Q1137 1162 1068 1182T905 1202Q827 1202 765 1185T645 1126T542 1007T465 819H1073L1042 743H440Q414 628 406 532H952L922 457H399Q399 404 401 381Q403 310 418 257T468 161T564 96T711 74Q821 74 915 98T1065 156Q1065 140 1064 107T1063 57Q913 -16 709 -16Q501 -16 404 88T301 391Q301 434 303 457H141Z"  />
<glyph unicode="&#x2122;" glyph-name="trademark" horiz-adv-x="1765" d="M281 1204V1276H895V1204H627V496H549V1204H281ZM1065 496V1276H1184L1468 610L1743 1276H1860V496H1784V1184L1495 496H1440L1143 1184V496H1065Z"  />
<glyph unicode="&#xE000;" glyph-name="uniE000" horiz-adv-x="972" d="M0 0V973H973V0H0Z"  />
<glyph unicode="&#xFB01;" glyph-name="uniFB01" horiz-adv-x="1165" d="M160 0L358 1118Q374 1212 408 1276T493 1373T597 1420T721 1434Q795 1434 843 1422T944 1384L918 1298Q824 1346 717 1346Q607 1346 540 1295T451 1120L424 969H840L825 883H408L252 0H160ZM895 0L1067 969H1159L987 0H895ZM1106 1323Q1106 1350 1126 1370T1174 1391T1221 1371T1241 1323Q1241 1295 1222 1275T1174 1255T1126 1275T1106 1323Z"  />
<glyph unicode="&#xFB02;" glyph-name="uniFB02" horiz-adv-x="1300" d="M160 0L358 1118Q374 1212 408 1276T493 1373T597 1420T721 1434Q795 1434 843 1422T944 1384L918 1298Q824 1346 717 1346Q607 1346 540 1295T451 1120L424 969H840L825 883H408L252 0H160ZM971 258L1167 1378H1260L1063 262Q1044 158 1069 118T1159 78Q1220 78 1264 96V12Q1211 -10 1143 -10Q1045 -10 995 60T971 258Z"  />


</font>
</defs>
<text x="40" y="40" font-family="AccordAlternate" font-size="30" fill="#933" >ABCDEFGHIJKLMNOPQRSTUVWXYZ abcdefghijklmnopqrstuvwxyz AÁÀÂÄÅÃÆ CÇ DÐ EÉÈÊË I Í Ì Î Ï NÑ</text>
<text x="40" y="80" font-family="AccordAlternate" font-size="30" fill="#933" >OÓÒÔÖÕØŒ SŠ UÚÙÛÜ YÝŸ ZŽ Þ aáàâäåãæ cç dð eéèêë i ı í ì î ï nñ oóòôöõøœ sšß uúùûü yýÿ zž</text>
<text x="40" y="120" font-family="AccordAlternate" font-size="30" fill="#933" >þ 1234567890 ½ ¼ ¾ % ‰ $¢£¥ƒ€¤ † ‡ § ¶ # ^~µ +×± &lt; = &gt; ÷¬ !¡?¿ &quot; &amp; &apos; * ° . , : ; () [ \ ] {} / |</text>
<text x="40" y="160" font-family="AccordAlternate" font-size="30" fill="#933" >¦ _ ‚ „ … ‹› «» ‘ ’ “ ” • ­ - – — @ © ® ™ ªº ¹²³ ´ ` ˆ ˜ ¨ ¯ · ¸</text>
</svg>
