<?xml  version="1.0" encoding="UTF-8"?>
<!DOCTYPE svg PUBLIC "-//W3C//DTD SVG 1.0//EN" "http://www.w3.org/TR/2001/REC-SVG-20010904/DTD/svg10.dtd" >
<svg xmlns="http://www.w3.org/2000/svg" >
<metadata>
<version>1.0</version>
<id><![CDATA[AccordAlternate Light]]></id>
<vendor>Monotype Imaging Inc.</vendor>
<credits>
<name>Fonts.com WebFonts</name>
<URL>http://webfonts.fonts.com</URL>
<role>Home of the Web fonts</role>
</credits>
<license>
<URL>http://webfonts.fonts.com/Legal</URL>
</license>
<copyright><![CDATA[Copyright (c) 2010 by Aakash Soneri. All rights reserved.]]></copyright>
<trademark><![CDATA[AccordAlternate Light is a trademark of Aakash Soneri.]]></trademark>
<licensee>
<name></name>
</licensee>
</metadata>
<defs >
<font horiz-adv-x="490" id="e199660c-4a2a-402d-9d03-552583c02b16">
<font-face font-family="" panose-1="2 0 4 6 7 0 0 2 0 4" ascent="886" descent="-227" units-per-em="1000" alphabetic="0">
</font-face>
<missing-glyph horiz-adv-x="194" />

<glyph unicode="&#xA;" />
<glyph unicode="&#xD;" horiz-adv-x="282" />
<glyph unicode=" " horiz-adv-x="282" />
<glyph unicode="!" horiz-adv-x="262" d="M162 627V408Q162 345 158 282T154 156H111Q111 219 107 282T102 408V627H162ZM86 39Q86 59 98 72T131 85Q151 85 163 72T176 39Q176 20 164 7T131 -6Q111 -6 99 7T86 39Z"  />
<glyph unicode="&quot;" horiz-adv-x="264" d="M169 723H213V514H169V723ZM51 723H95V514H51V723Z"  />
<glyph unicode="#" horiz-adv-x="653" d="M371 161H203L163 0H109L149 161H46V210H162L216 429H89V478H229L266 627H320L282 478H451L488 627H542L505 478H607V429H492L438 210H565V161H425L385 0H332L371 161ZM215 210H384L438 429H270L215 210Z"  />
<glyph unicode="$" horiz-adv-x="512" d="M224 -2Q176 0 132 13T55 49L73 104Q105 80 149 68T236 55Q269 55 298 61T349 81T383 116T396 168Q396 205 372 227T310 264T231 293T151 327T90 380T65 464Q65 503 77 531T112 579T163 610T224 626V711H276V628Q321 626 363 613T435 578L417 523Q387 546 347 559T265 573Q236 573 211 567T167 549T137 516T126 467Q126 427 150 404T212 365T291 336T371 303T432 252T457 170Q457 129 442 99T403 48T345 16T276 0V-84H224V-2Z"  />
<glyph unicode="%" horiz-adv-x="819" d="M603 627L276 0H215L541 627H603ZM356 465Q356 421 345 389T313 336T266 305T206 295Q174 295 147 305T99 336T67 389T55 465Q55 509 66 541T98 594T146 625T206 635Q238 635 265 625T313 594T344 541T356 465ZM303 465Q303 529 275 557T206 585Q165 585 137 557T108 465Q108 431 115 408T136 371T168 350T206 344Q226 344 244 350T275 370T295 408T303 465ZM762 162Q762 118 751 86T719 34T671 3T611 -7Q579 -7 552 3T504 33T473 86T461 162Q461 206 472 238T504 291T552 322T611 332Q643 332 670 322T718 291T750 238T762 162ZM708 162Q708 194 701 217T680 254T649 276T611 283Q570 283 542 255T514 162Q514 94 542 68T611 42Q631 42 649 48T680 68T700 105T708 162Z"  />
<glyph unicode="&amp;" horiz-adv-x="604" d="M498 303V219Q498 154 481 111T434 41T367 3T288 -9Q246 -9 207 1T137 32T88 87T69 169Q69 227 99 269T190 331Q161 341 142 356T111 390T96 429T91 470Q91 545 143 590T296 636Q334 636 368 629T423 616L414 558Q396 566 363 572T294 579Q217 579 184 547T151 468Q151 449 157 430T178 394T219 367T285 356H437V439H498V356H578V303H498ZM130 172Q130 136 144 112T180 74T231 53T288 47Q313 47 339 53T388 77T423 130T437 219V303H285Q252 303 224 295T175 271T142 230T130 172Z"  />
<glyph unicode="&apos;" horiz-adv-x="146" d="M51 723H95V514H51V723Z"  />
<glyph unicode="(" horiz-adv-x="335" d="M65 250Q65 396 112 513T263 727L300 693Q262 658 229 614T172 514T133 393T119 250Q119 173 133 108T171 -13T228 -113T300 -193L263 -227Q159 -131 112 -14T65 250Z"  />
<glyph unicode=")" horiz-adv-x="335" d="M270 250Q270 104 223 -13T73 -227L35 -193Q74 -158 107 -114T164 -14T202 107T216 250Q216 327 202 393T164 514T107 613T35 693L73 727Q176 631 223 514T270 250Z"  />
<glyph unicode="*" horiz-adv-x="467" d="M254 572L402 622L416 578L267 531L361 406L323 378L232 506L143 379L105 406L198 531L50 577L64 622L211 571L209 727H256L254 572Z"  />
<glyph unicode="+" horiz-adv-x="568" d="M503 289H311V97H258V289H65V338H258V531H311V338H503V289Z"  />
<glyph unicode="&#x2c;" horiz-adv-x="207" d="M53 39Q53 59 66 72T99 85Q115 85 125 77T140 57T148 29T150 -1Q150 -18 147 -38T136 -77T116 -115T86 -149L61 -129Q84 -104 95 -70T104 -5Q86 -7 70 4T53 39Z"  />
<glyph unicode="-" horiz-adv-x="377" d="M345 289H32V338H345V289Z"  />
<glyph unicode="." horiz-adv-x="208" d="M59 39Q59 59 71 72T104 85Q124 85 136 72T149 39Q149 20 137 7T104 -6Q84 -6 72 7T59 39Z"  />
<glyph unicode="/" horiz-adv-x="297" d="M297 727L54 -30H0L242 727H297Z"  />
<glyph unicode="0" horiz-adv-x="557" d="M437 329Q437 401 426 449T394 526T344 567T278 579Q242 579 213 567T163 526T131 449T120 329V299Q120 227 131 179T163 102T213 61T278 49Q314 49 343 61T393 102T425 179T437 299V329ZM58 329Q58 411 73 469T116 565T185 619T278 636Q330 636 371 619T440 565T484 470T499 329V299Q499 217 484 159T441 64T371 10T278 -7Q226 -7 186 10T117 64T73 159T58 299V329Z"  />
<glyph unicode="1" horiz-adv-x="293" d="M17 539L163 627H215V0H154V553L37 481L17 539Z"  />
<glyph unicode="2" horiz-adv-x="486" d="M436 455Q436 419 424 387T392 323T344 262T287 202L142 57H436V0H52V52L243 239Q300 296 337 346T375 452Q375 478 367 501T341 541T295 569T227 579Q182 579 141 566T70 532L50 586Q79 606 126 621T228 636Q325 636 380 588T436 455Z"  />
<glyph unicode="3" horiz-adv-x="485" d="M179 356H217Q258 356 285 364T329 387T353 422T360 466Q360 518 329 548T216 579Q170 579 131 565T61 531L41 585Q73 604 114 620T216 636Q322 636 371 590T421 466Q421 410 394 377T327 327Q347 321 366 308T399 276T422 232T431 177Q431 89 377 41T216 -7Q153 -7 111 7T31 44L51 98Q83 77 125 63T216 49Q300 49 335 81T370 177Q370 202 362 224T334 264T286 291T217 302H179V356Z"  />
<glyph unicode="4" horiz-adv-x="507" d="M176 627H239L109 220H377V467H438V0H377V163H43V211L176 627Z"  />
<glyph unicode="5" horiz-adv-x="513" d="M86 628H436V571H146V373H230Q347 373 404 328T461 185Q461 88 404 41T242 -7Q187 -7 145 4T58 44L78 97Q117 71 157 60T244 49Q328 49 364 84T401 184Q401 225 388 250T349 290T281 310T184 316H86V628Z"  />
<glyph unicode="6" horiz-adv-x="521" d="M272 385Q367 385 421 339T475 195Q475 144 460 107T419 44T355 6T272 -7Q208 -7 167 17T101 83T68 183T58 309Q58 473 110 554T289 636Q349 636 390 621T460 585L440 532Q411 553 372 566T287 579Q238 579 207 563T156 517T129 445T120 352Q155 369 194 377T272 385ZM267 331Q229 331 192 321T120 293Q120 241 126 197T149 119T197 68T276 49Q338 49 376 82T415 191Q415 267 374 299T267 331Z"  />
<glyph unicode="7" horiz-adv-x="477" d="M117 0L359 570H36V627H430V580L182 0H117Z"  />
<glyph unicode="8" horiz-adv-x="545" d="M273 636Q321 636 358 623T421 588T459 535T472 468Q472 421 450 385T384 329Q435 310 463 269T491 174Q491 138 477 105T435 47T366 8T271 -7Q217 -7 177 7T109 46T68 104T54 173Q54 229 82 269T161 329Q117 349 95 385T73 468Q73 502 86 533T124 586T186 622T273 636ZM115 177Q115 120 155 85T273 49Q349 49 389 84T430 177Q430 233 390 267T273 301Q196 301 156 267T115 177ZM133 465Q133 411 169 381T273 351Q340 351 376 381T412 464Q412 487 404 508T379 544T336 569T272 579Q200 579 167 546T133 465Z"  />
<glyph unicode="9" horiz-adv-x="521" d="M248 243Q152 243 99 290T45 434Q45 486 60 524T104 587T169 624T251 636Q314 636 355 613T420 546T453 444T463 314Q463 220 449 158T408 60T338 8T239 -7Q126 -7 57 45L77 97Q109 72 151 61T238 49Q283 49 314 60T364 99T392 169T401 276Q371 262 332 253T248 243ZM254 297Q290 297 326 306T401 336Q401 388 395 433T371 510T324 560T247 579Q218 579 192 572T147 547T117 503T106 436Q106 398 116 372T146 329T193 305T254 297Z"  />
<glyph unicode=":" horiz-adv-x="208" d="M59 39Q59 59 71 72T104 85Q124 85 136 72T149 39Q149 20 137 7T104 -6Q84 -6 72 7T59 39ZM59 438Q59 458 71 470T104 483Q124 483 136 470T149 438Q149 419 137 406T104 393Q84 393 72 405T59 438Z"  />
<glyph unicode=";" horiz-adv-x="207" d="M56 438Q56 458 68 470T101 483Q121 483 133 470T146 438Q146 419 134 406T101 393Q81 393 69 405T56 438ZM56 39Q56 59 69 72T103 85Q118 85 128 77T143 57T151 29T153 -1Q153 -18 150 -38T139 -77T119 -115T89 -149L64 -129Q87 -104 98 -70T107 -5Q90 -7 73 4T56 39Z"  />
<glyph unicode="&lt;" horiz-adv-x="448" d="M391 75L31 289V337L391 553V494L89 313L391 133V75Z"  />
<glyph unicode="=" horiz-adv-x="548" d="M483 175H65V224H483V175ZM483 404H65V454H483V404Z"  />
<glyph unicode="&gt;" horiz-adv-x="448" d="M57 133L358 313L57 494V553L416 337V289L57 75V133Z"  />
<glyph unicode="?" horiz-adv-x="417" d="M84 39Q84 59 97 72T130 85Q149 85 162 72T175 39Q175 20 162 7T130 -6Q110 -6 97 7T84 39ZM361 462Q361 425 351 398T324 349T286 312T244 282Q207 257 184 233T160 167H100Q100 197 110 221T136 264T172 300T214 331Q229 341 244 352T272 379T292 414T300 462Q300 523 265 551T172 579Q158 579 142 578T110 573T80 566T56 555L39 610Q61 621 95 628T169 636Q211 636 246 625T306 592T346 538T361 462Z"  />
<glyph unicode="@" horiz-adv-x="938" d="M822 272Q822 368 795 434T723 542T616 601T488 619Q405 619 337 595T221 523T147 405T121 241Q121 146 147 78T220 -34T327 -99T459 -120Q498 -120 531 -114T590 -97T637 -73T673 -47L702 -86Q689 -99 667 -113T613 -140T541 -160T454 -168Q374 -168 304 -144T182 -68T99 60T68 245Q68 343 97 421T179 554T310 638T486 667Q565 667 635 646T759 578T844 457T875 277Q875 238 869 196T848 118T804 59T732 36Q687 36 656 60T613 133Q606 113 595 96T565 65T520 44T460 36Q401 36 367 57T314 109T291 175T286 237Q286 280 295 320T326 392T385 443T480 463Q513 463 540 457T588 442T626 421T652 400V207Q652 150 670 117T728 84Q758 84 776 103T805 150T818 211T822 272ZM598 377Q581 389 553 402T480 415Q438 415 411 401T368 362T346 307T339 243Q339 208 345 179T365 129T402 96T462 84Q531 84 564 127T598 242V377Z"  />
<glyph unicode="A" horiz-adv-x="614" d="M451 181H162L91 0H29L275 627H339L585 0H523L451 181ZM184 238H429L307 550L184 238Z"  />
<glyph unicode="B" horiz-adv-x="601" d="M301 627Q360 627 401 615T469 581T507 529T519 463Q519 411 495 378T418 325Q483 308 511 270T539 175Q539 138 527 106T488 51T419 14T318 0H86V627H301ZM146 294V57H318Q363 57 394 65T443 89T470 126T478 175Q478 202 470 223T444 261T394 285T318 294H146ZM146 570V348H301Q345 348 375 356T423 380T450 415T458 460Q458 484 450 504T424 539T375 562T301 570H146Z"  />
<glyph unicode="C" horiz-adv-x="551" d="M127 313Q127 248 136 199T167 116T226 65T321 48Q381 48 425 63T492 96L502 39Q473 20 433 6T325 -9Q255 -9 206 10T126 68T81 168T66 310Q66 391 79 452T123 554T203 615T322 636Q384 636 422 622T494 589L485 531Q450 551 410 565T318 579Q264 579 227 563T168 513T137 430T127 313Z"  />
<glyph unicode="D" horiz-adv-x="600" d="M86 627H267Q340 627 391 609T474 553T520 455T535 315Q535 238 521 179T476 81T393 21T267 0H86V627ZM267 57Q327 57 367 72T430 119T463 199T473 313Q473 376 464 424T432 504T369 553T267 570H146V57H267Z"  />
<glyph unicode="E" horiz-adv-x="544" d="M146 57H494V0H86V627H494V570H146V357H454V300H146V57Z"  />
<glyph unicode="F" horiz-adv-x="529" d="M146 0H86V627H489V570H146V355H449V298H146V0Z"  />
<glyph unicode="G" horiz-adv-x="581" d="M303 331H516V39Q487 20 444 6T332 -9Q259 -9 208 10T126 68T80 169T66 313Q66 392 80 452T125 553T206 615T328 636Q360 636 386 632T433 622T473 607T509 589L499 531Q469 548 426 563T325 579Q268 579 230 563T169 513T137 430T127 313Q127 248 136 199T168 116T230 65T328 48Q369 48 399 56T458 76V276H303V331Z"  />
<glyph unicode="H" horiz-adv-x="619" d="M146 0H86V627H146V360H473V627H534V0H473V303H146V0Z"  />
<glyph unicode="I" horiz-adv-x="243" d="M91 627H152V0H91V627Z"  />
<glyph unicode="J" horiz-adv-x="417" d="M349 191Q349 134 336 96T298 34T241 1T167 -9Q129 -9 100 -1T45 22L55 80Q76 66 104 57T168 48Q195 48 217 53T255 74T279 116T288 188V570H66V627H349V191Z"  />
<glyph unicode="K" horiz-adv-x="544" d="M415 627H489L248 329L509 0H435L174 329L415 627ZM86 627H146V0H86V627Z"  />
<glyph unicode="L" horiz-adv-x="481" d="M86 627H146V57H454V0H86V627Z"  />
<glyph unicode="M" horiz-adv-x="725" d="M86 627H146L363 270L579 627H640V0H579V519L388 205H337L146 519V0H86V627Z"  />
<glyph unicode="N" horiz-adv-x="619" d="M86 627H147L473 107V627H534V0H472L146 520V0H86V627Z"  />
<glyph unicode="O" horiz-adv-x="629" d="M502 313Q502 374 495 423T467 507T410 560T314 579Q255 579 219 561T162 508T134 424T126 313Q126 251 133 202T161 119T218 67T314 48Q373 48 409 66T466 119T494 202T502 313ZM314 -9Q240 -9 193 13T117 77T77 178T66 313Q66 387 77 447T117 549T193 613T314 636Q388 636 436 614T512 549T552 448T563 313Q563 239 552 180T512 78T435 14T314 -9Z"  />
<glyph unicode="P" horiz-adv-x="574" d="M303 627Q366 627 410 613T481 573T521 511T534 432Q534 389 522 354T481 292T410 252T303 237H146V0H86V627H303ZM146 570V294H303Q351 294 384 303T436 331T464 374T473 432Q473 463 465 488T436 532T384 560T303 570H146Z"  />
<glyph unicode="Q" horiz-adv-x="629" d="M156 -46Q173 -31 189 -25T222 -19Q246 -19 269 -27T316 -45T362 -63T407 -72Q424 -72 440 -66T474 -46V-102Q457 -117 441 -123T407 -129Q383 -129 360 -121T313 -103T267 -85T222 -76Q205 -76 189 -82T156 -102V-46ZM502 313Q502 374 495 423T467 507T410 560T314 579Q255 579 219 561T162 508T134 424T126 313Q126 251 133 202T161 119T218 67T314 48Q373 48 409 66T466 119T494 202T502 313ZM314 -9Q240 -9 193 13T117 77T77 178T66 313Q66 387 77 447T117 549T193 613T314 636Q388 636 436 614T512 549T552 448T563 313Q563 239 552 180T512 78T435 14T314 -9Z"  />
<glyph unicode="R" horiz-adv-x="594" d="M534 446Q534 406 523 376T491 325T443 291T383 272L556 0H487L319 265H146V0H86V627H311Q374 627 416 614T485 576T523 519T534 446ZM146 570V321H311Q359 321 390 330T439 356T465 396T473 446Q473 474 466 496T440 535T390 561T311 570H146Z"  />
<glyph unicode="S" horiz-adv-x="527" d="M73 98Q107 75 152 63T244 50Q278 50 308 56T361 75T397 110T411 163Q411 202 386 225T322 263T238 293T155 328T91 382T65 471Q65 515 82 546T128 597T194 626T271 635Q322 635 369 622T450 585L432 530Q401 553 359 565T273 577Q243 577 217 572T170 554T138 521T126 473Q126 431 151 407T215 366T299 336T382 302T446 250T472 165Q472 119 453 86T401 32T329 2T245 -8Q191 -8 141 5T55 42L73 98Z"  />
<glyph unicode="T" horiz-adv-x="564" d="M38 627H526V570H312V0H252V570H38V627Z"  />
<glyph unicode="U" horiz-adv-x="619" d="M76 627H136V248Q136 192 147 154T181 93T235 59T310 48Q352 48 384 58T438 92T471 154T483 248V627H544V248Q544 178 528 129T481 50T407 5T310 -9Q256 -9 213 5T140 49T93 129T76 248V627Z"  />
<glyph unicode="V" horiz-adv-x="591" d="M327 0H264L28 627H90L295 78L501 627H563L327 0Z"  />
<glyph unicode="W" horiz-adv-x="911" d="M651 97L818 627H878L680 0H623L455 524L288 0H230L32 627H93L259 97L426 627H484L651 97Z"  />
<glyph unicode="X" horiz-adv-x="605" d="M302 378L474 627H545L338 329L565 0H494L302 279L112 0H41L267 329L61 627H132L302 378Z"  />
<glyph unicode="Y" horiz-adv-x="605" d="M333 244V0H273V242L23 627H91L302 300L513 627H582L333 244Z"  />
<glyph unicode="Z" horiz-adv-x="550" d="M61 627H489V580L121 57H509V0H41V47L410 570H61V627Z"  />
<glyph unicode="[" horiz-adv-x="313" d="M271 -227H87V727H271V680H140V-180H271V-227Z"  />
<glyph unicode="\" horiz-adv-x="297" d="M55 727L297 -30H243L0 727H55Z"  />
<glyph unicode="]" horiz-adv-x="313" d="M42 -180H173V680H42V727H226V-227H42V-180Z"  />
<glyph unicode="^" horiz-adv-x="457" d="M407 363H352L227 630L104 362H50L203 687H252L407 363Z"  />
<glyph unicode="_" horiz-adv-x="483" d="M476 -69H7V-22H476V-69Z"  />
<glyph unicode="`" horiz-adv-x="253" d="M60 886H116L194 750H145L60 886Z"  />
<glyph unicode="a" horiz-adv-x="487" d="M417 20Q385 9 338 1T241 -7Q200 -7 165 0T105 25T65 69T51 138Q51 218 106 251T262 284H359V336Q359 390 325 410T230 431Q188 431 156 425T100 410L90 465Q119 472 154 478T231 485Q271 485 305 477T364 451T403 404T417 333V20ZM359 237H264Q189 237 149 216T109 138Q109 83 144 64T239 44Q267 44 300 47T359 60V237Z"  />
<glyph unicode="b" horiz-adv-x="527" d="M79 677H137V465Q157 474 185 479T248 485Q308 485 350 468T418 418T456 341T468 239Q468 122 415 58T244 -7Q209 -7 165 -1T79 20V677ZM410 238Q410 281 403 316T377 376T326 416T242 430Q201 430 176 422T137 408V63Q161 55 190 51T245 47Q289 47 320 57T371 90T400 149T410 238Z"  />
<glyph unicode="c" horiz-adv-x="451" d="M59 236Q59 291 71 336T110 415T179 466T280 485Q320 485 350 477T404 458L394 404Q375 413 349 421T282 430Q233 430 202 416T152 377T126 316T118 239Q118 137 157 92T287 47Q315 47 345 52T405 71L413 17Q384 4 351 -1T282 -7Q173 -7 116 52T59 236Z"  />
<glyph unicode="d" horiz-adv-x="527" d="M448 20Q407 5 363 -1T284 -7Q168 -7 114 54T59 240Q59 294 71 339T110 416T179 467T280 485Q313 485 341 480T390 465V677H448V20ZM118 238Q118 134 156 91T282 47Q308 47 337 51T390 63V408Q377 414 351 422T283 430Q233 430 201 416T151 377T125 316T118 238Z"  />
<glyph unicode="e" horiz-adv-x="518" d="M460 278Q460 262 459 246T452 215H116V211Q116 124 161 86T284 47Q328 47 368 57T436 82L444 28Q374 -7 283 -7Q170 -7 114 51T57 239Q57 290 67 335T101 413T164 465T261 485Q355 485 407 433T460 278ZM116 266H405V271Q405 358 365 395T260 432Q195 432 156 395T116 271V266Z"  />
<glyph unicode="f" horiz-adv-x="352" d="M76 544Q76 590 88 620T121 670T171 697T235 705Q270 705 297 698T347 682L339 629Q318 637 294 643T237 650Q190 650 162 628T134 547V477H331V422H134V0H76V544Z"  />
<glyph unicode="g" horiz-adv-x="527" d="M448 -35Q448 -84 433 -117T392 -170T328 -198T246 -207Q196 -207 159 -198T86 -172L95 -119Q128 -136 163 -144T247 -152Q280 -152 306 -147T351 -130T380 -94T390 -35V12Q347 -7 280 -7Q220 -7 178 10T109 60T71 137T59 238Q59 357 112 421T286 485Q325 485 368 478T448 457V-35ZM118 239Q118 196 125 161T150 100T201 61T284 47Q326 47 352 55T390 69V414Q366 423 338 426T283 430Q239 430 208 420T156 387T127 328T118 239Z"  />
<glyph unicode="h" horiz-adv-x="537" d="M79 700H137V463Q163 473 198 479T275 485Q317 485 352 477T413 448T453 389T468 294V0H410V294Q410 338 400 364T373 405T330 425T275 430Q229 430 196 424T137 407V0H79V700Z"  />
<glyph unicode="i" horiz-adv-x="224" d="M83 477H141V0H83V477ZM72 646Q72 663 84 674T113 686Q130 686 141 675T152 646Q152 630 141 619T113 607Q96 607 84 618T72 646Z"  />
<glyph unicode="j" horiz-adv-x="209" d="M134 -60Q134 -101 124 -128T98 -172T59 -196T12 -203Q-11 -203 -31 -198T-66 -184L-54 -132Q-41 -138 -25 -143T11 -148Q24 -148 36 -144T57 -130T71 -103T76 -60V477H134V-60ZM65 646Q65 663 76 674T105 686Q122 686 133 675T144 646Q144 630 133 619T105 607Q88 607 77 618T65 646Z"  />
<glyph unicode="k" horiz-adv-x="479" d="M365 477H441L238 252L461 0H385L163 252L365 477ZM79 677H137V0H79V677Z"  />
<glyph unicode="l" horiz-adv-x="264" d="M74 677H132V136Q132 84 148 67T190 49Q219 49 237 58L246 5Q236 0 222 -2T188 -5Q164 -5 143 1T107 24T83 65T74 129V677Z"  />
<glyph unicode="m" horiz-adv-x="797" d="M79 450Q103 460 129 467T181 478T228 483T265 485Q301 485 335 475T392 434Q426 457 467 471T563 485Q599 485 629 477T681 448T715 392T728 302V0H670V301Q670 342 662 367T640 406T605 425T561 430Q515 430 482 419T422 388Q432 355 432 300V0H375V301Q375 343 367 368T344 407T306 425T257 430Q228 430 194 424T137 407V0H79V450Z"  />
<glyph unicode="n" horiz-adv-x="537" d="M79 450Q109 463 160 474T275 485Q318 485 353 477T414 447T454 389T468 295V0H410V294Q410 338 400 364T373 405T330 425T275 430Q230 430 197 424T137 407V0H79V450Z"  />
<glyph unicode="o" horiz-adv-x="530" d="M412 239Q412 282 406 317T383 378T338 416T265 430Q221 430 193 417T148 378T125 318T118 239Q118 195 124 160T148 99T193 61T265 47Q309 47 337 60T382 99T405 159T412 239ZM265 -7Q208 -7 169 11T105 61T70 139T59 239Q59 293 70 338T105 415T169 466T265 485Q323 485 362 467T426 417T460 339T471 239Q471 185 460 140T425 62T362 11T265 -7Z"  />
<glyph unicode="p" horiz-adv-x="527" d="M79 457Q115 471 158 478T243 485Q362 485 415 424T468 241Q468 185 456 140T416 62T347 11T246 -7Q178 -7 137 12V-195H79V457ZM410 239Q410 291 401 327T371 387T320 420T244 430Q218 430 190 427T137 414V69Q150 63 175 55T243 47Q294 47 326 61T377 100T403 160T410 239Z"  />
<glyph unicode="q" horiz-adv-x="527" d="M448 -195H390V12Q347 -7 280 -7Q220 -7 178 10T109 60T71 137T59 238Q59 358 112 421T287 485Q327 485 369 478T448 457V-195ZM118 239Q118 196 125 161T150 100T201 61T284 47Q326 47 352 55T390 69V414Q366 423 338 426T283 430Q239 430 208 420T156 387T127 328T118 239Z"  />
<glyph unicode="r" horiz-adv-x="335" d="M79 457Q99 467 137 475T221 483Q249 483 272 480T314 471L302 417Q291 422 269 425T221 428Q188 428 170 424T137 414V0H79V457Z"  />
<glyph unicode="s" horiz-adv-x="472" d="M68 74Q83 69 102 64T142 55T184 49T226 47Q252 47 275 51T315 65T343 90T354 127Q354 158 333 174T280 201T212 218T143 240T90 280T69 350Q69 387 83 412T122 454T179 477T246 485Q285 485 323 476T391 454L383 399Q354 413 315 421T241 430Q218 430 197 426T161 412T136 389T127 353Q127 323 148 307T201 281T269 263T338 241T391 201T412 131Q412 93 397 67T357 25T296 1T220 -7Q177 -7 135 1T59 20L68 74Z"  />
<glyph unicode="t" horiz-adv-x="397" d="M69 607H127V477H327V422H127V166Q127 131 134 109T155 73T186 54T228 48Q258 48 288 54T339 71L348 17Q325 6 294 0T229 -7Q194 -7 165 2T114 31T81 85T69 166V607Z"  />
<glyph unicode="u" horiz-adv-x="537" d="M458 28Q427 15 377 4T262 -7Q220 -7 185 1T124 30T84 88T69 183V477H127V184Q127 140 136 113T164 72T207 52T262 47Q307 47 340 53T400 70V477H458V28Z"  />
<glyph unicode="v" horiz-adv-x="523" d="M261 71L429 477H489L291 0H231L33 477H94L261 71Z"  />
<glyph unicode="w" horiz-adv-x="806" d="M235 81L374 477H432L571 81L709 477H769L601 0H542L403 388L264 0H206L37 477H97L235 81Z"  />
<glyph unicode="x" horiz-adv-x="532" d="M266 295L409 477H480L301 252L500 0H429L266 208L103 0H32L231 252L52 477H123L266 295Z"  />
<glyph unicode="y" horiz-adv-x="537" d="M458 -35Q458 -84 443 -117T401 -170T337 -198T255 -207Q206 -207 168 -201T93 -180L102 -126Q133 -138 169 -145T257 -152Q289 -152 315 -147T360 -130T389 -94T400 -35V19Q377 7 344 0T270 -7Q225 -7 188 0T124 29T84 87T69 184V477H127V184Q127 139 137 112T165 71T211 52T271 47Q303 47 337 53T400 75V477H458V-35Z"  />
<glyph unicode="z" horiz-adv-x="485" d="M52 477H433V430L130 54H433V0H52V47L355 424H52V477Z"  />
<glyph unicode="{" horiz-adv-x="395" d="M38 282H59Q112 282 137 325T163 445V538Q163 631 199 679T313 727H353V680H314Q265 680 240 641T215 516V426Q215 402 212 378T199 332T173 290T132 259Q156 248 172 230T197 190T211 142T215 92V-16Q215 -101 240 -140T314 -180H353V-227H313Q238 -227 201 -180T163 -38V73Q163 150 138 193T59 236H38V282Z"  />
<glyph unicode="|" horiz-adv-x="230" d="M141 -227H89V727H141V-227Z"  />
<glyph unicode="}" horiz-adv-x="395" d="M357 236H336Q283 236 257 193T231 73V-38Q231 -132 194 -179T81 -227H42V-180H81Q129 -180 154 -141T179 -16V92Q179 117 183 142T196 189T222 230T262 259Q237 271 221 290T196 331T183 378T179 426V516Q179 601 154 640T81 680H42V727H81Q158 727 194 679T231 538V445Q231 369 257 326T336 282H357V236Z"  />
<glyph unicode="~" horiz-adv-x="547" d="M51 204Q51 276 81 313T166 350Q204 350 231 333T282 296T328 258T380 241Q418 241 434 268T451 341H496Q496 269 466 233T382 196Q344 196 317 213T265 250T218 287T166 304Q129 304 113 274T96 204H51H51Z"  />
<glyph unicode="&#xA0;" horiz-adv-x="282" />
<glyph unicode="&#xA1;" horiz-adv-x="262" d="M101 -148V75Q101 138 105 201T109 327H152Q152 264 156 201T160 75V-148H101ZM86 439Q86 459 98 472T131 485Q151 485 163 472T176 439Q176 420 164 407T131 394Q111 394 99 407T86 439Z"  />
<glyph unicode="&#xA2;" horiz-adv-x="444" d="M59 313Q59 364 69 406T103 481T163 533T253 558V640H301V559Q359 556 396 539L387 484Q370 491 344 498T285 505Q235 505 203 491T152 452T126 392T118 314Q118 212 157 167T285 122Q313 122 342 126T397 141L406 87Q382 78 355 74T301 68V-12H253V70Q156 78 108 137T59 313Z"  />
<glyph unicode="&#xA3;" horiz-adv-x="499" d="M454 0H106V291H28V336H106V422Q106 530 150 583T289 636Q344 636 377 625T434 600L418 549Q396 560 366 569T290 579Q255 579 231 569T193 538T172 486T166 411V336H333V291H166V57H454V0Z"  />
<glyph unicode="&#xA4;" horiz-adv-x="638" d="M319 184Q280 184 249 206L107 62L68 101L208 241Q185 273 185 313Q185 354 208 386L68 526L107 564L249 421Q265 432 282 437T319 442Q337 442 355 437T389 421L531 565L570 526L430 387Q442 370 447 352T453 313Q453 274 430 240L570 101L531 63L389 206Q373 195 355 190T319 184ZM319 227Q355 227 380 252T406 313Q406 350 381 375T319 400Q283 400 258 375T232 313Q232 277 257 252T319 227Z"  />
<glyph unicode="&#xA5;" horiz-adv-x="601" d="M502 221H331V126H502V81H331V0H271V81H100V126H271V221H100V266H256L41 627H109L301 302L492 627H560L344 266H502V221Z"  />
<glyph unicode="&#xA6;" horiz-adv-x="227" d="M140 347H87V727H140V347ZM140 -227H87V174H140V-227Z"  />
<glyph unicode="&#xA7;" horiz-adv-x="535" d="M90 -81Q119 -103 162 -116T253 -129Q286 -129 315 -124T366 -105T400 -73T413 -24Q413 13 389 35T327 73T248 102T168 137T107 190T82 277Q82 319 101 350T152 398Q120 417 101 449T82 526Q82 568 98 598T142 646T206 674T281 683Q332 683 377 669T452 633L434 578Q407 598 367 611T282 625Q254 625 229 620T185 604T155 574T143 529Q143 496 159 475T201 438T260 412T326 389Q360 377 387 362T434 329T463 286T474 229Q474 185 455 154T400 104Q434 85 454 55T474 -21Q474 -66 455 -97T405 -149T334 -178T252 -187Q198 -187 153 -173T72 -137L90 -81ZM143 278Q143 241 163 219T215 181T283 154T353 128Q380 142 396 165T413 225Q413 259 393 280T343 317T274 344T200 372Q174 359 159 337T143 278Z"  />
<glyph unicode="&#xA8;" horiz-adv-x="368" d="M57 787Q57 803 68 814T95 825Q111 825 121 814T132 787Q132 772 122 761T95 750Q79 750 68 761T57 787ZM236 787Q236 803 247 814T274 825Q290 825 300 814T311 787Q311 772 301 761T274 750Q258 750 247 761T236 787Z"  />
<glyph unicode="&#xA9;" horiz-adv-x="838" d="M249 349Q249 394 260 431T295 495T353 536T435 551Q467 551 492 545T532 530L524 484Q506 492 486 498T436 504Q397 504 371 493T328 461T306 412T299 350Q299 272 333 236T441 200Q464 200 487 204T533 219L540 172Q520 161 494 157T441 153Q249 153 249 349ZM69 352Q69 425 96 488T171 599T282 674T418 702Q491 702 555 675T666 600T741 489T769 352Q769 280 742 216T667 105T555 31T418 3Q346 3 282 30T171 105T97 216T69 352ZM108 352Q108 287 132 231T199 132T298 66T418 42Q482 42 539 66T638 132T704 230T729 352Q729 416 705 473T638 572T539 639T418 664Q355 664 299 640T200 573T133 473T108 352Z"  />
<glyph unicode="&#xAB;" horiz-adv-x="471" d="M364 51L212 250L364 449H422L270 250L422 51H364ZM189 51L38 250L189 449H247L95 250L247 51H189Z"  />
<glyph unicode="&#xAC;" horiz-adv-x="523" d="M469 197H416V387H30V437H469V197Z"  />
<glyph unicode="&#xAE;" horiz-adv-x="838" d="M421 323H342V160H291V544H426Q497 544 528 514T560 435Q560 393 538 365T471 328L571 160H516L421 323ZM342 499V368H426Q473 368 491 386T510 434Q510 461 492 480T426 499H342ZM69 352Q69 425 96 488T171 599T282 674T418 702Q491 702 555 675T666 600T741 489T769 352Q769 280 742 216T667 105T555 31T418 3Q346 3 282 30T171 105T97 216T69 352ZM108 352Q108 287 132 231T199 132T298 66T418 42Q482 42 539 66T638 132T704 230T729 352Q729 416 705 473T638 572T539 639T418 664Q355 664 299 640T200 573T133 473T108 352Z"  />
<glyph unicode="&#xB0;" horiz-adv-x="391" d="M334 589Q334 560 324 535T295 492T251 463T196 452Q166 452 141 462T97 491T68 534T57 589Q57 619 67 644T97 687T141 716T196 727Q225 727 250 717T294 688T323 644T334 589ZM290 589Q290 631 264 658T197 686Q154 686 128 659T101 589Q101 548 128 521T197 494Q215 494 232 501T261 521T282 551T290 589Z"  />
<glyph unicode="&#xB1;" horiz-adv-x="568" d="M503 51H65V100H258V289H65V338H258V531H311V338H503V289H311V100H503V51Z"  />
<glyph unicode="&#xB4;" horiz-adv-x="255" d="M196 886L109 750H60L139 886H196Z"  />
<glyph unicode="&#xB5;" horiz-adv-x="547" d="M468 28Q437 15 388 4T281 -7Q237 -7 199 2T137 49V-195H79V477H137V184Q137 140 147 113T174 72T217 52T272 47Q314 47 349 53T410 70V477H468V28Z"  />
<glyph unicode="&#xB6;" horiz-adv-x="515" d="M36 450Q36 532 83 579T224 627H433V-83H385V577H266V-83H217V268Q174 268 141 282T84 321T48 379T36 450Z"  />
<glyph unicode="&#xB7;" horiz-adv-x="188" d="M49 314Q49 333 62 346T94 359Q114 359 127 346T140 314Q140 294 127 281T94 268Q75 268 62 281T49 314Z"  />
<glyph unicode="&#xB8;" horiz-adv-x="231" d="M120 25L102 -44Q143 -37 170 -54T197 -109Q197 -130 189 -145T168 -169T137 -183T102 -188Q71 -188 41 -177L48 -141Q63 -150 97 -150Q118 -150 136 -142T154 -109Q154 -88 138 -81T103 -73Q78 -73 56 -78L83 25H120Z"  />
<glyph unicode="&#xBB;" horiz-adv-x="471" d="M50 51L201 250L50 449H107L259 250L107 51H50ZM224 51L376 250L224 449H282L434 250L282 51H224Z"  />
<glyph unicode="&#xBF;" horiz-adv-x="417" d="M333 440Q333 420 320 407T287 394Q268 394 255 407T242 440Q242 459 255 472T287 485Q307 485 320 472T333 440ZM57 17Q57 54 67 81T94 130T131 167T173 197Q210 222 233 246T257 312H317Q317 282 307 258T281 215T245 179T203 148Q188 137 173 126T146 99T125 64T117 17Q117 -44 153 -72T246 -100Q260 -100 276 -98T307 -93T337 -86T361 -76L379 -131Q356 -142 322 -149T249 -157Q207 -157 172 -146T111 -113T71 -59T57 17Z"  />
<glyph unicode="&#xC0;" horiz-adv-x="614" d="M451 181H162L91 0H29L275 627H339L585 0H523L451 181ZM184 238H429L307 550L184 238ZM194 809H250L328 673H279L194 809Z"  />
<glyph unicode="&#xC1;" horiz-adv-x="614" d="M451 181H162L91 0H29L275 627H339L585 0H523L451 181ZM184 238H429L307 550L184 238ZM414 809L327 673H278L357 809H414Z"  />
<glyph unicode="&#xC2;" horiz-adv-x="614" d="M451 181H162L91 0H29L275 627H339L585 0H523L451 181ZM184 238H429L307 550L184 238ZM280 809H333L423 673H373L308 777H306L241 673H191L280 809Z"  />
<glyph unicode="&#xC3;" horiz-adv-x="614" d="M451 181H162L91 0H29L275 627H339L585 0H523L451 181ZM184 238H429L307 550L184 238ZM160 693Q160 741 179 768T240 795Q263 795 281 784T315 760T346 736T376 725Q400 725 406 743T412 787H454Q454 739 437 712T374 685Q351 685 333 696T299 720T268 744T238 755Q214 755 208 737T202 693H160H160Z"  />
<glyph unicode="&#xC4;" horiz-adv-x="614" d="M451 181H162L91 0H29L275 627H339L585 0H523L451 181ZM184 238H429L307 550L184 238ZM180 741Q180 757 191 768T218 779Q234 779 244 768T255 741Q255 726 245 715T218 704Q202 704 191 715T180 741ZM359 741Q359 757 370 768T397 779Q413 779 423 768T434 741Q434 726 424 715T397 704Q381 704 370 715T359 741Z"  />
<glyph unicode="&#xC5;" horiz-adv-x="614" d="M451 181H162L91 0H29L275 627H339L585 0H523L451 181ZM184 238H429L307 550L184 238ZM307 658Q269 658 246 681T223 741Q223 780 246 802T307 825Q346 825 369 803T392 741Q392 704 369 681T307 658ZM307 690Q333 690 346 705T359 741Q359 764 346 779T307 794Q282 794 269 779T256 741Q256 721 269 706T307 690Z"  />
<glyph unicode="&#xC6;" horiz-adv-x="848" d="M265 627H797V570H450V357H757V300H450V57H797V0H389V221H174L91 0H29L265 627ZM196 278H389V570H306L196 278Z"  />
<glyph unicode="&#xC7;" horiz-adv-x="551" d="M127 313Q127 248 136 199T167 116T226 65T321 48Q381 48 425 63T492 96L502 39Q474 22 438 8T346 -9L337 -44Q378 -37 405 -54T432 -109Q432 -130 424 -145T403 -169T372 -183T336 -188Q304 -188 276 -177L282 -141Q297 -150 332 -150Q353 -150 370 -142T388 -109Q388 -88 373 -81T338 -73Q313 -73 291 -78L309 -9Q243 -7 197 13T122 73T80 171T66 310Q66 391 79 452T123 554T203 615T322 636Q384 636 422 622T494 589L485 531Q450 551 410 565T318 579Q264 579 227 563T168 513T137 430T127 313Z"  />
<glyph unicode="&#xC8;" horiz-adv-x="544" d="M146 57H494V0H86V627H494V570H146V357H454V300H146V57ZM196 809H252L330 673H281L196 809Z"  />
<glyph unicode="&#xC9;" horiz-adv-x="544" d="M146 57H494V0H86V627H494V570H146V357H454V300H146V57ZM381 809L294 673H245L324 809H381Z"  />
<glyph unicode="&#xCA;" horiz-adv-x="544" d="M146 57H494V0H86V627H494V570H146V357H454V300H146V57ZM265 809H318L408 673H358L293 777H291L226 673H176L265 809Z"  />
<glyph unicode="&#xCB;" horiz-adv-x="544" d="M146 57H494V0H86V627H494V570H146V357H454V300H146V57ZM165 741Q165 757 176 768T203 779Q219 779 229 768T240 741Q240 726 230 715T203 704Q187 704 176 715T165 741ZM344 741Q344 757 355 768T382 779Q398 779 408 768T419 741Q419 726 409 715T382 704Q366 704 355 715T344 741Z"  />
<glyph unicode="&#xCC;" horiz-adv-x="243" d="M91 627H152V0H91V627ZM13 809H69L147 673H98L13 809Z"  />
<glyph unicode="&#xCD;" horiz-adv-x="243" d="M91 627H152V0H91V627ZM230 809L143 673H94L173 809H230Z"  />
<glyph unicode="&#xCE;" horiz-adv-x="243" d="M91 627H152V0H91V627ZM95 809H148L238 673H188L123 777H121L56 673H6L95 809Z"  />
<glyph unicode="&#xCF;" horiz-adv-x="243" d="M91 627H152V0H91V627ZM-4 741Q-4 757 7 768T34 779Q50 779 60 768T71 741Q71 726 61 715T34 704Q18 704 7 715T-4 741ZM175 741Q175 757 186 768T213 779Q229 779 239 768T250 741Q250 726 240 715T213 704Q197 704 186 715T175 741Z"  />
<glyph unicode="&#xD0;" horiz-adv-x="607" d="M23 336H92V627H274Q347 627 398 609T480 553T526 455T541 315Q541 238 527 179T482 81T399 21T274 0H92V291H23V336ZM274 57Q334 57 373 72T437 119T470 199T480 313Q480 376 471 424T439 504T376 553T274 570H153V336H258V291H153V57H274Z"  />
<glyph unicode="&#xD1;" horiz-adv-x="619" d="M86 627H147L473 107V627H534V0H472L146 520V0H86V627ZM162 693Q162 741 181 768T242 795Q265 795 283 784T317 760T348 736T378 725Q402 725 408 743T414 787H456Q456 739 439 712T376 685Q353 685 335 696T301 720T270 744T240 755Q216 755 210 737T204 693H162H162Z"  />
<glyph unicode="&#xD2;" horiz-adv-x="629" d="M502 313Q502 374 495 423T467 507T410 560T314 579Q255 579 219 561T162 508T134 424T126 313Q126 251 133 202T161 119T218 67T314 48Q373 48 409 66T466 119T494 202T502 313ZM314 -9Q240 -9 193 13T117 77T77 178T66 313Q66 387 77 447T117 549T193 613T314 636Q388 636 436 614T512 549T552 448T563 313Q563 239 552 180T512 78T435 14T314 -9ZM222 809H278L356 673H307L222 809Z"  />
<glyph unicode="&#xD3;" horiz-adv-x="629" d="M502 313Q502 374 495 423T467 507T410 560T314 579Q255 579 219 561T162 508T134 424T126 313Q126 251 133 202T161 119T218 67T314 48Q373 48 409 66T466 119T494 202T502 313ZM314 -9Q240 -9 193 13T117 77T77 178T66 313Q66 387 77 447T117 549T193 613T314 636Q388 636 436 614T512 549T552 448T563 313Q563 239 552 180T512 78T435 14T314 -9ZM415 809L328 673H279L358 809H415Z"  />
<glyph unicode="&#xD4;" horiz-adv-x="629" d="M502 313Q502 374 495 423T467 507T410 560T314 579Q255 579 219 561T162 508T134 424T126 313Q126 251 133 202T161 119T218 67T314 48Q373 48 409 66T466 119T494 202T502 313ZM314 -9Q240 -9 193 13T117 77T77 178T66 313Q66 387 77 447T117 549T193 613T314 636Q388 636 436 614T512 549T552 448T563 313Q563 239 552 180T512 78T435 14T314 -9ZM284 809H337L427 673H377L312 777H310L245 673H195L284 809Z"  />
<glyph unicode="&#xD5;" horiz-adv-x="629" d="M502 313Q502 374 495 423T467 507T410 560T314 579Q255 579 219 561T162 508T134 424T126 313Q126 251 133 202T161 119T218 67T314 48Q373 48 409 66T466 119T494 202T502 313ZM314 -9Q240 -9 193 13T117 77T77 178T66 313Q66 387 77 447T117 549T193 613T314 636Q388 636 436 614T512 549T552 448T563 313Q563 239 552 180T512 78T435 14T314 -9ZM163 693Q163 741 182 768T243 795Q266 795 284 784T318 760T349 736T379 725Q403 725 409 743T415 787H457Q457 739 440 712T377 685Q354 685 336 696T302 720T271 744T241 755Q217 755 211 737T205 693H163H163Z"  />
<glyph unicode="&#xD6;" horiz-adv-x="629" d="M502 313Q502 374 495 423T467 507T410 560T314 579Q255 579 219 561T162 508T134 424T126 313Q126 251 133 202T161 119T218 67T314 48Q373 48 409 66T466 119T494 202T502 313ZM314 -9Q240 -9 193 13T117 77T77 178T66 313Q66 387 77 447T117 549T193 613T314 636Q388 636 436 614T512 549T552 448T563 313Q563 239 552 180T512 78T435 14T314 -9ZM183 740Q183 756 194 767T221 778Q237 778 247 767T258 740Q258 725 248 714T221 703Q205 703 194 714T183 740ZM362 740Q362 756 373 767T400 778Q416 778 426 767T437 740Q437 725 427 714T400 703Q384 703 373 714T362 740Z"  />
<glyph unicode="&#xD7;" horiz-adv-x="536" d="M470 148L434 112L268 277L102 112L66 148L232 314L66 479L102 516L268 350L434 516L470 479L304 314L470 148Z"  />
<glyph unicode="&#xD8;" horiz-adv-x="629" d="M115 81Q87 123 77 181T66 313Q66 387 77 447T117 549T193 613T314 636Q371 636 412 623T483 583L515 627L553 599L513 545Q541 504 552 446T563 313Q563 239 552 180T512 78T435 14T314 -9Q256 -9 215 5T145 45L113 1L76 30L115 81ZM502 313Q502 370 496 414T472 492L182 92Q203 70 235 59T314 48Q373 48 409 66T466 119T494 202T502 313ZM126 313Q126 257 132 212T156 135L445 535Q424 556 393 567T314 579Q255 579 219 561T162 508T134 424T126 313Z"  />
<glyph unicode="&#xD9;" horiz-adv-x="619" d="M76 627H136V248Q136 192 147 154T181 93T235 59T310 48Q352 48 384 58T438 92T471 154T483 248V627H544V248Q544 178 528 129T481 50T407 5T310 -9Q256 -9 213 5T140 49T93 129T76 248V627ZM207 809H263L341 673H292L207 809Z"  />
<glyph unicode="&#xDA;" horiz-adv-x="619" d="M76 627H136V248Q136 192 147 154T181 93T235 59T310 48Q352 48 384 58T438 92T471 154T483 248V627H544V248Q544 178 528 129T481 50T407 5T310 -9Q256 -9 213 5T140 49T93 129T76 248V627ZM414 809L327 673H278L357 809H414Z"  />
<glyph unicode="&#xDB;" horiz-adv-x="619" d="M76 627H136V248Q136 192 147 154T181 93T235 59T310 48Q352 48 384 58T438 92T471 154T483 248V627H544V248Q544 178 528 129T481 50T407 5T310 -9Q256 -9 213 5T140 49T93 129T76 248V627ZM283 809H336L426 673H376L311 777H309L244 673H194L283 809Z"  />
<glyph unicode="&#xDC;" horiz-adv-x="619" d="M76 627H136V248Q136 192 147 154T181 93T235 59T310 48Q352 48 384 58T438 92T471 154T483 248V627H544V248Q544 178 528 129T481 50T407 5T310 -9Q256 -9 213 5T140 49T93 129T76 248V627ZM183 740Q183 756 194 767T221 778Q237 778 247 767T258 740Q258 725 248 714T221 703Q205 703 194 714T183 740ZM362 740Q362 756 373 767T400 778Q416 778 426 767T437 740Q437 725 427 714T400 703Q384 703 373 714T362 740Z"  />
<glyph unicode="&#xDD;" horiz-adv-x="605" d="M333 244V0H273V242L23 627H91L302 300L513 627H582L333 244ZM413 809L326 673H277L356 809H413Z"  />
<glyph unicode="&#xDE;" horiz-adv-x="574" d="M86 627H148V506H303Q366 506 410 492T481 453T521 393T534 314Q534 272 522 237T481 176T410 136T303 121H148V0H86V627ZM148 450V178H303Q351 178 383 187T435 214T463 257T472 314Q472 345 464 370T435 413T383 440T303 450H148Z"  />
<glyph unicode="&#xDF;" horiz-adv-x="528" d="M471 137Q471 100 457 73T418 27T359 0T285 -9Q262 -9 239 -6T202 3V66Q221 55 240 52T282 48Q353 48 381 72T410 135Q410 162 398 178T366 204T326 223T285 243T254 273T241 323Q241 348 250 364T272 393T301 415T330 436T352 461T361 496Q361 532 334 555T259 579Q202 579 166 539T129 407V0H68V403Q68 464 82 508T121 580T182 622T260 636Q299 636 329 625T379 595T410 550T421 495Q421 468 412 449T390 415T361 390T332 369T310 347T301 322Q301 305 313 294T345 274T386 254T427 229T458 192T471 137Z"  />
<glyph unicode="&#xE0;" horiz-adv-x="487" d="M417 20Q385 9 338 1T241 -7Q200 -7 165 0T105 25T65 69T51 138Q51 218 106 251T262 284H359V336Q359 390 325 410T230 431Q188 431 156 425T100 410L90 465Q119 472 154 478T231 485Q271 485 305 477T364 451T403 404T417 333V20ZM359 237H264Q189 237 149 216T109 138Q109 83 144 64T239 44Q267 44 300 47T359 60V237ZM166 667H222L300 531H251L166 667Z"  />
<glyph unicode="&#xE1;" horiz-adv-x="487" d="M417 20Q385 9 338 1T241 -7Q200 -7 165 0T105 25T65 69T51 138Q51 218 106 251T262 284H359V336Q359 390 325 410T230 431Q188 431 156 425T100 410L90 465Q119 472 154 478T231 485Q271 485 305 477T364 451T403 404T417 333V20ZM359 237H264Q189 237 149 216T109 138Q109 83 144 64T239 44Q267 44 300 47T359 60V237ZM333 667L246 531H197L276 667H333Z"  />
<glyph unicode="&#xE2;" horiz-adv-x="487" d="M417 20Q385 9 338 1T241 -7Q200 -7 165 0T105 25T65 69T51 138Q51 218 106 251T262 284H359V336Q359 390 325 410T230 431Q188 431 156 425T100 410L90 465Q119 472 154 478T231 485Q271 485 305 477T364 451T403 404T417 333V20ZM359 237H264Q189 237 149 216T109 138Q109 83 144 64T239 44Q267 44 300 47T359 60V237ZM225 667H278L368 531H318L253 635H251L186 531H136L225 667Z"  />
<glyph unicode="&#xE3;" horiz-adv-x="487" d="M417 20Q385 9 338 1T241 -7Q200 -7 165 0T105 25T65 69T51 138Q51 218 106 251T262 284H359V336Q359 390 325 410T230 431Q188 431 156 425T100 410L90 465Q119 472 154 478T231 485Q271 485 305 477T364 451T403 404T417 333V20ZM359 237H264Q189 237 149 216T109 138Q109 83 144 64T239 44Q267 44 300 47T359 60V237ZM93 551Q93 599 112 626T173 653Q196 653 214 642T248 618T279 594T309 583Q333 583 339 601T345 645H387Q387 597 370 570T307 543Q284 543 266 554T232 578T201 602T171 613Q147 613 141 595T135 551H93H93Z"  />
<glyph unicode="&#xE4;" horiz-adv-x="487" d="M417 20Q385 9 338 1T241 -7Q200 -7 165 0T105 25T65 69T51 138Q51 218 106 251T262 284H359V336Q359 390 325 410T230 431Q188 431 156 425T100 410L90 465Q119 472 154 478T231 485Q271 485 305 477T364 451T403 404T417 333V20ZM359 237H264Q189 237 149 216T109 138Q109 83 144 64T239 44Q267 44 300 47T359 60V237ZM117 598Q117 614 128 625T155 636Q171 636 181 625T192 598Q192 583 182 572T155 561Q139 561 128 572T117 598ZM296 598Q296 614 307 625T334 636Q350 636 360 625T371 598Q371 583 361 572T334 561Q318 561 307 572T296 598Z"  />
<glyph unicode="&#xE5;" horiz-adv-x="487" d="M417 20Q385 9 338 1T241 -7Q200 -7 165 0T105 25T65 69T51 138Q51 218 106 251T262 284H359V336Q359 390 325 410T230 431Q188 431 156 425T100 410L90 465Q119 472 154 478T231 485Q271 485 305 477T364 451T403 404T417 333V20ZM359 237H264Q189 237 149 216T109 138Q109 83 144 64T239 44Q267 44 300 47T359 60V237ZM247 515Q209 515 186 538T163 598Q163 637 186 659T247 682Q286 682 309 660T332 598Q332 561 309 538T247 515ZM247 547Q273 547 286 562T299 598Q299 621 286 636T247 651Q222 651 209 636T196 598Q196 578 209 563T247 547Z"  />
<glyph unicode="&#xE6;" horiz-adv-x="819" d="M760 278Q760 262 759 246T752 215H416V211Q416 123 461 85T587 47Q627 47 667 55T736 74L744 20Q709 6 669 0T588 -7Q555 -7 524 -2T467 17T420 51T387 103Q378 71 363 50T326 16T281 -2T229 -7Q192 -7 160 0T103 25T65 69T51 138Q51 218 105 251T262 284H359V336Q359 390 325 410T230 431Q188 431 156 425T100 410L90 465Q119 472 153 478T230 485Q291 485 336 466T399 401Q422 439 460 462T561 485Q655 485 707 433T760 278ZM359 237H264Q189 237 149 216T109 138Q109 85 141 65T225 44Q295 44 327 82T359 211V237ZM416 266H704V271Q704 358 665 395T560 432Q495 432 456 395T416 271V266Z"  />
<glyph unicode="&#xE7;" horiz-adv-x="451" d="M59 236Q59 291 71 336T110 415T179 466T280 485Q320 485 350 477T404 458L394 404Q375 413 349 421T282 430Q233 430 202 416T152 377T126 316T118 239Q118 137 157 92T287 47Q315 47 345 52T405 71L413 17Q388 6 360 1T302 -7L292 -44Q333 -37 360 -54T387 -109Q387 -130 379 -145T358 -169T327 -183T291 -188Q259 -188 231 -177L237 -141Q253 -150 287 -150Q308 -150 326 -142T344 -109Q344 -88 328 -81T293 -73Q268 -73 246 -78L264 -7Q163 -2 111 58T59 236Z"  />
<glyph unicode="&#xE8;" horiz-adv-x="518" d="M460 278Q460 262 459 246T452 215H116V211Q116 124 161 86T284 47Q328 47 368 57T436 82L444 28Q374 -7 283 -7Q170 -7 114 51T57 239Q57 290 67 335T101 413T164 465T261 485Q355 485 407 433T460 278ZM116 266H405V271Q405 358 365 395T260 432Q195 432 156 395T116 271V266ZM168 666H224L302 530H253L168 666Z"  />
<glyph unicode="&#xE9;" horiz-adv-x="518" d="M460 278Q460 262 459 246T452 215H116V211Q116 124 161 86T284 47Q328 47 368 57T436 82L444 28Q374 -7 283 -7Q170 -7 114 51T57 239Q57 290 67 335T101 413T164 465T261 485Q355 485 407 433T460 278ZM116 266H405V271Q405 358 365 395T260 432Q195 432 156 395T116 271V266ZM361 667L274 531H225L304 667H361Z"  />
<glyph unicode="&#xEA;" horiz-adv-x="518" d="M460 278Q460 262 459 246T452 215H116V211Q116 124 161 86T284 47Q328 47 368 57T436 82L444 28Q374 -7 283 -7Q170 -7 114 51T57 239Q57 290 67 335T101 413T164 465T261 485Q355 485 407 433T460 278ZM116 266H405V271Q405 358 365 395T260 432Q195 432 156 395T116 271V266ZM239 667H292L382 531H332L267 635H265L200 531H150L239 667Z"  />
<glyph unicode="&#xEB;" horiz-adv-x="518" d="M460 278Q460 262 459 246T452 215H116V211Q116 124 161 86T284 47Q328 47 368 57T436 82L444 28Q374 -7 283 -7Q170 -7 114 51T57 239Q57 290 67 335T101 413T164 465T261 485Q355 485 407 433T460 278ZM116 266H405V271Q405 358 365 395T260 432Q195 432 156 395T116 271V266ZM131 598Q131 614 142 625T169 636Q185 636 195 625T206 598Q206 583 196 572T169 561Q153 561 142 572T131 598ZM310 598Q310 614 321 625T348 636Q364 636 374 625T385 598Q385 583 375 572T348 561Q332 561 321 572T310 598Z"  />
<glyph unicode="&#xEC;" horiz-adv-x="224" d="M83 477H141V0H83V477ZM3 666H59L137 530H88L3 666Z"  />
<glyph unicode="&#xED;" horiz-adv-x="224" d="M83 477H141V0H83V477ZM219 666L132 530H83L162 666H219Z"  />
<glyph unicode="&#xEE;" horiz-adv-x="224" d="M83 477H141V0H83V477ZM85 666H138L228 530H178L113 634H111L46 530H-4L85 666Z"  />
<glyph unicode="&#xEF;" horiz-adv-x="224" d="M83 477H141V0H83V477ZM-15 598Q-15 614 -4 625T23 636Q39 636 49 625T60 598Q60 583 50 572T23 561Q7 561 -4 572T-15 598ZM164 598Q164 614 175 625T202 636Q218 636 228 625T239 598Q239 583 229 572T202 561Q186 561 175 572T164 598Z"  />
<glyph unicode="&#xF0;" horiz-adv-x="532" d="M264 596Q229 615 193 623T118 637L134 691Q175 686 219 674T306 638L384 716L414 686L342 614Q413 561 439 485T466 304Q466 238 457 181T423 82T355 15T246 -9Q204 -9 168 3T105 39T64 101T49 188Q49 237 64 273T106 333T170 367T253 379Q290 379 329 371T405 345Q402 425 379 480T301 573L203 475L173 505L264 596ZM254 325Q225 325 199 319T153 297T122 255T110 188Q110 114 148 81T246 48Q295 48 326 66T374 116T398 192T405 287Q368 305 332 315T254 325Z"  />
<glyph unicode="&#xF1;" horiz-adv-x="537" d="M79 450Q109 463 160 474T275 485Q318 485 353 477T414 447T454 389T468 295V0H410V294Q410 338 400 364T373 405T330 425T275 430Q230 430 197 424T137 407V0H79V450ZM118 552Q118 600 137 627T198 654Q221 654 239 643T273 619T304 595T334 584Q358 584 364 602T370 646H412Q412 598 395 571T332 544Q309 544 291 555T257 579T226 603T196 614Q172 614 166 596T160 552H118H118Z"  />
<glyph unicode="&#xF2;" horiz-adv-x="530" d="M412 239Q412 282 406 317T383 378T338 416T265 430Q221 430 193 417T148 378T125 318T118 239Q118 195 124 160T148 99T193 61T265 47Q309 47 337 60T382 99T405 159T412 239ZM265 -7Q208 -7 169 11T105 61T70 139T59 239Q59 293 70 338T105 415T169 466T265 485Q323 485 362 467T426 417T460 339T471 239Q471 185 460 140T425 62T362 11T265 -7ZM164 667H220L298 531H249L164 667Z"  />
<glyph unicode="&#xF3;" horiz-adv-x="530" d="M412 239Q412 282 406 317T383 378T338 416T265 430Q221 430 193 417T148 378T125 318T118 239Q118 195 124 160T148 99T193 61T265 47Q309 47 337 60T382 99T405 159T412 239ZM265 -7Q208 -7 169 11T105 61T70 139T59 239Q59 293 70 338T105 415T169 466T265 485Q323 485 362 467T426 417T460 339T471 239Q471 185 460 140T425 62T362 11T265 -7ZM369 667L282 531H233L312 667H369Z"  />
<glyph unicode="&#xF4;" horiz-adv-x="530" d="M412 239Q412 282 406 317T383 378T338 416T265 430Q221 430 193 417T148 378T125 318T118 239Q118 195 124 160T148 99T193 61T265 47Q309 47 337 60T382 99T405 159T412 239ZM265 -7Q208 -7 169 11T105 61T70 139T59 239Q59 293 70 338T105 415T169 466T265 485Q323 485 362 467T426 417T460 339T471 239Q471 185 460 140T425 62T362 11T265 -7ZM238 666H291L381 530H331L266 634H264L199 530H149L238 666Z"  />
<glyph unicode="&#xF5;" horiz-adv-x="530" d="M412 239Q412 282 406 317T383 378T338 416T265 430Q221 430 193 417T148 378T125 318T118 239Q118 195 124 160T148 99T193 61T265 47Q309 47 337 60T382 99T405 159T412 239ZM265 -7Q208 -7 169 11T105 61T70 139T59 239Q59 293 70 338T105 415T169 466T265 485Q323 485 362 467T426 417T460 339T471 239Q471 185 460 140T425 62T362 11T265 -7ZM119 552Q119 600 138 627T199 654Q222 654 240 643T274 619T305 595T335 584Q359 584 365 602T371 646H413Q413 598 396 571T333 544Q310 544 292 555T258 579T227 603T197 614Q173 614 167 596T161 552H119H119Z"  />
<glyph unicode="&#xF6;" horiz-adv-x="530" d="M412 239Q412 282 406 317T383 378T338 416T265 430Q221 430 193 417T148 378T125 318T118 239Q118 195 124 160T148 99T193 61T265 47Q309 47 337 60T382 99T405 159T412 239ZM265 -7Q208 -7 169 11T105 61T70 139T59 239Q59 293 70 338T105 415T169 466T265 485Q323 485 362 467T426 417T460 339T471 239Q471 185 460 140T425 62T362 11T265 -7ZM138 598Q138 614 149 625T176 636Q192 636 202 625T213 598Q213 583 203 572T176 561Q160 561 149 572T138 598ZM317 598Q317 614 328 625T355 636Q371 636 381 625T392 598Q392 583 382 572T355 561Q339 561 328 572T317 598Z"  />
<glyph unicode="&#xF7;" horiz-adv-x="583" d="M239 134Q239 154 252 166T284 179Q304 179 317 166T330 134Q330 115 317 102T284 89Q265 89 252 101T239 134ZM239 493Q239 513 252 526T284 539Q304 539 317 526T330 493Q330 474 317 461T284 448Q265 448 252 461T239 493ZM503 289H65V338H503V289Z"  />
<glyph unicode="&#xF8;" horiz-adv-x="530" d="M423 417Q449 385 460 340T471 239Q471 185 460 140T425 62T362 11T265 -7Q223 -7 192 2T137 28L112 -7L78 19L106 59Q80 92 70 137T59 239Q59 293 70 338T105 415T169 466T265 485Q307 485 338 475T392 448L419 484L453 458L423 417ZM118 239Q118 197 124 165T144 108L357 403Q340 416 318 423T265 430Q221 430 193 417T148 378T125 318T118 239ZM412 239Q412 280 406 313T385 369L173 74Q204 47 265 47Q309 47 337 60T382 99T405 159T412 239Z"  />
<glyph unicode="&#xF9;" horiz-adv-x="537" d="M458 28Q427 15 377 4T262 -7Q220 -7 185 1T124 30T84 88T69 183V477H127V184Q127 140 136 113T164 72T207 52T262 47Q307 47 340 53T400 70V477H458V28ZM168 666H224L302 530H253L168 666Z"  />
<glyph unicode="&#xFA;" horiz-adv-x="537" d="M458 28Q427 15 377 4T262 -7Q220 -7 185 1T124 30T84 88T69 183V477H127V184Q127 140 136 113T164 72T207 52T262 47Q307 47 340 53T400 70V477H458V28ZM374 666L287 530H238L317 666H374Z"  />
<glyph unicode="&#xFB;" horiz-adv-x="537" d="M458 28Q427 15 377 4T262 -7Q220 -7 185 1T124 30T84 88T69 183V477H127V184Q127 140 136 113T164 72T207 52T262 47Q307 47 340 53T400 70V477H458V28ZM236 666H289L379 530H329L264 634H262L197 530H147L236 666Z"  />
<glyph unicode="&#xFC;" horiz-adv-x="537" d="M458 28Q427 15 377 4T262 -7Q220 -7 185 1T124 30T84 88T69 183V477H127V184Q127 140 136 113T164 72T207 52T262 47Q307 47 340 53T400 70V477H458V28ZM139 598Q139 614 150 625T177 636Q193 636 203 625T214 598Q214 583 204 572T177 561Q161 561 150 572T139 598ZM318 598Q318 614 329 625T356 636Q372 636 382 625T393 598Q393 583 383 572T356 561Q340 561 329 572T318 598Z"  />
<glyph unicode="&#xFD;" horiz-adv-x="537" d="M458 -35Q458 -84 443 -117T401 -170T337 -198T255 -207Q206 -207 168 -201T93 -180L102 -126Q133 -138 169 -145T257 -152Q289 -152 315 -147T360 -130T389 -94T400 -35V19Q377 7 344 0T270 -7Q225 -7 188 0T124 29T84 87T69 184V477H127V184Q127 139 137 112T165 71T211 52T271 47Q303 47 337 53T400 75V477H458V-35ZM374 666L287 530H238L317 666H374Z"  />
<glyph unicode="&#xFE;" horiz-adv-x="527" d="M79 677H137V465Q157 474 185 479T247 485Q308 485 350 467T419 417T456 340T468 241Q468 126 415 60T246 -7Q219 -7 192 -4T137 12V-195H79V677ZM410 238Q410 281 403 316T377 377T326 416T243 430Q204 430 178 423T137 408V69Q160 58 188 53T245 47Q334 47 372 93T410 238Z"  />
<glyph unicode="&#xFF;" horiz-adv-x="537" d="M458 -35Q458 -84 443 -117T401 -170T337 -198T255 -207Q206 -207 168 -201T93 -180L102 -126Q133 -138 169 -145T257 -152Q289 -152 315 -147T360 -130T389 -94T400 -35V19Q377 7 344 0T270 -7Q225 -7 188 0T124 29T84 87T69 184V477H127V184Q127 139 137 112T165 71T211 52T271 47Q303 47 337 53T400 75V477H458V-35ZM143 598Q143 614 154 625T181 636Q197 636 207 625T218 598Q218 583 208 572T181 561Q165 561 154 572T143 598ZM322 598Q322 614 333 625T360 636Q376 636 386 625T397 598Q397 583 387 572T360 561Q344 561 333 572T322 598Z"  />
<glyph unicode="&#x104;" horiz-adv-x="614" d="M523 0L451 181H162L91 0H29L275 627H339L585 0Q555 -18 536 -33T507 -60T492 -83T488 -104Q488 -125 501 -135T536 -145Q544 -145 556 -143T580 -136L585 -177Q549 -187 526 -187Q487 -187 465 -167T442 -109Q442 -71 469 -46T537 0H523ZM184 238H429L307 550L184 238Z"  />
<glyph unicode="&#x105;" horiz-adv-x="487" d="M417 20Q358 -19 339 -44T319 -89Q319 -110 332 -120T368 -130Q376 -130 388 -128T412 -121L416 -162Q380 -172 358 -172Q319 -172 297 -152T274 -94Q274 -62 298 -36T355 8Q329 0 298 -3T241 -7Q200 -7 165 0T105 25T65 69T51 138Q51 218 106 251T262 284H359V336Q359 390 325 410T230 431Q188 431 156 425T100 410L90 465Q119 472 154 478T231 485Q271 485 305 477T364 451T403 404T417 333V20ZM359 237H264Q189 237 149 216T109 138Q109 83 144 64T239 44Q267 44 300 47T359 60V237Z"  />
<glyph unicode="&#x106;" horiz-adv-x="551" d="M127 313Q127 248 136 199T167 116T226 65T321 48Q381 48 425 63T492 96L502 39Q473 20 433 6T325 -9Q255 -9 206 10T126 68T81 168T66 310Q66 391 79 452T123 554T203 615T322 636Q384 636 422 622T494 589L485 531Q450 551 410 565T318 579Q264 579 227 563T168 513T137 430T127 313ZM396 809L309 673H260L339 809H396Z"  />
<glyph unicode="&#x107;" horiz-adv-x="451" d="M59 236Q59 291 71 336T110 415T179 466T280 485Q320 485 350 477T404 458L394 404Q375 413 349 421T282 430Q233 430 202 416T152 377T126 316T118 239Q118 137 157 92T287 47Q315 47 345 52T405 71L413 17Q384 4 351 -1T282 -7Q173 -7 116 52T59 236ZM348 666L261 530H212L291 666H348Z"  />
<glyph unicode="&#x118;" horiz-adv-x="544" d="M86 0V627H494V570H146V357H454V300H146V57H494V0Q464 -18 445 -33T415 -60T400 -83T396 -104Q396 -125 409 -135T444 -145Q452 -145 464 -143T488 -136L493 -177Q457 -187 434 -187Q396 -187 374 -167T351 -109Q351 -71 378 -46T445 0H86Z"  />
<glyph unicode="&#x119;" horiz-adv-x="518" d="M460 278Q460 262 459 246T452 215H116V211Q116 124 161 86T284 47Q328 47 368 57T436 82L444 28Q414 9 395 -6T366 -34T351 -58T347 -80Q347 -101 360 -111T395 -121Q403 -121 415 -119T439 -112L443 -153Q407 -163 385 -163Q346 -163 324 -143T301 -85Q301 -58 319 -35T360 3Q342 -3 322 -5T283 -7Q170 -7 114 51T57 239Q57 290 67 335T101 413T164 465T261 485Q355 485 407 433T460 278ZM116 266H405V271Q405 358 365 395T260 432Q195 432 156 395T116 271V266Z"  />
<glyph unicode="&#x131;" horiz-adv-x="224" d="M83 477H141V0H83V477Z"  />
<glyph unicode="&#x141;" horiz-adv-x="486" d="M18 347L90 374V627H151V395L253 432L270 390L151 347V57H459V0H90V325L35 305L18 347Z"  />
<glyph unicode="&#x142;" horiz-adv-x="273" d="M15 364L83 389V677H141V409L213 436L229 393L141 361V136Q141 84 156 67T199 49Q228 49 246 58L254 5Q244 0 230 -2T196 -5Q172 -5 152 1T116 24T92 65T83 129V340L31 322L15 364Z"  />
<glyph unicode="&#x143;" horiz-adv-x="619" d="M86 627H147L473 107V627H534V0H472L146 520V0H86V627ZM426 809L339 673H290L369 809H426Z"  />
<glyph unicode="&#x144;" horiz-adv-x="537" d="M79 450Q109 463 160 474T275 485Q318 485 353 477T414 447T454 389T468 295V0H410V294Q410 338 400 364T373 405T330 425T275 430Q230 430 197 424T137 407V0H79V450ZM364 667L277 531H228L307 667H364Z"  />
<glyph unicode="&#x152;" horiz-adv-x="958" d="M314 -9Q240 -9 193 13T117 77T77 178T66 313Q66 387 77 447T117 549T193 613T314 636Q385 636 432 611T501 536V627H908V570H560V357H868V300H560V57H908V0H501V91Q480 40 432 16T314 -9ZM501 313Q501 374 494 423T466 507T409 560T314 579Q255 579 219 561T162 508T134 424T126 313Q126 251 133 202T161 119T218 67T314 48Q372 48 409 66T466 119T493 202T501 313Z"  />
<glyph unicode="&#x153;" horiz-adv-x="870" d="M812 277Q812 261 811 245T805 215H469V210Q469 123 514 85T640 47Q680 47 720 55T788 74L797 20Q762 6 722 0T639 -7Q564 -7 514 18T440 109Q420 49 378 21T265 -7Q208 -7 169 11T105 61T70 139T59 239Q59 293 70 338T105 415T169 466T265 485Q337 485 379 457T441 369Q461 427 502 456T614 485Q708 485 760 433T812 277ZM412 239Q412 282 406 317T383 378T338 416T265 430Q221 430 193 417T148 378T125 318T118 239Q118 195 124 160T148 99T193 61T265 47Q309 47 337 60T382 99T405 159T412 239ZM469 266H757V271Q757 358 718 395T613 432Q548 432 509 395T469 271V266Z"  />
<glyph unicode="&#x15A;" horiz-adv-x="527" d="M73 98Q107 75 152 63T244 50Q278 50 308 56T361 75T397 110T411 163Q411 202 386 225T322 263T238 293T155 328T91 382T65 471Q65 515 82 546T128 597T194 626T271 635Q322 635 369 622T450 585L432 530Q401 553 359 565T273 577Q243 577 217 572T170 554T138 521T126 473Q126 431 151 407T215 366T299 336T382 302T446 250T472 165Q472 119 453 86T401 32T329 2T245 -8Q191 -8 141 5T55 42L73 98ZM360 809L273 673H224L303 809H360Z"  />
<glyph unicode="&#x15B;" horiz-adv-x="472" d="M68 74Q83 69 102 64T142 55T184 49T226 47Q252 47 275 51T315 65T343 90T354 127Q354 158 333 174T280 201T212 218T143 240T90 280T69 350Q69 387 83 412T122 454T179 477T246 485Q285 485 323 476T391 454L383 399Q354 413 315 421T241 430Q218 430 197 426T161 412T136 389T127 353Q127 323 148 307T201 281T269 263T338 241T391 201T412 131Q412 93 397 67T357 25T296 1T220 -7Q177 -7 135 1T59 20L68 74ZM334 667L247 531H198L277 667H334Z"  />
<glyph unicode="&#x160;" horiz-adv-x="527" d="M73 98Q107 75 152 63T244 50Q278 50 308 56T361 75T397 110T411 163Q411 202 386 225T322 263T238 293T155 328T91 382T65 471Q65 515 82 546T128 597T194 626T271 635Q322 635 369 622T450 585L432 530Q401 553 359 565T273 577Q243 577 217 572T170 554T138 521T126 473Q126 431 151 407T215 366T299 336T382 302T446 250T472 165Q472 119 453 86T401 32T329 2T245 -8Q191 -8 141 5T55 42L73 98ZM153 809H203L268 705H270L335 809H385L295 673H242L153 809Z"  />
<glyph unicode="&#x161;" horiz-adv-x="472" d="M68 74Q83 69 102 64T142 55T184 49T226 47Q252 47 275 51T315 65T343 90T354 127Q354 158 333 174T280 201T212 218T143 240T90 280T69 350Q69 387 83 412T122 454T179 477T246 485Q285 485 323 476T391 454L383 399Q354 413 315 421T241 430Q218 430 197 426T161 412T136 389T127 353Q127 323 148 307T201 281T269 263T338 241T391 201T412 131Q412 93 397 67T357 25T296 1T220 -7Q177 -7 135 1T59 20L68 74ZM132 667H182L247 563H249L314 667H364L274 531H221L132 667Z"  />
<glyph unicode="&#x178;" horiz-adv-x="605" d="M333 244V0H273V242L23 627H91L302 300L513 627H582L333 244ZM175 741Q175 757 186 768T213 779Q229 779 239 768T250 741Q250 726 240 715T213 704Q197 704 186 715T175 741ZM354 741Q354 757 365 768T392 779Q408 779 418 768T429 741Q429 726 419 715T392 704Q376 704 365 715T354 741Z"  />
<glyph unicode="&#x179;" horiz-adv-x="550" d="M61 627H489V580L121 57H509V0H41V47L410 570H61V627ZM365 809L278 673H229L308 809H365Z"  />
<glyph unicode="&#x17A;" horiz-adv-x="485" d="M52 477H433V430L130 54H433V0H52V47L355 424H52V477ZM328 667L241 531H192L271 667H328Z"  />
<glyph unicode="&#x17B;" horiz-adv-x="550" d="M61 627H489V580L121 57H509V0H41V47L410 570H61V627ZM236 741Q236 760 248 772T279 784Q297 784 309 772T322 741Q322 723 310 711T279 698Q260 698 248 710T236 741Z"  />
<glyph unicode="&#x17C;" horiz-adv-x="485" d="M52 477H433V430L130 54H433V0H52V47L355 424H52V477ZM203 598Q203 617 215 629T246 641Q264 641 276 629T289 598Q289 580 277 568T246 555Q227 555 215 567T203 598Z"  />
<glyph unicode="&#x17D;" horiz-adv-x="550" d="M61 627H489V580L121 57H509V0H41V47L410 570H61V627ZM162 809H212L277 705H279L344 809H394L304 673H251L162 809Z"  />
<glyph unicode="&#x17E;" horiz-adv-x="485" d="M52 477H433V430L130 54H433V0H52V47L355 424H52V477ZM128 666H178L243 562H245L310 666H360L270 530H217L128 666Z"  />
<glyph unicode="&#x192;" horiz-adv-x="444" d="M73 336H204L224 465Q230 501 240 532T267 587T312 624T381 637Q413 637 439 629V576Q422 580 412 581T388 582Q369 582 353 578T324 562T300 526T284 463L264 336H426V291H256L222 73Q214 20 204 -24T174 -100T125 -149T48 -167Q26 -167 5 -161V-106Q15 -109 23 -110T44 -112Q75 -112 95 -99T128 -62T148 -3T163 76L197 291H73V336Z"  />
<glyph unicode="&#x2C6;" horiz-adv-x="361" d="M153 886H206L296 750H246L181 854H179L114 750H64L153 886Z"  />
<glyph unicode="&#x2C7;" horiz-adv-x="348" d="M58 886H108L173 782H175L240 886H290L200 750H147L58 886Z"  />
<glyph unicode="&#x2D8;" horiz-adv-x="414" d="M207 750Q156 750 121 777T85 855V866H128V855Q128 820 151 804T207 788Q241 788 264 804T287 856V866H329V855Q329 804 294 777T207 750Z"  />
<glyph unicode="&#x2D9;" horiz-adv-x="198" d="M56 793Q56 812 68 824T99 836Q117 836 129 824T142 793Q142 775 130 763T99 750Q80 750 68 762T56 793Z"  />
<glyph unicode="&#x2DA;" horiz-adv-x="285" d="M142 750Q104 750 81 773T58 833Q58 872 81 894T142 917Q181 917 204 895T227 833Q227 796 204 773T142 750ZM142 782Q168 782 181 797T194 833Q194 856 181 871T142 886Q117 886 104 871T91 833Q91 813 104 798T142 782Z"  />
<glyph unicode="&#x2DB;" horiz-adv-x="254" d="M200 0Q171 -18 153 -32T124 -58T109 -80T103 -100Q103 -110 106 -119Q114 -145 151 -145Q159 -145 171 -143T195 -136L199 -177Q163 -187 141 -187Q102 -187 80 -167T57 -109Q57 -71 84 -46T152 0H200Z"  />
<glyph unicode="&#x2DC;" horiz-adv-x="468" d="M87 773Q87 821 106 848T167 875Q190 875 208 864T242 840T273 816T303 805Q327 805 333 823T339 867H381Q381 819 364 792T301 765Q278 765 260 776T226 800T195 824T165 835Q141 835 135 817T129 773H87H87Z"  />
<glyph unicode="&#x2DD;" horiz-adv-x="359" d="M178 886H234L148 750H100L178 886ZM202 886H258L173 750H125L202 886Z"  />
<glyph unicode="&#x2013;" horiz-adv-x="424" d="M0 338H424V289H0V338Z"  />
<glyph unicode="&#x2014;" horiz-adv-x="848" d="M0 338H848V289H0V338Z"  />
<glyph unicode="&#x2018;" horiz-adv-x="211" d="M154 526Q154 506 141 493T108 480Q92 480 82 488T67 508T59 536T57 566Q57 583 60 603T71 642T91 680T121 714L146 694Q123 669 112 635T103 570Q121 572 137 561T154 526Z"  />
<glyph unicode="&#x2019;" horiz-adv-x="211" d="M57 674Q57 693 70 706T103 719Q119 719 129 711T144 691T152 663T154 633Q154 616 151 596T140 557T120 519T90 485L65 506Q88 530 99 564T108 629Q91 627 74 639T57 674Z"  />
<glyph unicode="&#x201A;" horiz-adv-x="207" d="M53 39Q53 59 66 72T99 85Q115 85 125 77T140 57T148 29T150 -1Q150 -18 147 -38T136 -77T116 -115T86 -149L61 -129Q84 -104 95 -70T104 -5Q86 -7 70 4T53 39Z"  />
<glyph unicode="&#x201C;" horiz-adv-x="368" d="M311 526Q311 506 298 493T265 480Q249 480 239 488T224 508T216 536T214 566Q214 583 217 603T228 642T248 680T278 714L303 694Q280 669 269 635T260 570Q278 572 294 561T311 526ZM154 526Q154 506 141 493T108 480Q92 480 82 488T67 508T59 536T57 566Q57 583 60 603T71 642T91 680T121 714L146 694Q123 669 112 635T103 570Q121 572 137 561T154 526Z"  />
<glyph unicode="&#x201D;" horiz-adv-x="368" d="M57 674Q57 693 70 706T103 719Q119 719 129 711T144 691T152 663T154 633Q154 616 151 596T140 557T120 519T90 485L65 506Q88 530 99 564T108 629Q91 627 74 639T57 674ZM214 674Q214 693 227 706T260 719Q276 719 286 711T301 691T309 663T311 633Q311 616 308 596T297 557T277 519T247 485L222 506Q245 530 256 564T265 629Q248 627 231 639T214 674Z"  />
<glyph unicode="&#x201E;" horiz-adv-x="356" d="M202 39Q202 59 215 72T248 85Q264 85 274 77T289 57T297 29T299 -1Q299 -18 296 -38T285 -77T265 -115T235 -149L210 -129Q233 -104 244 -70T253 -5Q236 -7 219 4T202 39ZM53 39Q53 59 66 72T99 85Q115 85 125 77T140 57T148 29T150 -1Q150 -18 147 -38T136 -77T116 -115T86 -149L61 -129Q84 -104 95 -70T104 -5Q86 -7 70 4T53 39Z"  />
<glyph unicode="&#x2020;" horiz-adv-x="457" d="M418 443H253V-72H204V443H39V487H204V627H253V487H418V443Z"  />
<glyph unicode="&#x2021;" horiz-adv-x="480" d="M50 112H216V443H50V487H216V627H264V487H430V443H264V112H430V68H264V-72H216V68H50V112Z"  />
<glyph unicode="&#x2022;" horiz-adv-x="259" d="M215 310Q215 275 192 250T130 225Q92 225 68 250T44 310Q44 345 68 370T130 396Q168 396 191 371T215 310Z"  />
<glyph unicode="&#x2026;" horiz-adv-x="641" d="M492 39Q492 59 505 72T537 85Q557 85 570 72T583 39Q583 20 570 7T537 -6Q518 -6 505 7T492 39ZM275 39Q275 59 288 72T321 85Q340 85 353 72T366 39Q366 20 353 7T321 -6Q301 -6 288 7T275 39ZM59 39Q59 59 71 72T104 85Q124 85 136 72T149 39Q149 20 137 7T104 -6Q84 -6 72 7T59 39Z"  />
<glyph unicode="&#x2030;" horiz-adv-x="1169" d="M1123 162Q1123 118 1112 86T1080 34T1032 3T972 -7Q940 -7 913 3T865 33T834 86T822 162Q822 206 833 238T865 291T913 322T972 332Q1004 332 1031 322T1079 291T1111 238T1123 162ZM1070 162Q1070 194 1063 217T1042 254T1010 276T972 283Q931 283 903 255T875 162Q875 94 903 68T972 42Q992 42 1010 48T1041 68T1062 105T1070 162ZM603 627L276 0H215L541 627H603ZM356 465Q356 421 345 389T313 336T266 305T206 295Q174 295 147 305T99 336T67 389T55 465Q55 509 66 541T98 594T146 625T206 635Q238 635 265 625T313 594T344 541T356 465ZM303 465Q303 529 275 557T206 585Q165 585 137 557T108 465Q108 431 115 408T136 371T168 350T206 344Q226 344 244 350T275 370T295 408T303 465ZM762 162Q762 118 751 86T719 34T671 3T611 -7Q579 -7 552 3T504 33T473 86T461 162Q461 206 472 238T504 291T552 322T611 332Q643 332 670 322T718 291T750 238T762 162ZM708 162Q708 194 701 217T680 254T649 276T611 283Q570 283 542 255T514 162Q514 94 542 68T611 42Q631 42 649 48T680 68T700 105T708 162Z"  />
<glyph unicode="&#x2039;" horiz-adv-x="297" d="M189 51L38 250L189 449H247L95 250L247 51H189Z"  />
<glyph unicode="&#x203A;" horiz-adv-x="297" d="M50 51L201 250L50 449H107L259 250L107 51H50Z"  />
<glyph unicode="&#x2044;" horiz-adv-x="309" d="M309 650L50 -22H0L259 650H309Z"  />
<glyph unicode="&#x20AC;" horiz-adv-x="576" d="M164 313Q164 300 164 289T166 266H428L418 221H171Q199 48 357 48Q379 48 401 50T444 57T482 67T509 78L519 21Q493 10 453 1T360 -9Q254 -9 189 45T108 221H28V266H104Q103 277 103 287T103 310Q103 323 103 336T104 361H28V406H109Q127 524 189 580T357 636Q406 636 445 627T511 607L498 552Q471 563 432 571T352 579Q277 579 232 538T171 406H462L451 361H166Q164 350 164 338T164 313Z"  />
<glyph unicode="&#x2122;" horiz-adv-x="877" d="M819 243H771V577L641 243H603L468 577V243H421V627H496L622 312L745 627H819V243ZM337 584H208V243H161V584H31V627H337V584Z"  />
<glyph unicode="&#x2212;" horiz-adv-x="568" d="M503 289H65V338H503V289Z"  />
<glyph unicode="&#xFB01;" horiz-adv-x="577" d="M76 544Q76 590 88 620T121 670T171 697T235 705Q270 705 295 698T344 682L335 629Q315 637 292 643T237 650Q190 650 162 628T134 547V477H331V422H134V0H76V544ZM435 477H493V0H435V477ZM425 641Q425 658 436 669T465 681Q482 681 493 670T504 641Q504 625 493 614T465 602Q448 602 437 613T425 641Z"  />
<glyph unicode="&#xFB02;" horiz-adv-x="616" d="M76 544Q76 590 88 620T121 670T171 697T235 705Q270 705 295 698T344 682L335 629Q315 637 292 643T237 650Q190 650 162 628T134 547V477H331V422H134V0H76V544ZM426 677H484V136Q484 84 500 67T543 49Q571 49 589 58L598 5Q588 0 574 -2T540 -5Q516 -5 495 1T459 24T435 65T426 129V677Z"  />


</font>
</defs>
<text x="40" y="40" font-family="" font-size="30" fill="#933" >ABCDEFGHIJKLMNOPQRSTUVWXYZ abcdefghijklmnopqrstuvwxyz AÁÀÂÄÅÃÆ CÇ DÐ EÉÈÊË I Í Ì Î Ï NÑ</text>
<text x="40" y="80" font-family="" font-size="30" fill="#933" >OÓÒÔÖÕØŒ SŠ UÚÙÛÜ YÝŸ ZŽ Þ aáàâäåãæ cç dð eéèêë i ı í ì î ï nñ oóòôöõøœ sšß uúùûü yýÿ zž</text>
<text x="40" y="120" font-family="" font-size="30" fill="#933" >þ 1234567890 ½ ¼ ¾ % ‰ $¢£¥ƒ€¤ † ‡ § ¶ # ^~µ +×± &lt; = &gt; ÷¬ !¡?¿ &quot; &amp; &apos; * ° . , : ; () [ \ ] {} / |</text>
<text x="40" y="160" font-family="" font-size="30" fill="#933" >¦ _ ‚ „ … ‹› «» ‘ ’ “ ” • ­ - – — @ © ® ™ ªº ¹²³ ´ ` ˆ ˜ ¨ ¯ · ¸</text>
</svg>
