<?xml version="1.0" encoding="utf-8"?>
<!-- Generator: Adobe Illustrator 17.0.2, SVG Export Plug-In . SVG Version: 6.00 Build 0)  -->
<!DOCTYPE svg PUBLIC "-//W3C//DTD SVG 1.1//EN" "http://www.w3.org/Graphics/SVG/1.1/DTD/svg11.dtd">
<svg version="1.1" id="Layer_1" xmlns="http://www.w3.org/2000/svg" xmlns:xlink="http://www.w3.org/1999/xlink" x="0px" y="0px"
	 width="1053px" height="585.922px" viewBox="0.104 -0.469 1053 585.922" enable-background="new 0.104 -0.469 1053 585.922"
	 xml:space="preserve">
<g id="Swipe_Medium_Right">
	
		<linearGradient id="SVGID_1_" gradientUnits="userSpaceOnUse" x1="1048.9" y1="-1135.9932" x2="1432.29" y2="-442.9133" gradientTransform="matrix(-1 0 0 -1 1501.2222 490.922)">
		<stop  offset="0.0049" style="stop-color:#00778C"/>
		<stop  offset="1" style="stop-color:#003B4A"/>
	</linearGradient>
	<polygon fill="url(#SVGID_1_)" points="583.914,1084.647 832.719,1453.197 273.197,1670.383 -0.125,1670.383 -0.125,1084.461 	"/>
	
		<linearGradient id="SVGID_2_" gradientUnits="userSpaceOnUse" x1="904.5411" y1="-991.0703" x2="723.3806" y2="-1371.6744" gradientTransform="matrix(-1 0 0 -1 1501.2222 490.922)">
		<stop  offset="0.0049" style="stop-color:#00778C"/>
		<stop  offset="1" style="stop-color:#003B4A"/>
	</linearGradient>
	<polygon fill="url(#SVGID_2_)" points="1052.75,1572.152 832.719,1453.197 273.197,1670.383 1052.875,1670.383 	"/>
</g>
<g>
	
		<linearGradient id="SVGID_3_" gradientUnits="userSpaceOnUse" x1="603.5682" y1="541.4448" x2="987.482" y2="-152.5818" gradientTransform="matrix(-1 0 0 1 1054.896 0)">
		<stop  offset="0.0049" style="stop-color:#00778C"/>
		<stop  offset="1" style="stop-color:#003B4A"/>
	</linearGradient>
	<polygon fill="url(#SVGID_3_)" points="585.104,-0.539 834.104,366.461 376.104,585.461 -3.896,585.461 -3.927,-0.539 	"/>
	
		<linearGradient id="SVGID_4_" gradientUnits="userSpaceOnUse" x1="457.3271" y1="396.5919" x2="275.6744" y2="778.23" gradientTransform="matrix(-1 0 0 1 1054.896 0)">
		<stop  offset="0.0049" style="stop-color:#00778C"/>
		<stop  offset="1" style="stop-color:#003B4A"/>
	</linearGradient>
	<polygon fill="url(#SVGID_4_)" points="1055.073,487.593 834.104,366.467 273.278,585.461 1055.073,585.461 	"/>
</g>
</svg>
