<?xml version="1.0" encoding="utf-8"?>
<!-- Generator: Adobe Illustrator 17.0.2, SVG Export Plug-In . SVG Version: 6.00 Build 0)  -->
<!DOCTYPE svg PUBLIC "-//W3C//DTD SVG 1.1//EN" "http://www.w3.org/Graphics/SVG/1.1/DTD/svg11.dtd">
<svg version="1.1" id="Layer_1" xmlns="http://www.w3.org/2000/svg" xmlns:xlink="http://www.w3.org/1999/xlink" x="0px" y="0px"
	 width="1053px" height="585.922px" viewBox="0.073 0 1053 585.922" enable-background="new 0.073 0 1053 585.922"
	 xml:space="preserve">
<g>
	<linearGradient id="SVGID_1_" gradientUnits="userSpaceOnUse" x1="144.9055" y1="517.7617" x2="1195.9066" y2="126.0666">
		<stop  offset="0.0049" style="stop-color:#792980"/>
		<stop  offset="1" style="stop-color:#1F1646"/>
	</linearGradient>
	<polygon fill="url(#SVGID_1_)" points="443.797,-0.539 232.135,244 0.073,308.578 0.073,585.461 1055.073,585.461 1055.073,-0.539 
			"/>
	<linearGradient id="SVGID_2_" gradientUnits="userSpaceOnUse" x1="570.6245" y1="337.6155" x2="-82.8852" y2="518.5121">
		<stop  offset="0.0049" style="stop-color:#792980"/>
		<stop  offset="1" style="stop-color:#1F1646"/>
	</linearGradient>
	<polygon fill="url(#SVGID_2_)" points="-1.927,306.539 232.073,244 360.073,585.461 -1.927,585.461 	"/>
</g>
</svg>
