<?xml version="1.0" encoding="utf-8"?>
<!-- Generator: Adobe Illustrator 17.0.2, SVG Export Plug-In . SVG Version: 6.00 Build 0)  -->
<!DOCTYPE svg PUBLIC "-//W3C//DTD SVG 1.1//EN" "http://www.w3.org/Graphics/SVG/1.1/DTD/svg11.dtd">
<svg version="1.1" id="Layer_1" xmlns="http://www.w3.org/2000/svg" xmlns:xlink="http://www.w3.org/1999/xlink" x="0px" y="0px"
	 width="1053px" height="585.922px" viewBox="0.073 0 1053 585.922" enable-background="new 0.073 0 1053 585.922"
	 xml:space="preserve">
<g>
	<linearGradient id="SVGID_1_" gradientUnits="userSpaceOnUse" x1="597.967" y1="563.4694" x2="921.2795" y2="-147.6025">
		<stop  offset="0.0049" style="stop-color:#00778C"/>
		<stop  offset="1" style="stop-color:#003B4A"/>
	</linearGradient>
	<polygon fill="url(#SVGID_1_)" points="468.24,-0.539 219.073,367 618.073,586 1055.948,586 1055.948,-0.539 	"/>
	<linearGradient id="SVGID_2_" gradientUnits="userSpaceOnUse" x1="526.1968" y1="402.9063" x2="225.1823" y2="706.6631">
		<stop  offset="0.0049" style="stop-color:#00778C"/>
		<stop  offset="1" style="stop-color:#003B4A"/>
	</linearGradient>
	<polygon fill="url(#SVGID_2_)" points="-1.927,487.016 219.073,367.23 789.073,586.461 -1.927,586.461 	"/>
</g>
</svg>
