<?xml version="1.0" standalone="no"?>
<!DOCTYPE svg PUBLIC "-//W3C//DTD SVG 1.1//EN" "http://www.w3.org/Graphics/SVG/1.1/DTD/svg11.dtd" >
<svg xmlns="http://www.w3.org/2000/svg">
<metadata></metadata>
<defs>
<font id="proxima_novabold" horiz-adv-x="1400" >
<font-face units-per-em="2048" ascent="1618" descent="-430" />
<missing-glyph horiz-adv-x="526" />
<glyph horiz-adv-x="2048" />
<glyph horiz-adv-x="2048" />
<glyph unicode="&#xd;" horiz-adv-x="682" />
<glyph unicode=" "  horiz-adv-x="526" />
<glyph unicode="&#x09;" horiz-adv-x="526" />
<glyph unicode="&#xa0;" horiz-adv-x="526" />
<glyph unicode="!" horiz-adv-x="522" d="M98 143q0 68 48.5 117t116 49t116.5 -49t49 -117q0 -66 -49 -114.5t-116.5 -48.5t-116 48.5t-48.5 114.5zM104 1366h314l-41 -920h-230z" />
<glyph unicode="&#x22;" horiz-adv-x="831" d="M90 1245q0 57 41 99t100 42q57 0 99.5 -41.5t42.5 -99.5l-84 -477h-115q-84 438 -84 477zM461 1245q0 57 42 99t99 42t99 -41.5t42 -99.5l-84 -477h-114q-84 438 -84 477z" />
<glyph unicode="#" horiz-adv-x="1265" d="M35 348l53 166h201l110 338h-198l51 164h205l114 350h193l-115 -350h193l114 350h195l-119 -350h199l-47 -164h-207l-113 -338h207l-51 -166h-211l-115 -348h-194l118 348h-194l-117 -348h-192l116 348h-196zM481 514h191l112 338h-192z" />
<glyph unicode="$" horiz-adv-x="1257" d="M61 193l160 227q135 -141 326 -176v317q-94 23 -159.5 48.5t-136.5 70.5t-108 117.5t-37 173.5q0 160 119 275.5t322 135.5v191h192v-195q252 -29 418 -182l-162 -217q-104 96 -256 133v-283q96 -25 163 -50t139.5 -71t110.5 -120t38 -174q0 -176 -116 -294t-335 -140 v-185h-192v185q-298 25 -486 213zM406 993q0 -72 141 -116v247q-68 -8 -104.5 -43t-36.5 -88zM739 240q76 14 115 54t39 91q0 47 -39 75.5t-115 53.5v-274z" />
<glyph unicode="%" horiz-adv-x="1552" d="M53 1044q0 147 96.5 244.5t249.5 97.5q156 0 252.5 -97t96.5 -245q0 -145 -96.5 -241t-252.5 -96q-154 0 -250 96t-96 241zM238 1044q0 -80 46 -129t115 -49q72 0 118 49.5t46 128.5q0 84 -46 133.5t-118 49.5q-70 0 -115.5 -50.5t-45.5 -132.5zM266 0l873 1366h155 l-874 -1366h-154zM805 313q0 147 96 245.5t250 98.5t251 -98t97 -246q0 -145 -97 -241.5t-251 -96.5t-250 96.5t-96 241.5zM989 313q0 -82 45 -130t117 -48t118 48t46 130q0 84 -46 133.5t-118 49.5t-117 -49.5t-45 -133.5z" />
<glyph unicode="&#x26;" horiz-adv-x="1325" d="M49 371q0 141 79 233t216 162q-90 164 -90 293q0 139 109.5 233t279.5 94q152 0 255 -77.5t103 -210.5q0 -74 -26.5 -133.5t-79.5 -104.5t-101.5 -72.5t-125.5 -64.5q57 -78 116 -148q59 -74 117 -141q84 131 125 266l207 -96q-90 -199 -191 -328q84 -92 265 -276h-332 q-43 41 -103 102q-168 -127 -372 -127q-197 0 -324 103t-127 293zM326 395q0 -96 61.5 -155.5t149.5 -59.5q100 0 196 70q-102 113 -151 174q-90 111 -138 180q-118 -84 -118 -209zM512 1053q0 -78 59 -185q100 47 152.5 96.5t52.5 118.5q0 53 -34.5 84t-86.5 31 q-61 0 -102 -41t-41 -104z" />
<glyph unicode="'" horiz-adv-x="460" d="M90 1245q0 57 41 99t100 42q57 0 99.5 -41.5t42.5 -99.5l-84 -477h-115q-84 438 -84 477z" />
<glyph unicode="(" horiz-adv-x="608" d="M84 497.5q0 247.5 88 493.5t238 412l161 -123q-106 -195 -156 -377t-50 -405.5t50 -405.5t156 -373l-161 -127q-150 166 -238 412t-88 493.5z" />
<glyph unicode=")" horiz-adv-x="610" d="M37 -281l162 -127q150 168 238.5 413t88.5 492.5t-89 492.5t-238 413l-162 -123q106 -193 156.5 -375t50.5 -407q0 -223 -50.5 -407t-156.5 -372z" />
<glyph unicode="*" horiz-adv-x="718" d="M51 965l199 104l-199 102l66 111l188 -121l-10 225h129l-10 -225l188 121l66 -111l-199 -102l199 -104l-66 -111l-188 121l10 -225h-129l10 225l-188 -121z" />
<glyph unicode="+" horiz-adv-x="1032" d="M59 610v162h369v402h178v-402h367v-162h-367v-415h-178v415h-369z" />
<glyph unicode="," horiz-adv-x="522" d="M96 145q0 68 48.5 116t113.5 48q76 0 129 -56t53 -153q0 -113 -56 -212t-155 -169l-112 93q51 27 98 83t59 109q-18 -6 -38 -6q-59 0 -99.5 42t-40.5 105z" />
<glyph unicode="-" horiz-adv-x="614" d="M61 385v221h492v-221h-492z" />
<glyph unicode="." horiz-adv-x="526" d="M96 143.5q0 67.5 49.5 116.5t117 49t116.5 -49t49 -116.5t-49 -117t-116.5 -49.5t-117 49.5t-49.5 117z" />
<glyph unicode="/" horiz-adv-x="673" d="M0 -41l485 1448h189l-486 -1448h-188z" />
<glyph unicode="0" horiz-adv-x="1269" d="M70 682q0 184 57 340t189.5 260t318.5 104t318 -104t189.5 -260t57.5 -340t-57.5 -340t-189.5 -261.5t-318 -105.5t-318.5 105.5t-189.5 261.5t-57 340zM367 682q0 -203 64.5 -326t203.5 -123t203.5 123t64.5 326q0 205 -64.5 325.5t-203.5 120.5t-203.5 -121.5 t-64.5 -324.5z" />
<glyph unicode="1" horiz-adv-x="841" d="M23 934l430 432h254v-1366h-291v991l-228 -231z" />
<glyph unicode="2" horiz-adv-x="1228" d="M66 1163q96 111 236 167t290 56q225 0 373.5 -118.5t148.5 -317.5q0 -168 -132 -328.5t-415 -365.5h557v-256h-1028v229q440 326 581.5 463t141.5 258q0 86 -64.5 132t-156.5 46q-215 0 -367 -157z" />
<glyph unicode="3" horiz-adv-x="1202" d="M41 195l154 194q68 -72 170 -114t204 -42q123 0 190.5 48.5t67.5 126.5q0 82 -65.5 119.5t-208.5 37.5q-129 0 -170 -4v262q25 -2 170 -2q254 0 254 146q0 78 -71.5 119.5t-182.5 41.5q-201 0 -348 -141l-146 182q193 217 523 217q240 0 378 -100t138 -270 q0 -123 -88 -206t-211 -105q121 -12 220 -99.5t99 -228.5q0 -178 -147.5 -290t-390.5 -112q-178 0 -318.5 61t-220.5 159z" />
<glyph unicode="4" horiz-adv-x="1222" d="M51 283v229l543 854h401v-827h176v-256h-176v-283h-290v283h-654zM336 539h369v569z" />
<glyph unicode="5" horiz-adv-x="1245" d="M100 180l162 203q143 -150 363 -150q117 0 185.5 58.5t68.5 144.5q0 92 -65.5 147.5t-180.5 55.5q-170 0 -287 -111l-203 56v782h938v-256h-647v-334q115 115 301 115q182 0 310.5 -121t128.5 -321q0 -215 -150 -344.5t-397 -129.5q-339 0 -527 205z" />
<glyph unicode="6" horiz-adv-x="1245" d="M70 680q0 317 170 511.5t467 194.5q242 0 403 -141l-131 -223q-113 106 -272 106q-150 0 -246 -111.5t-96 -275.5q0 -18 2 -28q51 74 147 125t203 51q195 0 331 -118t136 -327q0 -203 -146.5 -336t-378.5 -133q-295 0 -442 197t-147 508zM367 510q10 -115 77.5 -196 t198.5 -81q111 0 177.5 61.5t66.5 139.5q0 100 -73 152.5t-179 52.5q-166 0 -268 -129z" />
<glyph unicode="7" horiz-adv-x="1116" d="M49 1110v256h1026v-203l-508 -1163h-319l489 1110h-688z" />
<glyph unicode="8" horiz-adv-x="1241" d="M72 354q0 119 82 212t211 139q-270 94 -271 321q0 123 81 207t195.5 118.5t250 34.5t250 -34.5t195.5 -118.5t81 -207q0 -225 -270 -321q129 -45 210.5 -138.5t81.5 -212.5q0 -180 -159.5 -279.5t-389 -99.5t-389 99.5t-159.5 279.5zM367 395q0 -72 72.5 -117t181.5 -45 q106 0 179.5 45.5t73.5 116.5q0 74 -82.5 120t-170.5 58q-51 -8 -104.5 -26.5t-101.5 -59.5t-48 -92zM389 977q0 -66 71.5 -104.5t160.5 -53.5q86 14 157.5 53t71.5 105q0 72 -63.5 111.5t-165.5 39.5q-104 0 -168 -39.5t-64 -111.5z" />
<glyph unicode="9" horiz-adv-x="1245" d="M63 920q0 203 145.5 336t377.5 133q295 0 442.5 -197t147.5 -508q0 -317 -170 -512t-467 -195q-244 0 -402 142l129 223q113 -106 272.5 -106t251 113.5t91.5 271.5v30q-53 -74 -149.5 -125t-203.5 -51q-195 0 -330 118t-135 327zM358 930q0 -100 74 -152.5t178 -52.5 q166 0 269 129q-10 115 -78 195.5t-199 80.5q-111 0 -177.5 -61t-66.5 -139z" />
<glyph unicode=":" horiz-adv-x="503" d="M96 143.5q0 67.5 49.5 116.5t117 49t116.5 -49t49 -116.5t-49 -117t-116.5 -49.5t-117 49.5t-49.5 117zM96 837.5q0 67.5 49.5 117t117 49.5t116.5 -49.5t49 -117t-49 -116.5t-116.5 -49t-117 49t-49.5 116.5z" />
<glyph unicode=";" horiz-adv-x="522" d="M96 154q0 68 48.5 115.5t113.5 47.5q76 0 129 -56t53 -155q0 -111 -56 -210t-155 -168l-112 92q51 27 98 83t59 109q-18 -6 -38 -6q-59 0 -99.5 42.5t-40.5 105.5zM96 839.5q0 67.5 49.5 116t117 48.5t116.5 -48.5t49 -116t-49 -117.5t-116.5 -50t-117 50t-49.5 117.5z " />
<glyph unicode="&#x3c;" horiz-adv-x="1032" d="M59 592v188l914 408v-193l-727 -311l727 -307v-193z" />
<glyph unicode="=" horiz-adv-x="1032" d="M59 412v159h914v-159h-914zM59 797v161h914v-161h-914z" />
<glyph unicode="&#x3e;" horiz-adv-x="1032" d="M59 184v193l727 307l-727 311v193l914 -408v-188z" />
<glyph unicode="?" horiz-adv-x="933" d="M18 1188q168 199 449 198q197 0 311.5 -89t114.5 -234q0 -82 -35 -147.5t-86 -106.5t-101 -76t-85 -76t-35 -88q0 -53 39 -86l-225 -65q-68 74 -68 182q0 82 47 146.5t103.5 97.5t103.5 78t47 90q0 51 -41 83.5t-121 32.5q-147 0 -252 -127zM297 143.5q0 67.5 49 116.5 t116.5 49t117 -49t49.5 -116.5t-49.5 -117t-117 -49.5t-116.5 49.5t-49 117z" />
<glyph unicode="@" horiz-adv-x="1603" d="M72 500q0 213 113.5 400t302 297t397.5 110q289 0 467 -181.5t178 -445.5q0 -238 -127 -372t-279 -134q-86 0 -136 44t-62 108l-2 12q-53 -76 -133 -120t-162 -44q-145 0 -231.5 96.5t-86.5 247.5q0 203 141.5 352.5t321.5 149.5t256 -137l23 108h231l-104 -499 q-6 -31 -6 -50q0 -92 75 -92q72 0 132.5 85t60.5 245q0 244 -153.5 395.5t-411.5 151.5q-289 0 -506 -217t-217 -506q0 -242 163.5 -406t413.5 -164q195 0 373 113l43 -61q-201 -129 -426 -129q-279 0 -464 185.5t-185 457.5zM551 539q0 -80 45 -130.5t123 -50.5 q131 0 227 136l51 237q-18 41 -60 73t-106 32q-119 0 -199.5 -90t-80.5 -207z" />
<glyph unicode="A" d="M-8 0l526 1366h365l526 -1366h-330l-86 231h-585l-86 -231h-330zM487 487h426l-213 588z" />
<glyph unicode="B" horiz-adv-x="1357" d="M135 0v1366h719q186 0 289.5 -101.5t103.5 -246.5q0 -123 -67.5 -208t-167.5 -105q111 -16 186.5 -111.5t75.5 -222.5q0 -162 -103.5 -266.5t-293.5 -104.5h-742zM426 256h377q82 0 128 41t46 115q0 68 -46 111.5t-128 43.5h-377v-311zM426 823h365q74 0 116.5 39 t42.5 105q0 63 -43 103t-116 40h-365v-287z" />
<glyph unicode="C" horiz-adv-x="1406" d="M70 682q0 313 207.5 510t521.5 197q383 0 569 -334l-250 -123q-45 86 -132 142t-187 56q-186 0 -308 -126.5t-122 -321.5t121.5 -322t308.5 -127q100 0 187 56.5t132 142.5l250 -121q-190 -336 -569 -336q-313 0 -521 198t-208 509z" />
<glyph unicode="D" horiz-adv-x="1470" d="M135 0v1366h539q322 0 523.5 -188.5t201.5 -493.5q0 -309 -201 -496.5t-522 -187.5h-541zM426 256h248q197 0 312.5 123t115.5 305q0 186 -111.5 306t-314.5 120h-250v-854z" />
<glyph unicode="E" horiz-adv-x="1193" d="M135 0v1366h967v-256h-676v-287h661v-256h-661v-311h676v-256h-967z" />
<glyph unicode="F" horiz-adv-x="1169" d="M135 0v1366h967v-256h-676v-287h661v-256h-661v-567h-291z" />
<glyph unicode="G" horiz-adv-x="1474" d="M70 682q0 317 209.5 512t519.5 195q371 0 563 -306l-240 -131q-51 78 -136 128t-187 50q-186 0 -308 -126.5t-122 -321.5t121.5 -322t308.5 -127q84 0 163.5 31t124.5 74v164h-360v254h651v-525q-229 -256 -579 -256q-309 0 -519 196t-210 511z" />
<glyph unicode="H" horiz-adv-x="1497" d="M135 0v1366h291v-537h645v537h293v-1366h-293v575h-645v-575h-291z" />
<glyph unicode="I" horiz-adv-x="561" d="M135 0v1366h291v-1366h-291z" />
<glyph unicode="J" horiz-adv-x="995" d="M12 111l127 221q102 -98 217 -99q96 0 154.5 60.5t58.5 159.5v913h293v-917q0 -233 -132 -353.5t-349 -120.5q-232 1 -369 136z" />
<glyph unicode="K" horiz-adv-x="1302" d="M135 0v1366h291v-608l483 608h359l-543 -641l580 -725h-359l-414 549l-106 -129v-420h-291z" />
<glyph unicode="L" horiz-adv-x="1054" d="M123 0v1366h293v-1110h577v-256h-870z" />
<glyph unicode="M" horiz-adv-x="1751" d="M135 0v1366h408l331 -854l332 854h410v-1366h-293v985l-385 -985h-127l-385 985v-985h-291z" />
<glyph unicode="N" horiz-adv-x="1492" d="M135 0v1366h299l633 -858v858h291v-1366h-281l-651 891v-891h-291z" />
<glyph unicode="O" horiz-adv-x="1566" d="M70 682q0 309 201.5 508t512.5 199q309 0 511 -200t202 -507t-201.5 -507t-511.5 -200q-311 0 -512.5 199t-201.5 508zM369 682q0 -195 114.5 -322t301 -127t300 127t113.5 322t-113.5 321.5t-300.5 126.5q-188 0 -301.5 -126.5t-113.5 -321.5z" />
<glyph unicode="P" horiz-adv-x="1280" d="M135 0v1366h639q215 0 337 -126t122 -314q0 -186 -123 -312.5t-336 -126.5h-348v-487h-291zM426 743h307q88 0 145.5 50.5t57.5 132.5q0 84 -57.5 134t-145.5 50h-307v-367z" />
<glyph unicode="Q" horiz-adv-x="1566" d="M70 682q0 309 201.5 508t512.5 199q309 0 511 -200t202 -507q0 -285 -178 -483l100 -117l-202 -166l-111 127q-147 -68 -322 -68q-311 0 -512.5 199t-201.5 508zM369 682q0 -195 114.5 -322t300.5 -127q74 0 142 23l-150 176l203 166l149 -176q70 111 70 260 q0 195 -113.5 321.5t-300.5 126.5q-188 0 -301.5 -126.5t-113.5 -321.5z" />
<glyph unicode="R" horiz-adv-x="1316" d="M135 0v1366h639q211 0 336 -123t125 -317q0 -168 -89 -272.5t-212 -133.5l309 -520h-336l-268 485h-213v-485h-291zM426 741h307q88 0 145.5 50.5t57.5 136.5q0 82 -57.5 132t-145.5 50h-307v-369z" />
<glyph unicode="S" horiz-adv-x="1228" d="M41 193l160 227q178 -186 434 -187q115 0 176 44.5t61 107.5q0 55 -58 91t-145 52.5t-189.5 46t-189.5 68.5t-145.5 123t-58.5 205q0 176 141.5 295.5t376.5 119.5q326 0 533 -190l-162 -217q-161 149 -394 149h-3q-90 0 -141.5 -36.5t-51.5 -98.5q0 -49 58.5 -81.5 t145.5 -50t188.5 -48.5t188.5 -71t145 -123.5t58 -204.5q0 -197 -140 -318t-406 -121q-365 1 -582 218z" />
<glyph unicode="T" horiz-adv-x="1191" d="M51 1110v256h1090v-256h-398v-1110h-292v1110h-400z" />
<glyph unicode="U" horiz-adv-x="1503" d="M135 547v819h295v-811q0 -147 84 -234.5t237.5 -87.5t236.5 87.5t83 234.5v811h297v-819q0 -262 -156.5 -417t-459.5 -155t-460 155t-157 417z" />
<glyph unicode="V" d="M-8 1366h330l378 -1049l379 1049h330l-526 -1366h-365z" />
<glyph unicode="W" horiz-adv-x="1880" d="M2 1366h326l239 -987l260 987h228l258 -987l239 987h326l-389 -1366h-309l-240 938l-238 -938h-309z" />
<glyph unicode="X" horiz-adv-x="1368" d="M-6 0l495 700l-464 666h346l313 -467l309 467h350l-464 -664l495 -702h-348l-342 500l-344 -500h-346z" />
<glyph unicode="Y" horiz-adv-x="1320" d="M-8 1366h332l338 -547l337 547h330l-522 -807v-559h-291v559z" />
<glyph unicode="Z" horiz-adv-x="1212" d="M86 0v236l645 874h-645v256h1026v-233l-645 -877h659v-256h-1040z" />
<glyph unicode="[" horiz-adv-x="573" d="M96 -389v1778h443v-175h-254v-1429h254v-174h-443z" />
<glyph unicode="\" horiz-adv-x="673" d="M0 1407h188l486 -1448h-189z" />
<glyph unicode="]" horiz-adv-x="573" d="M37 -215h254v1429h-254v175h440v-1778h-440v174z" />
<glyph unicode="^" horiz-adv-x="903" d="M39 682l319 684h191l315 -684h-192l-221 506l-220 -506h-192z" />
<glyph unicode="_" horiz-adv-x="1155" d="M-6 -82h1167v-174h-1167v174z" />
<glyph unicode="a" horiz-adv-x="1112" d="M68 303q0 162 102 241t240 79q211 0 313 -121v125q0 76 -59.5 121t-157.5 45q-158 0 -285 -117l-102 182q174 156 432 156q190 0 312 -88t122 -287v-639h-262v104q-106 -129 -313 -129q-131 0 -236.5 87t-105.5 241zM328 299q0 -68 53 -107.5t133 -39.5q145 0 209 86v122 q-66 88 -209 89q-80 0 -133 -41t-53 -109z" />
<glyph unicode="b" horiz-adv-x="1200" d="M129 0v1366h260v-504q115 152 305 152q193 0 316 -140.5t123 -377.5q0 -242 -123 -381.5t-316 -139.5q-184 0 -305 152v-127h-260zM389 317q35 -47 98.5 -78.5t126.5 -31.5q113 0 181.5 80t68.5 209q0 127 -68.5 206.5t-181.5 79.5q-63 0 -126.5 -32.5t-98.5 -81.5v-351z " />
<glyph unicode="c" horiz-adv-x="1021" d="M66 495.5q0 227.5 148 373t376 145.5q262 0 391 -178l-170 -160q-72 106 -209 106q-119 0 -193.5 -78.5t-74.5 -207.5t74.5 -209t193.5 -80q133 0 209 108l170 -159q-131 -180 -391 -181q-227 0 -375.5 146.5t-148.5 374z" />
<glyph unicode="d" horiz-adv-x="1200" d="M66 496q0 238 122.5 378t315.5 140q190 0 305 -152v504h262v-1366h-262v127q-121 -152 -305 -152q-193 0 -315.5 139.5t-122.5 381.5zM334 496q0 -129 69.5 -209t182.5 -80q66 0 128 31.5t95 80.5v351q-33 49 -95.5 80.5t-127.5 31.5q-113 0 -182.5 -79.5t-69.5 -206.5z " />
<glyph unicode="e" horiz-adv-x="1132" d="M66 496q0 217 145 367.5t366.5 150.5t358.5 -150.5t137 -392.5v-61h-735q14 -96 89 -159t196 -63q68 0 142.5 26t119.5 71l116 -172q-150 -137 -407 -138q-229 0 -378.5 144t-149.5 377zM336 590h487q-8 84 -68.5 147.5t-176.5 63.5q-113 0 -173.5 -62.5t-68.5 -148.5z " />
<glyph unicode="f" horiz-adv-x="669" d="M25 762v227h163v41q0 166 90.5 261t241.5 95q176 0 258 -94l-98 -157q-43 39 -109 39q-57 0 -89.5 -37t-32.5 -107v-41h200v-227h-200v-762h-261v762h-163z" />
<glyph unicode="g" horiz-adv-x="1198" d="M66 510q0 238 121.5 371t314.5 133q188 0 307 -152v127h260v-923q0 -133 -48 -229.5t-130 -145.5t-169 -70.5t-187 -21.5q-256 0 -426 147l116 186q112 -120 307 -120h3q113 0 193.5 58t80.5 196v96q-121 -154 -307 -154q-193 0 -314.5 131t-121.5 371zM334 510 q0 -127 69.5 -199.5t182.5 -72.5q61 0 124.5 32.5t98.5 79.5v322q-35 47 -97.5 78.5t-125.5 31.5q-113 0 -182.5 -72.5t-69.5 -199.5z" />
<glyph unicode="h" horiz-adv-x="1187" d="M129 0v1366h262v-504q131 152 346 152q160 0 241 -82t81 -230v-702h-260v602q0 180 -183 180q-139 0 -225 -114v-668h-262z" />
<glyph unicode="i" horiz-adv-x="518" d="M104 1251.5q0 63.5 45.5 108.5t108.5 45q66 0 111 -45t45 -108.5t-45 -109.5t-111 -46q-63 0 -108.5 46t-45.5 109.5zM129 0v989h260v-989h-260z" />
<glyph unicode="j" horiz-adv-x="518" d="M-209 -330l70 193q61 -51 133 -51q61 0 98 41t37 120v1016h260v-1016q0 -174 -89 -274t-263 -100q-90 0 -139.5 15t-106.5 56zM104 1251.5q0 63.5 45.5 108.5t108.5 45q66 0 111 -45t45 -108.5t-45 -109.5t-111 -46q-63 0 -108.5 46t-45.5 109.5z" />
<glyph unicode="k" horiz-adv-x="1097" d="M129 0v1366h260v-817l375 440h319l-391 -448l404 -541h-326l-262 381l-119 -127v-254h-260z" />
<glyph unicode="l" horiz-adv-x="518" d="M129 0v1366h260v-1366h-260z" />
<glyph unicode="m" horiz-adv-x="1746" d="M129 0v989h260v-127q39 53 130 102.5t194 49.5q219 0 274 -178q47 72 140.5 125t199.5 53q139 0 215 -75t76 -224v-715h-262v625q0 157 -146 157h-2q-63 0 -117.5 -34.5t-86.5 -79.5v-668h-263v625q0 157 -145 157h-2q-121 0 -205 -114v-668h-260z" />
<glyph unicode="n" horiz-adv-x="1185" d="M129 0v989h260v-127q53 63 144.5 107.5t201.5 44.5q160 0 242 -84t82 -232v-698h-262v598q0 184 -183 184q-135 0 -225 -114v-668h-260z" />
<glyph unicode="o" horiz-adv-x="1177" d="M66 495.5q0 219.5 142 369t379.5 149.5t381 -149.5t143.5 -369t-143.5 -370t-381 -150.5t-379.5 150.5t-142 370zM336 496q0 -123 67.5 -206t184.5 -83q119 0 186.5 83t67.5 206q0 121 -67.5 203.5t-186.5 82.5q-117 0 -184.5 -82.5t-67.5 -203.5z" />
<glyph unicode="p" horiz-adv-x="1193" d="M129 -377v1366h260v-125q117 150 305 150q195 0 317 -138.5t122 -380t-122 -381t-317 -139.5q-184 0 -305 152v-504h-260zM389 322q33 -47 97.5 -81t125.5 -34q113 0 182.5 80t69.5 209q0 127 -69.5 206.5t-182.5 79.5q-63 0 -126.5 -31.5t-96.5 -80.5v-348z" />
<glyph unicode="q" horiz-adv-x="1193" d="M63 495.5q0 241.5 121 380t316 138.5q188 0 305 -150v125h262v-1366h-262v504q-119 -152 -305 -152q-193 0 -315 139.5t-122 381zM332 496q0 -129 69.5 -209t180.5 -80q63 0 126.5 32.5t96.5 82.5v348q-33 49 -95.5 80.5t-127.5 31.5q-111 0 -180.5 -79.5t-69.5 -206.5z " />
<glyph unicode="r" horiz-adv-x="737" d="M129 0v989h260v-133q57 68 142 113t174 45v-254q-29 6 -72 6q-66 0 -139.5 -33t-104.5 -80v-653h-260z" />
<glyph unicode="s" horiz-adv-x="976" d="M43 129l113 188q59 -55 156.5 -96t185.5 -41q166 0 166 105q0 37 -43 60.5t-109 32.5t-141.5 30.5t-141 49t-108.5 90t-43 154.5q0 131 108.5 221.5t296.5 90.5q227 0 398 -135l-105 -185q-47 49 -127 82t-166 33q-70 0 -112.5 -26.5t-42.5 -69.5q0 -39 60.5 -60.5 t147.5 -38t173 -44t146 -98.5t60 -181q0 -139 -114.5 -227.5t-315.5 -88.5q-129 0 -246.5 41t-195.5 113z" />
<glyph unicode="t" horiz-adv-x="692" d="M18 762v227h164v271h260v-271h201v-227h-201v-445q0 -49 23.5 -79.5t66.5 -30.5q63 0 91 31l55 -199q-72 -63 -217 -64q-279 0 -279 273v514h-164z" />
<glyph unicode="u" horiz-adv-x="1185" d="M129 287v702h260v-600q0 -182 182 -182q137 0 226 112v670h260v-989h-260v125q-137 -150 -348 -150q-160 0 -240 82.5t-80 229.5z" />
<glyph unicode="v" horiz-adv-x="1050" d="M-12 989h278l258 -688l260 688h279l-397 -989h-281z" />
<glyph unicode="w" horiz-adv-x="1576" d="M0 989h270l185 -665l217 665h231l217 -665l185 665h272l-301 -989h-279l-209 674l-208 -674h-279z" />
<glyph unicode="x" horiz-adv-x="1032" d="M0 0l352 508l-332 481h291l205 -303l203 303h291l-330 -481l352 -508h-291l-225 334l-227 -334h-289z" />
<glyph unicode="y" horiz-adv-x="1050" d="M-12 989h278l258 -688l260 688h279l-465 -1151q-51 -131 -143.5 -183t-231.5 -56q-78 0 -127 16l37 231q37 -16 82 -16q104 0 137 72l37 86z" />
<glyph unicode="z" horiz-adv-x="980" d="M86 0v195l446 567h-446v227h801v-186l-455 -576h463v-227h-809z" />
<glyph unicode="{" horiz-adv-x="589" d="M8 426v147q51 0 79 39t28 99v350q0 147 94 237.5t223 90.5h123v-175h-123q-55 0 -92 -42t-37 -109v-379q0 -143 -94 -184q94 -41 94 -185v-376q0 -68 37 -111t92 -43h123v-174h-123q-131 0 -224 89t-93 237v352q0 59 -28 98t-79 39z" />
<glyph unicode="|" horiz-adv-x="442" d="M135 -41v1448h174v-1448h-174z" />
<glyph unicode="}" horiz-adv-x="589" d="M35 -215h125q53 0 91 43t38 111v376q0 143 94 185q-94 41 -94 184v379q0 68 -38 109.5t-91 41.5h-125v175h125q129 0 223 -91.5t94 -236.5v-350q0 -59 27.5 -98.5t79.5 -39.5v-147q-51 0 -79 -39t-28 -98v-352q0 -145 -94 -235.5t-223 -90.5h-125v174z" />
<glyph unicode="~" horiz-adv-x="1044" d="M53 864q8 104 24.5 183t49.5 156t91 119t140 42q74 0 124 -37t73 -90t39 -107.5t38.5 -91.5t55.5 -37q98 0 127 365l176 -20q-8 -106 -24.5 -184.5t-48 -156t-90 -119.5t-140.5 -42q-74 0 -124 37t-72.5 90t-39 106t-39 90t-55.5 37q-98 0 -127 -360z" />
<glyph unicode="&#xa1;" horiz-adv-x="522" d="M94 848q0 66 49.5 115t117 49t115.5 -49.5t48 -114.5q0 -68 -48 -117t-115.5 -49t-117 49t-49.5 117zM104 -377l41 920h230l43 -920h-314z" />
<glyph unicode="&#xa2;" horiz-adv-x="1021" d="M66 496q0 201 118.5 340t309.5 170v151h188v-149q195 -31 299 -172l-170 -160q-49 72 -129 96v-555q78 25 129 98l170 -159q-106 -145 -299 -172v-189h-188v189q-190 31 -309 170t-119 342zM334 495.5q0 -96.5 43 -167t117 -101.5v535q-74 -31 -117 -100.5t-43 -166z" />
<glyph unicode="&#xa3;" horiz-adv-x="1126" d="M47 551v166h139q-94 129 -94 246q0 186 152.5 304.5t345.5 118.5q348 0 475 -247l-231 -135q-25 66 -82.5 105.5t-126.5 39.5q-92 0 -153.5 -53.5t-61.5 -137.5q0 -31 4 -56t19.5 -55t20.5 -41t29.5 -49t26.5 -40h295v-166h-230q0 -6 1.5 -19.5t1.5 -19.5 q0 -70 -38 -131.5t-96 -95.5q49 16 101 16q61 0 140 -34t126 -34q123 0 176 74l117 -231q-102 -102 -303 -103q-96 0 -206 45t-165 45q-96 0 -237 -77l-99 198q223 106 223 256q0 51 -24 111h-246z" />
<glyph unicode="&#xa4;" horiz-adv-x="1069" d="M74 281l114 114q-102 129 -102 287q0 162 102 287l-114 116l57 58l117 -115q121 102 287 102q162 0 286 -102l115 115l59 -58l-114 -116q102 -125 102 -287q0 -158 -102 -287l114 -114l-59 -60l-115 117q-123 -104 -286.5 -104.5t-286.5 104.5l-117 -117zM184 682 q0 -145 102.5 -247.5t248 -102.5t248 102.5t102.5 247.5t-102.5 247.5t-248 102.5t-248 -102.5t-102.5 -247.5z" />
<glyph unicode="&#xa5;" horiz-adv-x="1320" d="M-8 1366h332l338 -547l337 547h330l-418 -645h365v-162h-469v-164h469v-159h-469v-236h-291v236h-467v159h467v164h-467v162h361z" />
<glyph unicode="&#xa6;" horiz-adv-x="442" d="M135 -41v647h174v-647h-174zM135 760v647h174v-647h-174z" />
<glyph unicode="&#xa7;" horiz-adv-x="991" d="M47 -4l109 164q59 -59 147 -101.5t182 -42.5q82 0 130.5 30t48.5 87q0 53 -60.5 83t-146.5 48.5t-172 46t-146.5 94t-60.5 173.5q0 94 59.5 160.5t138.5 92.5q-199 76 -198 261q0 127 112.5 210.5t290.5 83.5q258 0 398 -139l-103 -153q-111 111 -282 110 q-78 0 -122 -28.5t-44 -79.5q0 -41 44 -66.5t108.5 -37t141 -33t141 -49t108.5 -90t44 -152.5q0 -176 -172 -262q172 -76 172 -250q0 -150 -119.5 -236t-310.5 -86q-260 0 -438 162zM328 616q0 -45 33.5 -76.5t72.5 -45t105 -27.5q119 51 118 151q0 109 -170 148 q-159 -37 -159 -150z" />
<glyph unicode="&#xa8;" horiz-adv-x="604" d="M-53 1251.5q0 59.5 41 99.5t98 40t98 -40t41 -99.5t-41 -99.5t-98 -40t-98 40t-41 99.5zM379 1251.5q0 57.5 41 98.5t98 41q59 0 99 -40t40 -99.5t-39.5 -99.5t-99.5 -40q-57 0 -98 41t-41 98.5z" />
<glyph unicode="&#xa9;" horiz-adv-x="1593" d="M90 684q0 293 207 500t500 207t499.5 -207t206.5 -500t-206.5 -500t-499.5 -207t-500 208t-207 499zM164 684q0 -260 186.5 -446.5t446.5 -186.5t446.5 186.5t186.5 446.5q0 262 -186.5 447.5t-446.5 185.5t-446.5 -186.5t-186.5 -446.5zM381 686q0 184 124 307t302 123 q188 0 303 -135l-63 -63q-86 117 -240 116q-137 0 -234.5 -98t-97.5 -250q0 -150 97.5 -251t234.5 -101q152 0 242 121l63 -64q-119 -139 -305 -139q-178 0 -302 124t-124 310z" />
<glyph unicode="&#xaa;" horiz-adv-x="788" d="M63 864.5q0 100.5 68 153.5t158 53q137 0 209 -76v80q0 51 -39 81t-103 30q-109 0 -188 -84l-72 123q121 102 293 102q129 0 213 -59.5t84 -196.5v-403h-188v65q-74 -82 -209 -82q-90 0 -158 56.5t-68 157zM250 864q0 -45 33.5 -69.5t83.5 -24.5q90 0 131 57v74 q-43 55 -131 55q-49 0 -83 -24.5t-34 -67.5z" />
<glyph unicode="&#xab;" horiz-adv-x="1079" d="M61 498l328 362h242l-328 -362l328 -369h-242zM451 498l327 362h240l-328 -362l328 -369h-240z" />
<glyph unicode="&#xac;" horiz-adv-x="1054" d="M59 797v161h914v-546h-166v385h-748z" />
<glyph unicode="&#xad;" horiz-adv-x="614" d="M61 385v221h492v-221h-492z" />
<glyph unicode="&#xae;" horiz-adv-x="1011" d="M72 952.5q0 180.5 127 307t307 126.5q182 0 308 -125.5t126 -308.5q0 -180 -127 -307t-307 -127t-307 127t-127 307.5zM137 952q0 -152 107.5 -260t261 -108t261 108.5t107.5 259.5q0 156 -107.5 262.5t-261 106.5t-261 -106.5t-107.5 -262.5zM340 702v498h203 q66 0 114 -42t48 -109q0 -72 -46.5 -110t-80.5 -38l133 -199h-86l-129 197h-86v-197h-70zM410 963h133q35 0 62.5 24.5t27.5 61.5q0 39 -27.5 64.5t-62.5 25.5h-133v-176z" />
<glyph unicode="&#xb0;" horiz-adv-x="636" d="M41 1108q0 115 81 196.5t195.5 81.5t196.5 -81.5t82 -196.5q0 -113 -82 -193.5t-196.5 -80.5t-195.5 79.5t-81 194.5zM184 1108q0 -55 39 -94t94.5 -39t96.5 39t41 94q0 57 -41 97t-96.5 40t-94.5 -40t-39 -97z" />
<glyph unicode="&#xb1;" horiz-adv-x="1032" d="M59 0v162h914v-162h-914zM59 668v161h369v402h178v-402h367v-161h-367v-416h-178v416h-369z" />
<glyph unicode="&#xb2;" horiz-adv-x="815" d="M72 1559q121 135 329 135q145 0 237.5 -67.5t92.5 -186.5q0 -98 -83 -193.5t-269 -226.5h360v-158h-645v144q268 188 355.5 269t87.5 148q0 55 -39 84t-101 29q-66 0 -128 -29.5t-95 -70.5z" />
<glyph unicode="&#xb3;" horiz-adv-x="815" d="M66 977l98 129q92 -100 233 -100q72 0 111 25.5t39 70.5q0 100 -180 100q-78 0 -91 -2v156q16 -2 89 -2q170 0 170 92q0 45 -42 67.5t-108 22.5q-129 0 -217 -88l-92 115q121 131 330 131q154 0 238.5 -60.5t84.5 -163.5q0 -72 -53 -123t-129 -63q74 -6 135 -57t61 -137 q0 -106 -93 -174t-247 -68q-226 0 -337 129z" />
<glyph unicode="&#xb4;" horiz-adv-x="514" d="M0 1139l274 295h240l-332 -295h-182z" />
<glyph unicode="&#xb6;" horiz-adv-x="919" d="M55 1013.5q0 145.5 103.5 249t249.5 103.5h417v-1571h-129v1444h-159v-1444h-129v867q-145 0 -249 103t-104 248.5z" />
<glyph unicode="&#xb8;" horiz-adv-x="452" d="M0 -336l51 105q78 -59 168 -60q43 0 74 17.5t31 50.5q0 53 -60 53q-37 0 -65 -29l-95 54l62 168h129l-51 -127q29 20 71 20q57 0 97.5 -40t40.5 -103q0 -80 -65.5 -126t-162.5 -46q-147 0 -225 63z" />
<glyph unicode="&#xb9;" horiz-adv-x="585" d="M14 1407l279 274h170v-819h-199v568l-137 -142z" />
<glyph unicode="&#xba;" horiz-adv-x="829" d="M61 989q0 141 97.5 239.5t255.5 98.5q160 0 257 -98.5t97 -239.5t-97.5 -239.5t-256.5 -98.5q-158 0 -255.5 98.5t-97.5 239.5zM256 989q0 -86 42 -136t116 -50q76 0 118.5 50t42.5 136q0 84 -43 133t-118 49q-74 0 -116 -49t-42 -133z" />
<glyph unicode="&#xbb;" horiz-adv-x="1079" d="M61 129l328 369l-328 362h242l328 -362l-328 -369h-242zM451 129l327 369l-327 362h239l328 -362l-328 -369h-239z" />
<glyph unicode="&#xbc;" horiz-adv-x="1705" d="M14 1092l279 274h170v-819h-199v567l-137 -141zM283 0l872 1366h158l-875 -1366h-155zM952 176v133l324 510h274v-489h107v-154h-107v-176h-196v176h-402zM1147 330h207v323z" />
<glyph unicode="&#xbd;" horiz-adv-x="1775" d="M14 1092l279 274h170v-819h-199v567l-137 -141zM283 0l872 1366h158l-875 -1366h-155zM1032 696q121 135 330 135q145 0 237.5 -67.5t92.5 -185.5q0 -98 -83 -193.5t-270 -226.5h361v-158h-645v143q268 188 355 269.5t87 148.5q0 55 -39 84t-100 29q-66 0 -128.5 -30 t-94.5 -71z" />
<glyph unicode="&#xbe;" horiz-adv-x="1886" d="M66 662l98 129q92 -100 233 -101q72 0 111 25.5t39 70.5q0 100 -180 101q-78 0 -91 -2v155q16 -2 89 -2q170 0 170 92q0 45 -42 68t-108 23q-129 0 -217 -88l-92 114q121 131 330 131q154 0 238.5 -60.5t84.5 -162.5q0 -72 -53 -123t-129 -63q74 -6 135 -57.5t61 -137.5 q0 -106 -93 -174t-247 -68q-226 1 -337 130zM463 0l872 1366h158l-875 -1366h-155zM1130 176v133l324 510h275v-489h106v-154h-106v-176h-197v176h-402zM1325 330h207v323z" />
<glyph unicode="&#xbf;" horiz-adv-x="815" d="M41 -76q0 82 35 147.5t86 106.5t101 76t85 76t35 88q0 53 -39 86l225 65q68 -74 68 -182q0 -82 -47 -146.5t-103.5 -97t-103.5 -78t-47 -90.5q0 -51 41 -83.5t121 -32.5q147 0 252 127l165 -187q-168 -199 -448 -198q-197 0 -311.5 89t-114.5 234zM305 845.5 q0 67.5 49 117t117 49.5t117 -49.5t49 -117t-49 -116.5t-117 -49t-117 49t-49 116.5z" />
<glyph unicode="&#xc0;" d="M-8 0l526 1366h365l526 -1366h-330l-86 231h-585l-86 -231h-330zM356 1786h240l274 -295h-182zM487 487h426l-213 588z" />
<glyph unicode="&#xc1;" d="M-8 0l526 1366h365l526 -1366h-330l-86 231h-585l-86 -231h-330zM487 487h426l-213 588zM535 1491l274 295h240l-332 -295h-182z" />
<glyph unicode="&#xc2;" d="M-8 0l526 1366h365l526 -1366h-330l-86 231h-585l-86 -231h-330zM397 1491l189 295h233l193 -295h-160l-150 182l-145 -182h-160zM487 487h426l-213 588z" />
<glyph unicode="&#xc3;" d="M-8 0l526 1366h365l526 -1366h-330l-86 231h-585l-86 -231h-330zM367 1499q0 131 57 203t164 72q59 0 101 -35t74 -69t62 -34q74 0 74 125h137q0 -131 -56 -202.5t-163 -71.5q-59 0 -102 34.5t-75 69.5t-62 35q-74 0 -74 -127h-137zM487 487h426l-213 588z" />
<glyph unicode="&#xc4;" d="M-8 0l526 1366h365l526 -1366h-330l-86 231h-585l-86 -231h-330zM346 1605.5q0 57.5 40 98.5t99.5 41t99.5 -41t40 -98.5t-40 -98.5t-99.5 -41t-99.5 41t-40 98.5zM487 487h426l-213 588zM778 1605.5q0 57.5 41 98.5t98.5 41t98.5 -41t41 -98.5t-41 -98.5t-98.5 -41 t-98.5 41t-41 98.5z" />
<glyph unicode="&#xc5;" d="M-8 0l526 1366h365l526 -1366h-330l-86 231h-585l-86 -231h-330zM487 487h426l-213 588zM487 1634q0 88 63.5 151.5t152 63.5t150.5 -62.5t62 -152.5q0 -88 -62 -151.5t-150.5 -63.5t-152 63.5t-63.5 151.5zM606 1634q0 -39 29 -67.5t67.5 -28.5t66.5 27.5t28 68.5 t-28 69t-66.5 28t-67.5 -29t-29 -68z" />
<glyph unicode="&#xc6;" horiz-adv-x="1982" d="M-18 0l831 1366h1083v-256h-673v-287h659v-256h-659v-311h673v-256h-966v231h-479l-136 -231h-333zM588 487h342v588z" />
<glyph unicode="&#xc7;" horiz-adv-x="1406" d="M70 682q0 313 207.5 510t521.5 197q383 0 569 -334l-250 -123q-45 86 -132 142t-187 56q-186 0 -308 -126.5t-122 -321.5t121.5 -322t308.5 -127q100 0 187 56.5t132 142.5l250 -121q-178 -317 -534 -334l-29 -73q29 20 72 20q57 0 97 -40t40 -103q0 -80 -65.5 -126 t-162.5 -46q-147 0 -225 63l51 105q78 -59 168 -60q43 0 74 17.5t31 50.5q0 53 -60 53q-37 0 -65 -28l-94 53l43 119q-279 29 -459 221t-180 479z" />
<glyph unicode="&#xc8;" horiz-adv-x="1193" d="M135 0v1366h967v-256h-676v-287h661v-256h-661v-311h676v-256h-967zM274 1786h240l274 -295h-182z" />
<glyph unicode="&#xc9;" horiz-adv-x="1193" d="M135 0v1366h967v-256h-676v-287h661v-256h-661v-311h676v-256h-967zM451 1491l274 295h240l-332 -295h-182z" />
<glyph unicode="&#xca;" horiz-adv-x="1193" d="M135 0v1366h967v-256h-676v-287h661v-256h-661v-311h676v-256h-967zM311 1491l189 295h233l193 -295h-160l-150 182l-145 -182h-160z" />
<glyph unicode="&#xcb;" horiz-adv-x="1193" d="M135 0v1366h967v-256h-676v-287h661v-256h-661v-311h676v-256h-967zM266 1605.5q0 57.5 41 98.5t98.5 41t98.5 -41t41 -98.5t-41 -98.5t-98.5 -41t-98.5 41t-41 98.5zM698 1605.5q0 57.5 41 98.5t99 41q59 0 99 -41t40 -98.5t-40 -98.5t-99 -41q-57 0 -98.5 41 t-41.5 98.5z" />
<glyph unicode="&#xcc;" horiz-adv-x="561" d="M-66 1786h240l275 -295h-183zM135 0v1366h291v-1366h-291z" />
<glyph unicode="&#xcd;" horiz-adv-x="561" d="M119 1491l274 295h240l-332 -295h-182zM135 0v1366h291v-1366h-291z" />
<glyph unicode="&#xce;" horiz-adv-x="561" d="M-27 1491l189 295h233l193 -295h-160l-149 182l-146 -182h-160zM135 0v1366h291v-1366h-291z" />
<glyph unicode="&#xcf;" horiz-adv-x="561" d="M-74 1605.5q0 57.5 41 98.5t98.5 41t98.5 -41t41 -98.5t-41 -98.5t-98.5 -41t-98.5 41t-41 98.5zM135 0v1366h291v-1366h-291zM358 1605.5q0 57.5 41 98.5t99 41q59 0 99 -41t40 -98.5t-40 -98.5t-99 -41q-57 0 -98.5 41t-41.5 98.5z" />
<glyph unicode="&#xd0;" horiz-adv-x="1519" d="M18 567v217h168v582h539q322 0 523.5 -188.5t201.5 -493.5q0 -309 -200.5 -496.5t-522.5 -187.5h-541v567h-168zM477 256h248q197 0 312.5 123t115.5 305q0 186 -111.5 306t-314.5 120h-250v-326h307v-217h-307v-311z" />
<glyph unicode="&#xd1;" horiz-adv-x="1492" d="M135 0v1366h299l633 -858v858h291v-1366h-281l-651 891v-891h-291zM410 1499q0 131 57 203t164 72q59 0 101 -35t74 -69t62 -34q74 0 74 125h137q0 -131 -56 -202.5t-163 -71.5q-59 0 -102 34.5t-75 69.5t-62 35q-74 0 -74 -127h-137z" />
<glyph unicode="&#xd2;" horiz-adv-x="1566" d="M70 682q0 309 201.5 508t512.5 199q309 0 511 -200t202 -507t-201.5 -507t-511.5 -200q-311 0 -512.5 199t-201.5 508zM369 682q0 -195 114.5 -322t301 -127t300 127t113.5 322t-113.5 321.5t-300.5 126.5q-188 0 -301.5 -126.5t-113.5 -321.5zM444 1786h240l274 -295 h-182z" />
<glyph unicode="&#xd3;" horiz-adv-x="1566" d="M70 682q0 309 201.5 508t512.5 199q309 0 511 -200t202 -507t-201.5 -507t-511.5 -200q-311 0 -512.5 199t-201.5 508zM369 682q0 -195 114.5 -322t301 -127t300 127t113.5 322t-113.5 321.5t-300.5 126.5q-188 0 -301.5 -126.5t-113.5 -321.5zM618 1491l275 295h240 l-332 -295h-183z" />
<glyph unicode="&#xd4;" horiz-adv-x="1566" d="M70 682q0 309 201.5 508t512.5 199q309 0 511 -200t202 -507t-201.5 -507t-511.5 -200q-311 0 -512.5 199t-201.5 508zM369 682q0 -195 114.5 -322t301 -127t300 127t113.5 322t-113.5 321.5t-300.5 126.5q-188 0 -301.5 -126.5t-113.5 -321.5zM481 1491l189 295h233 l193 -295h-160l-150 182l-145 -182h-160z" />
<glyph unicode="&#xd5;" horiz-adv-x="1566" d="M70 682q0 309 201.5 508t512.5 199q309 0 511 -200t202 -507t-201.5 -507t-511.5 -200q-311 0 -512.5 199t-201.5 508zM369 682q0 -195 114.5 -322t301 -127t300 127t113.5 322t-113.5 321.5t-300.5 126.5q-188 0 -301.5 -126.5t-113.5 -321.5zM451 1499q0 131 57 203 t164 72q59 0 101 -35t74 -69t62 -34q74 0 74 125h137q0 -131 -56 -202.5t-163 -71.5q-59 0 -102 34.5t-75 69.5t-62 35q-74 0 -74 -127h-137z" />
<glyph unicode="&#xd6;" horiz-adv-x="1566" d="M70 682q0 309 201.5 508t512.5 199q309 0 511 -200t202 -507t-201.5 -507t-511.5 -200q-311 0 -512.5 199t-201.5 508zM369 682q0 -195 114.5 -322t301 -127t300 127t113.5 322t-113.5 321.5t-300.5 126.5q-188 0 -301.5 -126.5t-113.5 -321.5zM430 1605.5 q0 57.5 41 98.5t98.5 41t98.5 -41t41 -98.5t-41 -98.5t-98.5 -41t-98.5 41t-41 98.5zM862 1605.5q0 57.5 41 98.5t98 41q59 0 99.5 -41t40.5 -98.5t-40 -98.5t-100 -41q-57 0 -98 41t-41 98.5z" />
<glyph unicode="&#xd7;" horiz-adv-x="1032" d="M113 395l290 289l-290 289l116 114l287 -290l291 290l113 -114l-289 -289l289 -289l-113 -114l-291 290l-287 -290z" />
<glyph unicode="&#xd8;" horiz-adv-x="1566" d="M70 682q0 309 201.5 508t512.5 199q190 0 353 -84l47 61h209l-119 -156q223 -203 223 -528q0 -307 -201.5 -507t-511.5 -200q-215 0 -378 97l-54 -72h-211l131 172q-202 199 -202 510zM369 682q0 -166 80 -279l522 684q-86 43 -187 43q-188 0 -301.5 -126.5 t-113.5 -321.5zM571 289q94 -55 213 -56q186 0 300 127t114 322q0 178 -96 301z" />
<glyph unicode="&#xd9;" horiz-adv-x="1503" d="M135 547v819h295v-811q0 -147 84 -234.5t237.5 -87.5t236.5 87.5t83 234.5v811h297v-819q0 -262 -156.5 -417t-459.5 -155t-460 155t-157 417zM412 1786h239l275 -295h-183z" />
<glyph unicode="&#xda;" horiz-adv-x="1503" d="M135 547v819h295v-811q0 -147 84 -234.5t237.5 -87.5t236.5 87.5t83 234.5v811h297v-819q0 -262 -156.5 -417t-459.5 -155t-460 155t-157 417zM588 1491l274 295h240l-332 -295h-182z" />
<glyph unicode="&#xdb;" horiz-adv-x="1503" d="M135 547v819h295v-811q0 -147 84 -234.5t237.5 -87.5t236.5 87.5t83 234.5v811h297v-819q0 -262 -156.5 -417t-459.5 -155t-460 155t-157 417zM457 1491l188 295h234l192 -295h-160l-149 182l-146 -182h-159z" />
<glyph unicode="&#xdc;" horiz-adv-x="1503" d="M135 547v819h295v-811q0 -147 84 -234.5t237.5 -87.5t236.5 87.5t83 234.5v811h297v-819q0 -262 -156.5 -417t-459.5 -155t-460 155t-157 417zM401 1605.5q0 57.5 41 98.5t98.5 41t98.5 -41t41 -98.5t-41 -98.5t-98.5 -41t-98.5 41t-41 98.5zM834 1605.5 q0 57.5 40.5 98.5t98.5 41q59 0 99 -41t40 -98.5t-40 -98.5t-99 -41q-57 0 -98 41t-41 98.5z" />
<glyph unicode="&#xdd;" horiz-adv-x="1320" d="M-8 1366h332l338 -547l337 547h330l-522 -807v-559h-291v559zM500 1491l274 295h240l-332 -295h-182z" />
<glyph unicode="&#xde;" horiz-adv-x="1280" d="M135 0v1366h291v-221h348q215 0 337 -127t122 -316q0 -186 -123 -311t-336 -125h-348v-266h-291zM426 522h307q88 0 145.5 50.5t57.5 132.5q0 84 -57.5 135t-145.5 51h-307v-369z" />
<glyph unicode="&#xdf;" horiz-adv-x="1316" d="M129 0v973q0 176 127 294.5t342 118.5q170 0 296 -81.5t126 -212.5q0 -63 -27.5 -114.5t-67.5 -84.5t-80 -59.5t-67.5 -56t-27.5 -62.5q0 -39 55 -59.5t134 -37t157 -43t133 -97t55 -181.5q0 -141 -111.5 -231.5t-300.5 -90.5q-137 0 -227 42t-174 120l109 180 q43 -55 124.5 -94t167.5 -39q78 0 120 30t42 73t-55 67.5t-134 42t-157 45t-133 93t-55 170.5q0 59 25.5 108t63.5 81t74.5 57.5t62.5 51t26 50.5q0 49 -46.5 75.5t-111.5 26.5q-88 0 -145.5 -49t-57.5 -133v-973h-262z" />
<glyph unicode="&#xe0;" horiz-adv-x="1112" d="M68 303q0 162 102 241t240 79q211 0 313 -121v125q0 76 -59.5 121t-157.5 45q-158 0 -285 -117l-102 182q174 156 432 156q190 0 312 -88t122 -287v-639h-262v104q-106 -129 -313 -129q-131 0 -236.5 87t-105.5 241zM207 1434h239l275 -295h-182zM328 299 q0 -68 53 -107.5t133 -39.5q145 0 209 86v122q-66 88 -209 89q-80 0 -133 -41t-53 -109z" />
<glyph unicode="&#xe1;" horiz-adv-x="1112" d="M68 303q0 162 102 241t240 79q211 0 313 -121v125q0 76 -59.5 121t-157.5 45q-158 0 -285 -117l-102 182q174 156 432 156q190 0 312 -88t122 -287v-639h-262v104q-106 -129 -313 -129q-131 0 -236.5 87t-105.5 241zM328 299q0 -68 53 -107.5t133 -39.5q145 0 209 86v122 q-66 88 -209 89q-80 0 -133 -41t-53 -109zM393 1139l275 295h239l-332 -295h-182z" />
<glyph unicode="&#xe2;" horiz-adv-x="1112" d="M68 303q0 162 102 241t240 79q211 0 313 -121v125q0 76 -59.5 121t-157.5 45q-158 0 -285 -117l-102 182q174 156 432 156q190 0 312 -88t122 -287v-639h-262v104q-106 -129 -313 -129q-131 0 -236.5 87t-105.5 241zM252 1139l188 295h234l192 -295h-159l-150 182 l-145 -182h-160zM328 299q0 -68 53 -107.5t133 -39.5q145 0 209 86v122q-66 88 -209 89q-80 0 -133 -41t-53 -109z" />
<glyph unicode="&#xe3;" horiz-adv-x="1112" d="M68 303q0 162 102 241t240 79q211 0 313 -121v125q0 76 -59.5 121t-157.5 45q-158 0 -285 -117l-102 182q174 156 432 156q190 0 312 -88t122 -287v-639h-262v104q-106 -129 -313 -129q-131 0 -236.5 87t-105.5 241zM219 1147q0 131 57.5 202.5t163.5 71.5 q59 0 101.5 -34.5t74 -68.5t62.5 -34q74 0 74 125h137q0 -131 -56.5 -202.5t-162.5 -71.5q-59 0 -102.5 34.5t-75 69.5t-62.5 35q-74 0 -74 -127h-137zM328 299q0 -68 53 -107.5t133 -39.5q145 0 209 86v122q-66 88 -209 89q-80 0 -133 -41t-53 -109z" />
<glyph unicode="&#xe4;" horiz-adv-x="1112" d="M68 303q0 162 102 241t240 79q211 0 313 -121v125q0 76 -59.5 121t-157.5 45q-158 0 -285 -117l-102 182q174 156 432 156q190 0 312 -88t122 -287v-639h-262v104q-106 -129 -313 -129q-131 0 -236.5 87t-105.5 241zM195 1251.5q0 59.5 39.5 99.5t99 40t99.5 -40 t40 -99.5t-40 -99.5t-99.5 -40t-99 40t-39.5 99.5zM328 299q0 -68 53 -107.5t133 -39.5q145 0 209 86v122q-66 88 -209 89q-80 0 -133 -41t-53 -109zM627 1251.5q0 57.5 41 98.5t98 41t98 -40t41 -99.5t-41 -99.5t-98 -40t-98 41t-41 98.5z" />
<glyph unicode="&#xe5;" horiz-adv-x="1112" d="M68 303q0 162 102 241t240 79q211 0 313 -121v125q0 76 -59.5 121t-157.5 45q-158 0 -285 -117l-102 182q174 156 432 156q190 0 312 -88t122 -287v-639h-262v104q-106 -129 -313 -129q-131 0 -236.5 87t-105.5 241zM328 299q0 -68 53 -107.5t133 -39.5q145 0 209 86v122 q-66 88 -209 89q-80 0 -133 -41t-53 -109zM340 1323q0 88 63.5 151.5t151.5 63.5t150.5 -62.5t62.5 -152.5q0 -88 -62.5 -151.5t-150.5 -63.5t-151.5 63.5t-63.5 151.5zM459 1323q0 -39 28.5 -67.5t67.5 -28.5t66.5 27.5t27.5 68.5t-27.5 68.5t-66.5 27.5t-67.5 -28.5 t-28.5 -67.5z" />
<glyph unicode="&#xe6;" horiz-adv-x="1781" d="M68 299q0 154 99 239t243 85q207 0 313 -119v123q0 76 -59.5 121t-157.5 45q-162 0 -285 -117l-102 182q174 156 432 156q254 0 336 -162q125 162 354 162q213 0 347 -150.5t134 -392.5v-61h-735q14 -94 89 -155.5t196 -61.5q66 0 141.5 26.5t120.5 71.5l117 -178 q-150 -137 -408 -138q-127 0 -233.5 48.5t-173.5 132.5q-154 -180 -406 -181q-145 0 -253.5 85t-108.5 239zM328 299q0 -68 53 -107.5t133 -39.5q164 0 229 114q-20 37 -20 92q-68 90 -209 91q-80 0 -133 -41t-53 -109zM985 590h488q-6 84 -66.5 147.5t-179.5 63.5 q-111 0 -172.5 -63.5t-69.5 -147.5z" />
<glyph unicode="&#xe7;" horiz-adv-x="1021" d="M66 496q0 227 148 372.5t376 145.5q262 0 391 -178l-170 -160q-72 106 -209 106q-119 0 -193.5 -78.5t-74.5 -207.5t74.5 -209t193.5 -80q133 0 209 108l170 -159q-113 -158 -336 -179l-31 -77q29 20 72 20q57 0 97 -40t40 -103q0 -80 -65.5 -126t-161.5 -46 q-147 0 -225 63l51 105q78 -59 168 -60q43 0 73.5 17.5t30.5 50.5q0 53 -59 53q-37 0 -66 -29l-94 54l43 121q-201 23 -326.5 165t-125.5 351z" />
<glyph unicode="&#xe8;" horiz-adv-x="1132" d="M66 496q0 217 145 367.5t366.5 150.5t358.5 -150.5t137 -392.5v-61h-735q14 -96 89 -159t196 -63q68 0 142.5 26t119.5 71l116 -172q-150 -137 -407 -138q-229 0 -378.5 144t-149.5 377zM233 1434h240l275 -295h-183zM336 590h487q-8 84 -68.5 147.5t-176.5 63.5 q-113 0 -173.5 -62.5t-68.5 -148.5z" />
<glyph unicode="&#xe9;" horiz-adv-x="1132" d="M66 496q0 217 145 367.5t366.5 150.5t358.5 -150.5t137 -392.5v-61h-735q14 -96 89 -159t196 -63q68 0 142.5 26t119.5 71l116 -172q-150 -137 -407 -138q-229 0 -378.5 144t-149.5 377zM336 590h487q-8 84 -68.5 147.5t-176.5 63.5q-113 0 -173.5 -62.5t-68.5 -148.5z M416 1139l274 295h240l-332 -295h-182z" />
<glyph unicode="&#xea;" horiz-adv-x="1132" d="M66 496q0 217 145 367.5t366.5 150.5t358.5 -150.5t137 -392.5v-61h-735q14 -96 89 -159t196 -63q68 0 142.5 26t119.5 71l116 -172q-150 -137 -407 -138q-229 0 -378.5 144t-149.5 377zM274 1139l189 295h233l193 -295h-160l-149 182l-146 -182h-160zM336 590h487 q-8 84 -68.5 147.5t-176.5 63.5q-113 0 -173.5 -62.5t-68.5 -148.5z" />
<glyph unicode="&#xeb;" horiz-adv-x="1132" d="M66 496q0 217 145 367.5t366.5 150.5t358.5 -150.5t137 -392.5v-61h-735q14 -96 89 -159t196 -63q68 0 142.5 26t119.5 71l116 -172q-150 -137 -407 -138q-229 0 -378.5 144t-149.5 377zM225 1251.5q0 59.5 41 99.5t98.5 40t98.5 -40t41 -99.5t-41 -99.5t-98.5 -40 t-98.5 40t-41 99.5zM336 590h487q-8 84 -68.5 147.5t-176.5 63.5q-113 0 -173.5 -62.5t-68.5 -148.5zM657 1251.5q0 57.5 41 98.5t99 41q59 0 99 -40t40 -99.5t-40 -99.5t-99 -40q-57 0 -98.5 41t-41.5 98.5z" />
<glyph unicode="&#xec;" horiz-adv-x="518" d="M-88 1434h240l274 -295h-182zM129 0v989h260v-989h-260z" />
<glyph unicode="&#xed;" horiz-adv-x="518" d="M92 1139l275 295h239l-332 -295h-182zM129 0v989h260v-989h-260z" />
<glyph unicode="&#xee;" horiz-adv-x="518" d="M-47 1139l188 295h234l192 -295h-159l-150 182l-145 -182h-160zM129 0v989h260v-989h-260z" />
<glyph unicode="&#xef;" horiz-adv-x="518" d="M-96 1251.5q0 59.5 40 99.5t99 40t99 -40t40 -99.5t-40 -99.5t-99 -40t-99 40t-40 99.5zM129 0v989h260v-989h-260zM336 1251.5q0 57.5 41 98.5t98 41t98 -40t41 -99.5t-41 -99.5t-98 -40t-98 41t-41 98.5z" />
<glyph unicode="&#xf0;" horiz-adv-x="1177" d="M66 459q0 211 124.5 347t313.5 136q207 0 327 -188q-74 162 -321 340l-299 -133l-51 122l221 97q-86 53 -127 77l141 209q143 -88 252 -170l211 93l53 -117l-151 -68q352 -313 352 -688q0 -244 -141.5 -392.5t-382.5 -148.5q-233 0 -377.5 135.5t-144.5 348.5zM336 459 q0 -106 67.5 -179t184.5 -73q119 0 186.5 71.5t67.5 180t-67.5 181.5t-186.5 73q-117 0 -184.5 -72.5t-67.5 -181.5z" />
<glyph unicode="&#xf1;" horiz-adv-x="1185" d="M143 0v989h260v-127q53 63 144.5 107.5t202.5 44.5q160 0 241.5 -84t81.5 -232v-698h-262v598q0 184 -182 184q-135 0 -226 -114v-668h-260zM260 1147q0 131 57.5 202.5t163.5 71.5q59 0 101.5 -34.5t74 -68.5t62.5 -34q74 0 74 125h137q0 -131 -56.5 -202.5 t-162.5 -71.5q-59 0 -102.5 34.5t-75 69.5t-62.5 35q-74 0 -74 -127h-137z" />
<glyph unicode="&#xf2;" horiz-adv-x="1177" d="M66 495.5q0 219.5 142 369t379.5 149.5t381 -149.5t143.5 -369t-143.5 -370t-381 -150.5t-379.5 150.5t-142 370zM244 1434h239l275 -295h-183zM336 496q0 -123 67.5 -206t184.5 -83q119 0 186.5 83t67.5 206q0 121 -67.5 203.5t-186.5 82.5q-117 0 -184.5 -82.5 t-67.5 -203.5z" />
<glyph unicode="&#xf3;" horiz-adv-x="1177" d="M66 495.5q0 219.5 142 369t379.5 149.5t381 -149.5t143.5 -369t-143.5 -370t-381 -150.5t-379.5 150.5t-142 370zM336 496q0 -123 67.5 -206t184.5 -83q119 0 186.5 83t67.5 206q0 121 -67.5 203.5t-186.5 82.5q-117 0 -184.5 -82.5t-67.5 -203.5zM422 1139l274 295h240 l-332 -295h-182z" />
<glyph unicode="&#xf4;" horiz-adv-x="1177" d="M66 495.5q0 219.5 142 369t379.5 149.5t381 -149.5t143.5 -369t-143.5 -370t-381 -150.5t-379.5 150.5t-142 370zM283 1139l188 295h234l192 -295h-160l-149 182l-146 -182h-159zM336 496q0 -123 67.5 -206t184.5 -83q119 0 186.5 83t67.5 206q0 121 -67.5 203.5 t-186.5 82.5q-117 0 -184.5 -82.5t-67.5 -203.5z" />
<glyph unicode="&#xf5;" horiz-adv-x="1177" d="M66 495.5q0 219.5 142 369t379.5 149.5t381 -149.5t143.5 -369t-143.5 -370t-381 -150.5t-379.5 150.5t-142 370zM254 1147q0 131 57.5 202.5t163.5 71.5q59 0 101 -34.5t74 -68.5t63 -34q74 0 73 125h138q0 -131 -56.5 -202.5t-162.5 -71.5q-59 0 -102.5 34.5t-75 69.5 t-62.5 35q-74 0 -74 -127h-137zM336 496q0 -123 67.5 -206t184.5 -83q119 0 186.5 83t67.5 206q0 121 -67.5 203.5t-186.5 82.5q-117 0 -184.5 -82.5t-67.5 -203.5z" />
<glyph unicode="&#xf6;" horiz-adv-x="1177" d="M66 495.5q0 219.5 142 369t379.5 149.5t381 -149.5t143.5 -369t-143.5 -370t-381 -150.5t-379.5 150.5t-142 370zM233 1251.5q0 59.5 41 99.5t98.5 40t98.5 -40t41 -99.5t-41 -99.5t-98.5 -40t-98.5 40t-41 99.5zM336 496q0 -123 67.5 -206t184.5 -83q119 0 186.5 83 t67.5 206q0 121 -67.5 203.5t-186.5 82.5q-117 0 -184.5 -82.5t-67.5 -203.5zM666 1251.5q0 57.5 41 98.5t98 41q59 0 99 -40t40 -99.5t-40 -99.5t-99 -40q-57 0 -98 41t-41 98.5z" />
<glyph unicode="&#xf7;" horiz-adv-x="1046" d="M59 610v162h928v-162h-928zM397 321.5q0 51.5 37 88t88 36.5t88 -36.5t37 -88t-37 -88t-88 -36.5t-88 36.5t-37 88zM397 1057q0 51 37 87t88 36t88 -36t37 -87q0 -53 -37 -90t-88 -37t-88 38t-37 89z" />
<glyph unicode="&#xf8;" horiz-adv-x="1177" d="M66 496q0 219 142 368.5t380 149.5q166 0 289 -78l45 53h163l-112 -131q139 -145 139 -362q0 -219 -143.5 -370t-380.5 -151q-168 0 -295 82l-49 -57h-162l117 137q-133 146 -133 359zM336 496q0 -86 35 -156l346 408q-57 35 -129 34q-117 0 -184.5 -82.5t-67.5 -203.5z M453 246q59 -39 135 -39q119 0 186.5 83t67.5 206q0 88 -39 161z" />
<glyph unicode="&#xf9;" horiz-adv-x="1185" d="M129 287v702h260v-600q0 -182 182 -182q137 0 226 112v670h260v-989h-260v125q-137 -150 -348 -150q-160 0 -240 82.5t-80 229.5zM250 1434h239l275 -295h-182z" />
<glyph unicode="&#xfa;" horiz-adv-x="1185" d="M129 287v702h260v-600q0 -182 182 -182q137 0 226 112v670h260v-989h-260v125q-137 -150 -348 -150q-160 0 -240 82.5t-80 229.5zM428 1139l274 295h240l-332 -295h-182z" />
<glyph unicode="&#xfb;" horiz-adv-x="1185" d="M129 287v702h260v-600q0 -182 182 -182q137 0 226 112v670h260v-989h-260v125q-137 -150 -348 -150q-160 0 -240 82.5t-80 229.5zM289 1139l188 295h234l192 -295h-160l-149 182l-145 -182h-160z" />
<glyph unicode="&#xfc;" horiz-adv-x="1185" d="M129 287v702h260v-600q0 -182 182 -182q137 0 226 112v670h260v-989h-260v125q-137 -150 -348 -150q-160 0 -240 82.5t-80 229.5zM244 1251.5q0 59.5 40 99.5t99 40t99 -40t40 -99.5t-40 -99.5t-99 -40t-99 40t-40 99.5zM676 1251.5q0 57.5 41 98.5t98 41t98 -40 t41 -99.5t-41 -99.5t-98 -40t-98 41t-41 98.5z" />
<glyph unicode="&#xfd;" horiz-adv-x="1050" d="M-12 989h278l258 -688l260 688h279l-465 -1151q-51 -131 -143.5 -183t-231.5 -56q-78 0 -127 16l37 231q37 -16 82 -16q104 0 137 72l37 86zM358 1139l275 295h239l-331 -295h-183z" />
<glyph unicode="&#xfe;" horiz-adv-x="1193" d="M129 -377v1743h260v-502q117 150 305 150q195 0 317 -138.5t122 -380t-122 -381t-317 -139.5q-184 0 -305 152v-504h-260zM389 322q33 -47 97.5 -81t125.5 -34q113 0 182.5 80t69.5 209q0 127 -69.5 206.5t-182.5 79.5q-63 0 -126.5 -31.5t-96.5 -80.5v-348z" />
<glyph unicode="&#xff;" horiz-adv-x="1050" d="M-12 989h278l258 -688l260 688h279l-465 -1151q-51 -131 -143.5 -183t-231.5 -56q-78 0 -127 16l37 231q37 -16 82 -16q104 0 137 72l37 86zM170 1251.5q0 59.5 40 99.5t99.5 40t99.5 -40t40 -99.5t-40 -99.5t-99.5 -40t-99.5 40t-40 99.5zM602 1251.5q0 57.5 41 98.5 t98.5 41t98.5 -40t41 -99.5t-41 -99.5t-98.5 -40t-98.5 41t-41 98.5z" />
<glyph unicode="&#x152;" horiz-adv-x="2220" d="M70 682q0 309 192.5 506.5t491.5 197.5q119 0 232.5 -47t180.5 -133v160h965v-256h-674v-287h660v-256h-660v-311h674v-256h-965v160q-68 -88 -181.5 -136.5t-231.5 -48.5q-299 0 -491.5 199t-192.5 508zM369 682q0 -195 115.5 -322t310.5 -127q125 0 223 62.5t149 175.5 v424q-49 113 -147 173t-225 60q-195 0 -310.5 -124.5t-115.5 -321.5z" />
<glyph unicode="&#x153;" horiz-adv-x="1906" d="M66 495.5q0 219.5 142 369t380 149.5q227 0 387 -219q143 219 379 219q221 0 358 -150.5t137 -392.5v-61h-735q14 -96 89 -159t194 -63q68 0 142.5 27t121.5 70l117 -172q-154 -137 -408 -138q-246 0 -397 220q-152 -219 -385 -220q-238 0 -380 150.5t-142 370zM336 496 q0 -129 69.5 -210t182.5 -81q115 0 184.5 81t69.5 210q0 127 -70 206.5t-184 79.5q-113 0 -182.5 -79.5t-69.5 -206.5zM1110 590h487q-6 84 -65 147.5t-178 63.5q-113 0 -174.5 -63.5t-69.5 -147.5z" />
<glyph unicode="&#x178;" horiz-adv-x="1320" d="M-8 1366h332l338 -547l337 547h330l-522 -807v-559h-291v559zM309 1605.5q0 57.5 40 98.5t99.5 41t99.5 -41t40 -98.5t-40 -98.5t-99.5 -41t-99.5 41t-40 98.5zM741 1605.5q0 57.5 41 98.5t98.5 41t98.5 -41t41 -98.5t-41 -98.5t-98.5 -41t-98.5 41t-41 98.5z" />
<glyph unicode="&#x2c6;" horiz-adv-x="614" d="M0 1139l188 295h234l192 -295h-159l-150 182l-145 -182h-160z" />
<glyph unicode="&#x2dc;" horiz-adv-x="669" d="M0 1147q0 131 57.5 202.5t163.5 71.5q59 0 101.5 -34.5t74 -68.5t62.5 -34q74 0 73 125h138q0 -131 -56.5 -202.5t-162.5 -71.5q-59 0 -102.5 34.5t-75 69.5t-62.5 35q-74 0 -74 -127h-137z" />
<glyph unicode="&#x2000;" horiz-adv-x="924" />
<glyph unicode="&#x2001;" horiz-adv-x="1849" />
<glyph unicode="&#x2002;" horiz-adv-x="924" />
<glyph unicode="&#x2003;" horiz-adv-x="1849" />
<glyph unicode="&#x2004;" horiz-adv-x="616" />
<glyph unicode="&#x2005;" horiz-adv-x="462" />
<glyph unicode="&#x2006;" horiz-adv-x="308" />
<glyph unicode="&#x2007;" horiz-adv-x="308" />
<glyph unicode="&#x2008;" horiz-adv-x="231" />
<glyph unicode="&#x2009;" horiz-adv-x="369" />
<glyph unicode="&#x200a;" horiz-adv-x="102" />
<glyph unicode="&#x2010;" horiz-adv-x="614" d="M61 385v221h492v-221h-492z" />
<glyph unicode="&#x2011;" horiz-adv-x="614" d="M61 385v221h492v-221h-492z" />
<glyph unicode="&#x2012;" horiz-adv-x="614" d="M61 385v221h492v-221h-492z" />
<glyph unicode="&#x2013;" horiz-adv-x="1214" d="M61 385v221h1092v-221h-1092z" />
<glyph unicode="&#x2014;" horiz-adv-x="1705" d="M61 385v221h1584v-221h-1584z" />
<glyph unicode="&#x2018;" horiz-adv-x="522" d="M80 1008q0 113 56.5 212t154.5 169l112 -93q-51 -27 -98 -84t-61 -110q10 6 41 6q59 0 99 -41t40 -106.5t-48 -113.5t-114 -48q-76 0 -129 56.5t-53 152.5z" />
<glyph unicode="&#x2019;" horiz-adv-x="522" d="M96 1224.5q0 65.5 48.5 113.5t113.5 48q76 0 129 -56t53 -152q0 -113 -56 -212.5t-155 -168.5l-112 92q51 27 98 84t59 110q-8 -6 -38 -6q-59 0 -99.5 41t-40.5 106.5z" />
<glyph unicode="&#x201a;" horiz-adv-x="522" d="M96 145q0 68 48.5 116t113.5 48q76 0 129 -56t53 -153q0 -113 -56 -212t-155 -169l-112 93q51 27 98 83t59 109q-18 -6 -38 -6q-59 0 -99.5 42t-40.5 105z" />
<glyph unicode="&#x201c;" horiz-adv-x="940" d="M82 1008q0 113 56.5 212t154.5 169l113 -93q-51 -27 -98.5 -84t-61.5 -110q12 6 41 6q59 0 99 -41t40 -106.5t-48 -113.5t-114 -48q-76 0 -129 56.5t-53 152.5zM500 1008q0 113 56 212t155 169l112 -93q-51 -27 -99 -84t-60 -110q8 6 41 6q59 0 98 -41t39 -106.5 t-47 -113.5t-113 -48q-76 0 -129 56.5t-53 152.5z" />
<glyph unicode="&#x201d;" horiz-adv-x="940" d="M96 1224.5q0 65.5 48.5 113.5t113.5 48q76 0 129 -56t53 -152q0 -113 -56 -212.5t-155 -168.5l-112 92q51 27 98 84t59 110q-8 -6 -38 -6q-59 0 -99.5 41t-40.5 106.5zM514 1224.5q0 65.5 47 113.5t113 48q76 0 129 -56t53 -152q0 -113 -56.5 -212.5t-154.5 -168.5 l-113 92q51 27 99.5 84t60.5 110q-8 -6 -41 -6q-59 0 -98 41t-39 106.5z" />
<glyph unicode="&#x201e;" horiz-adv-x="940" d="M96 145q0 68 48.5 116t113.5 48q76 0 129 -56t53 -153q0 -113 -56 -212t-155 -169l-112 93q51 27 98 83t59 109q-18 -6 -38 -6q-59 0 -99.5 42t-40.5 105zM514 145q0 68 47 116t113 48q76 0 129 -56t53 -153q0 -113 -56.5 -212t-154.5 -169l-113 93q51 27 99.5 84 t60.5 108q-18 -6 -41 -6q-59 0 -98 42t-39 105z" />
<glyph unicode="&#x2022;" horiz-adv-x="733" d="M125 496q0 102 70.5 172.5t173 70.5t173 -70.5t70.5 -172.5q0 -100 -71.5 -171t-172 -71t-172 71t-71.5 171z" />
<glyph unicode="&#x2026;" horiz-adv-x="1572" d="M98 143q0 68 48.5 117t116 49t116.5 -49t49 -117q0 -66 -49 -114.5t-116.5 -48.5t-116 48.5t-48.5 114.5zM623 143q0 68 48 117t115.5 49t116.5 -49t49 -117q0 -66 -49 -114.5t-116.5 -48.5t-115.5 48.5t-48 114.5zM1147 143q0 68 48 117t115.5 49t117 -49t49.5 -117 q0 -66 -49.5 -114.5t-117 -48.5t-115.5 48.5t-48 114.5z" />
<glyph unicode="&#x202f;" horiz-adv-x="369" />
<glyph unicode="&#x2039;" horiz-adv-x="692" d="M61 498l328 362h242l-328 -362l328 -369h-242z" />
<glyph unicode="&#x203a;" horiz-adv-x="692" d="M61 129l328 369l-328 362h242l328 -362l-328 -369h-242z" />
<glyph unicode="&#x205f;" horiz-adv-x="462" />
<glyph unicode="&#x20ac;" horiz-adv-x="1452" d="M43 461v162h76q-2 18 -2 59q0 43 2 66h-76v161h107q70 219 258 349.5t438 130.5q383 0 569 -334l-250 -123q-45 86 -132 142t-187 56q-125 0 -223.5 -59t-153.5 -162h500v-161h-549q-4 -23 -4 -66q0 -41 2 -59h551v-162h-502q53 -106 152.5 -167t226.5 -61 q100 0 187 56.5t132 142.5l250 -121q-190 -336 -569 -336q-252 0 -441.5 131.5t-257.5 354.5h-104z" />
<glyph unicode="&#x2122;" horiz-adv-x="929" d="M35 1313v53h311v-53h-127v-398h-57v398h-127zM420 915v451h88l131 -328l131 328h88v-451h-57v373l-154 -373h-16l-154 373v-373h-57z" />
<glyph unicode="&#xe000;" horiz-adv-x="990" d="M0 0v990h990v-990h-990z" />
<glyph unicode="&#xfb01;" horiz-adv-x="1187" d="M25 762v227h163v41q0 168 92.5 262t239.5 94q111 0 189 -40l-54 -193q-29 20 -84 21q-57 0 -89.5 -37t-32.5 -107v-41h200v-227h-200v-762h-261v762h-163zM774 1251.5q0 63.5 45 108.5t109 45q66 0 110.5 -45t44.5 -108.5t-46 -109.5t-109.5 -46t-108.5 46t-45 109.5z M799 0v989h260v-989h-260z" />
<glyph unicode="&#xfb02;" horiz-adv-x="1187" d="M25 762v227h163v41q0 168 92.5 262t239.5 94q111 0 189 -40l-54 -193q-29 20 -84 21q-57 0 -89.5 -37t-32.5 -107v-41h200v-227h-200v-762h-261v762h-163zM799 0v1366h260v-1366h-260z" />
<glyph unicode="&#xfb03;" horiz-adv-x="1857" d="M25 762v227h163v41q0 166 90.5 261t241.5 95q176 0 258 -94l-98 -157q-43 39 -109 39q-57 0 -89.5 -37t-32.5 -107v-41h200v-227h-200v-762h-261v762h-163zM694 762v227h164v41q0 168 92 262t240 94q111 0 188 -40l-53 -193q-29 20 -84 21q-57 0 -90 -37t-33 -107v-41 h201v-227h-201v-762h-260v762h-164zM1446 1251.5q0 63.5 45 108.5t108 45q66 0 111 -45t45 -108.5t-46 -109.5t-109.5 -46t-108.5 46t-45 109.5zM1470 0v989h261v-989h-261z" />
<glyph unicode="&#xfb04;" horiz-adv-x="1857" d="M25 762v227h163v41q0 166 90.5 261t241.5 95q176 0 258 -94l-98 -157q-43 39 -109 39q-57 0 -89.5 -37t-32.5 -107v-41h200v-227h-200v-762h-261v762h-163zM694 762v227h164v41q0 168 92 262t240 94q111 0 188 -40l-53 -193q-29 20 -84 21q-57 0 -90 -37t-33 -107v-41 h201v-227h-201v-762h-260v762h-164zM1470 0v1366h261v-1366h-261z" />
<hkern g1="B" 	g2="T" 	k="29" />
<hkern g1="B" 	g2="V" 	k="35" />
<hkern g1="B" 	g2="W" 	k="20" />
<hkern g1="B" 	g2="Y,Yacute,Ydieresis" 	k="61" />
<hkern g1="B" 	g2="quotedbl,quotesingle,registered,quoteleft,quoteright,quotedblleft,quotedblright,trademark" 	k="20" />
<hkern g1="C,Ccedilla" 	g2="V" 	k="6" />
<hkern g1="C,Ccedilla" 	g2="W" 	k="14" />
<hkern g1="C,Ccedilla" 	g2="Y,Yacute,Ydieresis" 	k="47" />
<hkern g1="C,Ccedilla" 	g2="question" 	k="14" />
<hkern g1="C,Ccedilla" 	g2="A,Agrave,Aacute,Acircumflex,Atilde,Adieresis,Aring,AE" 	k="14" />
<hkern g1="D,O,Q,Eth,Ograve,Oacute,Ocircumflex,Otilde,Odieresis,Oslash,Thorn" 	g2="J" 	k="41" />
<hkern g1="D,O,Q,Eth,Ograve,Oacute,Ocircumflex,Otilde,Odieresis,Oslash,Thorn" 	g2="T" 	k="49" />
<hkern g1="D,O,Q,Eth,Ograve,Oacute,Ocircumflex,Otilde,Odieresis,Oslash,Thorn" 	g2="V" 	k="41" />
<hkern g1="D,O,Q,Eth,Ograve,Oacute,Ocircumflex,Otilde,Odieresis,Oslash,Thorn" 	g2="W" 	k="41" />
<hkern g1="D,O,Q,Eth,Ograve,Oacute,Ocircumflex,Otilde,Odieresis,Oslash,Thorn" 	g2="Y,Yacute,Ydieresis" 	k="82" />
<hkern g1="D,O,Q,Eth,Ograve,Oacute,Ocircumflex,Otilde,Odieresis,Oslash,Thorn" 	g2="question" 	k="47" />
<hkern g1="D,O,Q,Eth,Ograve,Oacute,Ocircumflex,Otilde,Odieresis,Oslash,Thorn" 	g2="quotedbl,quotesingle,registered,quoteleft,quoteright,quotedblleft,quotedblright,trademark" 	k="20" />
<hkern g1="D,O,Q,Eth,Ograve,Oacute,Ocircumflex,Otilde,Odieresis,Oslash,Thorn" 	g2="A,Agrave,Aacute,Acircumflex,Atilde,Adieresis,Aring,AE" 	k="70" />
<hkern g1="D,O,Q,Eth,Ograve,Oacute,Ocircumflex,Otilde,Odieresis,Oslash,Thorn" 	g2="X" 	k="61" />
<hkern g1="D,O,Q,Eth,Ograve,Oacute,Ocircumflex,Otilde,Odieresis,Oslash,Thorn" 	g2="Z" 	k="29" />
<hkern g1="D,O,Q,Eth,Ograve,Oacute,Ocircumflex,Otilde,Odieresis,Oslash,Thorn" 	g2="comma,period,quotesinglbase,quotedblbase,ellipsis" 	k="49" />
<hkern g1="F" 	g2="A,Agrave,Aacute,Acircumflex,Atilde,Adieresis,Aring,AE" 	k="88" />
<hkern g1="F" 	g2="J" 	k="143" />
<hkern g1="F" 	g2="ampersand" 	k="27" />
<hkern g1="F" 	g2="comma,period,quotesinglbase,quotedblbase,ellipsis" 	k="102" />
<hkern g1="G" 	g2="T" 	k="14" />
<hkern g1="G" 	g2="A,Agrave,Aacute,Acircumflex,Atilde,Adieresis,Aring,AE" 	k="14" />
<hkern g1="G" 	g2="X" 	k="14" />
<hkern g1="G" 	g2="V" 	k="27" />
<hkern g1="G" 	g2="W" 	k="14" />
<hkern g1="G" 	g2="Y,Yacute,Ydieresis" 	k="41" />
<hkern g1="G" 	g2="question" 	k="27" />
<hkern g1="K" 	g2="Y,Yacute,Ydieresis" 	k="23" />
<hkern g1="K" 	g2="C,G,O,Q,Ccedilla,Ograve,Oacute,Ocircumflex,Otilde,Odieresis,Oslash,OE" 	k="96" />
<hkern g1="K" 	g2="a,ae" 	k="29" />
<hkern g1="K" 	g2="c,d,e,g,o,q,ccedilla,eth,oslash,oe" 	k="55" />
<hkern g1="K" 	g2="f" 	k="68" />
<hkern g1="K" 	g2="t" 	k="102" />
<hkern g1="K" 	g2="u" 	k="41" />
<hkern g1="K" 	g2="v" 	k="123" />
<hkern g1="K" 	g2="w" 	k="82" />
<hkern g1="K" 	g2="x" 	k="68" />
<hkern g1="K" 	g2="y,yacute,ydieresis" 	k="123" />
<hkern g1="K" 	g2="hyphen,endash,emdash" 	k="102" />
<hkern g1="L" 	g2="T" 	k="205" />
<hkern g1="L" 	g2="ampersand" 	k="8" />
<hkern g1="L" 	g2="V" 	k="184" />
<hkern g1="L" 	g2="W" 	k="150" />
<hkern g1="L" 	g2="Y,Yacute,Ydieresis" 	k="260" />
<hkern g1="L" 	g2="question" 	k="219" />
<hkern g1="L" 	g2="quotedbl,quotesingle,registered,quoteleft,quoteright,quotedblleft,quotedblright,trademark" 	k="279" />
<hkern g1="L" 	g2="C,G,O,Q,Ccedilla,Ograve,Oacute,Ocircumflex,Otilde,Odieresis,Oslash,OE" 	k="55" />
<hkern g1="L" 	g2="a,ae" 	k="14" />
<hkern g1="L" 	g2="c,d,e,g,o,q,ccedilla,eth,oslash,oe" 	k="23" />
<hkern g1="L" 	g2="t" 	k="76" />
<hkern g1="L" 	g2="u" 	k="14" />
<hkern g1="L" 	g2="v" 	k="111" />
<hkern g1="L" 	g2="w" 	k="70" />
<hkern g1="L" 	g2="y,yacute,ydieresis" 	k="111" />
<hkern g1="L" 	g2="U,Ugrave,Uacute,Ucircumflex,Udieresis" 	k="49" />
<hkern g1="L" 	g2="asterisk" 	k="342" />
<hkern g1="P" 	g2="Y,Yacute,Ydieresis" 	k="14" />
<hkern g1="P" 	g2="A,Agrave,Aacute,Acircumflex,Atilde,Adieresis,Aring,AE" 	k="152" />
<hkern g1="P" 	g2="J" 	k="246" />
<hkern g1="P" 	g2="X" 	k="41" />
<hkern g1="P" 	g2="ampersand" 	k="68" />
<hkern g1="P" 	g2="comma,period,quotesinglbase,quotedblbase,ellipsis" 	k="178" />
<hkern g1="P" 	g2="a,ae" 	k="41" />
<hkern g1="P" 	g2="c,d,e,g,o,q,ccedilla,eth,oslash,oe" 	k="35" />
<hkern g1="P" 	g2="hyphen,endash,emdash" 	k="55" />
<hkern g1="R" 	g2="T" 	k="20" />
<hkern g1="R" 	g2="V" 	k="20" />
<hkern g1="R" 	g2="Y,Yacute,Ydieresis" 	k="37" />
<hkern g1="R" 	g2="quotedbl,quotesingle,registered,quoteleft,quoteright,quotedblleft,quotedblright,trademark" 	k="14" />
<hkern g1="R" 	g2="ampersand" 	k="14" />
<hkern g1="R" 	g2="a,ae" 	k="41" />
<hkern g1="R" 	g2="c,d,e,g,o,q,ccedilla,eth,oslash,oe" 	k="61" />
<hkern g1="R" 	g2="s" 	k="27" />
<hkern g1="S" 	g2="T" 	k="27" />
<hkern g1="S" 	g2="Y,Yacute,Ydieresis" 	k="20" />
<hkern g1="S" 	g2="A,Agrave,Aacute,Acircumflex,Atilde,Adieresis,Aring,AE" 	k="20" />
<hkern g1="S" 	g2="t" 	k="29" />
<hkern g1="S" 	g2="v" 	k="27" />
<hkern g1="S" 	g2="w" 	k="14" />
<hkern g1="S" 	g2="x" 	k="35" />
<hkern g1="S" 	g2="y,yacute,ydieresis" 	k="27" />
<hkern g1="T" 	g2="C,G,O,Q,Ccedilla,Ograve,Oacute,Ocircumflex,Otilde,Odieresis,Oslash,OE" 	k="49" />
<hkern g1="T" 	g2="A,Agrave,Aacute,Acircumflex,Atilde,Adieresis,Aring,AE" 	k="131" />
<hkern g1="T" 	g2="J" 	k="178" />
<hkern g1="T" 	g2="ampersand" 	k="111" />
<hkern g1="T" 	g2="comma,period,quotesinglbase,quotedblbase,ellipsis" 	k="199" />
<hkern g1="T" 	g2="a,ae" 	k="160" />
<hkern g1="T" 	g2="c,d,e,g,o,q,ccedilla,eth,oslash,oe" 	k="201" />
<hkern g1="T" 	g2="hyphen,endash,emdash" 	k="123" />
<hkern g1="T" 	g2="s" 	k="166" />
<hkern g1="T" 	g2="v" 	k="57" />
<hkern g1="T" 	g2="w" 	k="57" />
<hkern g1="T" 	g2="x" 	k="78" />
<hkern g1="T" 	g2="y,yacute,ydieresis" 	k="57" />
<hkern g1="T" 	g2="S" 	k="14" />
<hkern g1="T" 	g2="colon,semicolon" 	k="102" />
<hkern g1="T" 	g2="f" 	k="43" />
<hkern g1="T" 	g2="m,n,p,r,z" 	k="139" />
<hkern g1="T" 	g2="u" 	k="139" />
<hkern g1="J,U,Ugrave,Uacute,Ucircumflex,Udieresis" 	g2="A,Agrave,Aacute,Acircumflex,Atilde,Adieresis,Aring,AE" 	k="68" />
<hkern g1="J,U,Ugrave,Uacute,Ucircumflex,Udieresis" 	g2="J" 	k="53" />
<hkern g1="J,U,Ugrave,Uacute,Ucircumflex,Udieresis" 	g2="comma,period,quotesinglbase,quotedblbase,ellipsis" 	k="61" />
<hkern g1="V" 	g2="A,Agrave,Aacute,Acircumflex,Atilde,Adieresis,Aring,AE" 	k="96" />
<hkern g1="V" 	g2="comma,period,quotesinglbase,quotedblbase,ellipsis" 	k="184" />
<hkern g1="V" 	g2="C,G,O,Q,Ccedilla,Ograve,Oacute,Ocircumflex,Otilde,Odieresis,Oslash,OE" 	k="41" />
<hkern g1="V" 	g2="J" 	k="199" />
<hkern g1="V" 	g2="ampersand" 	k="82" />
<hkern g1="V" 	g2="a,ae" 	k="137" />
<hkern g1="V" 	g2="c,d,e,g,o,q,ccedilla,eth,oslash,oe" 	k="123" />
<hkern g1="V" 	g2="f" 	k="55" />
<hkern g1="V" 	g2="m,n,p,r,z" 	k="115" />
<hkern g1="V" 	g2="s" 	k="102" />
<hkern g1="V" 	g2="t" 	k="35" />
<hkern g1="V" 	g2="u" 	k="115" />
<hkern g1="V" 	g2="v" 	k="35" />
<hkern g1="V" 	g2="w" 	k="27" />
<hkern g1="V" 	g2="x" 	k="55" />
<hkern g1="V" 	g2="y,yacute,ydieresis" 	k="27" />
<hkern g1="V" 	g2="hyphen,endash,emdash" 	k="117" />
<hkern g1="W" 	g2="A,Agrave,Aacute,Acircumflex,Atilde,Adieresis,Aring,AE" 	k="90" />
<hkern g1="W" 	g2="comma,period,quotesinglbase,quotedblbase,ellipsis" 	k="131" />
<hkern g1="W" 	g2="C,G,O,Q,Ccedilla,Ograve,Oacute,Ocircumflex,Otilde,Odieresis,Oslash,OE" 	k="41" />
<hkern g1="W" 	g2="J" 	k="121" />
<hkern g1="W" 	g2="ampersand" 	k="41" />
<hkern g1="W" 	g2="a,ae" 	k="82" />
<hkern g1="W" 	g2="c,d,e,g,o,q,ccedilla,eth,oslash,oe" 	k="82" />
<hkern g1="W" 	g2="f" 	k="35" />
<hkern g1="W" 	g2="m,n,p,r,z" 	k="61" />
<hkern g1="W" 	g2="s" 	k="61" />
<hkern g1="W" 	g2="t" 	k="35" />
<hkern g1="W" 	g2="u" 	k="61" />
<hkern g1="W" 	g2="v" 	k="14" />
<hkern g1="W" 	g2="x" 	k="55" />
<hkern g1="W" 	g2="y,yacute,ydieresis" 	k="14" />
<hkern g1="W" 	g2="hyphen,endash,emdash" 	k="76" />
<hkern g1="Y,Yacute,Ydieresis" 	g2="A,Agrave,Aacute,Acircumflex,Atilde,Adieresis,Aring,AE" 	k="137" />
<hkern g1="Y,Yacute,Ydieresis" 	g2="comma,period,quotesinglbase,quotedblbase,ellipsis" 	k="184" />
<hkern g1="Y,Yacute,Ydieresis" 	g2="C,G,O,Q,Ccedilla,Ograve,Oacute,Ocircumflex,Otilde,Odieresis,Oslash,OE" 	k="82" />
<hkern g1="Y,Yacute,Ydieresis" 	g2="J" 	k="240" />
<hkern g1="Y,Yacute,Ydieresis" 	g2="ampersand" 	k="123" />
<hkern g1="Y,Yacute,Ydieresis" 	g2="a,ae" 	k="227" />
<hkern g1="Y,Yacute,Ydieresis" 	g2="c,d,e,g,o,q,ccedilla,eth,oslash,oe" 	k="254" />
<hkern g1="Y,Yacute,Ydieresis" 	g2="f" 	k="123" />
<hkern g1="Y,Yacute,Ydieresis" 	g2="m,n,p,r,z" 	k="184" />
<hkern g1="Y,Yacute,Ydieresis" 	g2="s" 	k="205" />
<hkern g1="Y,Yacute,Ydieresis" 	g2="t" 	k="68" />
<hkern g1="Y,Yacute,Ydieresis" 	g2="u" 	k="184" />
<hkern g1="Y,Yacute,Ydieresis" 	g2="v" 	k="123" />
<hkern g1="Y,Yacute,Ydieresis" 	g2="w" 	k="123" />
<hkern g1="Y,Yacute,Ydieresis" 	g2="x" 	k="158" />
<hkern g1="Y,Yacute,Ydieresis" 	g2="y,yacute,ydieresis" 	k="123" />
<hkern g1="Y,Yacute,Ydieresis" 	g2="hyphen,endash,emdash" 	k="252" />
<hkern g1="Y,Yacute,Ydieresis" 	g2="S" 	k="41" />
<hkern g1="Y,Yacute,Ydieresis" 	g2="colon,semicolon" 	k="143" />
<hkern g1="a,h,m,n" 	g2="T" 	k="193" />
<hkern g1="a,h,m,n" 	g2="question" 	k="88" />
<hkern g1="a,h,m,n" 	g2="quotedbl,quotesingle,registered,quoteleft,quoteright,quotedblleft,quotedblright,trademark" 	k="27" />
<hkern g1="a,h,m,n" 	g2="Y,Yacute,Ydieresis" 	k="225" />
<hkern g1="a,h,m,n" 	g2="V" 	k="150" />
<hkern g1="a,h,m,n" 	g2="W" 	k="96" />
<hkern g1="ampersand" 	g2="T" 	k="137" />
<hkern g1="ampersand" 	g2="Y,Yacute,Ydieresis" 	k="166" />
<hkern g1="ampersand" 	g2="V" 	k="102" />
<hkern g1="ampersand" 	g2="W" 	k="70" />
<hkern g1="asterisk" 	g2="A,Agrave,Aacute,Acircumflex,Atilde,Adieresis,Aring,AE" 	k="186" />
<hkern g1="asterisk" 	g2="J" 	k="252" />
<hkern g1="b,o,p,oslash,thorn" 	g2="T" 	k="201" />
<hkern g1="b,o,p,oslash,thorn" 	g2="question" 	k="109" />
<hkern g1="b,o,p,oslash,thorn" 	g2="quotedbl,quotesingle,registered,quoteleft,quoteright,quotedblleft,quotedblright,trademark" 	k="20" />
<hkern g1="b,o,p,oslash,thorn" 	g2="Y,Yacute,Ydieresis" 	k="240" />
<hkern g1="b,o,p,oslash,thorn" 	g2="V" 	k="123" />
<hkern g1="b,o,p,oslash,thorn" 	g2="W" 	k="82" />
<hkern g1="b,o,p,oslash,thorn" 	g2="comma,period,quotesinglbase,quotedblbase,ellipsis" 	k="8" />
<hkern g1="b,o,p,oslash,thorn" 	g2="x" 	k="70" />
<hkern g1="c,cent,ccedilla" 	g2="T" 	k="145" />
<hkern g1="c,cent,ccedilla" 	g2="question" 	k="55" />
<hkern g1="c,cent,ccedilla" 	g2="quotedbl,quotesingle,registered,quoteleft,quoteright,quotedblleft,quotedblright,trademark" 	k="14" />
<hkern g1="c,cent,ccedilla" 	g2="Y,Yacute,Ydieresis" 	k="137" />
<hkern g1="c,cent,ccedilla" 	g2="V" 	k="88" />
<hkern g1="c,cent,ccedilla" 	g2="W" 	k="55" />
<hkern g1="colon,semicolon" 	g2="T" 	k="102" />
<hkern g1="colon,semicolon" 	g2="Y,Yacute,Ydieresis" 	k="143" />
<hkern g1="e,ae,oe" 	g2="T" 	k="186" />
<hkern g1="e,ae,oe" 	g2="question" 	k="88" />
<hkern g1="e,ae,oe" 	g2="quotedbl,quotesingle,registered,quoteleft,quoteright,quotedblleft,quotedblright,trademark" 	k="14" />
<hkern g1="e,ae,oe" 	g2="Y,Yacute,Ydieresis" 	k="225" />
<hkern g1="e,ae,oe" 	g2="V" 	k="117" />
<hkern g1="e,ae,oe" 	g2="W" 	k="82" />
<hkern g1="e,ae,oe" 	g2="comma,period,quotesinglbase,quotedblbase,ellipsis" 	k="8" />
<hkern g1="e,ae,oe" 	g2="asterisk" 	k="29" />
<hkern g1="eth" 	g2="comma,period,quotesinglbase,quotedblbase,ellipsis" 	k="8" />
<hkern g1="f" 	g2="T" 	k="-82" />
<hkern g1="f" 	g2="question" 	k="-111" />
<hkern g1="f" 	g2="quotedbl,quotesingle,registered,quoteleft,quoteright,quotedblleft,quotedblright,trademark" 	k="-131" />
<hkern g1="f" 	g2="Y,Yacute,Ydieresis" 	k="-129" />
<hkern g1="f" 	g2="V" 	k="-137" />
<hkern g1="f" 	g2="W" 	k="-137" />
<hkern g1="f" 	g2="comma,period,quotesinglbase,quotedblbase,ellipsis" 	k="96" />
<hkern g1="f" 	g2="X" 	k="-82" />
<hkern g1="f" 	g2="Z" 	k="-82" />
<hkern g1="f" 	g2="asterisk" 	k="-131" />
<hkern g1="f" 	g2="ampersand" 	k="14" />
<hkern g1="f" 	g2="parenright,bracketright,braceright" 	k="-137" />
<hkern g1="f" 	g2="exclam,B,D,E,F,H,I,K,L,M,N,P,R,Egrave,Eacute,Ecircumflex,Edieresis,Igrave,Iacute,Icircumflex,Idieresis,Eth,Ntilde" 	k="-82" />
<hkern g1="f" 	g2="S" 	k="-55" />
<hkern g1="f" 	g2="U,Ugrave,Uacute,Ucircumflex,Udieresis" 	k="-82" />
<hkern g1="g,q" 	g2="T" 	k="139" />
<hkern g1="g,q" 	g2="question" 	k="55" />
<hkern g1="g,q" 	g2="Y,Yacute,Ydieresis" 	k="184" />
<hkern g1="g,q" 	g2="V" 	k="115" />
<hkern g1="g,q" 	g2="W" 	k="61" />
<hkern g1="g,q" 	g2="j" 	k="-109" />
<hkern g1="hyphen,endash,emdash" 	g2="Y,Yacute,Ydieresis" 	k="246" />
<hkern g1="hyphen,endash,emdash" 	g2="V" 	k="117" />
<hkern g1="hyphen,endash,emdash" 	g2="W" 	k="76" />
<hkern g1="hyphen,endash,emdash" 	g2="X" 	k="96" />
<hkern g1="k" 	g2="T" 	k="92" />
<hkern g1="k" 	g2="Y,Yacute,Ydieresis" 	k="150" />
<hkern g1="k" 	g2="V" 	k="55" />
<hkern g1="k" 	g2="W" 	k="55" />
<hkern g1="k" 	g2="c,d,e,g,o,q,ccedilla,eth,oslash,oe" 	k="14" />
<hkern g1="k" 	g2="bullet" 	k="49" />
<hkern g1="k" 	g2="hyphen,endash,emdash" 	k="49" />
<hkern g1="questiondown" 	g2="j" 	k="-328" />
<hkern g1="quotedbl,quotesingle,quoteleft,quoteright,quotedblleft,quotedblright" 	g2="A,Agrave,Aacute,Acircumflex,Atilde,Adieresis,Aring,AE" 	k="199" />
<hkern g1="quotedbl,quotesingle,quoteleft,quoteright,quotedblleft,quotedblright" 	g2="C,G,O,Q,Ccedilla,Ograve,Oacute,Ocircumflex,Otilde,Odieresis,Oslash,OE" 	k="14" />
<hkern g1="quotedbl,quotesingle,quoteleft,quoteright,quotedblleft,quotedblright" 	g2="s" 	k="61" />
<hkern g1="quotedbl,quotesingle,quoteleft,quoteright,quotedblleft,quotedblright" 	g2="J" 	k="217" />
<hkern g1="quotedbl,quotesingle,quoteleft,quoteright,quotedblleft,quotedblright" 	g2="comma,period,quotesinglbase,quotedblbase,ellipsis" 	k="170" />
<hkern g1="r" 	g2="T" 	k="70" />
<hkern g1="r" 	g2="V" 	k="55" />
<hkern g1="r" 	g2="W" 	k="27" />
<hkern g1="r" 	g2="Y,Yacute,Ydieresis" 	k="102" />
<hkern g1="r" 	g2="comma,period,quotesinglbase,quotedblbase,ellipsis" 	k="178" />
<hkern g1="r" 	g2="X" 	k="41" />
<hkern g1="s" 	g2="T" 	k="152" />
<hkern g1="s" 	g2="V" 	k="96" />
<hkern g1="s" 	g2="W" 	k="102" />
<hkern g1="s" 	g2="Y,Yacute,Ydieresis" 	k="199" />
<hkern g1="s" 	g2="quotedbl,quotesingle,registered,quoteleft,quoteright,quotedblleft,quotedblright,trademark" 	k="41" />
<hkern g1="s" 	g2="X" 	k="14" />
<hkern g1="s" 	g2="question" 	k="96" />
<hkern g1="t" 	g2="T" 	k="63" />
<hkern g1="t" 	g2="V" 	k="68" />
<hkern g1="t" 	g2="W" 	k="35" />
<hkern g1="t" 	g2="Y,Yacute,Ydieresis" 	k="76" />
<hkern g1="u,z" 	g2="T" 	k="139" />
<hkern g1="u,z" 	g2="V" 	k="115" />
<hkern g1="u,z" 	g2="W" 	k="61" />
<hkern g1="u,z" 	g2="Y,Yacute,Ydieresis" 	k="184" />
<hkern g1="u,z" 	g2="question" 	k="55" />
<hkern g1="v" 	g2="T" 	k="57" />
<hkern g1="v" 	g2="V" 	k="35" />
<hkern g1="v" 	g2="W" 	k="14" />
<hkern g1="v" 	g2="Y,Yacute,Ydieresis" 	k="123" />
<hkern g1="v" 	g2="A,Agrave,Aacute,Acircumflex,Atilde,Adieresis,Aring,AE" 	k="41" />
<hkern g1="v" 	g2="comma,period,quotesinglbase,quotedblbase,ellipsis" 	k="131" />
<hkern g1="v" 	g2="X" 	k="70" />
<hkern g1="w" 	g2="T" 	k="57" />
<hkern g1="w" 	g2="V" 	k="27" />
<hkern g1="w" 	g2="Y,Yacute,Ydieresis" 	k="123" />
<hkern g1="w" 	g2="A,Agrave,Aacute,Acircumflex,Atilde,Adieresis,Aring,AE" 	k="29" />
<hkern g1="w" 	g2="comma,period,quotesinglbase,quotedblbase,ellipsis" 	k="76" />
<hkern g1="w" 	g2="X" 	k="76" />
<hkern g1="y,yacute,ydieresis" 	g2="T" 	k="57" />
<hkern g1="y,yacute,ydieresis" 	g2="V" 	k="27" />
<hkern g1="y,yacute,ydieresis" 	g2="W" 	k="14" />
<hkern g1="y,yacute,ydieresis" 	g2="Y,Yacute,Ydieresis" 	k="123" />
<hkern g1="y,yacute,ydieresis" 	g2="A,Agrave,Aacute,Acircumflex,Atilde,Adieresis,Aring,AE" 	k="41" />
<hkern g1="y,yacute,ydieresis" 	g2="comma,period,quotesinglbase,quotedblbase,ellipsis" 	k="111" />
<hkern g1="y,yacute,ydieresis" 	g2="X" 	k="70" />
<hkern g1="y,yacute,ydieresis" 	g2="question" 	k="14" />
<hkern g1="X" 	g2="f" 	k="61" />
<hkern g1="X" 	g2="t" 	k="61" />
<hkern g1="X" 	g2="v" 	k="70" />
<hkern g1="X" 	g2="w" 	k="76" />
<hkern g1="X" 	g2="y,yacute,ydieresis" 	k="70" />
<hkern g1="X" 	g2="C,G,O,Q,Ccedilla,Ograve,Oacute,Ocircumflex,Otilde,Odieresis,Oslash,OE" 	k="61" />
<hkern g1="X" 	g2="hyphen,endash,emdash" 	k="96" />
<hkern g1="zero,nine" 	g2="comma,period,quotesinglbase,quotedblbase,ellipsis" 	k="43" />
<hkern g1="seven" 	g2="comma,period,quotesinglbase,quotedblbase,ellipsis" 	k="193" />
<hkern g1="x" 	g2="T" 	k="78" />
<hkern g1="x" 	g2="V" 	k="55" />
<hkern g1="x" 	g2="W" 	k="55" />
<hkern g1="x" 	g2="c,d,e,g,o,q,ccedilla,eth,oslash,oe" 	k="70" />
<hkern g1="x" 	g2="Y,Yacute,Ydieresis" 	k="158" />
<hkern g1="parenleft,bracketleft,braceleft" 	g2="j" 	k="-225" />
</font>
</defs></svg> 