<?xml version="1.0" standalone="no"?>
<!DOCTYPE svg PUBLIC "-//W3C//DTD SVG 20010904//EN"
 "http://www.w3.org/TR/2001/REC-SVG-20010904/DTD/svg10.dtd">
<svg version="1.0" xmlns="http://www.w3.org/2000/svg"
 width="800.000000pt" height="480.000000pt" viewBox="0 0 800.000000 480.000000"
 preserveAspectRatio="xMidYMid meet">
<metadata>
Created by potrace 1.10, written by Peter Selinger 2001-2011
</metadata>
<g transform="translate(0.000000,480.000000) scale(0.100000,-0.100000)"
fill="#000000" stroke="none">
<path d="M2460 2424 c0 -45 0 -45 -22 -30 -78 55 -160 -43 -113 -133 22 -44
71 -55 113 -25 20 14 22 14 22 0 0 -9 5 -16 10 -16 6 0 10 48 10 125 0 77 -4
125 -10 125 -5 0 -10 -21 -10 -46z m-20 -54 c43 -43 13 -130 -45 -130 -36 0
-65 33 -65 75 0 42 29 75 65 75 14 0 34 -9 45 -20z"/>
<path d="M3930 2424 c0 -45 0 -45 -22 -30 -78 55 -160 -43 -113 -133 22 -44
71 -55 113 -25 20 14 22 14 22 0 0 -9 5 -16 10 -16 6 0 10 48 10 125 0 77 -4
125 -10 125 -5 0 -10 -21 -10 -46z m-20 -54 c43 -43 13 -130 -45 -130 -36 0
-65 33 -65 75 0 42 29 75 65 75 14 0 34 -9 45 -20z"/>
<path d="M930 2390 c-20 -20 -26 -40 -12 -40 4 0 13 9 20 20 24 38 104 16 88
-25 -3 -8 -16 -15 -29 -15 -75 0 -119 -49 -82 -90 19 -21 69 -27 94 -11 9 6
21 5 32 -2 10 -6 22 -7 26 -3 4 5 2 11 -4 13 -9 3 -13 27 -13 72 0 53 -4 72
-18 84 -25 23 -78 21 -102 -3z"/>
<path d="M1292 2398 c3 -7 17 -50 32 -95 15 -46 33 -83 40 -83 7 0 23 35 35
78 l24 77 25 -77 c13 -43 30 -78 36 -78 7 0 24 40 39 89 31 102 30 101 18 101
-6 0 -21 -35 -34 -77 l-23 -78 -12 35 c-6 19 -16 54 -22 78 -17 66 -39 53 -63
-35 -11 -40 -23 -71 -26 -69 -4 3 -15 36 -26 75 -12 45 -24 71 -33 71 -8 0
-12 -6 -10 -12z"/>
<path d="M2549 2381 c-21 -22 -29 -39 -29 -66 0 -48 44 -95 90 -95 46 0 90 47
90 95 0 48 -44 95 -90 95 -22 0 -41 -9 -61 -29z m110 -17 c12 -15 21 -37 21
-49 0 -35 -37 -75 -70 -75 -33 0 -70 40 -70 75 0 35 37 75 70 75 19 0 36 -9
49 -26z"/>
<path d="M2749 2381 c-62 -63 -21 -161 67 -161 14 0 36 12 51 26 31 31 22 46
-10 16 -29 -27 -71 -28 -97 -2 -39 39 -27 50 55 50 81 0 88 6 63 53 -29 55
-84 63 -129 18z"/>
<path d="M3399 2381 c-21 -22 -29 -39 -29 -66 0 -48 44 -95 90 -95 46 0 90 47
90 95 0 48 -44 95 -90 95 -22 0 -41 -9 -61 -29z m110 -17 c12 -15 21 -37 21
-49 0 -35 -37 -75 -70 -75 -33 0 -70 40 -70 75 0 35 37 75 70 75 19 0 36 -9
49 -26z"/>
<path d="M4019 2381 c-62 -63 -21 -161 67 -161 14 0 36 12 51 26 31 31 22 46
-10 16 -29 -27 -71 -28 -97 -2 -39 39 -27 50 55 50 81 0 88 6 63 53 -29 55
-84 63 -129 18z"/>
<path d="M4589 2381 c-21 -22 -29 -39 -29 -66 0 -48 44 -95 90 -95 46 0 90 47
90 95 0 48 -44 95 -90 95 -22 0 -41 -9 -61 -29z m110 -17 c12 -15 21 -37 21
-49 0 -35 -37 -75 -70 -75 -33 0 -70 40 -70 75 0 35 37 75 70 75 19 0 36 -9
49 -26z"/>
<path d="M5040 2315 c0 -57 4 -95 10 -95 6 0 10 28 10 63 0 71 18 107 54 107
37 0 46 -19 46 -97 0 -42 4 -73 10 -73 6 0 10 29 10 68 0 74 16 102 56 102 35
0 44 -21 44 -97 0 -42 4 -73 10 -73 6 0 10 33 10 78 0 64 -4 82 -18 95 -23 21
-61 22 -89 2 -18 -13 -22 -13 -33 0 -16 20 -64 19 -84 -1 -15 -14 -16 -14 -16
0 0 9 -4 16 -10 16 -6 0 -10 -38 -10 -95z"/>
<path d="M5359 2381 c-62 -63 -21 -161 67 -161 14 0 36 12 51 26 31 31 22 46
-10 16 -29 -27 -71 -28 -97 -2 -39 39 -27 50 55 50 81 0 88 6 63 53 -29 55
-84 63 -129 18z"/>
<path d="M5749 2381 c-21 -22 -29 -39 -29 -66 0 -48 44 -95 90 -95 46 0 90 47
90 95 0 48 -44 95 -90 95 -22 0 -41 -9 -61 -29z m110 -17 c12 -15 21 -37 21
-49 0 -35 -37 -75 -70 -75 -33 0 -70 40 -70 75 0 35 37 75 70 75 19 0 36 -9
49 -26z"/>
<path d="M6460 2315 c0 -57 4 -95 10 -95 6 0 10 28 10 63 0 71 18 107 54 107
37 0 46 -19 46 -97 0 -42 4 -73 10 -73 6 0 10 29 10 68 0 74 16 102 56 102 35
0 44 -21 44 -97 0 -42 4 -73 10 -73 6 0 10 33 10 78 0 64 -4 82 -18 95 -23 21
-61 22 -89 2 -18 -13 -22 -13 -33 0 -16 20 -64 19 -84 -1 -15 -14 -16 -14 -16
0 0 9 -4 16 -10 16 -6 0 -10 -38 -10 -95z"/>
<path d="M6780 2390 c-20 -20 -26 -40 -12 -40 4 0 13 9 20 20 24 38 104 16 88
-25 -3 -8 -16 -15 -29 -15 -75 0 -119 -49 -82 -90 19 -21 69 -27 94 -11 9 6
21 5 32 -2 10 -6 22 -7 26 -3 4 5 2 11 -4 13 -9 3 -13 27 -13 72 0 53 -4 72
-18 84 -25 23 -78 21 -102 -3z"/>
<path d="M7149 2381 c-62 -63 -21 -161 67 -161 14 0 36 12 51 26 31 31 22 46
-10 16 -29 -27 -71 -28 -97 -2 -39 39 -27 50 55 50 81 0 88 6 63 53 -29 55
-84 63 -129 18z"/>
<path d="M7590 2315 c0 -57 4 -95 10 -95 6 0 10 28 10 63 0 71 18 107 54 107
37 0 46 -19 46 -97 0 -42 4 -73 10 -73 6 0 10 29 10 68 0 74 16 102 56 102 35
0 44 -21 44 -97 0 -42 4 -73 10 -73 6 0 10 33 10 78 0 64 -4 82 -18 95 -23 21
-61 22 -89 2 -18 -13 -22 -13 -33 0 -16 20 -64 19 -84 -1 -15 -14 -16 -14 -16
0 0 9 -4 16 -10 16 -6 0 -10 -38 -10 -95z"/>
<path d="M500 1945 c0 -12 13 -15 60 -15 l60 0 0 -155 c0 -131 2 -155 15 -155
13 0 15 24 15 155 l0 155 60 0 c47 0 60 3 60 15 0 13 -22 15 -135 15 -113 0
-135 -2 -135 -15z"/>
<path d="M800 1790 c0 -144 2 -170 15 -170 12 0 15 16 15 85 0 78 2 88 25 110
31 32 78 33 99 3 12 -16 16 -47 16 -110 0 -72 3 -88 15 -88 12 0 15 18 15 100
0 94 -2 103 -25 125 -30 31 -82 33 -119 4 l-26 -20 0 65 c0 52 -3 66 -15 66
-13 0 -15 -26 -15 -170z"/>
<path d="M1940 1790 c0 -144 2 -170 15 -170 12 0 15 16 15 85 0 78 2 88 25
110 31 32 78 33 99 3 12 -16 16 -47 16 -110 0 -72 3 -88 15 -88 12 0 15 18 15
100 0 94 -2 103 -25 125 -30 31 -82 33 -119 4 l-26 -20 0 65 c0 52 -3 66 -15
66 -13 0 -15 -26 -15 -170z"/>
<path d="M2540 1790 c0 -144 2 -170 15 -170 12 0 15 16 15 85 0 78 2 88 25
110 31 32 78 33 99 3 12 -16 16 -47 16 -110 0 -72 3 -88 15 -88 12 0 15 18 15
100 0 94 -2 103 -25 125 -30 31 -82 33 -119 4 l-26 -20 0 65 c0 52 -3 66 -15
66 -13 0 -15 -26 -15 -170z"/>
<path d="M3120 1894 l0 -65 -26 20 c-56 44 -144 13 -165 -58 -15 -50 -5 -103
26 -138 20 -24 31 -28 73 -28 35 0 56 6 71 19 21 19 21 19 21 -2 0 -13 6 -22
15 -22 13 0 15 26 15 170 0 144 -2 170 -15 170 -12 0 -15 -14 -15 -66z m-47
-65 c28 -12 47 -47 47 -84 0 -55 -39 -95 -93 -95 -41 1 -77 45 -77 95 0 73 59
113 123 84z"/>
<path d="M5080 1894 l0 -65 -26 20 c-56 44 -144 13 -165 -58 -15 -50 -5 -103
26 -138 20 -24 31 -28 73 -28 35 0 56 6 71 19 21 19 21 19 21 -2 0 -13 6 -22
15 -22 13 0 15 26 15 170 0 144 -2 170 -15 170 -12 0 -15 -14 -15 -66z m-47
-65 c28 -12 47 -47 47 -84 0 -55 -39 -95 -93 -95 -41 1 -77 45 -77 95 0 73 59
113 123 84z"/>
<path d="M1089 1841 c-30 -31 -38 -61 -16 -61 7 0 17 10 22 22 22 50 120 48
120 -2 0 -22 -5 -25 -55 -32 -68 -10 -104 -35 -108 -75 -6 -59 72 -92 138 -58
25 13 29 13 34 0 7 -20 56 -20 56 0 0 8 -7 15 -15 15 -12 0 -15 16 -15 85 0
78 -2 88 -25 110 -36 37 -97 35 -136 -4z"/>
<path d="M1552 1859 c3 -8 22 -65 42 -126 49 -149 63 -151 101 -15 15 53 29
99 31 101 1 2 17 -43 34 -99 42 -134 52 -132 102 25 21 66 38 121 38 123 0 1
-7 2 -15 2 -9 0 -25 -34 -47 -102 l-32 -103 -32 100 c-19 61 -37 101 -46 103
-10 2 -22 -23 -43 -93 -15 -52 -31 -95 -34 -95 -4 0 -20 42 -37 92 -22 68 -35
94 -49 97 -12 2 -16 -2 -13 -10z"/>
<path d="M2334 1851 c-72 -44 -69 -177 5 -215 57 -30 126 -12 149 39 15 32 15
35 1 35 -6 0 -22 -13 -36 -30 -33 -40 -74 -40 -114 -1 -40 41 -40 91 0 132 17
17 40 29 55 29 26 0 66 -31 66 -50 0 -5 7 -10 16 -10 22 0 9 39 -22 68 -31 27
-78 29 -120 3z"/>
<path d="M3254 1851 c-50 -31 -67 -101 -40 -166 36 -85 166 -85 202 0 50 120
-57 230 -162 166z m117 -40 c21 -22 29 -39 29 -66 0 -45 -45 -95 -85 -95 -40
0 -85 50 -85 95 0 45 45 95 85 95 16 0 38 -12 56 -29z"/>
<path d="M3530 1857 c-31 -16 -60 -71 -60 -117 0 -45 32 -97 68 -111 42 -17
103 -4 129 26 41 47 19 65 -23 20 -31 -34 -86 -34 -119 0 -47 46 -36 55 70 55
106 0 110 4 81 74 -25 60 -87 83 -146 53z"/>
<path d="M3770 1863 c-82 -30 -56 -111 41 -127 78 -13 100 -40 57 -70 -34 -24
-85 -20 -114 9 -14 14 -29 25 -34 25 -18 0 -10 -22 19 -51 23 -23 38 -29 71
-29 135 0 150 123 17 145 -75 13 -101 42 -58 65 33 17 71 11 97 -15 14 -14 29
-25 34 -25 18 0 10 22 -19 51 -29 28 -71 37 -111 22z"/>
<path d="M4090 1745 c0 -104 2 -125 15 -125 12 0 15 16 15 85 0 78 2 88 25
110 31 32 78 33 99 3 12 -16 16 -47 16 -110 0 -72 3 -88 15 -88 12 0 15 18 15
100 0 94 -2 103 -25 125 -28 29 -75 33 -117 11 -24 -13 -28 -13 -28 0 0 8 -7
14 -15 14 -13 0 -15 -21 -15 -125z"/>
<path d="M4394 1851 c-50 -31 -67 -101 -40 -166 36 -85 166 -85 202 0 50 120
-57 230 -162 166z m117 -40 c21 -22 29 -39 29 -66 0 -45 -45 -95 -85 -95 -40
0 -85 50 -85 95 0 45 45 95 85 95 16 0 38 -12 56 -29z"/>
<path d="M5220 1857 c-31 -16 -60 -71 -60 -117 0 -45 32 -97 68 -111 42 -17
103 -4 129 26 41 47 19 65 -23 20 -31 -34 -86 -34 -119 0 -47 46 -36 55 70 55
106 0 110 4 81 74 -25 60 -87 83 -146 53z"/>
<path d="M5460 1863 c-82 -30 -56 -111 41 -127 78 -13 100 -40 57 -70 -34 -24
-85 -20 -114 9 -14 14 -29 25 -34 25 -18 0 -10 -22 19 -51 23 -23 38 -29 71
-29 135 0 150 123 17 145 -75 13 -101 42 -58 65 33 17 71 11 97 -15 14 -14 29
-25 34 -25 18 0 10 22 -19 51 -29 28 -71 37 -111 22z"/>
<path d="M5974 1851 c-72 -44 -69 -177 5 -215 61 -32 132 -9 157 49 50 120
-57 230 -162 166z m117 -40 c21 -22 29 -39 29 -66 0 -45 -45 -95 -85 -95 -40
0 -85 50 -85 95 0 45 45 95 85 95 16 0 38 -12 56 -29z"/>
<path d="M6170 1864 c0 -3 20 -55 45 -115 25 -61 45 -118 45 -127 0 -27 -29
-62 -51 -62 -10 0 -19 -7 -19 -15 0 -18 40 -20 63 -2 9 6 43 83 76 170 47 125
56 157 43 155 -11 -2 -29 -36 -52 -101 -19 -53 -37 -97 -40 -97 -3 0 -22 45
-43 100 -24 63 -44 100 -53 100 -8 0 -14 -3 -14 -6z"/>
<path d="M6550 1745 c0 -104 2 -125 15 -125 12 0 15 16 15 84 0 69 4 88 21
110 23 29 60 34 83 10 12 -12 16 -37 16 -110 0 -77 3 -94 15 -94 12 0 15 16
15 81 0 106 17 139 72 139 48 0 58 -21 58 -126 0 -77 3 -94 15 -94 12 0 15 18
15 100 0 94 -2 103 -25 125 -29 30 -73 33 -106 6 -23 -18 -24 -18 -50 2 -33
23 -96 18 -116 -10 -12 -15 -13 -15 -13 5 0 13 -6 22 -15 22 -13 0 -15 -21
-15 -125z"/>
<path d="M7000 1857 c-31 -16 -60 -71 -60 -117 0 -45 32 -97 68 -111 42 -17
103 -4 129 26 41 47 19 65 -23 20 -31 -34 -86 -34 -119 0 -47 46 -36 55 70 55
106 0 110 4 81 74 -25 60 -87 83 -146 53z"/>
<path d="M7504 1851 c-72 -44 -69 -177 5 -215 61 -32 132 -9 157 49 50 120
-57 230 -162 166z m117 -40 c21 -22 29 -39 29 -66 0 -45 -45 -95 -85 -95 -40
0 -85 50 -85 95 0 45 45 95 85 95 16 0 38 -12 56 -29z"/>
<path d="M7730 1745 c0 -104 2 -125 15 -125 12 0 15 16 15 85 0 78 2 88 25
110 31 32 78 33 99 3 12 -16 16 -47 16 -110 0 -72 3 -88 15 -88 12 0 15 18 15
100 0 94 -2 103 -25 125 -28 29 -75 33 -117 11 -24 -13 -28 -13 -28 0 0 8 -7
14 -15 14 -13 0 -15 -21 -15 -125z"/>
<path d="M500 1315 c0 -12 15 -15 75 -15 l75 0 0 -200 c0 -193 1 -200 20 -200
19 0 20 7 20 200 l0 200 75 0 c60 0 75 3 75 15 0 13 -26 15 -170 15 -144 0
-170 -2 -170 -15z"/>
<path d="M870 1115 c0 -184 2 -215 15 -215 12 0 15 18 15 105 0 117 11 153 55
173 40 19 74 14 100 -13 24 -23 25 -30 25 -145 0 -100 2 -120 15 -120 21 0 22
228 0 269 -28 56 -122 66 -171 20 l-24 -22 0 81 c0 66 -3 82 -15 82 -13 0 -15
-31 -15 -215z"/>
<path d="M2290 1115 c0 -184 2 -215 15 -215 12 0 15 18 15 105 0 117 11 153
55 173 40 19 74 14 100 -13 24 -23 25 -30 25 -145 0 -100 2 -120 15 -120 21 0
22 228 0 269 -28 56 -122 66 -171 20 l-24 -22 0 81 c0 66 -3 82 -15 82 -13 0
-15 -31 -15 -215z"/>
<path d="M3030 1115 c0 -184 2 -215 15 -215 12 0 15 18 15 105 0 117 11 153
55 173 40 19 74 14 100 -13 24 -23 25 -30 25 -145 0 -100 2 -120 15 -120 21 0
22 228 0 269 -28 56 -122 66 -171 20 l-24 -22 0 81 c0 66 -3 82 -15 82 -13 0
-15 -31 -15 -215z"/>
<path d="M3750 1243 c-1 -65 -3 -83 -11 -70 -39 67 -165 58 -214 -16 -22 -34
-29 -113 -16 -164 27 -98 146 -135 215 -66 l26 26 0 -27 c0 -16 5 -26 15 -26
13 0 15 31 15 215 0 184 -2 215 -15 215 -12 0 -15 -17 -15 -87z m-59 -69 c35
-18 59 -67 59 -119 0 -79 -49 -135 -117 -135 -58 0 -103 59 -103 135 0 106 77
163 161 119z"/>
<path d="M6190 1243 c-1 -65 -3 -83 -11 -70 -39 67 -165 58 -214 -16 -22 -34
-29 -113 -16 -164 27 -98 146 -135 215 -66 l26 26 0 -27 c0 -16 5 -26 15 -26
13 0 15 31 15 215 0 184 -2 215 -15 215 -12 0 -15 -17 -15 -87z m-59 -69 c35
-18 59 -67 59 -119 0 -79 -49 -135 -117 -135 -58 0 -103 59 -103 135 0 106 77
163 161 119z"/>
<path d="M1520 1255 c0 -41 -2 -45 -25 -45 -16 0 -25 -6 -25 -15 0 -9 9 -15
25 -15 l25 0 0 -124 c0 -140 7 -156 66 -156 46 0 47 27 2 32 l-33 3 -3 123 -3
122 36 0 c24 0 35 4 35 15 0 10 -11 15 -35 15 -35 0 -35 0 -35 45 0 33 -4 45
-15 45 -11 0 -15 -12 -15 -45z"/>
<path d="M5630 1255 c0 -41 -2 -45 -25 -45 -16 0 -25 -6 -25 -15 0 -9 9 -15
25 -15 l25 0 0 -124 c0 -140 7 -156 66 -156 46 0 47 27 2 32 l-33 3 -3 123 -3
122 36 0 c24 0 35 4 35 15 0 10 -11 15 -35 15 -35 0 -35 0 -35 45 0 33 -4 45
-15 45 -11 0 -15 -12 -15 -45z"/>
<path d="M6920 1255 c0 -41 -2 -45 -25 -45 -16 0 -25 -6 -25 -15 0 -9 9 -15
25 -15 l25 0 0 -124 c0 -140 7 -156 66 -156 46 0 47 27 2 32 l-33 3 -3 123 -3
122 36 0 c24 0 35 4 35 15 0 10 -11 15 -35 15 -35 0 -35 0 -35 45 0 33 -4 45
-15 45 -11 0 -15 -12 -15 -45z"/>
<path d="M1245 1207 c-42 -19 -73 -87 -40 -87 8 0 15 5 15 10 0 6 11 22 25 35
48 49 145 23 145 -39 0 -33 -16 -42 -85 -51 -96 -11 -135 -40 -135 -99 0 -73
110 -112 181 -63 34 23 36 24 48 6 13 -22 51 -26 51 -5 0 8 -7 16 -15 20 -12
4 -15 27 -15 115 0 100 -2 112 -23 137 -28 32 -104 43 -152 21z m145 -182 c0
-52 -43 -96 -100 -102 -36 -4 -49 -1 -67 17 -13 11 -23 29 -23 40 0 42 48 63
178 79 7 0 12 -12 12 -34z"/>
<path d="M2780 1202 c-70 -35 -99 -144 -61 -229 23 -50 57 -74 114 -80 63 -6
113 30 132 95 11 36 -19 27 -38 -13 -30 -63 -101 -73 -152 -22 -59 59 -57 159
6 211 46 39 93 35 135 -9 29 -31 54 -45 54 -30 0 23 -37 69 -65 81 -46 19 -83
18 -125 -4z"/>
<path d="M3920 1203 c-43 -22 -80 -91 -80 -148 0 -57 37 -126 80 -148 41 -21
107 -18 146 8 33 21 64 89 64 140 0 51 -31 119 -64 140 -39 26 -105 29 -146 8z
m129 -39 c63 -52 65 -152 6 -211 -25 -25 -41 -33 -70 -33 -48 0 -100 49 -111
104 -15 82 41 166 111 166 21 0 45 -9 64 -26z"/>
<path d="M4254 1210 c-88 -35 -112 -199 -40 -277 27 -30 41 -36 82 -40 59 -5
90 10 121 56 27 39 29 51 9 51 -8 0 -23 -15 -34 -34 -16 -26 -30 -37 -58 -42
-67 -12 -116 23 -130 94 l-6 32 121 0 121 0 0 27 c0 45 -38 110 -74 127 -37
17 -79 20 -112 6z m115 -47 c17 -16 33 -40 37 -55 l6 -28 -107 0 c-106 0 -106
0 -100 23 26 85 106 114 164 60z"/>
<path d="M4543 1205 c-58 -25 -70 -92 -23 -127 14 -10 53 -26 85 -34 96 -25
120 -63 69 -103 -49 -39 -133 -22 -155 30 -11 28 -39 41 -39 19 0 -25 32 -71
60 -85 78 -40 190 5 190 77 0 35 -37 75 -77 84 -109 24 -133 38 -133 74 0 50
103 68 145 25 14 -13 25 -29 25 -35 0 -5 7 -10 15 -10 18 0 19 11 3 45 -23 51
-99 69 -165 40z"/>
<path d="M5021 1194 c-30 -25 -31 -25 -31 -5 0 12 -6 21 -15 21 -13 0 -15 -24
-15 -155 0 -131 2 -155 15 -155 12 0 15 18 15 105 0 116 10 149 51 171 41 21
77 17 104 -11 24 -23 25 -30 25 -145 0 -100 2 -120 15 -120 12 0 15 20 15 120
0 71 -5 130 -12 145 -26 58 -115 73 -167 29z"/>
<path d="M5340 1203 c-43 -22 -80 -91 -80 -148 0 -57 37 -126 80 -148 41 -21
107 -18 146 8 33 21 64 89 64 140 0 51 -31 119 -64 140 -39 26 -105 29 -146 8z
m129 -39 c63 -52 65 -152 6 -211 -25 -25 -41 -33 -70 -33 -48 0 -100 49 -111
104 -15 82 41 166 111 166 21 0 45 -9 64 -26z"/>
<path d="M6364 1210 c-88 -35 -112 -199 -40 -277 27 -30 41 -36 82 -40 59 -5
90 10 121 56 27 39 29 51 9 51 -8 0 -23 -15 -34 -34 -16 -26 -30 -37 -58 -42
-67 -12 -116 23 -130 94 l-6 32 121 0 121 0 0 27 c0 45 -38 110 -74 127 -37
17 -79 20 -112 6z m115 -47 c17 -16 33 -40 37 -55 l6 -28 -107 0 c-106 0 -106
0 -100 23 26 85 106 114 164 60z"/>
<path d="M6653 1205 c-58 -25 -70 -92 -23 -127 14 -10 53 -26 85 -34 96 -25
120 -63 69 -103 -49 -39 -133 -22 -155 30 -11 28 -39 41 -39 19 0 -25 32 -71
60 -85 78 -40 190 5 190 77 0 35 -37 75 -77 84 -109 24 -133 38 -133 74 0 50
103 68 145 25 14 -13 25 -29 25 -35 0 -5 7 -10 15 -10 18 0 19 11 3 45 -23 51
-99 69 -165 40z"/>
<path d="M7320 1203 c-43 -22 -80 -91 -80 -148 0 -57 37 -126 80 -148 41 -21
107 -18 146 8 33 21 64 89 64 140 0 51 -31 119 -64 140 -39 26 -105 29 -146 8z
m129 -39 c63 -52 65 -152 6 -211 -25 -25 -41 -33 -70 -33 -48 0 -100 49 -111
104 -15 82 41 166 111 166 21 0 45 -9 64 -26z"/>
<path d="M1812 1198 c3 -7 26 -77 53 -156 42 -128 49 -143 68 -140 18 3 27 23
58 128 24 82 39 119 44 108 4 -9 21 -66 39 -125 27 -89 36 -109 53 -111 19 -3
26 13 68 140 27 79 50 149 53 156 2 6 -3 12 -12 12 -11 0 -27 -36 -57 -130
-23 -72 -43 -129 -46 -127 -2 3 -21 61 -41 128 -35 114 -40 124 -62 124 -22 0
-27 -10 -62 -124 -20 -67 -39 -125 -41 -128 -3 -2 -24 54 -46 126 -30 95 -46
131 -57 131 -9 0 -14 -6 -12 -12z"/>
<path d="M7560 1203 c0 -5 25 -70 55 -147 58 -146 62 -164 44 -199 -15 -28
-28 -37 -56 -37 -14 0 -23 -6 -23 -15 0 -22 63 -20 83 3 13 14 157 379 157
397 0 3 -8 5 -18 5 -13 0 -27 -29 -61 -125 -24 -69 -46 -125 -50 -125 -3 0
-26 56 -51 125 -34 96 -49 125 -62 125 -10 0 -18 -3 -18 -7z"/>
<path d="M500 550 c0 -19 7 -20 90 -20 l90 0 0 -235 c0 -228 1 -235 20 -235
19 0 20 7 20 235 l0 235 90 0 c83 0 90 1 90 20 0 19 -7 20 -200 20 -193 0
-200 -1 -200 -20z"/>
<path d="M950 315 c0 -248 1 -255 20 -255 19 0 20 7 20 120 0 138 12 180 59
204 43 23 85 20 118 -8 28 -24 28 -24 31 -170 3 -136 5 -146 23 -146 18 0 19
8 19 140 0 166 -11 203 -64 225 -63 27 -113 18 -163 -28 l-23 -20 0 96 c0 90
-1 97 -20 97 -19 0 -20 -7 -20 -255z"/>
<path d="M2650 315 c0 -248 1 -255 20 -255 19 0 20 7 20 120 0 138 12 180 59
204 43 23 85 20 118 -8 28 -24 28 -24 31 -170 3 -136 5 -146 23 -146 18 0 19
8 19 140 0 166 -11 203 -64 225 -63 27 -113 18 -163 -28 l-23 -20 0 96 c0 90
-1 97 -20 97 -19 0 -20 -7 -20 -255z"/>
<path d="M3540 315 c0 -248 1 -255 20 -255 19 0 20 7 20 120 0 138 12 180 59
204 43 23 85 20 118 -8 28 -24 28 -24 31 -170 3 -136 5 -146 23 -146 18 0 19
8 19 140 0 166 -11 203 -64 225 -63 27 -113 18 -163 -28 l-23 -20 0 96 c0 90
-1 97 -20 97 -19 0 -20 -7 -20 -255z"/>
<path d="M4410 471 l0 -99 -31 29 c-72 67 -200 42 -245 -47 -13 -27 -19 -60
-19 -109 0 -81 21 -134 67 -166 59 -42 157 -33 205 19 l23 25 0 -32 c0 -24 4
-31 20 -31 19 0 20 7 20 255 0 248 -1 255 -20 255 -19 0 -20 -7 -20 -99z m-65
-91 c37 -23 65 -81 65 -135 0 -154 -180 -215 -241 -82 -65 145 54 292 176 217z"/>
<path d="M7340 471 l0 -99 -31 29 c-72 67 -200 42 -245 -47 -13 -27 -19 -60
-19 -109 0 -81 21 -134 67 -166 59 -42 157 -33 205 19 l23 25 0 -32 c0 -24 4
-31 20 -31 19 0 20 7 20 255 0 248 -1 255 -20 255 -19 0 -20 -7 -20 -99z m-65
-91 c59 -36 81 -130 49 -210 -41 -103 -179 -107 -225 -7 -65 145 54 292 176
217z"/>
<path d="M1730 485 c0 -54 0 -55 -30 -55 -23 0 -30 -4 -30 -20 0 -16 7 -20 30
-20 l30 0 0 -145 c0 -132 2 -147 20 -165 13 -13 33 -20 60 -20 33 0 40 3 40
20 0 15 -7 20 -28 20 -48 0 -52 13 -52 157 l0 133 40 0 c33 0 40 3 40 20 0 17
-7 20 -40 20 l-40 0 0 55 c0 48 -2 55 -20 55 -18 0 -20 -7 -20 -55z"/>
<path d="M6670 485 c0 -54 0 -55 -30 -55 -23 0 -30 -4 -30 -20 0 -16 7 -20 30
-20 l30 0 0 -145 c0 -132 2 -147 20 -165 13 -13 33 -20 60 -20 33 0 40 3 40
20 0 15 -7 20 -28 20 -48 0 -52 13 -52 157 l0 133 40 0 c33 0 40 3 40 20 0 17
-7 20 -40 20 l-40 0 0 55 c0 48 -2 55 -20 55 -18 0 -20 -7 -20 -55z"/>
<path d="M1403 425 c-54 -23 -97 -115 -55 -115 11 0 22 12 30 33 30 84 192 73
192 -13 0 -36 -16 -45 -95 -55 -112 -13 -155 -46 -155 -117 0 -27 8 -46 28
-69 48 -54 155 -51 202 6 12 14 14 13 24 -7 16 -31 76 -39 76 -10 0 11 -9 22
-20 25 -19 5 -20 14 -20 129 0 78 -5 132 -13 148 -26 53 -124 76 -194 45z
m153 -273 c-17 -34 -70 -62 -115 -62 -39 0 -81 38 -81 73 0 37 30 56 115 72
43 9 81 18 84 21 14 14 11 -77 -3 -104z"/>
<path d="M3255 426 c-121 -54 -142 -250 -36 -339 71 -59 187 -44 225 31 27 54
29 72 7 72 -13 0 -23 -8 -27 -24 -9 -38 -48 -68 -96 -73 -37 -4 -49 -1 -77 23
-58 48 -77 128 -47 197 42 98 166 117 212 31 10 -19 26 -34 36 -34 24 0 23 20
-5 61 -41 62 -124 85 -192 55z"/>
<path d="M4615 426 c-89 -40 -131 -173 -86 -271 35 -77 106 -115 189 -101 153
24 193 261 60 359 -34 26 -121 33 -163 13z m152 -57 c71 -65 70 -183 -2 -249
-21 -20 -37 -25 -80 -25 -43 0 -59 5 -80 25 -84 77 -66 229 30 271 34 15 104
3 132 -22z"/>
<path d="M5012 424 c-44 -23 -71 -63 -84 -126 -29 -138 41 -248 157 -248 56 0
106 28 132 75 28 49 28 55 3 55 -12 0 -24 -9 -29 -22 -14 -37 -47 -60 -93 -65
-68 -6 -120 34 -134 105 l-6 32 142 0 143 0 -7 47 c-8 58 -34 111 -68 136 -36
27 -114 32 -156 11z m133 -46 c25 -20 55 -73 55 -98 0 -6 -44 -10 -120 -10
-81 0 -120 4 -120 11 0 6 8 27 17 46 32 68 115 93 168 51z"/>
<path d="M5364 426 c-99 -43 -76 -157 37 -185 101 -25 119 -33 130 -52 38 -72
-85 -130 -168 -79 -18 11 -35 31 -39 45 -6 24 -44 37 -44 15 0 -26 30 -78 54
-93 36 -24 115 -32 159 -18 44 15 87 63 87 97 0 65 -40 96 -157 123 -28 7 -59
21 -68 31 -36 40 6 90 75 90 43 0 77 -19 91 -51 7 -18 19 -29 31 -29 17 0 19
4 13 28 -19 76 -117 114 -201 78z"/>
<path d="M5956 425 c-16 -9 -35 -23 -42 -33 -12 -15 -13 -14 -14 11 0 20 -5
27 -20 27 -19 0 -20 -7 -20 -185 0 -178 1 -185 20 -185 19 0 20 7 20 120 0
138 12 180 59 204 43 23 85 20 118 -8 28 -24 28 -24 31 -170 3 -136 5 -146 23
-146 18 0 19 8 19 140 0 166 -11 203 -64 225 -45 19 -93 19 -130 0z"/>
<path d="M6325 426 c-89 -40 -131 -173 -86 -271 35 -77 106 -115 189 -101 153
24 193 261 60 359 -34 26 -121 33 -163 13z m152 -57 c71 -65 70 -183 -2 -249
-21 -20 -37 -25 -80 -25 -43 0 -59 5 -80 25 -84 77 -66 229 30 271 34 15 104
3 132 -22z"/>
<path d="M7542 424 c-44 -23 -71 -63 -84 -126 -29 -138 41 -248 157 -248 56 0
106 28 132 75 28 49 28 55 3 55 -12 0 -24 -9 -29 -22 -14 -37 -47 -60 -93 -65
-68 -6 -120 34 -134 105 l-6 32 142 0 143 0 -7 47 c-8 58 -34 111 -68 136 -36
27 -114 32 -156 11z m133 -46 c25 -20 55 -73 55 -98 0 -6 -44 -10 -120 -10
-81 0 -120 4 -120 11 0 6 8 27 17 46 32 68 115 93 168 51z"/>
<path d="M2080 428 c0 -2 26 -84 58 -183 54 -167 60 -180 83 -183 24 -3 27 2
53 95 56 199 58 207 66 192 4 -8 24 -76 45 -152 38 -133 40 -138 64 -135 23 3
29 16 83 183 32 99 58 181 58 183 0 1 -9 2 -20 2 -16 0 -25 -18 -50 -102 -17
-57 -39 -127 -48 -155 -8 -29 -18 -51 -20 -48 -2 2 -23 71 -47 152 -41 145
-43 148 -70 148 -27 0 -29 -3 -70 -148 -24 -81 -45 -150 -47 -152 -2 -3 -12
19 -20 48 -9 28 -31 98 -48 155 -25 84 -34 102 -50 102 -11 0 -20 -1 -20 -2z"/>
</g>
</svg>
