<?xml version="1.0" encoding="utf-8"?>
<!-- Generator: Adobe Illustrator 18.1.1, SVG Export Plug-In . SVG Version: 6.00 Build 0)  -->
<!DOCTYPE svg PUBLIC "-//W3C//DTD SVG 1.1//EN" "http://www.w3.org/Graphics/SVG/1.1/DTD/svg11.dtd">
<svg version="1.1" id="Layer_1" xmlns="http://www.w3.org/2000/svg" xmlns:xlink="http://www.w3.org/1999/xlink" x="0px" y="0px"
	 width="35px" height="35px" viewBox="-288 379 35 35" enable-background="new -288 379 35 35" xml:space="preserve">
<g>
	<g>
		<g>
			<defs>
				<rect id="SVGID_1_" x="-288" y="379" width="35" height="35"/>
			</defs>
			<clipPath id="SVGID_2_">
				<use xlink:href="#SVGID_1_"  overflow="visible"/>
			</clipPath>
			<path clip-path="url(#SVGID_2_)" fill="#FFB81C" d="M-263.8,383.3c-0.5-0.2-1,0-1.3,0.4c-0.1,0.2-0.1,0.5-0.1,0.7
				c0.1,0.2,0.2,0.4,0.5,0.6c4.3,2.2,6.9,6.5,6.9,11.3c0,4.8-2.6,9.1-6.9,11.3c-0.2,0.1-0.4,0.3-0.5,0.6c-0.1,0.2-0.1,0.5,0.1,0.7
				c0.2,0.3,0.5,0.5,0.8,0.5c0.2,0,0.3,0,0.4-0.1c4.9-2.5,7.9-7.5,7.9-13C-255.9,390.8-259,385.8-263.8,383.3"/>
		</g>
	</g>
	<g>
		<g>
			<defs>
				<rect id="SVGID_3_" x="-288" y="379" width="35" height="35"/>
			</defs>
			<clipPath id="SVGID_4_">
				<use xlink:href="#SVGID_3_"  overflow="visible"/>
			</clipPath>
			<path clip-path="url(#SVGID_4_)" fill="#FFB81C" d="M-276.5,407.6c-4.2-2.2-6.8-6.5-6.8-11.3c0-4.8,2.6-9.1,6.9-11.3
				c0.2-0.1,0.4-0.3,0.5-0.6c0.1-0.2,0.1-0.5-0.1-0.7c-0.2-0.4-0.8-0.6-1.3-0.4c-4.9,2.5-7.9,7.5-7.9,13c0,5.5,3,10.4,7.8,13
				c0.1,0.1,0.3,0.1,0.4,0.1c0.4,0,0.7-0.2,0.8-0.5C-275.9,408.4-276,407.8-276.5,407.6"/>
		</g>
	</g>
	<g>
		<g>
			<defs>
				<rect id="SVGID_5_" x="-288" y="379" width="35" height="35"/>
			</defs>
			<clipPath id="SVGID_6_">
				<use xlink:href="#SVGID_5_"  overflow="visible"/>
			</clipPath>
			<path clip-path="url(#SVGID_6_)" fill="#FFB81C" d="M-261.3,396.4c0-3.2-1.8-6.1-4.6-7.6c-0.5-0.2-1,0-1.3,0.4
				c-0.1,0.2-0.1,0.5-0.1,0.7c0.1,0.2,0.2,0.4,0.5,0.6c2.2,1.2,3.6,3.4,3.6,6c0,2.5-1.4,4.8-3.6,5.9c-0.5,0.2-0.6,0.8-0.4,1.3
				c0.2,0.3,0.5,0.5,0.8,0.5c0.2,0,0.3,0,0.4-0.1C-263.1,402.5-261.3,399.6-261.3,396.4"/>
		</g>
	</g>
	<g>
		<g>
			<defs>
				<rect id="SVGID_7_" x="-288" y="379" width="35" height="35"/>
			</defs>
			<clipPath id="SVGID_8_">
				<use xlink:href="#SVGID_7_"  overflow="visible"/>
			</clipPath>
			<path clip-path="url(#SVGID_8_)" fill="#FFB81C" d="M-274.3,402.2c-2.2-1.2-3.6-3.4-3.6-5.9c0-2.5,1.4-4.8,3.6-5.9
				c0.2-0.1,0.4-0.3,0.5-0.6c0.1-0.2,0.1-0.5-0.1-0.7c-0.2-0.4-0.8-0.6-1.3-0.4c-2.8,1.5-4.6,4.4-4.6,7.6c0,3.2,1.8,6.1,4.6,7.6
				c0.1,0.1,0.3,0.1,0.4,0.1c0.4,0,0.7-0.2,0.8-0.5c0.1-0.2,0.1-0.5,0.1-0.7C-273.9,402.6-274.1,402.4-274.3,402.2"/>
		</g>
	</g>
	<g>
		<g>
			<defs>
				<rect id="SVGID_9_" x="-288" y="379" width="35" height="35"/>
			</defs>
			<clipPath id="SVGID_10_">
				<use xlink:href="#SVGID_9_"  overflow="visible"/>
			</clipPath>
			<path clip-path="url(#SVGID_10_)" fill="#FFB81C" d="M-270.6,392.2c-2.2,0-4.1,1.8-4.1,4.1c0,2.2,1.8,4.1,4.1,4.1
				c2.2,0,4.1-1.8,4.1-4.1C-266.6,394.1-268.4,392.2-270.6,392.2 M-270.6,398.6c-1.3,0-2.3-1-2.3-2.3s1-2.3,2.3-2.3s2.3,1,2.3,2.3
				S-269.3,398.6-270.6,398.6"/>
		</g>
	</g>
</g>
</svg>
