<?xml version="1.0" encoding="utf-8"?>
<!-- Generator: Adobe Illustrator 18.1.1, SVG Export Plug-In . SVG Version: 6.00 Build 0)  -->
<!DOCTYPE svg PUBLIC "-//W3C//DTD SVG 1.1//EN" "http://www.w3.org/Graphics/SVG/1.1/DTD/svg11.dtd">
<svg version="1.1" id="Layer_1" xmlns="http://www.w3.org/2000/svg" xmlns:xlink="http://www.w3.org/1999/xlink" x="0px" y="0px"
	 width="35px" height="35px" viewBox="-288 379 35 35" enable-background="new -288 379 35 35" xml:space="preserve">
<g>
	<g>
		<g>
			<defs>
				<rect id="SVGID_1_" x="-288" y="379" width="35" height="35"/>
			</defs>
			<clipPath id="SVGID_2_">
				<use xlink:href="#SVGID_1_"  overflow="visible"/>
			</clipPath>
			<path clip-path="url(#SVGID_2_)" fill="#FFB81C" d="M-265.5,393.2c0.2,0.8,0.5,1.4,1.2,2c0.3,0.2,0.3,0.5,0.3,0.8
				c0,3.8,0,7.6,0,11.3c0,0.8,0.3,1.5,1,1.9c0.2,0.1,0.4,0.2,0.5,0.3c0.1,0,0.2,0.1,0.3,0.1l0,0h0.8l0,0c0.1,0,0.1,0,0.2,0
				c0.1,0,0.2,0,0.3-0.1c0.9-0.5,1.3-1.2,1.3-2.1c0-0.3,0-0.5,0-0.8v-0.1c0,0,0-7.6,0-10.5c0-0.2,0-0.4,0.2-0.7
				c0.8-0.7,1.2-1.5,1.3-2.5c0-0.7,0-1.3-0.2-1.9c-0.3-0.6-0.5-0.9-0.8-1.2c-0.4-0.3-0.5-0.6-0.5-1.1c0-0.3,0-0.5,0-0.8
				c0-0.3,0-0.5,0-0.8c0.1-1-0.7-2.2-1.9-2.3h-0.8l0,0c0,0-0.1,0-0.1,0c-1.2,0.4-1.7,1.1-1.7,2.4l0,0.5c0,0.5,0,1,0,1.5
				c0,0.2-0.1,0.3-0.2,0.5C-265.4,390.6-265.8,391.8-265.5,393.2 M-264.3,392.4c0-0.7,0.2-1.3,0.7-1.7c0.5-0.5,1.1-0.7,1.8-0.7v-0.2
				l0,0.2c0.7,0,1.3,0.3,1.8,0.8c0.5,0.5,0.7,1.1,0.7,1.8c0,1.4-1.1,2.4-2.5,2.5C-263.2,394.9-264.3,393.8-264.3,392.4
				 M-262.5,396.2c0,0,0.1,0,0.1,0c0.4,0.1,0.8,0.1,1.1,0c0.1,0,0.2,0,0.3,0.1c0.1,0.1,0.1,0.2,0.1,0.3c0,0.4,0,0.9,0,1.3v4.1l0,1.5
				c0,1.3,0,2.6,0,3.8c0,0.3-0.1,0.5-0.3,0.7c-0.2,0.2-0.4,0.3-0.7,0.3c-0.5,0-0.9-0.4-0.9-1v-5.1c0-1.9,0-3.8,0-5.7
				C-262.7,396.2-262.6,396.2-262.5,396.2 M-260.9,388.4c0,0.1,0,0.2-0.1,0.2c-0.1,0.1-0.1,0.1-0.3,0.1c-0.4-0.1-0.8-0.1-1.1,0
				c-0.1,0-0.2,0-0.3-0.1c-0.1-0.1-0.1-0.1-0.1-0.2c0-0.2,0-0.4,0-0.6c0-0.3,0-0.6,0-0.9c0-0.5,0.4-0.9,0.9-0.9l0,0
				c0.5,0,0.9,0.4,0.9,0.9c0,0.2,0,0.9,0,0.9C-260.9,388-260.9,388.2-260.9,388.4"/>
		</g>
	</g>
	<g>
		<g>
			<defs>
				<rect id="SVGID_3_" x="-288" y="379" width="35" height="35"/>
			</defs>
			<clipPath id="SVGID_4_">
				<use xlink:href="#SVGID_3_"  overflow="visible"/>
			</clipPath>
			<path clip-path="url(#SVGID_4_)" fill="#FFB81C" d="M-281.8,389.6c-0.2,0.2-0.4,0.3-0.5,0.5c-0.4,0.5-0.6,1.1-0.7,1.7v0.2
				c-0.1,0.3-0.1,0.5,0,0.9l0,0.1c0,0,0,0.1,0,0.1c0.1,0.8,0.4,1.5,1.1,2.1c0.3,0.3,0.4,0.5,0.4,0.9c0,1.3,0,2.6,0,3.8v0.4
				c0,2.3,0,4.6,0,6.9c0,0.9,0.6,2.2,1.9,2.4h0.8l0.2-0.1c0.3-0.1,0.5-0.2,0.7-0.3c0.6-0.5,1-1.1,1-1.9c0-3.8,0-7.6,0-11.4
				c0-0.3,0.1-0.5,0.3-0.7c0.8-0.7,1.2-1.6,1.2-2.7c0-1.2-0.4-2.1-1.3-2.9c-0.2-0.1-0.2-0.3-0.2-0.5l0-0.3c0-0.6,0-1.2,0-1.8
				c0-0.8-0.4-1.5-1.1-1.9c-0.1-0.1-0.2-0.1-0.4-0.2c-0.1,0-0.2-0.1-0.3-0.1l0,0h-0.8l-0.1,0c-0.1,0-0.1,0-0.2,0
				c-0.1,0-0.2,0-0.3,0.1c-0.9,0.5-1.3,1.2-1.3,2.1c0,0.7,0,1.3,0,2c0,0.2-0.1,0.4-0.2,0.6L-281.8,389.6z M-281.6,392.4
				c0-0.6,0.2-1.3,0.7-1.7c0.5-0.5,1.1-0.7,1.8-0.7h0c1.2,0,2.5,0.9,2.5,2.5c0,0.7-0.2,1.3-0.7,1.8c-0.5,0.5-1.1,0.7-1.8,0.7
				C-280.5,394.9-281.6,393.8-281.6,392.4 M-280.1,396.5c0-0.1,0-0.2,0.1-0.3c0,0,0.1-0.1,0.2-0.1c0,0,0.1,0,0.1,0
				c0.4,0.1,0.8,0,1.1,0c0.1,0,0.2,0,0.3,0.1c0.1,0.1,0.1,0.2,0.1,0.2v10.8c0,0.6-0.3,1-0.8,1c-0.6,0.1-1-0.4-1-1c0-1.1,0-2.3,0-3.4
				l0-3.2C-280.1,399.4-280,398-280.1,396.5 M-280.1,387.4c0-0.1,0-0.3,0-0.4c0-0.5,0.4-0.9,0.9-0.9h0l0-0.2l0,0.2
				c0.5,0,0.9,0.4,0.9,0.9c0,0.3,0,0.6,0,0.9c0,0.2,0,0.4,0,0.6c0,0.1,0,0.2-0.1,0.2c-0.1,0.1-0.1,0.1-0.3,0.1
				c-0.4-0.1-0.8-0.1-1.2,0c-0.1,0-0.2,0-0.3-0.1c-0.1-0.1-0.1-0.1-0.1-0.2c0-0.2,0-0.4,0-0.5L-280.1,387.4z"/>
		</g>
	</g>
	<g>
		<g>
			<defs>
				<rect id="SVGID_5_" x="-288" y="379" width="35" height="35"/>
			</defs>
			<clipPath id="SVGID_6_">
				<use xlink:href="#SVGID_5_"  overflow="visible"/>
			</clipPath>
			<path clip-path="url(#SVGID_6_)" fill="#FFB81C" d="M-272.7,398.4c0,0.2,0,0.4-0.2,0.5c-0.9,0.7-1.4,1.8-1.4,2.9
				c0,1.1,0.5,2.2,1.4,2.9c0.2,0.1,0.2,0.3,0.2,0.5c0,0.7,0,1.5,0,2.2c0,0.9,0.6,1.8,1.5,2.1c0,0,0,0,0.1,0c0.1,0,0.1,0,0.2,0.1
				l0.1,0h0.7l0,0c0,0,0.1,0,0.1,0c1-0.2,1.8-1.2,1.7-2.2c0-0.4,0-0.8,0-1.3c0-0.3,0-0.5,0-0.8c0-0.2,0.1-0.4,0.2-0.5
				c0.8-0.7,1.2-1.5,1.3-2.4c0.1-1.3-0.3-2.4-1.2-3.3c-0.2-0.2-0.3-0.4-0.3-0.8c0-2.5,0-4.9,0-7.4l0-4c0-0.8-0.3-1.4-1.1-1.9
				c-0.2-0.1-0.3-0.2-0.5-0.2c-0.1,0-0.2-0.1-0.2-0.1l-0.6,0l-0.2,0c-1.1,0.2-1.8,1.2-1.8,2.4c0,2.6,0,5.3,0,7.8
				C-272.7,396.1-272.7,397.3-272.7,398.4 M-270.5,399.2l0,0.2c0.7,0,1.3,0.3,1.8,0.7c0.5,0.5,0.7,1.1,0.7,1.8
				c0,1.4-1.1,2.5-2.5,2.5c-0.7,0-1.3-0.3-1.7-0.7c-0.5-0.5-0.7-1.1-0.7-1.8c0-1.4,1.1-2.5,2.5-2.5L-270.5,399.2z M-269.5,406.4
				l0,0.3c0,0.1,0,0.2,0,0.3c0,0.2,0,0.4,0,0.7c-0.1,0.4-0.5,0.7-1,0.7c-0.5-0.1-0.8-0.4-0.8-0.9c0-0.2,0-0.4,0-0.6
				c0-0.3,0-0.5,0-0.8c0-0.1,0-0.2,0.1-0.3c0,0,0.1-0.1,0.2-0.1c0,0,0.1,0,0.1,0c0.4,0.1,0.7,0.1,1.1,0c0.1,0,0.2,0,0.3,0.1
				c0.1,0.1,0.1,0.1,0.1,0.3C-269.5,406.1-269.5,406.3-269.5,406.4 M-269.6,398c-0.1,0.1-0.2,0.1-0.3,0.1c-0.2,0-0.4,0-0.5,0
				c-0.2,0-0.4,0-0.5,0c-0.2,0-0.2,0-0.3-0.1c-0.1-0.1-0.1-0.2-0.1-0.3c0-0.7,0-1.4,0-2.1v-4.8c0-1.3,0-2.6,0-3.9
				c0-0.4,0.2-0.8,0.6-0.9c0.4-0.1,0.8,0,1,0.4c0.2,0.2,0.2,0.4,0.2,0.7c0,2,0,4.1,0,6.1l0,4.6C-269.5,397.8-269.5,398-269.6,398"/>
		</g>
	</g>
</g>
</svg>
