<?xml version="1.0" encoding="utf-8"?>
<!-- Generator: Adobe Illustrator 18.0.0, SVG Export Plug-In . SVG Version: 6.00 Build 0)  -->
<!DOCTYPE svg PUBLIC "-//W3C//DTD SVG 1.1//EN" "http://www.w3.org/Graphics/SVG/1.1/DTD/svg11.dtd">
<svg version="1.1" id="Isolation_Mode" xmlns="http://www.w3.org/2000/svg" xmlns:xlink="http://www.w3.org/1999/xlink" x="0px"
	 y="0px" viewBox="0 0 612 792" enable-background="new 0 0 612 792" xml:space="preserve">
<path id="Shape_1_" fill="#000000" d="M401,348.5c9.2-9.9,9.2-26.5,0-36.5c-9.2-9.9-24.5-9.9-33.7,0l-91.8,100.5L183.7,312
	c-9.2-9.9-24.5-9.9-33.7,0c-5.1,4.4-7.1,11-7.1,17.7c0,6.6,2,13.3,7.1,18.8l108.1,118.2c9.2,9.9,24.5,9.9,33.7,0L401,348.5z"/>
</svg>
