<?xml version="1.0" encoding="utf-8"?>
<!-- Generator: Adobe Illustrator 18.0.0, SVG Export Plug-In . SVG Version: 6.00 Build 0)  -->
<!DOCTYPE svg PUBLIC "-//W3C//DTD SVG 1.1//EN" "http://www.w3.org/Graphics/SVG/1.1/DTD/svg11.dtd">
<svg version="1.1" id="Layer_1" xmlns="http://www.w3.org/2000/svg" xmlns:xlink="http://www.w3.org/1999/xlink" x="0px" y="0px"
	 viewBox="0 0 60 60" enable-background="new 0 0 60 60" xml:space="preserve">
<g id="Page_1">
	<g id="Group">
		<path id="Shape" fill="#FFFFFF" d="M30,0C13.5,0,0,13.5,0,30c0,16.5,13.5,30,30,30s30-13.5,30-30C60,13.5,46.5,0,30,0L30,0z
			 M30,54.5c-13.5,0-24.5-11-24.5-24.6c0-13.5,11-24.5,24.5-24.5s24.5,11,24.5,24.5C54.5,43.5,43.5,54.5,30,54.5L30,54.5z"/>
		<path id="Shape_1_" fill="#FFFFFF" d="M30.7,42.3c0.9,0.9,2.4,0.9,3.3,0c0.9-0.9,0.9-2.4,0-3.3l-9.1-9l9.1-9
			c0.9-0.9,0.9-2.4,0-3.3C33.6,17.2,33,17,32.4,17c-0.6,0-1.2,0.2-1.7,0.7L20,28.3c-0.9,0.9-0.9,2.4,0,3.3L30.7,42.3z"/>
	</g>
</g>
</svg>
