<?xml version="1.0" standalone="no"?>
<!DOCTYPE svg PUBLIC "-//W3C//DTD SVG 1.1//EN" "http://www.w3.org/Graphics/SVG/1.1/DTD/svg11.dtd" >
<svg xmlns="http://www.w3.org/2000/svg">
<metadata></metadata>
<defs>
<font id="latoblack" horiz-adv-x="1187" >
<font-face units-per-em="2048" ascent="1649" descent="-399" />
<missing-glyph horiz-adv-x="395" />
<glyph unicode="&#xfb01;" horiz-adv-x="1288" d="M20 935v125h150v15q0 96 33.5 181.5t103 148.5t177.5 100t257 37q46 0 95.5 -4.5t85.5 -13.5l-11 -161q-2 -26 -25.5 -34t-49.5 -8q-106 0 -176 -16.5t-110.5 -48.5t-56.5 -80.5t-16 -110.5v-5h674v-1060h-317v843h-347v-843h-317v844l-70 14q-36 8 -58 25.5t-22 51.5z " />
<glyph unicode="&#xfb02;" horiz-adv-x="1306" d="M20 935v125h150v37q0 81 26.5 158t82 137t141.5 96.5t205 36.5q100 0 188.5 -6.5t179.5 -6.5h178v-1512h-315v1299q-52 2 -100.5 5t-79.5 3q-97 0 -148 -54t-51 -156v-37h230v-217h-220v-843h-317v844l-70 14q-36 8 -58 25.5t-22 51.5z" />
<glyph horiz-adv-x="0" />
<glyph unicode="&#xd;" horiz-adv-x="0" />
<glyph horiz-adv-x="0" />
<glyph horiz-adv-x="0" />
<glyph unicode=" "  horiz-adv-x="395" />
<glyph unicode="&#x09;" horiz-adv-x="395" />
<glyph unicode="&#xa0;" horiz-adv-x="395" />
<glyph unicode="!" horiz-adv-x="770" d="M205 161q0 37 13.5 68.5t38 55t57 37.5t71.5 14q38 0 70.5 -14t57.5 -37.5t38.5 -55t13.5 -68.5t-13.5 -69.5t-38.5 -56t-57.5 -36.5t-70.5 -13q-39 0 -71.5 13t-57 36.5t-38 56t-13.5 69.5zM240 906v586h297v-586q0 -94 -11.5 -186.5t-29.5 -189.5h-215 q-18 96 -29.5 189t-11.5 187z" />
<glyph unicode="&#x22;" horiz-adv-x="911" d="M113 1199v293h276v-293l-29 -162q-9 -55 -32.5 -84t-77.5 -29q-46 0 -72 29t-37 84zM522 1199v293h277v-293l-29 -162q-9 -55 -32.5 -84t-78.5 -29q-46 0 -72 29t-36 84z" />
<glyph unicode="#" d="M20 487q0 9 1.5 19.5t3.5 21.5l16 99h181l43 241h-204l25 129q9 47 40.5 70t98.5 23h70l53 300q8 48 46 75t87 27h146l-72 -402h170l72 402h141q45 0 73 -24.5t28 -63.5v-7.5t-1 -8.5l-53 -298h199l-25 -129q-9 -48 -40.5 -70.5t-98.5 -22.5h-65l-43 -241h112 q39 0 60.5 -19t21.5 -64q0 -9 -1 -19.5t-3 -21.5l-17 -99h-202l-72 -404h-147q-19 0 -36.5 8t-29.5 22t-19.5 33t-7.5 40q0 5 0.5 11.5t1.5 11.5l50 278h-169l-51 -293q-5 -30 -18 -51t-32.5 -34.5t-42.5 -19.5t-48 -6h-141l72 404h-91q-39 0 -60.5 19t-21.5 64zM482 627 h170l43 241h-170z" />
<glyph unicode="$" d="M35 180l98 143q12 17 33 29t45 12q25 0 50.5 -13t55.5 -31.5t66 -37.5t82 -31l38 387q-74 20 -146.5 48t-131 75t-95 119.5t-36.5 182.5q0 81 33 157.5t96 138t155 101t211 45.5l11 114q3 29 25.5 52t58.5 23h117l-21 -202q111 -20 191 -66t135 -98l-78 -114 q-17 -26 -35 -37.5t-43 -11.5q-16 0 -36.5 7.5t-45 18t-53 23t-59.5 21.5l-36 -364q49 -14 98 -31t94.5 -39t85 -50.5t69 -67.5t45.5 -89.5t16 -115.5q0 -97 -32.5 -182.5t-96 -151t-155.5 -107t-211 -50.5l-12 -128q-3 -29 -26 -52t-58 -23h-117l20 211q-118 19 -224.5 68 t-180.5 117zM393 1094q0 -60 38.5 -98t100.5 -63l31 309q-47 -7 -79 -21t-52 -33.5t-29.5 -43t-9.5 -50.5zM658 245q169 29 169 186q0 58 -37 93t-99 59z" />
<glyph unicode="%" horiz-adv-x="1675" d="M51 1130q0 85 26.5 154.5t74.5 118.5t113 76t143 27t143.5 -27t113.5 -76t74.5 -118.5t26.5 -154.5q0 -82 -29.5 -149.5t-79 -116t-114.5 -75t-135 -26.5q-78 0 -143 26.5t-113 75t-74.5 116.5t-26.5 149zM111 0l1124 1445q15 17 37.5 32t62.5 15h232l-1125 -1447 q-15 -19 -38 -32t-56 -13h-237zM297 1130q0 -49 8 -81.5t22.5 -52t35 -27.5t45.5 -8t45.5 8t36 27.5t24 52t8.5 81.5q0 52 -8.5 86.5t-24 55t-36.5 29t-45 8.5q-25 0 -45.5 -8.5t-35 -29t-22.5 -54.5t-8 -87zM909 350q0 85 27 154t74.5 118.5t112.5 76.5t143 27t144 -27 t113.5 -76.5t74 -118.5t26.5 -154q0 -82 -29.5 -150t-79 -116.5t-114.5 -75t-135 -26.5q-78 0 -143 26.5t-112.5 75t-74.5 116.5t-27 150zM1155 350q0 -49 8 -81.5t22.5 -52t35 -28t45.5 -8.5t45.5 8.5t36 28t24 52t8.5 81.5q0 51 -8.5 85.5t-24 55t-36.5 28.5t-45 8 q-25 0 -45.5 -8t-35 -28.5t-22.5 -55t-8 -85.5z" />
<glyph unicode="&#x26;" horiz-adv-x="1480" d="M47 421q0 68 21 128t59 112t90.5 94.5t115.5 73.5q-48 75 -69.5 147t-21.5 139q0 80 29 151t85 125t137.5 85.5t186.5 31.5q99 0 175 -29t128 -76.5t82 -110t37 -128.5l-205 -41q-5 -1 -8.5 -1.5t-7.5 -0.5q-43 0 -64 45q-24 53 -55 81t-82 28q-36 0 -62.5 -13.5 t-44.5 -35t-27 -50t-9 -59.5q0 -27 4.5 -51.5t15 -49.5t29.5 -51.5t49 -57.5l369 -389q28 61 44 128t23 138q2 29 19 45.5t45 16.5h200q0 -150 -40 -279.5t-113 -236.5l313 -330h-313q-24 0 -42.5 2.5t-34 8.5t-30 17.5t-31.5 28.5l-64 68q-97 -68 -212.5 -104.5 t-245.5 -36.5q-89 0 -174.5 30.5t-152 87.5t-107.5 138t-41 181zM371 446q0 -49 14.5 -89t42.5 -68.5t66 -44.5t86 -16q69 0 127.5 18t109.5 51l-343 363q-56 -46 -79.5 -100.5t-23.5 -113.5z" />
<glyph unicode="'" horiz-adv-x="501" d="M113 1199v293h276v-293l-29 -162q-9 -55 -32.5 -84t-77.5 -29q-46 0 -72 29t-37 84z" />
<glyph unicode="(" horiz-adv-x="614" d="M82 641q0 131 16 258t49.5 249.5t87 241t127.5 234.5l142 -82q17 -11 30.5 -26.5t13.5 -38.5q0 -11 -3.5 -24.5t-12.5 -30.5q-43 -85 -75.5 -179.5t-55 -194.5t-34 -203t-11.5 -204t12 -203.5t35 -202t56.5 -193.5t75.5 -180q14 -30 14 -55t-13.5 -40t-31.5 -26l-142 -82 q-75 115 -128 233.5t-86.5 241t-49.5 249.5t-16 258z" />
<glyph unicode=")" horiz-adv-x="614" d="M66 -193q0 25 14 55q42 86 75 180t56 193.5t35 202t12 203.5t-11 204t-34 203t-55.5 194.5t-75.5 179.5q-8 16 -11.5 29.5t-3.5 25.5q0 24 13 39t31 26l141 82q148 -231 214 -476t66 -507q0 -263 -66 -507.5t-214 -474.5l-141 82q-18 11 -31.5 26.5t-13.5 39.5z" />
<glyph unicode="*" horiz-adv-x="819" d="M57 1078l150 87q19 11 38.5 19.5t40.5 12.5q-20 4 -40 13t-39 20l-150 89l74 123l150 -90q18 -11 35 -23t30 -26q-12 35 -12 78v180h149v-178q0 -22 -2.5 -42t-8.5 -38q13 14 29.5 25.5t35.5 23.5l149 88l74 -123l-150 -87q-20 -11 -39.5 -19.5t-40.5 -12.5 q20 -4 40.5 -12.5t39.5 -20.5l150 -89l-74 -122l-149 89q-19 11 -36 23t-31 27q13 -36 13 -79v-179h-149v177q0 20 2.5 41t8.5 39q-13 -14 -29.5 -25.5t-34.5 -23.5l-150 -87z" />
<glyph unicode="+" d="M86 574v228h377v405h258v-405h379v-228h-379v-407h-258v407h-377z" />
<glyph unicode="," horiz-adv-x="483" d="M70 180q0 33 12 61t35 49t54.5 33.5t70.5 12.5q46 0 79.5 -16t56 -43t33.5 -62.5t11 -74.5q0 -51 -16.5 -109t-48.5 -116t-80.5 -114.5t-110.5 -102.5l-55 49q-11 11 -17 21t-6 24q0 10 7 22t18 21q12 12 28.5 29.5t32.5 39t30 47t21 54.5q-36 3 -64.5 17.5t-48.5 38 t-31 53.5t-11 66z" />
<glyph unicode="-" horiz-adv-x="757" d="M102 495v256h553v-256h-553z" />
<glyph unicode="." horiz-adv-x="483" d="M61 161q0 37 14 68.5t38 55t57 37.5t72 14q38 0 70.5 -14t57 -37.5t38.5 -55t14 -68.5t-14 -69.5t-38.5 -56t-57 -36.5t-70.5 -13q-39 0 -72 13t-57 36.5t-38 56t-14 69.5z" />
<glyph unicode="/" horiz-adv-x="819" d="M-25 -101l582 1526q20 52 62.5 80t97.5 28h135l-576 -1521q-11 -28 -29 -49t-40 -35.5t-47 -21.5t-49 -7h-136z" />
<glyph unicode="0" d="M41 746q0 196 41.5 339.5t115 237.5t174.5 139.5t220 45.5t220.5 -45.5t176 -139.5t116.5 -237.5t42 -339.5t-42 -339t-116.5 -237t-176 -140t-220.5 -46t-220 46t-174.5 140t-115 237.5t-41.5 338.5zM369 746q0 -156 19 -254t50 -154.5t71.5 -77.5t82.5 -21t83 21 t73 77.5t51.5 154.5t19.5 254q0 155 -19.5 254t-51.5 155t-73 77t-83 21t-82.5 -21t-71.5 -77t-50 -155t-19 -254z" />
<glyph unicode="1" d="M135 1103l465 390h262v-1264h246v-229h-850v229h287v753q0 55 3 116l-169 -141q-16 -13 -32.5 -18.5t-32.5 -5.5q-27 0 -47.5 11.5t-30.5 25.5z" />
<glyph unicode="2" d="M68 0v102q0 30 12 64t43 61l430 433q55 55 96 105.5t67.5 99t40 97.5t13.5 103q0 89 -42.5 136.5t-129.5 47.5q-36 0 -65.5 -10t-53 -27.5t-40.5 -41t-27 -51.5q-16 -46 -41.5 -66.5t-68.5 -20.5q-10 0 -22 1t-24 3l-168 30q16 112 63 194.5t116 138t158 82.5t191 27 q111 0 199.5 -32t151 -89.5t96 -137t33.5 -174.5q0 -82 -23 -151.5t-63 -132.5t-93 -122t-112 -119l-292 -299q56 16 111 26t103 10h279q51 0 80.5 -28.5t29.5 -74.5v-184h-1048z" />
<glyph unicode="3" d="M76 383l141 57q18 8 36 11.5t36 3.5q33 0 59 -13t39 -38q46 -85 98 -123t121 -38q53 0 92.5 18t66 46t39.5 64t13 72q0 48 -6.5 86.5t-37.5 66.5t-93 42.5t-172 14.5v219q93 0 150.5 14.5t88.5 39.5t41.5 61t10.5 79q0 88 -42.5 135.5t-129.5 47.5q-36 0 -66 -10 t-53.5 -27.5t-40 -41t-27.5 -51.5q-16 -46 -41 -66.5t-68 -20.5q-10 0 -22 1t-24 3l-168 30q16 112 62.5 194.5t116 138t158.5 82.5t191 27q111 0 197 -31t145.5 -84.5t90 -123.5t30.5 -148q0 -71 -14.5 -124.5t-42.5 -93t-69.5 -67t-94.5 -45.5q248 -86 248 -337 q0 -119 -43 -207t-115.5 -146.5t-167.5 -87.5t-199 -29q-106 0 -189 23t-147.5 71.5t-113 124.5t-84.5 180z" />
<glyph unicode="4" d="M6 564l690 928h303v-912h154v-179q0 -24 -16 -41t-45 -17h-93v-343h-276v343h-600q-30 0 -54 18.5t-30 46.5zM339 580h384v389q0 36 2.5 77t7.5 86z" />
<glyph unicode="5" d="M47 174l98 131q15 20 36 31t44 11q31 0 58 -17t59.5 -37t75.5 -36t106 -16t108.5 21t73.5 57t41 85t13 104q0 109 -61.5 165.5t-174.5 56.5q-100 0 -196 -38l-197 53l127 747h764v-131q0 -33 -10.5 -59.5t-32.5 -46.5t-57.5 -31t-85.5 -11h-357l-42 -246q42 7 81 10.5 t76 3.5q118 0 208 -36t151.5 -98t92.5 -145.5t31 -178.5q0 -120 -42.5 -218.5t-118 -170.5t-180.5 -111t-230 -39q-73 0 -139 15t-124 41.5t-107 60.5t-89 73z" />
<glyph unicode="6" d="M68 518q0 112 43 222.5t127 225.5l335 453q23 31 68 52t102 21h283l-442 -528q-10 -11 -20 -23t-19 -23q36 13 75.5 20t84.5 7q81 0 159.5 -26.5t141 -82t101 -140t38.5 -198.5q0 -104 -39 -198t-110 -164t-171.5 -111t-222.5 -41q-125 0 -224 39t-168.5 110t-105.5 169 t-36 216zM373 475q0 -55 13 -99t41 -76t70 -49t99 -17q49 0 91.5 18.5t73.5 51t48.5 76t17.5 94.5q0 57 -16.5 102.5t-47.5 76t-74.5 47t-96.5 16.5q-48 0 -88 -17t-69 -49t-45.5 -76t-16.5 -99z" />
<glyph unicode="7" d="M84 1283v209h1049v-133q0 -56 -12.5 -91t-23.5 -60l-522 -1104q-20 -44 -60 -74t-105 -30h-232l533 1068q22 44 46.5 79t54.5 66h-656q-14 0 -27 6t-23 15.5t-16 22.5t-6 26z" />
<glyph unicode="8" d="M61 427q0 60 14 114t44.5 98.5t78 79.5t114.5 58q-102 46 -151.5 128t-49.5 197q0 87 35.5 161t100 128.5t153 85.5t194.5 31q105 0 194 -31t153.5 -85.5t100 -128.5t35.5 -161q0 -115 -50 -197t-151 -128q67 -24 114 -58.5t77.5 -79t44.5 -98.5t14 -114q0 -100 -38 -182 t-108.5 -140t-168.5 -89.5t-217 -31.5t-217 31.5t-168.5 89.5t-109 140t-38.5 182zM389 433q0 -44 12 -82.5t37 -66.5t63.5 -44.5t92.5 -16.5q53 0 92 16.5t64 44.5t37 66.5t12 82.5q0 48 -10.5 88t-34 68t-63 44t-97.5 16t-97.5 -16t-63 -44t-34 -68t-10.5 -88zM420 1096 q0 -39 7 -76t26.5 -65.5t53.5 -46t87 -17.5t87 17.5t53.5 46t26.5 65.5t7 76q0 35 -9 67.5t-30 57.5t-54.5 40.5t-80.5 15.5q-48 0 -81 -15.5t-54 -40.5t-30 -58t-9 -67z" />
<glyph unicode="9" d="M115 1013q0 101 37 191t106.5 158t165.5 107t215 39q121 0 216 -36.5t161 -103t101.5 -158.5t35.5 -202q0 -74 -12 -138.5t-33 -123.5t-50.5 -112.5t-66.5 -106.5l-321 -456q-20 -30 -64.5 -50.5t-99.5 -20.5h-293l473 565q14 17 27 33t25 33q-46 -25 -100.5 -37 t-113.5 -12q-73 0 -145.5 26t-131.5 79t-95.5 134t-36.5 192zM432 1036q0 -223 207 -223q101 0 156 61t55 162q0 54 -16 96t-44 69.5t-68 41.5t-87 14q-48 0 -85.5 -16.5t-63.5 -46.5t-40 -70.5t-14 -87.5z" />
<glyph unicode=":" horiz-adv-x="565" d="M102 161q0 37 14 68.5t38 55t57 37.5t72 14q38 0 70.5 -14t57 -37.5t38.5 -55t14 -68.5t-14 -69.5t-38.5 -56t-57 -36.5t-70.5 -13q-39 0 -72 13t-57 36.5t-38 56t-14 69.5zM102 860q0 37 14 69t38 55.5t57 37t72 13.5q38 0 70.5 -13.5t57 -37t38.5 -55.5t14 -69t-14 -69 t-38.5 -55.5t-57 -37t-70.5 -13.5q-39 0 -72 13.5t-57 37t-38 55.5t-14 69z" />
<glyph unicode=";" horiz-adv-x="565" d="M102 860q0 37 14 69t38 55.5t57 37t72 13.5q38 0 70.5 -13.5t57 -37t38.5 -55.5t14 -69t-14 -69t-38.5 -55.5t-57 -37t-70.5 -13.5q-39 0 -72 13.5t-57 37t-38 55.5t-14 69zM111 180q0 33 12 61t35 49t54.5 33.5t70.5 12.5q46 0 79.5 -16t56 -43t33.5 -62.5t11 -74.5 q0 -51 -16.5 -109t-48.5 -116t-80.5 -114.5t-110.5 -102.5l-55 49q-11 11 -17 21t-6 24q0 10 7 22t18 21q12 12 28.5 29.5t32.5 39t30 47t21 54.5q-36 3 -64.5 17.5t-48.5 38t-31 53.5t-11 66z" />
<glyph unicode="&#x3c;" d="M133 629v124l830 434v-220q0 -24 -12.5 -44t-39.5 -34l-290 -157q-27 -14 -56.5 -24t-62.5 -18q33 -8 62.5 -16.5t56.5 -23.5l290 -157q27 -14 39.5 -34t12.5 -43v-220z" />
<glyph unicode="=" d="M127 386v227h932v-227h-932zM127 761v228h932v-228h-932z" />
<glyph unicode="&#x3e;" d="M225 196v220q0 24 12.5 43t38.5 34l291 157q26 14 56 23t63 17q-33 8 -63 18t-56 24l-291 157q-27 14 -39 34t-12 44v220l830 -434v-124z" />
<glyph unicode="?" horiz-adv-x="903" d="M39 1356q38 32 82.5 59.5t95.5 48.5t110 32.5t128 11.5q96 0 173.5 -25.5t131.5 -73t83 -114.5t29 -149q0 -79 -21.5 -135.5t-54.5 -98.5t-72.5 -72t-75 -56.5t-61.5 -52t-32 -57.5l-29 -144h-217l-22 165q-1 6 -1.5 12.5t-0.5 12.5q0 45 21.5 79t54 62t70.5 54t71 56 t54.5 67.5t21.5 88.5q0 61 -40.5 98t-111.5 37q-54 0 -90.5 -11.5t-62.5 -25.5t-45.5 -25t-39.5 -11q-44 0 -65 38zM227 161q0 37 14 68.5t38 55t57 37.5t72 14q38 0 70.5 -14t57 -37.5t38.5 -55t14 -68.5t-14 -69.5t-38.5 -56t-57.5 -36.5t-70 -13q-39 0 -72 13t-57 36.5 t-38 56t-14 69.5z" />
<glyph unicode="@" horiz-adv-x="1685" d="M51 609q0 108 29 211.5t82 194.5t128 168t167 132.5t199.5 86.5t226.5 31q99 0 193.5 -22.5t179 -65.5t156 -105.5t122.5 -142t79.5 -175.5t28.5 -204q0 -110 -33 -206.5t-93 -169t-142.5 -114.5t-179.5 -42q-33 0 -63.5 7t-57.5 21.5t-49.5 39t-35.5 58.5 q-61 -68 -127.5 -96.5t-143.5 -28.5q-67 0 -117 23t-84 64t-50.5 97.5t-16.5 123.5q0 58 14.5 118.5t44.5 116t75.5 105.5t107 86t139.5 57.5t174 21.5q45 0 81.5 -3.5t68.5 -9.5t60 -15.5t58 -22.5l-101 -388q-15 -60 -15 -96q0 -51 23 -70.5t62 -19.5q37 0 69 26t56 72 t37.5 108.5t13.5 136.5q0 127 -38 223.5t-108 162t-168.5 99.5t-219.5 34q-132 0 -243 -49t-190.5 -134.5t-124 -200t-44.5 -244.5q0 -164 49.5 -287.5t137 -206.5t208 -124.5t260.5 -41.5q81 0 149 8.5t123.5 22.5t98.5 31.5t73 34.5q23 12 42 12q36 0 51 -38l43 -110 q-51 -34 -113.5 -62.5t-134.5 -50t-155 -33.5t-177 -12q-193 0 -354.5 60t-280 171.5t-184.5 270.5t-66 355zM692 503q0 -60 23 -90t65 -30q23 0 45 7t41.5 24t35.5 44.5t26 68.5l71 280q-25 3 -49 3q-51 0 -98 -24.5t-82.5 -66.5t-56.5 -98t-21 -118z" />
<glyph unicode="A" horiz-adv-x="1509" d="M2 0l578 1492h354l577 -1492h-268q-45 0 -74 21t-41 54l-88 260h-567l-88 -260q-10 -29 -40 -52t-73 -23h-270zM553 570h408l-138 409q-13 39 -31 91.5t-35 114.5q-16 -62 -33.5 -115.5t-33.5 -92.5z" />
<glyph unicode="B" horiz-adv-x="1343" d="M123 0v1492h549q155 0 263 -28.5t177 -81t100 -127t31 -166.5q0 -50 -14.5 -97t-45 -88t-78.5 -74t-116 -58q147 -36 218 -116.5t71 -205.5q0 -95 -37 -177.5t-108 -143t-175.5 -95t-238.5 -34.5h-596zM469 261h244q69 0 112 17.5t68 45t34 62.5t9 71q0 41 -11 73.5 t-37 55t-69 35t-108 12.5h-242v-372zM469 864h180q57 0 103.5 8.5t78.5 29t49 56t17 90.5q0 53 -13.5 88t-41 56.5t-70 31t-100.5 9.5h-203v-369z" />
<glyph unicode="C" horiz-adv-x="1345" d="M37 746q0 167 57.5 307t160 241.5t246 157.5t316.5 56q84 0 158.5 -14.5t139 -41t118.5 -62.5t96 -80l-117 -157q-11 -14 -26.5 -26t-42.5 -12q-18 0 -34.5 8.5t-35 20t-40.5 25.5t-52.5 25.5t-71 20t-94.5 8.5q-94 0 -172 -33.5t-133.5 -95.5t-87 -150t-31.5 -198 q0 -115 31.5 -203.5t85 -149.5t125.5 -93t153 -32q47 0 86 5t72.5 16t63.5 29t61 44q12 10 26.5 17t29.5 7q12 0 24.5 -4.5t24.5 -15.5l137 -145q-90 -118 -226 -177.5t-321 -59.5q-170 0 -304.5 57.5t-228.5 159.5t-144 242t-50 303z" />
<glyph unicode="D" horiz-adv-x="1519" d="M123 0v1492h579q174 0 317 -56.5t244.5 -155.5t157.5 -236t56 -298q0 -162 -56 -298.5t-157.5 -236t-244 -155.5t-317.5 -56h-579zM471 266h231q99 0 177 33.5t132 95.5t82.5 150.5t28.5 200.5q0 111 -28.5 200t-82.5 151t-131.5 95.5t-177.5 33.5h-231v-960z" />
<glyph unicode="E" horiz-adv-x="1157" d="M123 0v1492h960v-266h-612v-348h469v-256h-469v-356h612v-266h-960z" />
<glyph unicode="F" horiz-adv-x="1140" d="M123 0v1492h960v-266h-612v-378h510v-267h-510v-581h-348z" />
<glyph unicode="G" horiz-adv-x="1458" d="M37 746q0 167 55 307t158 241.5t249 157.5t326 56q93 0 175 -15t151.5 -42t126.5 -63.5t102 -79.5l-100 -153q-14 -22 -34 -34t-44 -12q-31 0 -63 20q-41 25 -77.5 43t-74.5 29t-80 16.5t-94 5.5q-97 0 -175 -34.5t-132.5 -97t-84.5 -150t-30 -195.5q0 -119 33 -211 t90.5 -155.5t137 -96.5t173.5 -33q72 0 127.5 12t104.5 33v226h-148q-33 0 -51 17.5t-18 44.5v190h530v-630q-57 -42 -119 -72t-132 -49.5t-149.5 -28.5t-170.5 -9q-164 0 -303.5 57.5t-241 159.5t-159.5 242t-58 303z" />
<glyph unicode="H" horiz-adv-x="1548" d="M123 0v1492h348v-624h606v624h348v-1492h-348v631h-606v-631h-348z" />
<glyph unicode="I" horiz-adv-x="655" d="M154 0v1492h348v-1492h-348z" />
<glyph unicode="J" horiz-adv-x="880" d="M16 10l19 202q2 27 21 43t53 16q17 0 42.5 -5.5t61.5 -5.5q50 0 87.5 14t62 46t37 84.5t12.5 129.5v958h346v-951q0 -125 -31.5 -227.5t-94.5 -175.5t-158 -113.5t-224 -40.5q-58 0 -115 6t-119 20z" />
<glyph unicode="K" horiz-adv-x="1462" d="M123 0v1492h346v-604h55q77 0 111 48l336 487q28 40 63 54.5t86 14.5h301l-442 -603q-24 -33 -49.5 -54.5t-51.5 -35.5q39 -14 71 -39.5t59 -67.5l450 -692h-309q-30 0 -51 4t-36 12.5t-26.5 20t-21.5 26.5l-338 520q-18 29 -46.5 40.5t-76.5 11.5h-84v-635h-346z" />
<glyph unicode="L" horiz-adv-x="1062" d="M123 0v1492h346v-1216h553v-276h-899z" />
<glyph unicode="M" horiz-adv-x="1923" d="M123 0v1492h264q23 0 39.5 -1t30 -6t24.5 -16t21 -30l384 -757q20 -39 39 -81t37 -86q17 45 36.5 87.5t39.5 82.5l383 754q10 19 21 30t24.5 16t30 6t39.5 1h264v-1492h-305v858q0 62 6 135l-395 -767q-18 -36 -49.5 -54t-71.5 -18h-47q-40 0 -71 18t-50 54l-397 768 q4 -36 6 -71t2 -65v-858h-305z" />
<glyph unicode="N" horiz-adv-x="1548" d="M123 0v1492h182q23 0 38 -2t27.5 -7.5t24 -16t25.5 -27.5l708 -896q-4 43 -6 83.5t-2 75.5v790h305v-1492h-180q-40 0 -67.5 12.5t-53.5 44.5l-703 889q3 -39 5 -76t2 -70v-800h-305z" />
<glyph unicode="O" horiz-adv-x="1638" d="M45 746q0 162 56 301.5t157.5 242t245 160.5t317.5 58t317 -58.5t244.5 -161t157 -242t55.5 -300.5q0 -162 -55.5 -301t-157 -242t-244.5 -161t-317 -58t-317.5 58t-245 161t-157.5 242.5t-56 300.5zM399 746q0 -112 29 -200t82.5 -149.5t132 -94t178.5 -32.5 q99 0 177 32.5t132 94t82.5 149.5t28.5 200q0 111 -28.5 199.5t-82.5 150t-131.5 94.5t-177.5 33t-178.5 -33t-132 -94.5t-82.5 -150t-29 -199.5z" />
<glyph unicode="P" horiz-adv-x="1306" d="M123 0v1492h526q158 0 271 -37.5t186.5 -103t108 -154.5t34.5 -192q0 -112 -35.5 -205t-109.5 -160t-187 -104t-268 -37h-180v-499h-346zM469 760h180q135 0 194.5 64.5t59.5 180.5q0 51 -15.5 93t-46.5 72t-78.5 46.5t-113.5 16.5h-180v-473z" />
<glyph unicode="Q" horiz-adv-x="1638" d="M45 746q0 162 56 301.5t157.5 242t245 160.5t317.5 58t317 -58.5t244.5 -161t157 -242t55.5 -300.5q0 -96 -20 -184.5t-57 -166.5t-92 -144.5t-124 -117.5l377 -413h-284q-61 0 -111.5 15t-89.5 60l-185 208q-45 -9 -92 -14t-96 -5q-174 0 -317.5 58t-245 161 t-157.5 242.5t-56 300.5zM399 746q0 -112 29 -200t82.5 -149.5t132 -94t178.5 -32.5q99 0 177 32.5t132 94t82.5 149.5t28.5 200q0 111 -28.5 199.5t-82.5 150t-131.5 94.5t-177.5 33t-178.5 -33t-132 -94.5t-82.5 -150t-29 -199.5z" />
<glyph unicode="R" horiz-adv-x="1361" d="M123 0v1492h485q162 0 276 -33.5t186.5 -92.5t105 -140t32.5 -176q0 -73 -19.5 -137.5t-57.5 -119.5t-94 -98t-129 -70q35 -17 65.5 -43t52.5 -63l317 -519h-313q-87 0 -125 66l-248 433q-16 29 -38 41t-62 12h-88v-552h-346zM469 791h139q71 0 120.5 17.5t81.5 49.5 t46 74.5t14 91.5q0 98 -64 153.5t-198 55.5h-139v-442z" />
<glyph unicode="S" horiz-adv-x="1110" d="M14 180l103 162q11 18 31.5 29.5t44.5 11.5q31 0 62 -19.5t70.5 -43t90.5 -43t121 -19.5q94 0 146 41.5t52 131.5q0 52 -28.5 85t-75 54.5t-106 38t-122 36.5t-122 49t-106 76.5t-75 119t-28.5 175.5q0 84 33.5 164t99 142.5t161 99.5t218.5 37q69 0 133.5 -10.5 t123 -31.5t109 -50.5t90.5 -65.5l-86 -161q-15 -25 -32 -37t-43 -12q-24 0 -51 14.5t-61.5 33t-78.5 33.5t-100 15q-97 0 -145 -41.5t-48 -112.5q0 -45 29 -74.5t75.5 -51t106.5 -39.5t122.5 -40t122 -51.5t106.5 -76t75.5 -112.5t28.5 -159q0 -103 -36 -193t-104 -157.5 t-168 -105.5t-227 -38q-70 0 -142 14t-139.5 40.5t-127 62t-103.5 79.5z" />
<glyph unicode="T" horiz-adv-x="1226" d="M20 1218v274h1186v-274h-420v-1218h-346v1218h-420z" />
<glyph unicode="U" horiz-adv-x="1486" d="M102 608v884h347v-883q0 -79 19.5 -140.5t57.5 -105.5t92.5 -67t124.5 -23t125 23t92.5 66.5t57.5 105t20 140.5v884h346v-884q0 -137 -44.5 -251.5t-127.5 -197.5t-201.5 -129t-267.5 -46q-150 0 -268.5 46t-201.5 129t-127 197.5t-44 251.5z" />
<glyph unicode="V" horiz-adv-x="1509" d="M0 1492h279q45 0 73.5 -20.5t40.5 -54.5l289 -799q19 -52 39 -113.5t38 -128.5q14 68 33 129t37 113l287 799q10 29 40 52t73 23h280l-598 -1492h-313z" />
<glyph unicode="W" horiz-adv-x="2193" d="M10 1492h291q45 0 75.5 -20.5t39.5 -54.5l205 -778q10 -38 20 -81t15 -90q10 48 22.5 90.5t23.5 80.5l242 778q9 29 39.5 52t73.5 23h102q45 0 74.5 -20t40.5 -55l239 -778q11 -36 23.5 -76.5t22.5 -86.5q8 45 16.5 86t17.5 77l205 778q8 30 39 52.5t74 22.5h272 l-461 -1492h-313l-281 925q-7 22 -14.5 47t-14.5 54q-7 -29 -15 -54.5t-15 -46.5l-285 -925h-313z" />
<glyph unicode="X" horiz-adv-x="1458" d="M10 0l480 767l-461 725h346q34 0 49.5 -8.5t28.5 -29.5l297 -503q5 13 11.5 25.5t14.5 25.5l260 447q26 43 70 43h332l-468 -710l478 -782h-346q-34 0 -55 16.5t-33 38.5l-299 523q-8 -23 -19 -39l-278 -484q-12 -22 -32.5 -38.5t-51.5 -16.5h-324z" />
<glyph unicode="Y" horiz-adv-x="1386" d="M-20 1492h305q45 0 71.5 -21t42.5 -54l211 -434q26 -52 47.5 -96t37.5 -87q15 44 37 88t46 95l209 434q6 13 17 26.5t24.5 24.5t31.5 17.5t40 6.5h307l-541 -925v-567h-346v567z" />
<glyph unicode="Z" horiz-adv-x="1249" d="M41 0v133q0 24 8 47t23 42l702 1004h-676v266h1116v-125q0 -27 -8.5 -52.5t-23.5 -47.5l-701 -1001h711v-266h-1151z" />
<glyph unicode="[" horiz-adv-x="614" d="M92 -332v1926h459v-120q0 -32 -23 -54.5t-59 -22.5h-113v-1531h113q36 0 59 -22.5t23 -53.5v-122h-459z" />
<glyph unicode="\" horiz-adv-x="827" d="M-37 1533h135q55 0 97.5 -27.5t62.5 -80.5l582 -1526h-135q-25 0 -50 7t-47 21.5t-40.5 36t-28.5 48.5z" />
<glyph unicode="]" horiz-adv-x="614" d="M63 -210q0 31 23.5 53.5t58.5 22.5h113v1531h-113q-36 0 -59 22.5t-23 54.5v120h459v-1926h-459v122z" />
<glyph unicode="^" d="M90 786l395 706h207l395 -706h-233q-28 0 -46 14t-30 36l-127 242q-17 33 -32 62.5t-26 59.5q-10 -30 -23.5 -59.5t-30.5 -62.5l-123 -242q-11 -20 -30 -35t-50 -15h-246z" />
<glyph unicode="_" horiz-adv-x="806" d="M0 -111h807v-198h-807v198z" />
<glyph unicode="`" horiz-adv-x="675" d="M-39 1508h297q48 0 71.5 -15.5t41.5 -45.5l139 -251h-180q-36 0 -57.5 9.5t-45.5 33.5z" />
<glyph unicode="a" horiz-adv-x="1103" d="M72 276q0 56 28.5 116t99 108.5t190.5 81t302 36.5v46q0 93 -38.5 134.5t-108.5 41.5q-56 0 -92 -12.5t-64.5 -28t-55 -27.5t-63.5 -12q-33 0 -56 16t-36 39l-57 99q96 85 213.5 126.5t251.5 41.5q96 0 173.5 -31t131 -87t82 -132.5t28.5 -167.5v-664h-145 q-45 0 -68 12.5t-38 50.5l-23 59q-40 -34 -77 -59.5t-76 -43.5t-84 -26.5t-99 -8.5q-73 0 -132 19t-100.5 55.5t-64 91.5t-22.5 126zM375 292q0 -54 30 -76t87 -22q61 0 107 21.5t93 69.5v147q-95 -4 -156.5 -16.5t-97.5 -30.5t-49.5 -42t-13.5 -51z" />
<glyph unicode="b" d="M123 0v1533h317v-584q59 58 134.5 93.5t177.5 35.5q83 0 153.5 -35.5t121.5 -105t80.5 -169.5t29.5 -228q0 -120 -33.5 -221.5t-93.5 -176t-143.5 -116.5t-184.5 -42q-47 0 -84.5 9t-68.5 26t-57.5 40.5t-50.5 51.5l-11 -54q-7 -33 -26 -45t-50 -12h-211zM440 289 q36 -40 78 -56t88 -16q44 0 81 17.5t64 56t42.5 100t15.5 149.5q0 84 -12.5 141t-34.5 92.5t-52.5 51t-68.5 15.5q-35 0 -63 -7t-52 -19t-44.5 -31t-41.5 -44v-450z" />
<glyph unicode="c" horiz-adv-x="995" d="M53 534q0 115 34.5 214.5t101.5 172.5t166 115t229 42q125 0 219 -40t170 -116l-84 -112q-14 -17 -27.5 -27.5t-38.5 -10.5q-24 0 -42.5 11.5t-42 25t-55.5 25t-79 11.5q-58 0 -100.5 -21.5t-70 -61.5t-41 -98t-13.5 -130q0 -153 59 -235t162 -82q55 0 87.5 14t55 31 t41.5 31t47 14q38 0 58 -27l92 -114q-49 -56 -103.5 -91.5t-111 -55.5t-114 -27.5t-111.5 -7.5q-97 0 -186 36.5t-156 107t-106.5 172.5t-39.5 234z" />
<glyph unicode="d" d="M51 527q0 119 33 221t93 176t143.5 116t185.5 42q82 0 138.5 -24t103.5 -63v538h317v-1533h-197q-30 0 -49.5 13.5t-27.5 39.5l-25 81q-32 -34 -66.5 -61.5t-75 -47.5t-87.5 -30.5t-101 -10.5q-83 0 -153.5 36.5t-121.5 106.5t-80.5 170.5t-29.5 229.5zM379 527 q0 -84 12 -141t34 -92.5t53 -51t69 -15.5q35 0 63 7t51.5 19t44.5 30.5t42 43.5v450q-37 40 -78.5 56t-87.5 16q-44 0 -81 -17.5t-64 -56t-42.5 -100t-15.5 -148.5z" />
<glyph unicode="e" horiz-adv-x="1114" d="M53 554q0 106 36.5 201.5t104.5 167t165 113.5t219 42q105 0 192.5 -32.5t150.5 -95t98.5 -153t35.5 -205.5q0 -36 -3 -58.5t-11.5 -36t-22 -18.5t-35.5 -5h-612q15 -133 80.5 -193t169.5 -60q55 0 95 13.5t71 30t57 29.5t55 13q38 0 57 -27l93 -114q-49 -56 -106 -91.5 t-117 -55.5t-120 -27.5t-114 -7.5q-112 0 -209.5 36t-171 108t-116 178.5t-42.5 247.5zM374 658h396q0 38 -9.5 74t-31.5 64t-58 45.5t-87 17.5q-91 0 -142.5 -51.5t-67.5 -149.5z" />
<glyph unicode="f" horiz-adv-x="741" d="M20 935v125h150v60q0 91 29 165t84 126t134 81t179 29q39 0 72 -5t69 -15l-6 -154q-1 -16 -8.5 -27t-19 -18t-25 -10t-27.5 -3q-42 0 -74.5 -8t-54.5 -29t-33.5 -55.5t-11.5 -86.5v-50h250v-217h-240v-843h-317v844l-70 14q-36 8 -58 25.5t-22 51.5z" />
<glyph unicode="g" horiz-adv-x="1071" d="M14 -87q0 71 43 119.5t118 76.5q-36 24 -57.5 60.5t-21.5 92.5q0 24 8.5 50t25.5 50.5t44 47t64 40.5q-83 44 -131 116.5t-48 168.5q0 80 34 144t93 108.5t139 68.5t173 24q68 0 127.5 -13t110.5 -38h321v-116q0 -27 -15 -42t-51 -23l-78 -18q14 -46 15 -95 q0 -80 -33.5 -143.5t-91.5 -108t-136.5 -68.5t-168.5 -24q-50 0 -95 6q-35 -20 -34 -47q0 -27 28 -38.5t74 -16t105.5 -6t121 -7.5t121 -19t105.5 -43t74 -79.5t28 -126.5q0 -72 -35 -140.5t-102.5 -121.5t-165.5 -85.5t-225 -32.5q-125 0 -216 24t-150.5 62t-88.5 88.5 t-29 104.5zM289 -46q0 -23 9.5 -41t34 -31.5t66 -21t105.5 -7.5q69 0 112.5 8t70 22.5t36.5 34t10 43.5q0 26 -16 41t-43 24.5t-63.5 13.5t-78.5 6t-87 3.5t-89 6.5q-30 -20 -48.5 -45t-18.5 -57zM348 728q0 -31 9 -56.5t27 -44.5t46.5 -29.5t67.5 -10.5q79 0 114 39.5 t35 101.5q0 65 -35 101.5t-114 36.5t-114.5 -36.5t-35.5 -101.5z" />
<glyph unicode="h" d="M123 0v1533h317v-564q57 49 124.5 79t160.5 30q87 0 154 -30t113 -84t69.5 -128t23.5 -161v-675h-317v675q0 78 -36 121.5t-105 43.5q-52 0 -98.5 -22.5t-88.5 -60.5v-757h-317z" />
<glyph unicode="i" horiz-adv-x="583" d="M104 1353q0 39 15 72.5t41 59t60 40t73 14.5q40 0 75 -14.5t62 -40t42 -59t15 -72.5q0 -38 -15 -71.5t-42 -58.5t-62 -40t-75 -15q-39 0 -73 15t-60 40t-41 58.5t-15 71.5zM133 0v1062h318v-1062h-318z" />
<glyph unicode="j" horiz-adv-x="579" d="M-63 -347l10 167q2 22 14 32t49 10t60.5 6t37.5 21.5t19.5 41.5t5.5 67v1064h318v-1064q0 -75 -19 -141t-62.5 -115.5t-115 -78.5t-176.5 -29q-39 0 -72.5 5t-68.5 14zM104 1353q0 39 15 72.5t41 59t60 40t73 14.5q40 0 75 -14.5t62 -40t42 -59t15 -72.5q0 -38 -15 -71.5 t-42 -58.5t-62 -40t-75 -15q-39 0 -73 15t-60 40t-41 58.5t-15 71.5z" />
<glyph unicode="k" horiz-adv-x="1179" d="M123 0v1533h317v-859h47q30 0 46 8t30 30l201 299q17 27 41 39t61 12h291l-274 -378q-19 -27 -42.5 -47.5t-49.5 -36.5q46 -35 79 -92l299 -508h-286q-36 0 -62 12t-43 41l-200 376q-14 26 -30 33.5t-46 7.5h-62v-470h-317z" />
<glyph unicode="l" horiz-adv-x="583" d="M133 0v1533h318v-1533h-318z" />
<glyph unicode="m" horiz-adv-x="1763" d="M123 0v1062h196q30 0 50 -13.5t28 -39.5l18 -58q27 28 55.5 51t61.5 40t71.5 26.5t84.5 9.5q96 0 159 -49.5t96 -132.5q27 49 65.5 84t83 56.5t94 31.5t98.5 10q91 0 162 -27t118.5 -78.5t72 -127t24.5 -170.5v-675h-318v675q0 165 -141 165q-65 0 -107 -42.5t-42 -122.5 v-675h-318v675q0 91 -35.5 128t-105.5 37q-43 0 -81.5 -19.5t-72.5 -52.5v-768h-317z" />
<glyph unicode="n" d="M123 0v1062h196q30 0 50 -13.5t28 -39.5l19 -62q31 29 63.5 53.5t70 41.5t81 26.5t94.5 9.5q87 0 154 -30t113 -84t69.5 -128t23.5 -161v-675h-317v675q0 78 -36 121.5t-105 43.5q-52 0 -98.5 -22.5t-88.5 -60.5v-757h-317z" />
<glyph unicode="o" d="M51 534q0 126 39.5 226.5t111.5 171t172 108.5t222 38q121 0 220 -38t170.5 -108.5t111 -171.5t39.5 -226q0 -127 -39.5 -229t-111 -173.5t-170.5 -109.5t-220 -38q-122 0 -222 38t-172 109.5t-111.5 173.5t-39.5 229zM379 531q0 -158 52 -235t165 -77q110 0 161.5 77.5 t51.5 234.5q0 158 -51.5 235t-161.5 77q-113 0 -165 -77t-52 -235z" />
<glyph unicode="p" horiz-adv-x="1183" d="M123 -337v1399h196q30 0 50 -13.5t28 -39.5l24 -78q31 34 66 61.5t75.5 47.5t87 31t102.5 11q83 0 153.5 -36.5t121.5 -106.5t80.5 -170.5t29.5 -228.5q0 -120 -33.5 -221.5t-93.5 -176t-143.5 -116.5t-184.5 -42q-83 0 -139.5 23.5t-102.5 63.5v-408h-317zM440 289 q36 -40 78 -56t88 -16q44 0 81 17.5t64 56t42.5 100t15.5 149.5q0 84 -12.5 141t-34.5 92.5t-52.5 51t-68.5 15.5q-35 0 -63 -7t-52 -19t-44.5 -31t-41.5 -44v-450z" />
<glyph unicode="q" d="M51 527q0 119 33 221t93 176t143.5 116t185.5 42q48 0 87 -8t71 -23.5t60 -37t53 -46.5l14 42q18 53 77 53h197v-1399h-317v453q-60 -59 -135 -95.5t-177 -36.5q-83 0 -153.5 36.5t-121.5 106.5t-80.5 170.5t-29.5 229.5zM379 527q0 -84 12 -141t34 -92.5t53 -51 t69 -15.5q35 0 63 7t51.5 19t44.5 30.5t42 43.5v450q-37 39 -78.5 55.5t-87.5 16.5q-44 0 -81 -17.5t-64 -56t-42.5 -100t-15.5 -148.5z" />
<glyph unicode="r" horiz-adv-x="845" d="M123 0v1062h188q24 0 40 -4t26.5 -13t16 -23t9.5 -35l18 -99q58 90 131 142t159 52q73 0 116 -34l-41 -234q-4 -22 -16 -30.5t-33 -8.5q-17 0 -40.5 4.5t-59.5 4.5q-125 0 -197 -133v-651h-317z" />
<glyph unicode="s" horiz-adv-x="901" d="M23 115l73 116q13 20 31.5 32t48.5 12q28 0 50 -12t47.5 -26.5t60 -26.5t86.5 -12q37 0 62.5 7.5t41 21t22.5 29.5t7 34q0 32 -21.5 52t-56.5 35t-79.5 28t-90.5 29.5t-90.5 39.5t-79.5 58t-56.5 86.5t-21.5 123.5q0 68 26.5 129t78.5 107t131 73t184 27q57 0 111 -10 t101 -28.5t86 -43.5t69 -55l-72 -112q-12 -19 -26 -27t-35 -8q-23 0 -45.5 9.5t-48.5 21t-59 21t-75 9.5q-60 0 -92.5 -23t-32.5 -64q0 -30 21 -49.5t56 -34t79 -28t90 -30t90 -38.5t79 -54t56 -78t21 -111q0 -79 -28.5 -145.5t-85.5 -114.5t-140.5 -74.5t-192.5 -26.5 q-54 0 -108 10t-105 27.5t-94 41.5t-73 52z" />
<glyph unicode="t" horiz-adv-x="819" d="M35 905v124l169 33l62 259q12 49 70 49h166v-310h258v-217h-258v-528q0 -37 18 -61t51 -24q17 0 29 4t21 8.5t16.5 8t17.5 3.5q14 0 23 -6.5t18 -21.5l97 -150q-61 -46 -138 -69t-159 -23q-76 0 -134 22t-97.5 62.5t-60 97.5t-20.5 128v549h-90q-25 0 -42 15.5t-17 46.5z " />
<glyph unicode="u" d="M102 388v674h318v-674q0 -79 36 -122t105 -43q52 0 98 21.5t89 60.5v757h317v-1062h-197q-59 0 -77 53l-20 62q-31 -30 -63.5 -54t-70 -41t-80.5 -26.5t-94 -9.5q-87 0 -154 30t-113 84.5t-70 128t-24 161.5z" />
<glyph unicode="v" horiz-adv-x="1132" d="M10 1062h264q34 0 57 -16t31 -39l148 -477q17 -58 33 -113.5t27 -110.5q11 55 27.5 110.5t35.5 113.5l153 477q8 24 31 39.5t53 15.5h252l-411 -1062h-289z" />
<glyph unicode="w" horiz-adv-x="1665" d="M0 1062h254q34 0 58.5 -15.5t29.5 -39.5l107 -477q12 -54 22 -105t18 -101q14 50 30.5 100.5t31.5 105.5l133 478q6 24 29.5 39.5t54.5 15.5h141q34 0 58 -16t30 -39l127 -478q14 -54 29 -105t29 -103q8 51 19.5 101.5t25.5 106.5l112 477q5 25 29.5 40t54.5 15h242 l-330 -1062h-258q-20 0 -34.5 12.5t-22.5 40.5l-152 530q-10 36 -19 70.5t-16 69.5q-7 -36 -16 -71.5t-20 -70.5l-154 -528q-15 -53 -68 -53h-245z" />
<glyph unicode="x" horiz-adv-x="1173" d="M20 0l357 549l-342 513h305q34 0 50 -9t28 -29l189 -314q6 18 15.5 35.5t20.5 36.5l135 237q13 24 29.5 33.5t40.5 9.5h291l-342 -499l356 -563h-305q-34 0 -54.5 16.5t-33.5 38.5l-190 326q-5 -17 -12 -32.5t-15 -29.5l-156 -264q-12 -22 -32.5 -38.5t-51.5 -16.5h-283z " />
<glyph unicode="y" horiz-adv-x="1132" d="M0 1062h281q37 0 57 -16.5t29 -38.5l174 -458q25 -63 40 -127q10 33 22 64.5t24 64.5l157 456q8 24 32.5 39.5t51.5 15.5h256l-567 -1337q-14 -32 -34.5 -47t-65.5 -15h-238l205 430z" />
<glyph unicode="z" horiz-adv-x="976" d="M66 0v129q0 19 10.5 48.5t29.5 55.5l448 593h-460v236h821v-127q0 -33 -12 -62.5t-29 -51.5l-443 -585h474v-236h-839z" />
<glyph unicode="{" horiz-adv-x="614" d="M14 543v177q31 0 52 10t33.5 28t18 43t5.5 55q0 45 -5.5 91t-13 92t-13 93.5t-5.5 94.5q0 83 24 151t75 116t128.5 74t186.5 26h53v-137q0 -16 -7 -27.5t-17.5 -18.5t-21.5 -10.5t-20 -3.5q-65 0 -95 -40t-30 -111q0 -56 5 -106t10 -97t9.5 -92t4.5 -91q0 -39 -10 -74.5 t-31 -66t-52 -53.5t-71 -35q40 -12 71 -35t52 -53t31 -66.5t10 -74.5q0 -46 -4.5 -91t-9.5 -91.5t-10 -96.5t-5 -107q0 -71 30.5 -110.5t94.5 -39.5q8 0 19.5 -3.5t22 -11t17.5 -18.5t7 -28v-137h-53q-109 0 -186.5 26t-128.5 75t-75 116.5t-24 150.5q0 47 5.5 94t13 93 t13 92.5t5.5 91.5q0 61 -23.5 98.5t-85.5 37.5z" />
<glyph unicode="|" horiz-adv-x="614" d="M184 -337v1931h246v-1931h-246z" />
<glyph unicode="}" horiz-adv-x="614" d="M61 -195q0 16 7.5 27.5t17.5 19t21.5 11t19.5 3.5q65 0 95 40t30 110q0 56 -4.5 106.5t-10 97t-10 91.5t-4.5 91q0 38 10.5 74.5t31.5 66.5t51 52.5t70 35.5q-40 12 -70 35t-51 53.5t-31.5 66t-10.5 74.5q0 46 4.5 91t10 92t10 97t4.5 106q0 71 -30.5 111t-94.5 40 q-8 0 -19.5 3.5t-21.5 10.5t-17.5 18.5t-7.5 27.5v137h54q109 0 186.5 -26t128 -74t74.5 -116t24 -151q0 -47 -5.5 -94.5t-12.5 -93.5t-12.5 -92t-5.5 -91q0 -30 5.5 -55t17.5 -43t33 -28t52 -10v-177q-61 0 -84.5 -37.5t-23.5 -98.5q0 -45 5.5 -91.5t12.5 -92.5t12.5 -93 t5.5 -94q0 -83 -24 -150.5t-74.5 -116.5t-128.5 -75t-186 -26h-54v137z" />
<glyph unicode="~" d="M82 394q0 87 23 157t66 118.5t106 74.5t143 26q54 0 101.5 -12t88.5 -26.5t75.5 -26.5t62.5 -12q49 0 75.5 32t26.5 93h256q0 -87 -23 -156.5t-66 -118t-106 -75t-143 -26.5q-54 0 -102 12t-88.5 27t-75 26.5t-62.5 11.5q-49 0 -75.5 -31.5t-26.5 -93.5h-256z" />
<glyph unicode="&#xa1;" horiz-adv-x="770" d="M205 903q0 37 13.5 69.5t38 56t57 36.5t71.5 13q38 0 70.5 -13t57.5 -36.5t38.5 -56t13.5 -69.5t-13.5 -68.5t-38.5 -55t-57.5 -37.5t-70.5 -14q-39 0 -71.5 14t-57 37.5t-38 55t-13.5 68.5zM240 203q0 94 11 187t30 189h215q18 -95 29.5 -188.5t11.5 -187.5v-540h-297 v540z" />
<glyph unicode="&#xa2;" d="M111 531q0 111 34 208t101.5 169.5t166.5 116.5t228 50l14 144q3 28 25.5 51t58.5 23h117l-23 -232q77 -17 141 -52t120 -87l-82 -108q-13 -17 -26 -26.5t-38 -9.5q-15 0 -29.5 5t-31 13t-35.5 16.5t-43 16.5l-63 -612q44 6 74 20t53 28t42.5 24t42.5 10q18 0 33.5 -7 t24.5 -19l88 -109q-41 -45 -86.5 -76.5t-93.5 -52.5t-99 -32t-102 -15l-12 -129q-3 -28 -25.5 -51.5t-58.5 -23.5h-117l20 210q-88 16 -164.5 59t-133.5 111.5t-89 161t-32 205.5zM424 531q0 -111 34 -183.5t98 -105.5l60 598q-100 -20 -146 -100.5t-46 -208.5z" />
<glyph unicode="&#xa3;" d="M29 603v98q0 41 26 71.5t78 30.5h86v221q0 97 30 184.5t90.5 154.5t152.5 106t217 39q83 0 150 -21t119.5 -58t92.5 -88t70 -109l-127 -80q-38 -20 -73 -20q-47 0 -85 38q-39 40 -70.5 59.5t-76.5 19.5q-83 0 -123.5 -57.5t-40.5 -166.5v-222h389v-121q0 -15 -6.5 -29 t-18.5 -25.5t-28 -18t-35 -6.5h-301v-160q0 -61 -23 -110.5t-62 -92.5q46 10 92 15.5t93 5.5h514v-130q0 -23 -9.5 -46.5t-27 -42t-42.5 -30.5t-56 -12h-977v190q34 6 65 19.5t54.5 34t38 49.5t14.5 66v244h-190z" />
<glyph unicode="&#xa4;" d="M92 1030l160 152l154 -152q42 23 89 35t99 12q49 0 94.5 -11.5t86.5 -33.5l157 156l158 -154l-157 -154q24 -42 37 -90t13 -100q0 -50 -12 -96t-34 -87l159 -156l-160 -152l-155 151q-42 -23 -89 -35t-98 -12q-49 0 -94.5 11.5t-86.5 31.5l-157 -153l-158 153l156 154 q-24 42 -36.5 90t-12.5 100q0 50 11.5 96.5t33.5 86.5zM438 690q0 -33 12.5 -62.5t33.5 -52t49 -35.5t61 -13t61.5 13t50 35.5t34 52t12.5 62.5q0 35 -12.5 64.5t-34 52t-50 35.5t-61.5 13t-61 -13t-49 -35.5t-33.5 -52t-12.5 -64.5z" />
<glyph unicode="&#xa5;" d="M-20 1492h264q45 0 72.5 -20t41.5 -55l170 -435q22 -55 39 -100.5t27 -90.5q9 46 25 91.5t36 99.5l168 435q11 30 40.5 52.5t72.5 22.5h266l-400 -838h255v-169h-307v-90h307v-169h-307v-226h-318v226h-307v169h307v90h-307v169h254z" />
<glyph unicode="&#xa6;" horiz-adv-x="614" d="M184 -337v839h246v-839h-246zM184 756v838h246v-838h-246z" />
<glyph unicode="&#xa7;" horiz-adv-x="1038" d="M78 691q0 80 40 144.5t122 103.5q-45 41 -73 96.5t-28 134.5q0 68 26 129t78.5 107t131.5 73t184 27q57 0 111 -10t101 -28.5t86 -43.5t69 -55l-72 -112q-12 -19 -26 -26.5t-35 -7.5q-23 0 -45.5 9t-48.5 21t-59 21t-75 9q-74 0 -109.5 -27.5t-35.5 -70.5 q0 -27 23.5 -48.5t62.5 -41t88.5 -39t102 -42t102 -50t88.5 -64t62.5 -83.5t23.5 -107q0 -82 -38 -150t-122 -111q44 -38 71 -88t27 -119q0 -79 -28.5 -145.5t-85.5 -115t-140.5 -75t-191.5 -26.5q-54 0 -108.5 10.5t-105 27.5t-93.5 41.5t-74 51.5l74 117q13 20 31.5 32 t48.5 12q28 0 49.5 -12.5t49 -26.5t63.5 -26.5t94 -12.5q67 0 104 24t37 72q0 38 -24 64.5t-63 47t-89 37.5t-102.5 37.5t-102.5 46.5t-89 62t-63 86.5t-24 119.5zM358 741q0 -36 25 -62.5t64.5 -48.5t91 -42t104.5 -42q29 17 41 41.5t12 52.5q0 37 -24.5 63t-64.5 47.5 t-90.5 41t-102.5 43.5q-30 -19 -43 -41.5t-13 -52.5z" />
<glyph unicode="&#xa8;" horiz-adv-x="675" d="M-25 1326q0 34 13.5 63.5t35.5 51.5t51 35t62 13q35 0 65 -13t53.5 -35t36.5 -51.5t13 -63.5q0 -33 -13 -61.5t-36.5 -49.5t-53.5 -33.5t-65 -12.5q-33 0 -62 12.5t-51 33.5t-35.5 49.5t-13.5 61.5zM371 1326q0 34 12.5 63.5t35 51.5t52.5 35t64 13q35 0 65 -13t52.5 -35 t35 -51.5t12.5 -63.5q0 -33 -12.5 -61.5t-35 -49.5t-53 -33.5t-64.5 -12.5t-64 12.5t-52.5 33.5t-35 49.5t-12.5 61.5z" />
<glyph unicode="&#xa9;" horiz-adv-x="1607" d="M41 746q0 105 27 203t77 182t119.5 154t154.5 119.5t181.5 76.5t202.5 27q105 0 203 -27t182.5 -76.5t154.5 -119.5t119.5 -154t77 -181.5t27.5 -203.5q0 -104 -27.5 -201.5t-77 -181.5t-119.5 -154t-154.5 -119.5t-182.5 -76.5t-203 -27q-104 0 -201.5 27t-182.5 76.5 t-154.5 119.5t-119.5 154t-77 181t-27 202zM211 746q0 -130 45.5 -242.5t125.5 -196t188 -131t233 -47.5q126 0 235 47.5t190 131t127 196t46 242.5q0 87 -21 167t-59.5 149.5t-92.5 126t-121 96.5t-143.5 62t-160.5 22q-125 0 -233 -48t-188 -132.5t-125.5 -198.5 t-45.5 -244zM352 750q0 104 37 191.5t101 151.5t150 99.5t185 35.5q118 0 203 -41t137 -103l-84 -111q-8 -8 -20 -19t-33 -11q-20 0 -35 9.5t-33.5 20.5t-45.5 20t-72 9q-103 0 -156 -68t-53 -184q0 -61 13.5 -108.5t38.5 -79.5t59 -48t75 -16q48 0 76.5 8.5t47 19t32 19.5 t33.5 10q12 0 23 -6t20 -15l104 -108q-55 -77 -144.5 -116.5t-207.5 -39.5q-103 0 -187 37.5t-142 102.5t-90 152t-32 188z" />
<glyph unicode="&#xaa;" horiz-adv-x="722" d="M72 1034q0 33 15.5 68.5t56.5 65.5t113 50.5t183 23.5v16q0 47 -20 64t-53 17q-31 0 -50.5 -6t-35.5 -13t-32.5 -13.5t-41.5 -6.5q-24 0 -39 13.5t-27 27.5l-39 71q60 54 134 78t159 24q60 0 109.5 -19t84.5 -54t54 -81.5t19 -101.5v-396h-107q-31 0 -46.5 8.5 t-29.5 34.5l-12 28q-24 -20 -45.5 -34.5t-44.5 -25t-49 -15t-58 -4.5q-93 0 -145.5 47t-52.5 133zM289 1044q0 -24 12 -32t43 -8q28 0 50 8.5t46 31.5v65q-48 -2 -77.5 -7.5t-46 -14.5t-22 -20t-5.5 -23z" />
<glyph unicode="&#xab;" horiz-adv-x="1036" d="M113 538v40l268 411l104 -47q25 -11 37 -27.5t12 -36.5q0 -25 -16 -53l-123 -220q-17 -31 -37 -48q18 -16 37 -47l123 -221q15 -27 16 -51q0 -20 -12 -37t-37 -28l-104 -47zM481 538v40l269 411l104 -47q25 -11 36.5 -27.5t11.5 -36.5q0 -25 -15 -53l-123 -220 q-17 -31 -37 -48q18 -16 37 -47l123 -221q15 -27 15 -51q0 -20 -11.5 -37t-36.5 -28l-104 -47z" />
<glyph unicode="&#xac;" d="M127 574v228h932v-513h-268v285h-664z" />
<glyph unicode="&#xad;" horiz-adv-x="757" d="M102 495v256h553v-256h-553z" />
<glyph unicode="&#xae;" horiz-adv-x="1607" d="M41 746q0 105 27 203t77 182t119.5 154t154.5 119.5t181.5 76.5t202.5 27q105 0 203 -27t182.5 -76.5t154.5 -119.5t119.5 -154t77 -181.5t27.5 -203.5q0 -104 -27.5 -201.5t-77 -181.5t-119.5 -154t-154.5 -119.5t-182.5 -76.5t-203 -27q-104 0 -201.5 27t-182.5 76.5 t-154.5 119.5t-119.5 154t-77 181t-27 202zM211 746q0 -130 45.5 -242.5t125.5 -196t188 -131t233 -47.5q118 0 220.5 42t182.5 117h-221q-56 0 -78 40l-94 236q-11 17 -24 25t-37 8h-33v-309h-275v922h361q102 0 176.5 -18t122 -53t70 -86.5t22.5 -116.5q0 -43 -10 -82.5 t-31 -72.5t-54.5 -60t-79.5 -44q30 -15 50.5 -39.5t36.5 -57.5l127 -264q78 83 122 192.5t44 237.5q0 87 -21 167t-59.5 149.5t-92.5 126t-121 96.5t-143.5 62t-160.5 22q-125 0 -233 -48t-188 -132.5t-125.5 -198.5t-45.5 -244zM719 785h65q49 0 77.5 8t43 22t18 36t3.5 50 q0 27 -3.5 47t-16 33.5t-36.5 21t-65 7.5h-86v-225z" />
<glyph unicode="&#xaf;" horiz-adv-x="675" d="M20 1230v194h635v-194h-635z" />
<glyph unicode="&#xb0;" horiz-adv-x="829" d="M41 1146q0 76 28.5 142.5t79 115.5t118.5 77.5t147 28.5t147.5 -28.5t119 -77.5t79 -115.5t28.5 -142.5q0 -74 -28.5 -140t-79 -115t-119 -78.5t-147.5 -29.5t-147 29.5t-118.5 78.5t-79 115t-28.5 140zM260 1144q0 -34 11.5 -63t32 -51t48.5 -34.5t62 -12.5t62 12.5 t48.5 34.5t31.5 51t11 63q0 35 -11 65t-31.5 52t-49 35t-61.5 13q-34 0 -62 -13t-48.5 -35t-32 -52t-11.5 -65z" />
<glyph unicode="&#xb1;" d="M86 82v227h1014v-227h-1014zM86 730v228h377v345h258v-345h379v-228h-379v-327h-258v327h-377z" />
<glyph unicode="&#xb2;" horiz-adv-x="684" d="M57 922v70q0 20 8.5 44t28.5 43l203 199q20 20 38 44.5t31.5 48.5t21 47t7.5 42q0 25 -10 44t-37 19q-22 0 -34.5 -10.5t-24.5 -32.5q-14 -20 -29.5 -32t-44.5 -12q-14 0 -31 3l-127 19q9 62 35 107.5t65.5 74.5t91 43.5t111.5 14.5q66 0 115.5 -18.5t83 -50.5t50 -73.5 t16.5 -87.5q0 -42 -13 -76.5t-34 -66.5t-48.5 -61.5t-56.5 -60.5l-103 -105q34 10 66.5 16t59.5 6h69q36 0 56 -19t20 -50v-129h-584z" />
<glyph unicode="&#xb3;" horiz-adv-x="684" d="M66 1125l98 39q26 9 49 10q48 0 66 -33q14 -27 33.5 -37t37.5 -10q31 0 48.5 17.5t17.5 47.5q0 26 -6 41t-20.5 23.5t-39.5 11t-63 2.5v143q41 0 66 5.5t39 14.5t18 23.5t4 32.5q0 27 -10.5 45t-43.5 18q-25 0 -37.5 -9.5t-21.5 -27.5q-13 -24 -27 -35t-40 -11 q-14 0 -33 3l-117 19q9 62 34.5 107.5t63.5 74.5t87 43.5t104 14.5q63 0 112 -18t81 -47t48.5 -65t16.5 -72q0 -63 -24 -108t-81 -71q58 -19 87.5 -55t29.5 -95q0 -68 -25 -115.5t-65 -78.5t-90 -45.5t-101 -14.5q-53 0 -97.5 9t-81.5 33t-66 65t-51 105z" />
<glyph unicode="&#xb4;" horiz-adv-x="675" d="M184 1196l140 251q17 30 40.5 45.5t71.5 15.5h307l-266 -269q-24 -24 -45 -33.5t-57 -9.5h-191z" />
<glyph unicode="&#xb5;" d="M102 -210v1272h318v-682q0 -75 37 -116t104 -41q52 0 98 21.5t89 60.5v757h317v-1062h-197q-30 0 -49.5 13.5t-27.5 39.5l-20 63q-30 -27 -56.5 -45t-53.5 -28.5t-56.5 -15t-63.5 -4.5q-49 0 -91 13.5t-77 39.5q15 -47 20.5 -100t5.5 -99v-214h-157q-67 0 -103.5 33 t-36.5 94z" />
<glyph unicode="&#xb6;" horiz-adv-x="1492" d="M25 1053q0 96 33.5 177t95.5 139t149.5 90.5t194.5 32.5h968v-257h-215v-1456h-276v1456h-201v-1456h-276v842q-106 0 -194 34.5t-150 93.5t-95.5 137.5t-33.5 166.5z" />
<glyph unicode="&#xb7;" horiz-adv-x="583" d="M61 610q0 46 18 87t49.5 71.5t73 48t89.5 17.5t90.5 -17.5t73.5 -48t49 -71.5t18 -87t-18 -86.5t-49 -70.5t-73.5 -47.5t-90.5 -17.5t-89.5 17.5t-73 47.5t-49.5 70.5t-18 86.5z" />
<glyph unicode="&#xb8;" horiz-adv-x="675" d="M135 -339l29 96q6 28 35 28q15 0 29.5 -4t35.5 -4q27 0 38 9.5t11 20.5q0 22 -31 32.5t-106 21.5l47 156h197l-18 -61q46 -12 77 -28.5t49 -36t25.5 -42.5t7.5 -48q0 -36 -20 -64.5t-55.5 -49t-86.5 -31.5t-112 -11q-42 0 -77.5 4t-74.5 12z" />
<glyph unicode="&#xb9;" horiz-adv-x="684" d="M74 1486l248 204h190v-629h104v-139h-462v139h133v305l6 55l-51 -38q-20 -14 -43 -14q-18 0 -33 7.5t-23 17.5z" />
<glyph unicode="&#xba;" horiz-adv-x="806" d="M51 1184q0 77 26 137.5t73.5 103t112.5 65t143 22.5q77 0 141 -22.5t110 -65t72.5 -103t26.5 -137.5q0 -78 -26.5 -140t-72.5 -105t-110.5 -66t-140.5 -23q-78 0 -143 23t-112.5 66t-73.5 105t-26 140zM299 1182q0 -83 25 -118.5t82 -35.5q52 0 77 35.5t25 118.5 t-25 117.5t-77 34.5q-57 0 -82 -34.5t-25 -117.5z" />
<glyph unicode="&#xbb;" horiz-adv-x="1036" d="M134 238q0 25 16 51l122 221q15 29 37 47q-10 9 -19 21.5t-18 26.5l-122 220q-15 28 -16 53q0 20 12 36.5t36 27.5l105 47l268 -411v-40l-268 -412l-105 47q-25 11 -36.5 27.5t-11.5 37.5zM503 238q0 25 15 51l123 221q15 29 37 47q-10 9 -19.5 21.5t-17.5 26.5l-123 220 q-15 28 -15 53q0 20 11.5 36.5t36.5 27.5l104 47l269 -411v-40l-269 -412l-104 47q-25 11 -36.5 27.5t-11.5 37.5z" />
<glyph unicode="&#xbc;" horiz-adv-x="1458" d="M53 1289l248 204h191v-629h104v-139h-463v139h133v305l6 56l-51 -38q-20 -14 -43 -15q-18 0 -33 8t-22 17zM197 0l868 1392q31 48 70 74t94 26h135l-877 -1405q-16 -26 -33 -42.5t-36 -26.5t-40.5 -14t-45.5 -4h-135zM819 292l336 476h219v-466h82v-109q0 -15 -11 -27.5 t-30 -12.5h-41v-153h-188v153h-281q-30 0 -46.5 12.5t-20.5 32.5zM1023 302h163v112q0 27 1.5 58.5t5.5 65.5z" />
<glyph unicode="&#xbd;" horiz-adv-x="1458" d="M53 1289l248 204h191v-629h104v-139h-463v139h133v305l6 56l-51 -38q-20 -14 -43 -15q-18 0 -33 8t-22 17zM158 0l868 1392q31 48 70 74t94 26h135l-876 -1405q-16 -26 -33.5 -42.5t-36.5 -26.5t-40.5 -14t-45.5 -4h-135zM852 0v71q0 20 8 43.5t29 43.5l203 198 q20 20 38 44.5t31.5 48.5t21 47t7.5 43q0 25 -10.5 43.5t-36.5 18.5q-22 0 -34.5 -10t-25.5 -33q-14 -20 -29.5 -32t-43.5 -12q-14 0 -31 3l-127 20q9 62 34.5 107t65 74.5t91.5 43.5t112 14q66 0 115.5 -18.5t82.5 -50t49.5 -73t16.5 -87.5q0 -42 -12.5 -77t-33.5 -66.5 t-49 -61.5l-56 -60l-104 -106q34 10 67 16.5t59 6.5h70q36 0 56 -19t20 -51v-129h-584z" />
<glyph unicode="&#xbe;" horiz-adv-x="1458" d="M45 929l98 39q26 9 50 9q48 0 65 -33q14 -27 33.5 -37t38.5 -10q31 0 48 18t17 48q0 26 -5.5 41t-20.5 23t-40 10.5t-63 2.5v144q41 0 66 5t39 14t18 23.5t4 33.5q0 27 -10 44.5t-43 17.5q-25 0 -37.5 -9t-21.5 -28q-13 -24 -27 -35t-40 -11q-14 0 -34 3l-117 20 q9 62 35 107t64 74.5t86.5 43.5t103.5 14q63 0 112 -18t81.5 -47t48.5 -65t16 -72q0 -63 -24 -107.5t-80 -71.5q58 -19 87.5 -55t29.5 -94q0 -68 -25.5 -116t-65 -79t-90 -45t-100.5 -14q-53 0 -97.5 8.5t-81.5 32.5t-66 65t-52 106zM197 0l868 1392q31 48 70 74t94 26h135 l-877 -1405q-16 -26 -33 -42.5t-36 -26.5t-40.5 -14t-45.5 -4h-135zM819 292l336 476h219v-466h82v-109q0 -15 -11 -27.5t-30 -12.5h-41v-153h-188v153h-281q-30 0 -46.5 12.5t-20.5 32.5zM1023 302h163v112q0 27 1.5 58.5t5.5 65.5z" />
<glyph unicode="&#xbf;" horiz-adv-x="903" d="M51 0q0 78 21.5 132t55 91.5t73 63.5t74.5 48t61 45t33 56l28 143h217l23 -164q1 -9 1.5 -16t0.5 -13q0 -47 -21.5 -79t-54.5 -55.5t-70.5 -43.5t-70.5 -44t-54.5 -56t-21.5 -80q0 -61 40.5 -97.5t111.5 -36.5q53 0 90 11t63 25t45.5 25t38.5 11q44 0 66 -38l84 -129 q-39 -32 -83 -59.5t-95.5 -48.5t-110 -32.5t-127.5 -11.5q-96 0 -173.5 24.5t-131.5 70t-83.5 111t-29.5 147.5zM332 904q0 37 13.5 69t38 55.5t57 37t71.5 13.5q38 0 70.5 -13.5t57.5 -37t38.5 -55.5t13.5 -69t-13.5 -69t-38.5 -55.5t-57.5 -37t-70.5 -13.5 q-39 0 -71.5 13.5t-57 37t-38 55.5t-13.5 69z" />
<glyph unicode="&#xc0;" horiz-adv-x="1509" d="M2 0l578 1492h354l577 -1492h-268q-45 0 -74 21t-41 54l-88 260h-567l-88 -260q-10 -29 -40 -52t-73 -23h-270zM276 1841h350q24 0 42 -2.5t31.5 -8t26 -15.5t25.5 -24l187 -203h-252q-18 0 -31.5 1t-25.5 4.5t-22.5 9.5t-23.5 15zM553 570h408l-138 409q-13 39 -31 91.5 t-35 114.5q-16 -62 -33.5 -115.5t-33.5 -92.5z" />
<glyph unicode="&#xc1;" horiz-adv-x="1509" d="M2 0l578 1492h354l577 -1492h-268q-45 0 -74 21t-41 54l-88 260h-567l-88 -260q-10 -29 -40 -52t-73 -23h-270zM528 1588l185 202q13 15 26 25t27.5 16t32 8t40.5 2h351l-303 -219q-27 -20 -49.5 -27t-57.5 -7h-252zM553 570h408l-138 409q-13 39 -31 91.5t-35 114.5 q-16 -62 -33.5 -115.5t-33.5 -92.5z" />
<glyph unicode="&#xc2;" horiz-adv-x="1509" d="M2 0l578 1492h354l577 -1492h-268q-45 0 -74 21t-41 54l-88 260h-567l-88 -260q-10 -29 -40 -52t-73 -23h-270zM346 1588l250 233h320l250 -233h-240q-18 0 -40 5t-36 14l-76 46q-5 2 -9 5t-9 6q-5 -3 -9 -6t-10 -5l-75 -46q-14 -8 -36 -13.5t-40 -5.5h-240zM553 570h408 l-138 409q-13 39 -31 91.5t-35 114.5q-16 -62 -33.5 -115.5t-33.5 -92.5z" />
<glyph unicode="&#xc3;" horiz-adv-x="1509" d="M2 0l578 1492h354l577 -1492h-268q-45 0 -74 21t-41 54l-88 260h-567l-88 -260q-10 -29 -40 -52t-73 -23h-270zM420 1578q0 56 15.5 102t43 79.5t67.5 52t89 18.5q38 0 74.5 -9.5t68.5 -20.5t59 -20.5t46 -9.5q22 0 36.5 11.5t14.5 41.5h172q0 -56 -15 -102.5 t-42.5 -79.5t-67.5 -51t-90 -18q-38 0 -74.5 9t-68.5 21t-58.5 21t-46.5 9q-22 0 -35.5 -12.5t-13.5 -41.5h-174zM553 570h408l-138 409q-13 39 -31 91.5t-35 114.5q-16 -62 -33.5 -115.5t-33.5 -92.5z" />
<glyph unicode="&#xc4;" horiz-adv-x="1509" d="M2 0l578 1492h354l577 -1492h-268q-45 0 -74 21t-41 54l-88 260h-567l-88 -260q-10 -29 -40 -52t-73 -23h-270zM371 1708q0 32 12.5 60.5t34.5 50t50 34t59 12.5q34 0 63.5 -12.5t52 -34t35 -50t12.5 -60.5q0 -33 -12.5 -60.5t-35 -48.5t-52.5 -33t-63 -12q-31 0 -59 12 t-50 33t-34.5 48.5t-12.5 60.5zM553 570h408l-138 409q-13 39 -31 91.5t-35 114.5q-16 -62 -33.5 -115.5t-33.5 -92.5zM821 1708q0 32 13 60.5t34.5 50t50.5 34t62 12.5t62 -12.5t50.5 -34t34.5 -50t13 -60.5q0 -33 -13 -60.5t-34.5 -48.5t-50.5 -33t-62 -12t-62 12 t-50.5 33t-34.5 48.5t-13 60.5z" />
<glyph unicode="&#xc5;" horiz-adv-x="1509" d="M2 0l578 1492h354l577 -1492h-268q-45 0 -74 21t-41 54l-88 260h-567l-88 -260q-10 -29 -40 -52t-73 -23h-270zM531 1742q0 47 18.5 85.5t50 65.5t72.5 42t86 15q47 0 89 -15t74 -42t51 -65.5t19 -85.5q0 -45 -19 -82.5t-51 -64t-74 -41t-89 -14.5q-45 0 -86 14.5 t-72.5 41t-50 64t-18.5 82.5zM553 570h408l-138 409q-13 39 -31 91.5t-35 114.5q-16 -62 -33.5 -115.5t-33.5 -92.5zM680 1742q0 -36 20 -59t62 -23q37 0 58.5 23t21.5 59q0 39 -21.5 61.5t-58.5 22.5q-42 0 -62 -22.5t-20 -61.5z" />
<glyph unicode="&#xc6;" horiz-adv-x="1921" d="M-33 0l733 1492h1147v-266h-660l42 -348h475v-256h-444l43 -356h544v-266h-839l-41 335h-495l-114 -260q-14 -34 -48.5 -54.5t-80.5 -20.5h-262zM575 570h363l-80 668q-20 -60 -40.5 -112.5t-41.5 -96.5z" />
<glyph unicode="&#xc7;" horiz-adv-x="1345" d="M37 746q0 167 57.5 307t160 241.5t246 157.5t316.5 56q84 0 158.5 -14.5t139 -41t118.5 -62.5t96 -80l-117 -157q-11 -14 -26.5 -26t-42.5 -12q-18 0 -34.5 8.5t-35 20t-40.5 25.5t-52.5 25.5t-71 20t-94.5 8.5q-94 0 -172 -33.5t-133.5 -95.5t-87 -150t-31.5 -198 q0 -115 31.5 -203.5t85 -149.5t125.5 -93t153 -32q47 0 86 5t72.5 16t63.5 29t61 44q12 10 26.5 17t29.5 7q12 0 24.5 -4.5t24.5 -15.5l137 -145q-79 -103 -194.5 -162t-267.5 -71l-8 -32q46 -12 76.5 -28.5t48.5 -36t25.5 -42.5t7.5 -48q0 -36 -20 -64.5t-55.5 -49 t-86.5 -31.5t-112 -11q-42 0 -77.5 4t-74.5 12l29 96q6 28 35 28q15 0 29.5 -4t35.5 -4q27 0 38.5 9.5t11.5 20.5q0 22 -31.5 32.5t-106.5 21.5l39 130q-145 18 -259 82t-193.5 163.5t-121.5 229.5t-42 280z" />
<glyph unicode="&#xc8;" horiz-adv-x="1157" d="M123 0v1492h960v-266h-612v-348h469v-256h-469v-356h612v-266h-960zM141 1841h350q24 0 42 -2.5t31.5 -8t26 -15.5t25.5 -24l187 -203h-252q-18 0 -31.5 1t-25.5 4.5t-22.5 9.5t-23.5 15z" />
<glyph unicode="&#xc9;" horiz-adv-x="1157" d="M123 0v1492h960v-266h-612v-348h469v-256h-469v-356h612v-266h-960zM393 1588l185 202q13 15 26 25t27.5 16t32 8t40.5 2h351l-303 -219q-27 -20 -49.5 -27t-57.5 -7h-252z" />
<glyph unicode="&#xca;" horiz-adv-x="1157" d="M123 0v1492h960v-266h-612v-348h469v-256h-469v-356h612v-266h-960zM211 1588l250 233h320l250 -233h-240q-18 0 -40 5t-36 14l-76 46q-5 2 -9 5t-9 6q-5 -3 -9 -6t-10 -5l-75 -46q-14 -8 -36 -13.5t-40 -5.5h-240z" />
<glyph unicode="&#xcb;" horiz-adv-x="1157" d="M123 0v1492h960v-266h-612v-348h469v-256h-469v-356h612v-266h-960zM236 1708q0 32 12.5 60.5t34.5 50t50 34t59 12.5q34 0 63.5 -12.5t52 -34t35 -50t12.5 -60.5q0 -33 -12.5 -60.5t-35 -48.5t-52.5 -33t-63 -12q-31 0 -59 12t-50 33t-34.5 48.5t-12.5 60.5zM686 1708 q0 32 13 60.5t34.5 50t50.5 34t62 12.5t62 -12.5t50.5 -34t34.5 -50t13 -60.5q0 -33 -13 -60.5t-34.5 -48.5t-50.5 -33t-62 -12t-62 12t-50.5 33t-34.5 48.5t-13 60.5z" />
<glyph unicode="&#xcc;" horiz-adv-x="655" d="M-147 1841h350q24 0 42 -2.5t31.5 -8t26 -15.5t25.5 -24l187 -203h-252q-18 0 -31.5 1t-25.5 4.5t-22.5 9.5t-23.5 15zM154 0v1492h348v-1492h-348z" />
<glyph unicode="&#xcd;" horiz-adv-x="655" d="M105 1588l185 202q13 15 26 25t27.5 16t32 8t40.5 2h351l-303 -219q-27 -20 -49.5 -27t-57.5 -7h-252zM154 0v1492h348v-1492h-348z" />
<glyph unicode="&#xce;" horiz-adv-x="655" d="M-77 1588l250 233h320l250 -233h-240q-18 0 -40 5t-36 14l-76 46q-5 2 -9 5t-9 6q-5 -3 -9 -6t-10 -5l-75 -46q-14 -8 -36 -13.5t-40 -5.5h-240zM154 0v1492h348v-1492h-348z" />
<glyph unicode="&#xcf;" horiz-adv-x="655" d="M-52 1708q0 32 12.5 60.5t34.5 50t50 34t59 12.5q34 0 63.5 -12.5t52 -34t35 -50t12.5 -60.5q0 -33 -12.5 -60.5t-35 -48.5t-52.5 -33t-63 -12q-31 0 -59 12t-50 33t-34.5 48.5t-12.5 60.5zM154 0v1492h348v-1492h-348zM398 1708q0 32 13 60.5t34.5 50t50.5 34t62 12.5 t62 -12.5t50.5 -34t34.5 -50t13 -60.5q0 -33 -13 -60.5t-34.5 -48.5t-50.5 -33t-62 -12t-62 12t-50.5 33t-34.5 48.5t-13 60.5z" />
<glyph unicode="&#xd0;" horiz-adv-x="1622" d="M55 654v189h170v649h580q174 0 317 -56.5t244 -155.5t157 -236t56 -298q0 -162 -56 -298.5t-157 -236t-244 -155.5t-317 -56h-580v654h-170zM573 266h232q99 0 177 33.5t131.5 95.5t82.5 150.5t29 200.5q0 111 -29 200t-82.5 151t-131.5 95.5t-177 33.5h-232v-383h353 v-189h-353v-388z" />
<glyph unicode="&#xd1;" horiz-adv-x="1548" d="M123 0v1492h182q23 0 38 -2t27.5 -7.5t24 -16t25.5 -27.5l708 -896q-4 43 -6 83.5t-2 75.5v790h305v-1492h-180q-40 0 -67.5 12.5t-53.5 44.5l-703 889q3 -39 5 -76t2 -70v-800h-305zM446 1578q0 56 15.5 102t43 79.5t67.5 52t89 18.5q38 0 74.5 -9.5t68.5 -20.5 t59 -20.5t46 -9.5q22 0 36.5 11.5t14.5 41.5h172q0 -56 -15 -102.5t-42.5 -79.5t-67.5 -51t-90 -18q-38 0 -74.5 9t-68.5 21t-58.5 21t-46.5 9q-22 0 -35.5 -12.5t-13.5 -41.5h-174z" />
<glyph unicode="&#xd2;" horiz-adv-x="1638" d="M45 746q0 162 56 301.5t157.5 242t245 160.5t317.5 58t317 -58.5t244.5 -161t157 -242t55.5 -300.5q0 -162 -55.5 -301t-157 -242t-244.5 -161t-317 -58t-317.5 58t-245 161t-157.5 242.5t-56 300.5zM344 1841h350q24 0 42 -2.5t31.5 -8t26 -15.5t25.5 -24l187 -203h-252 q-18 0 -31.5 1t-25.5 4.5t-22.5 9.5t-23.5 15zM399 746q0 -112 29 -200t82.5 -149.5t132 -94t178.5 -32.5q99 0 177 32.5t132 94t82.5 149.5t28.5 200q0 111 -28.5 199.5t-82.5 150t-131.5 94.5t-177.5 33t-178.5 -33t-132 -94.5t-82.5 -150t-29 -199.5z" />
<glyph unicode="&#xd3;" horiz-adv-x="1638" d="M45 746q0 162 56 301.5t157.5 242t245 160.5t317.5 58t317 -58.5t244.5 -161t157 -242t55.5 -300.5q0 -162 -55.5 -301t-157 -242t-244.5 -161t-317 -58t-317.5 58t-245 161t-157.5 242.5t-56 300.5zM399 746q0 -112 29 -200t82.5 -149.5t132 -94t178.5 -32.5 q99 0 177 32.5t132 94t82.5 149.5t28.5 200q0 111 -28.5 199.5t-82.5 150t-131.5 94.5t-177.5 33t-178.5 -33t-132 -94.5t-82.5 -150t-29 -199.5zM596 1588l185 202q13 15 26 25t27.5 16t32 8t40.5 2h351l-303 -219q-27 -20 -49.5 -27t-57.5 -7h-252z" />
<glyph unicode="&#xd4;" horiz-adv-x="1638" d="M45 746q0 162 56 301.5t157.5 242t245 160.5t317.5 58t317 -58.5t244.5 -161t157 -242t55.5 -300.5q0 -162 -55.5 -301t-157 -242t-244.5 -161t-317 -58t-317.5 58t-245 161t-157.5 242.5t-56 300.5zM399 746q0 -112 29 -200t82.5 -149.5t132 -94t178.5 -32.5 q99 0 177 32.5t132 94t82.5 149.5t28.5 200q0 111 -28.5 199.5t-82.5 150t-131.5 94.5t-177.5 33t-178.5 -33t-132 -94.5t-82.5 -150t-29 -199.5zM413 1588l250 233h320l250 -233h-240q-18 0 -40 5t-36 14l-76 46q-5 2 -9 5t-9 6q-5 -3 -9 -6t-10 -5l-75 -46 q-14 -8 -36 -13.5t-40 -5.5h-240z" />
<glyph unicode="&#xd5;" horiz-adv-x="1638" d="M45 746q0 162 56 301.5t157.5 242t245 160.5t317.5 58t317 -58.5t244.5 -161t157 -242t55.5 -300.5q0 -162 -55.5 -301t-157 -242t-244.5 -161t-317 -58t-317.5 58t-245 161t-157.5 242.5t-56 300.5zM399 746q0 -112 29 -200t82.5 -149.5t132 -94t178.5 -32.5 q99 0 177 32.5t132 94t82.5 149.5t28.5 200q0 111 -28.5 199.5t-82.5 150t-131.5 94.5t-177.5 33t-178.5 -33t-132 -94.5t-82.5 -150t-29 -199.5zM487 1578q0 56 15.5 102t43 79.5t67.5 52t89 18.5q38 0 74.5 -9.5t68.5 -20.5t59 -20.5t46 -9.5q22 0 36.5 11.5t14.5 41.5 h172q0 -56 -15 -102.5t-42.5 -79.5t-67.5 -51t-90 -18q-38 0 -74.5 9t-68.5 21t-58.5 21t-46.5 9q-22 0 -35.5 -12.5t-13.5 -41.5h-174z" />
<glyph unicode="&#xd6;" horiz-adv-x="1638" d="M45 746q0 162 56 301.5t157.5 242t245 160.5t317.5 58t317 -58.5t244.5 -161t157 -242t55.5 -300.5q0 -162 -55.5 -301t-157 -242t-244.5 -161t-317 -58t-317.5 58t-245 161t-157.5 242.5t-56 300.5zM399 746q0 -112 29 -200t82.5 -149.5t132 -94t178.5 -32.5 q99 0 177 32.5t132 94t82.5 149.5t28.5 200q0 111 -28.5 199.5t-82.5 150t-131.5 94.5t-177.5 33t-178.5 -33t-132 -94.5t-82.5 -150t-29 -199.5zM438 1708q0 32 12.5 60.5t34.5 50t50 34t59 12.5q34 0 63.5 -12.5t52 -34t35 -50t12.5 -60.5q0 -33 -12.5 -60.5t-35 -48.5 t-52.5 -33t-63 -12q-31 0 -59 12t-50 33t-34.5 48.5t-12.5 60.5zM888 1708q0 32 13 60.5t34.5 50t50.5 34t62 12.5t62 -12.5t50.5 -34t34.5 -50t13 -60.5q0 -33 -13 -60.5t-34.5 -48.5t-50.5 -33t-62 -12t-62 12t-50.5 33t-34.5 48.5t-13 60.5z" />
<glyph unicode="&#xd7;" d="M88 349l339 339l-318 320l165 160l317 -316l314 314l168 -160l-317 -318l338 -337l-168 -161l-334 334l-336 -336z" />
<glyph unicode="&#xd8;" horiz-adv-x="1638" d="M45 746q0 162 56 301.5t157.5 242t245 160.5t317.5 58q108 0 202.5 -22.5t177.5 -65.5l42 59q16 23 30 38t29.5 24.5t35 14t46.5 4.5h177l-189 -262q108 -104 165.5 -245.5t57.5 -306.5q0 -162 -55.5 -301t-157 -242t-244.5 -161t-317 -58q-96 0 -182 17.5t-163 51.5 l-58 -81q-17 -25 -40 -41.5t-47.5 -26.5t-50.5 -15t-51 -5h-135l204 283q-121 104 -187 252.5t-66 326.5zM399 746q0 -197 86 -318l540 749q-43 23 -94 34.5t-110 11.5q-100 0 -178.5 -33t-132 -94.5t-82.5 -150t-29 -199.5zM653 299q73 -29 168 -29q99 0 177 32.5t132 94 t82.5 149.5t28.5 200q0 83 -16.5 154t-46.5 127z" />
<glyph unicode="&#xd9;" horiz-adv-x="1486" d="M102 608v884h347v-883q0 -79 19.5 -140.5t57.5 -105.5t92.5 -67t124.5 -23t125 23t92.5 66.5t57.5 105t20 140.5v884h346v-884q0 -137 -44.5 -251.5t-127.5 -197.5t-201.5 -129t-267.5 -46q-150 0 -268.5 46t-201.5 129t-127 197.5t-44 251.5zM264 1841h350q24 0 42 -2.5 t31.5 -8t26 -15.5t25.5 -24l187 -203h-252q-18 0 -31.5 1t-25.5 4.5t-22.5 9.5t-23.5 15z" />
<glyph unicode="&#xda;" horiz-adv-x="1486" d="M102 608v884h347v-883q0 -79 19.5 -140.5t57.5 -105.5t92.5 -67t124.5 -23t125 23t92.5 66.5t57.5 105t20 140.5v884h346v-884q0 -137 -44.5 -251.5t-127.5 -197.5t-201.5 -129t-267.5 -46q-150 0 -268.5 46t-201.5 129t-127 197.5t-44 251.5zM516 1588l185 202 q13 15 26 25t27.5 16t32 8t40.5 2h351l-303 -219q-27 -20 -49.5 -27t-57.5 -7h-252z" />
<glyph unicode="&#xdb;" horiz-adv-x="1486" d="M102 608v884h347v-883q0 -79 19.5 -140.5t57.5 -105.5t92.5 -67t124.5 -23t125 23t92.5 66.5t57.5 105t20 140.5v884h346v-884q0 -137 -44.5 -251.5t-127.5 -197.5t-201.5 -129t-267.5 -46q-150 0 -268.5 46t-201.5 129t-127 197.5t-44 251.5zM334 1588l250 233h320 l250 -233h-240q-18 0 -40 5t-36 14l-76 46q-5 2 -9 5t-9 6q-5 -3 -9 -6t-10 -5l-75 -46q-14 -8 -36 -13.5t-40 -5.5h-240z" />
<glyph unicode="&#xdc;" horiz-adv-x="1486" d="M102 608v884h347v-883q0 -79 19.5 -140.5t57.5 -105.5t92.5 -67t124.5 -23t125 23t92.5 66.5t57.5 105t20 140.5v884h346v-884q0 -137 -44.5 -251.5t-127.5 -197.5t-201.5 -129t-267.5 -46q-150 0 -268.5 46t-201.5 129t-127 197.5t-44 251.5zM359 1708q0 32 12.5 60.5 t34.5 50t50 34t59 12.5q34 0 63.5 -12.5t52 -34t35 -50t12.5 -60.5q0 -33 -12.5 -60.5t-35 -48.5t-52.5 -33t-63 -12q-31 0 -59 12t-50 33t-34.5 48.5t-12.5 60.5zM809 1708q0 32 13 60.5t34.5 50t50.5 34t62 12.5t62 -12.5t50.5 -34t34.5 -50t13 -60.5q0 -33 -13 -60.5 t-34.5 -48.5t-50.5 -33t-62 -12t-62 12t-50.5 33t-34.5 48.5t-13 60.5z" />
<glyph unicode="&#xdd;" horiz-adv-x="1386" d="M-20 1492h305q45 0 71.5 -21t42.5 -54l211 -434q26 -52 47.5 -96t37.5 -87q15 44 37 88t46 95l209 434q6 13 17 26.5t24.5 24.5t31.5 17.5t40 6.5h307l-541 -925v-567h-346v567zM469 1588l185 202q13 15 26 25t27.5 16t32 8t40.5 2h351l-303 -219q-27 -20 -49.5 -27 t-57.5 -7h-252z" />
<glyph unicode="&#xde;" horiz-adv-x="1306" d="M123 0v1492h346v-241h180q158 0 271 -37t186.5 -102.5t108 -155t34.5 -192.5q0 -112 -35.5 -205t-109.5 -159.5t-187 -104t-268 -37.5h-180v-258h-346zM469 519h180q135 0 194.5 64.5t59.5 180.5q0 51 -15.5 93t-46.5 72t-78.5 46.5t-113.5 16.5h-180v-473z" />
<glyph unicode="&#xdf;" horiz-adv-x="1347" d="M170 0v1001q0 110 38.5 204.5t112 165t179.5 110.5t241 40q133 0 225.5 -38t149 -94.5t82 -120t25.5 -115.5q0 -57 -18.5 -98t-46.5 -71t-59.5 -52t-59 -41.5t-46 -39.5t-18.5 -46q0 -29 24 -52t59.5 -47.5t77.5 -53t77 -69t59 -96.5t24 -134q0 -93 -35 -162t-93.5 -115 t-135.5 -69t-160 -23q-45 0 -92 10t-91.5 27.5t-84 41.5t-69.5 52l73 116q13 20 31.5 32t48.5 12q28 0 50.5 -12t45.5 -26.5t50.5 -26.5t66.5 -12q40 0 69 29t29 77q0 41 -26.5 69.5t-66.5 53.5t-86 50t-86 60t-66.5 84t-26.5 121q0 61 20 105.5t50.5 76.5t65.5 58 t65.5 50.5t50.5 52.5t20 66q0 69 -44.5 108t-141.5 39q-65 0 -110.5 -21t-74 -60t-42 -96.5t-13.5 -129.5v-991h-317z" />
<glyph unicode="&#xe0;" horiz-adv-x="1103" d="M72 276q0 56 28.5 116t99 108.5t190.5 81t302 36.5v46q0 93 -38.5 134.5t-108.5 41.5q-56 0 -92 -12.5t-64.5 -28t-55 -27.5t-63.5 -12q-33 0 -56 16t-36 39l-57 99q96 85 213.5 126.5t251.5 41.5q96 0 173.5 -31t131 -87t82 -132.5t28.5 -167.5v-664h-145 q-45 0 -68 12.5t-38 50.5l-23 59q-40 -34 -77 -59.5t-76 -43.5t-84 -26.5t-99 -8.5q-73 0 -132 19t-100.5 55.5t-64 91.5t-22.5 126zM199 1508h297q48 0 71.5 -15.5t41.5 -45.5l139 -251h-180q-36 0 -57.5 9.5t-45.5 33.5zM375 292q0 -54 30 -76t87 -22q61 0 107 21.5 t93 69.5v147q-95 -4 -156.5 -16.5t-97.5 -30.5t-49.5 -42t-13.5 -51z" />
<glyph unicode="&#xe1;" horiz-adv-x="1103" d="M72 276q0 56 28.5 116t99 108.5t190.5 81t302 36.5v46q0 93 -38.5 134.5t-108.5 41.5q-56 0 -92 -12.5t-64.5 -28t-55 -27.5t-63.5 -12q-33 0 -56 16t-36 39l-57 99q96 85 213.5 126.5t251.5 41.5q96 0 173.5 -31t131 -87t82 -132.5t28.5 -167.5v-664h-145 q-45 0 -68 12.5t-38 50.5l-23 59q-40 -34 -77 -59.5t-76 -43.5t-84 -26.5t-99 -8.5q-73 0 -132 19t-100.5 55.5t-64 91.5t-22.5 126zM375 292q0 -54 30 -76t87 -22q61 0 107 21.5t93 69.5v147q-95 -4 -156.5 -16.5t-97.5 -30.5t-49.5 -42t-13.5 -51zM422 1196l140 251 q17 30 40.5 45.5t71.5 15.5h307l-266 -269q-24 -24 -45 -33.5t-57 -9.5h-191z" />
<glyph unicode="&#xe2;" horiz-adv-x="1103" d="M72 276q0 56 28.5 116t99 108.5t190.5 81t302 36.5v46q0 93 -38.5 134.5t-108.5 41.5q-56 0 -92 -12.5t-64.5 -28t-55 -27.5t-63.5 -12q-33 0 -56 16t-36 39l-57 99q96 85 213.5 126.5t251.5 41.5q96 0 173.5 -31t131 -87t82 -132.5t28.5 -167.5v-664h-145 q-45 0 -68 12.5t-38 50.5l-23 59q-40 -34 -77 -59.5t-76 -43.5t-84 -26.5t-99 -8.5q-73 0 -132 19t-100.5 55.5t-64 91.5t-22.5 126zM187 1196l239 296h299l240 -296h-211q-18 0 -33.5 5.5t-27.5 15.5l-86 73q-7 5 -13.5 11.5t-12.5 14.5q-6 -8 -12.5 -14.5t-13.5 -11.5 l-88 -73q-9 -8 -26 -14.5t-35 -6.5h-219zM375 292q0 -54 30 -76t87 -22q61 0 107 21.5t93 69.5v147q-95 -4 -156.5 -16.5t-97.5 -30.5t-49.5 -42t-13.5 -51z" />
<glyph unicode="&#xe3;" horiz-adv-x="1103" d="M72 276q0 56 28.5 116t99 108.5t190.5 81t302 36.5v46q0 93 -38.5 134.5t-108.5 41.5q-56 0 -92 -12.5t-64.5 -28t-55 -27.5t-63.5 -12q-33 0 -56 16t-36 39l-57 99q96 85 213.5 126.5t251.5 41.5q96 0 173.5 -31t131 -87t82 -132.5t28.5 -167.5v-664h-145 q-45 0 -68 12.5t-38 50.5l-23 59q-40 -34 -77 -59.5t-76 -43.5t-84 -26.5t-99 -8.5q-73 0 -132 19t-100.5 55.5t-64 91.5t-22.5 126zM224 1214q0 65 18.5 116.5t50 88.5t74.5 57t92 20q38 0 71.5 -11.5t61 -26t50.5 -26.5t40 -12q25 0 40.5 13t15.5 55h192q0 -65 -18 -116.5 t-49.5 -88t-74.5 -56t-93 -19.5q-38 0 -71 12t-61 26.5t-51 26t-41 11.5q-25 0 -39 -14t-14 -56h-194zM375 292q0 -54 30 -76t87 -22q61 0 107 21.5t93 69.5v147q-95 -4 -156.5 -16.5t-97.5 -30.5t-49.5 -42t-13.5 -51z" />
<glyph unicode="&#xe4;" horiz-adv-x="1103" d="M72 276q0 56 28.5 116t99 108.5t190.5 81t302 36.5v46q0 93 -38.5 134.5t-108.5 41.5q-56 0 -92 -12.5t-64.5 -28t-55 -27.5t-63.5 -12q-33 0 -56 16t-36 39l-57 99q96 85 213.5 126.5t251.5 41.5q96 0 173.5 -31t131 -87t82 -132.5t28.5 -167.5v-664h-145 q-45 0 -68 12.5t-38 50.5l-23 59q-40 -34 -77 -59.5t-76 -43.5t-84 -26.5t-99 -8.5q-73 0 -132 19t-100.5 55.5t-64 91.5t-22.5 126zM213 1326q0 34 13.5 63.5t35.5 51.5t51 35t62 13q35 0 65 -13t53.5 -35t36.5 -51.5t13 -63.5q0 -33 -13 -61.5t-36.5 -49.5t-53.5 -33.5 t-65 -12.5q-33 0 -62 12.5t-51 33.5t-35.5 49.5t-13.5 61.5zM375 292q0 -54 30 -76t87 -22q61 0 107 21.5t93 69.5v147q-95 -4 -156.5 -16.5t-97.5 -30.5t-49.5 -42t-13.5 -51zM609 1326q0 34 12.5 63.5t35 51.5t52.5 35t64 13q35 0 65 -13t52.5 -35t35 -51.5t12.5 -63.5 q0 -33 -12.5 -61.5t-35 -49.5t-53 -33.5t-64.5 -12.5t-64 12.5t-52.5 33.5t-35 49.5t-12.5 61.5z" />
<glyph unicode="&#xe5;" horiz-adv-x="1103" d="M72 276q0 56 28.5 116t99 108.5t190.5 81t302 36.5v46q0 93 -38.5 134.5t-108.5 41.5q-56 0 -92 -12.5t-64.5 -28t-55 -27.5t-63.5 -12q-33 0 -56 16t-36 39l-57 99q96 85 213.5 126.5t251.5 41.5q96 0 173.5 -31t131 -87t82 -132.5t28.5 -167.5v-664h-145 q-45 0 -68 12.5t-38 50.5l-23 59q-40 -34 -77 -59.5t-76 -43.5t-84 -26.5t-99 -8.5q-73 0 -132 19t-100.5 55.5t-64 91.5t-22.5 126zM328 1366q0 51 20.5 92.5t54.5 71.5t79 45.5t94 15.5q50 0 96 -15.5t81.5 -45.5t56 -71.5t20.5 -92.5q0 -50 -20.5 -90.5t-56 -69 t-81.5 -44.5t-96 -16q-49 0 -94 16t-79 44.5t-54.5 69t-20.5 90.5zM375 292q0 -54 30 -76t87 -22q61 0 107 21.5t93 69.5v147q-95 -4 -156.5 -16.5t-97.5 -30.5t-49.5 -42t-13.5 -51zM498 1366q0 -36 20 -59t62 -23q37 0 58.5 23t21.5 59q0 39 -21.5 61.5t-58.5 22.5 q-42 0 -62 -22.5t-20 -61.5z" />
<glyph unicode="&#xe6;" horiz-adv-x="1708" d="M72 288q0 38 12 78t40.5 78t75 72.5t115.5 61t162 43t215 19.5v24q0 93 -38.5 139t-108.5 46q-56 0 -92 -14t-64.5 -31t-55 -30.5t-63.5 -13.5q-33 0 -56 16t-36 39l-57 99q96 85 200.5 126.5t229.5 41.5q116 0 192.5 -40t119.5 -110q60 68 146 107t199 39 q94 0 175 -35.5t140 -102t92.5 -160t33.5 -209.5q0 -36 -3.5 -58.5t-11 -35.5t-20.5 -18t-35 -5h-584q17 -122 79.5 -177.5t156.5 -55.5q69 0 109 12.5t66.5 26.5t45 26.5t45.5 12.5q44 0 64 -28l86 -105q-49 -56 -105 -91.5t-114.5 -55.5t-116.5 -27.5t-111 -7.5 q-52 0 -103 10.5t-98.5 33.5t-89 59t-74.5 85q-33 -49 -78.5 -85t-100 -59t-116 -33.5t-126.5 -10.5q-164 0 -253 79.5t-89 224.5zM375 303q0 -55 29.5 -82t87.5 -27q43 0 79.5 12.5t63.5 41t42 75.5t15 114v17q-95 -5 -156.5 -19t-97.5 -34.5t-49.5 -45.5t-13.5 -52z M993 638h373q0 38 -8.5 77.5t-28.5 71t-53.5 52t-81.5 20.5q-90 0 -138.5 -57t-62.5 -164z" />
<glyph unicode="&#xe7;" horiz-adv-x="995" d="M53 534q0 115 34.5 214.5t101.5 172.5t166 115t229 42q125 0 219 -40t170 -116l-84 -112q-14 -17 -27.5 -27.5t-38.5 -10.5q-24 0 -42.5 11.5t-42 25t-55.5 25t-79 11.5q-58 0 -100.5 -21.5t-70 -61.5t-41 -98t-13.5 -130q0 -153 59 -235t162 -82q55 0 87.5 14t55 31 t41.5 31t47 14q38 0 58 -27l92 -114q-39 -45 -81.5 -76.5t-87 -52t-89.5 -32t-90 -16.5l-9 -33q46 -12 76.5 -28.5t48.5 -36t25.5 -42.5t7.5 -48q0 -36 -20 -64.5t-55.5 -49t-86.5 -31.5t-112 -11q-42 0 -77.5 4t-74.5 12l29 96q6 28 35 28q15 0 29.5 -4t35.5 -4 q27 0 38.5 9.5t11.5 20.5q0 22 -31.5 32.5t-106.5 21.5l40 134q-80 16 -150 60t-122 113t-82 160.5t-30 205.5z" />
<glyph unicode="&#xe8;" horiz-adv-x="1114" d="M53 554q0 106 36.5 201.5t104.5 167t165 113.5t219 42q105 0 192.5 -32.5t150.5 -95t98.5 -153t35.5 -205.5q0 -36 -3 -58.5t-11.5 -36t-22 -18.5t-35.5 -5h-612q15 -133 80.5 -193t169.5 -60q55 0 95 13.5t71 30t57 29.5t55 13q38 0 57 -27l93 -114q-49 -56 -106 -91.5 t-117 -55.5t-120 -27.5t-114 -7.5q-112 0 -209.5 36t-171 108t-116 178.5t-42.5 247.5zM209 1508h297q48 0 71.5 -15.5t41.5 -45.5l139 -251h-180q-36 0 -57.5 9.5t-45.5 33.5zM374 658h396q0 38 -9.5 74t-31.5 64t-58 45.5t-87 17.5q-91 0 -142.5 -51.5t-67.5 -149.5z" />
<glyph unicode="&#xe9;" horiz-adv-x="1114" d="M53 554q0 106 36.5 201.5t104.5 167t165 113.5t219 42q105 0 192.5 -32.5t150.5 -95t98.5 -153t35.5 -205.5q0 -36 -3 -58.5t-11.5 -36t-22 -18.5t-35.5 -5h-612q15 -133 80.5 -193t169.5 -60q55 0 95 13.5t71 30t57 29.5t55 13q38 0 57 -27l93 -114q-49 -56 -106 -91.5 t-117 -55.5t-120 -27.5t-114 -7.5q-112 0 -209.5 36t-171 108t-116 178.5t-42.5 247.5zM374 658h396q0 38 -9.5 74t-31.5 64t-58 45.5t-87 17.5q-91 0 -142.5 -51.5t-67.5 -149.5zM432 1196l140 251q17 30 40.5 45.5t71.5 15.5h307l-266 -269q-24 -24 -45 -33.5t-57 -9.5 h-191z" />
<glyph unicode="&#xea;" horiz-adv-x="1114" d="M53 554q0 106 36.5 201.5t104.5 167t165 113.5t219 42q105 0 192.5 -32.5t150.5 -95t98.5 -153t35.5 -205.5q0 -36 -3 -58.5t-11.5 -36t-22 -18.5t-35.5 -5h-612q15 -133 80.5 -193t169.5 -60q55 0 95 13.5t71 30t57 29.5t55 13q38 0 57 -27l93 -114q-49 -56 -106 -91.5 t-117 -55.5t-120 -27.5t-114 -7.5q-112 0 -209.5 36t-171 108t-116 178.5t-42.5 247.5zM197 1196l239 296h299l240 -296h-211q-18 0 -33.5 5.5t-27.5 15.5l-86 73q-7 5 -13.5 11.5t-12.5 14.5q-6 -8 -12.5 -14.5t-13.5 -11.5l-88 -73q-9 -8 -26 -14.5t-35 -6.5h-219z M374 658h396q0 38 -9.5 74t-31.5 64t-58 45.5t-87 17.5q-91 0 -142.5 -51.5t-67.5 -149.5z" />
<glyph unicode="&#xeb;" horiz-adv-x="1114" d="M53 554q0 106 36.5 201.5t104.5 167t165 113.5t219 42q105 0 192.5 -32.5t150.5 -95t98.5 -153t35.5 -205.5q0 -36 -3 -58.5t-11.5 -36t-22 -18.5t-35.5 -5h-612q15 -133 80.5 -193t169.5 -60q55 0 95 13.5t71 30t57 29.5t55 13q38 0 57 -27l93 -114q-49 -56 -106 -91.5 t-117 -55.5t-120 -27.5t-114 -7.5q-112 0 -209.5 36t-171 108t-116 178.5t-42.5 247.5zM223 1326q0 34 13.5 63.5t35.5 51.5t51 35t62 13q35 0 65 -13t53.5 -35t36.5 -51.5t13 -63.5q0 -33 -13 -61.5t-36.5 -49.5t-53.5 -33.5t-65 -12.5q-33 0 -62 12.5t-51 33.5t-35.5 49.5 t-13.5 61.5zM374 658h396q0 38 -9.5 74t-31.5 64t-58 45.5t-87 17.5q-91 0 -142.5 -51.5t-67.5 -149.5zM619 1326q0 34 12.5 63.5t35 51.5t52.5 35t64 13q35 0 65 -13t52.5 -35t35 -51.5t12.5 -63.5q0 -33 -12.5 -61.5t-35 -49.5t-53 -33.5t-64.5 -12.5t-64 12.5t-52.5 33.5 t-35 49.5t-12.5 61.5z" />
<glyph unicode="&#xec;" horiz-adv-x="583" d="M-75 1508h297q48 0 71.5 -15.5t41.5 -45.5l139 -251h-180q-36 0 -57.5 9.5t-45.5 33.5zM133 0v1062h318v-1062h-318z" />
<glyph unicode="&#xed;" horiz-adv-x="583" d="M133 0v1062h318v-1062h-318zM148 1196l140 251q17 30 40.5 45.5t71.5 15.5h307l-266 -269q-24 -24 -45 -33.5t-57 -9.5h-191z" />
<glyph unicode="&#xee;" horiz-adv-x="583" d="M-87 1196l239 296h299l240 -296h-211q-18 0 -33.5 5.5t-27.5 15.5l-86 73q-7 5 -13.5 11.5t-12.5 14.5q-6 -8 -12.5 -14.5t-13.5 -11.5l-88 -73q-9 -8 -26 -14.5t-35 -6.5h-219zM133 0v1062h318v-1062h-318z" />
<glyph unicode="&#xef;" horiz-adv-x="583" d="M-61 1326q0 34 13.5 63.5t35.5 51.5t51 35t62 13q35 0 65 -13t53.5 -35t36.5 -51.5t13 -63.5q0 -33 -13 -61.5t-36.5 -49.5t-53.5 -33.5t-65 -12.5q-33 0 -62 12.5t-51 33.5t-35.5 49.5t-13.5 61.5zM133 0v1062h318v-1062h-318zM335 1326q0 34 12.5 63.5t35 51.5t52.5 35 t64 13q35 0 65 -13t52.5 -35t35 -51.5t12.5 -63.5q0 -33 -12.5 -61.5t-35 -49.5t-53 -33.5t-64.5 -12.5t-64 12.5t-52.5 33.5t-35 49.5t-12.5 61.5z" />
<glyph unicode="&#xf0;" horiz-adv-x="1189" d="M57 492q0 92 34.5 176.5t97.5 149t151 102t195 37.5q92 0 164 -28.5t130 -80.5q-20 84 -64 148.5t-122 116.5l-217 -127l-59 98q-13 22 -14 41q0 17 11 33t31 25l47 22q-20 7 -40.5 14t-43.5 13q-32 8 -51.5 30t-19.5 59q0 25 10 54l37 106q109 -17 208 -50t186 -83 l187 109l64 -100q11 -17 11 -37q0 -17 -9 -32t-27 -23l-67 -34q112 -105 175.5 -255.5t63.5 -349.5q0 -154 -36 -273.5t-106.5 -201.5t-172.5 -124.5t-233 -42.5q-112 0 -207.5 34t-165 99.5t-109 160t-39.5 214.5zM373 489q0 -67 16.5 -117.5t45 -85t67.5 -52t84 -17.5 q46 0 88 17t75 57.5t53.5 109.5t23.5 173q-30 65 -84.5 107.5t-141.5 42.5q-55 0 -97.5 -18.5t-71.5 -50t-43.5 -74t-14.5 -92.5z" />
<glyph unicode="&#xf1;" d="M123 0v1062h196q30 0 50 -13.5t28 -39.5l19 -62q31 29 63.5 53.5t70 41.5t81 26.5t94.5 9.5q87 0 154 -30t113 -84t69.5 -128t23.5 -161v-675h-317v675q0 78 -36 121.5t-105 43.5q-52 0 -98.5 -22.5t-88.5 -60.5v-757h-317zM252 1214q0 65 18.5 116.5t50 88.5t74.5 57 t92 20q38 0 71.5 -11.5t61 -26t50.5 -26.5t40 -12q25 0 40.5 13t15.5 55h192q0 -65 -18 -116.5t-49.5 -88t-74.5 -56t-93 -19.5q-38 0 -71 12t-61 26.5t-51 26t-41 11.5q-25 0 -39 -14t-14 -56h-194z" />
<glyph unicode="&#xf2;" d="M51 534q0 126 39.5 226.5t111.5 171t172 108.5t222 38q121 0 220 -38t170.5 -108.5t111 -171.5t39.5 -226q0 -127 -39.5 -229t-111 -173.5t-170.5 -109.5t-220 -38q-122 0 -222 38t-172 109.5t-111.5 173.5t-39.5 229zM219 1508h297q48 0 71.5 -15.5t41.5 -45.5l139 -251 h-180q-36 0 -57.5 9.5t-45.5 33.5zM379 531q0 -158 52 -235t165 -77q110 0 161.5 77.5t51.5 234.5q0 158 -51.5 235t-161.5 77q-113 0 -165 -77t-52 -235z" />
<glyph unicode="&#xf3;" d="M51 534q0 126 39.5 226.5t111.5 171t172 108.5t222 38q121 0 220 -38t170.5 -108.5t111 -171.5t39.5 -226q0 -127 -39.5 -229t-111 -173.5t-170.5 -109.5t-220 -38q-122 0 -222 38t-172 109.5t-111.5 173.5t-39.5 229zM379 531q0 -158 52 -235t165 -77q110 0 161.5 77.5 t51.5 234.5q0 158 -51.5 235t-161.5 77q-113 0 -165 -77t-52 -235zM442 1196l140 251q17 30 40.5 45.5t71.5 15.5h307l-266 -269q-24 -24 -45 -33.5t-57 -9.5h-191z" />
<glyph unicode="&#xf4;" d="M51 534q0 126 39.5 226.5t111.5 171t172 108.5t222 38q121 0 220 -38t170.5 -108.5t111 -171.5t39.5 -226q0 -127 -39.5 -229t-111 -173.5t-170.5 -109.5t-220 -38q-122 0 -222 38t-172 109.5t-111.5 173.5t-39.5 229zM207 1196l239 296h299l240 -296h-211 q-18 0 -33.5 5.5t-27.5 15.5l-86 73q-7 5 -13.5 11.5t-12.5 14.5q-6 -8 -12.5 -14.5t-13.5 -11.5l-88 -73q-9 -8 -26 -14.5t-35 -6.5h-219zM379 531q0 -158 52 -235t165 -77q110 0 161.5 77.5t51.5 234.5q0 158 -51.5 235t-161.5 77q-113 0 -165 -77t-52 -235z" />
<glyph unicode="&#xf5;" d="M51 534q0 126 39.5 226.5t111.5 171t172 108.5t222 38q121 0 220 -38t170.5 -108.5t111 -171.5t39.5 -226q0 -127 -39.5 -229t-111 -173.5t-170.5 -109.5t-220 -38q-122 0 -222 38t-172 109.5t-111.5 173.5t-39.5 229zM244 1214q0 65 18.5 116.5t50 88.5t74.5 57t92 20 q38 0 71.5 -11.5t61 -26t50.5 -26.5t40 -12q25 0 40.5 13t15.5 55h192q0 -65 -18 -116.5t-49.5 -88t-74.5 -56t-93 -19.5q-38 0 -71 12t-61 26.5t-51 26t-41 11.5q-25 0 -39 -14t-14 -56h-194zM379 531q0 -158 52 -235t165 -77q110 0 161.5 77.5t51.5 234.5q0 158 -51.5 235 t-161.5 77q-113 0 -165 -77t-52 -235z" />
<glyph unicode="&#xf6;" d="M51 534q0 126 39.5 226.5t111.5 171t172 108.5t222 38q121 0 220 -38t170.5 -108.5t111 -171.5t39.5 -226q0 -127 -39.5 -229t-111 -173.5t-170.5 -109.5t-220 -38q-122 0 -222 38t-172 109.5t-111.5 173.5t-39.5 229zM233 1326q0 34 13.5 63.5t35.5 51.5t51 35t62 13 q35 0 65 -13t53.5 -35t36.5 -51.5t13 -63.5q0 -33 -13 -61.5t-36.5 -49.5t-53.5 -33.5t-65 -12.5q-33 0 -62 12.5t-51 33.5t-35.5 49.5t-13.5 61.5zM379 531q0 -158 52 -235t165 -77q110 0 161.5 77.5t51.5 234.5q0 158 -51.5 235t-161.5 77q-113 0 -165 -77t-52 -235z M629 1326q0 34 12.5 63.5t35 51.5t52.5 35t64 13q35 0 65 -13t52.5 -35t35 -51.5t12.5 -63.5q0 -33 -12.5 -61.5t-35 -49.5t-53 -33.5t-64.5 -12.5t-64 12.5t-52.5 33.5t-35 49.5t-12.5 61.5z" />
<glyph unicode="&#xf7;" d="M86 574v228h1014v-228h-1014zM412 324q0 37 13.5 68.5t37.5 55t57 37.5t72 14q38 0 70.5 -14t57 -37.5t38.5 -55.5t14 -68q0 -37 -14 -69.5t-38.5 -56t-57 -37t-70.5 -13.5q-39 0 -72 13.5t-57 37t-37.5 56t-13.5 69.5zM412 1053q0 37 13.5 68.5t37.5 55t57 37.5t72 14 q38 0 70.5 -14t57 -37.5t38.5 -55t14 -68.5t-14 -69.5t-38.5 -56t-57 -36.5t-70.5 -13q-39 0 -72 13t-57 36.5t-37.5 56t-13.5 69.5z" />
<glyph unicode="&#xf8;" d="M25 -80l164 224q-67 71 -102.5 169.5t-35.5 220.5q0 126 39.5 226.5t111.5 171t172 108.5t222 38q135 0 244 -48l47 64q16 22 30 37t29.5 24.5t34.5 14t47 4.5h156l-187 -253q67 -71 103.5 -169t36.5 -218q0 -127 -39.5 -229t-111 -173.5t-170.5 -109.5t-220 -38 q-138 0 -251 50l-17 -25q-17 -26 -39.5 -42.5t-47.5 -27t-51 -15t-51 -4.5h-114zM358 531q0 -82 14 -138l323 441q-42 19 -99 19q-113 0 -175.5 -82t-62.5 -240zM489 230q45 -20 107 -20q110 0 171.5 82t61.5 239q0 80 -14 141z" />
<glyph unicode="&#xf9;" d="M102 388v674h318v-674q0 -79 36 -122t105 -43q52 0 98 21.5t89 60.5v757h317v-1062h-197q-59 0 -77 53l-20 62q-31 -30 -63.5 -54t-70 -41t-80.5 -26.5t-94 -9.5q-87 0 -154 30t-113 84.5t-70 128t-24 161.5zM215 1508h297q48 0 71.5 -15.5t41.5 -45.5l139 -251h-180 q-36 0 -57.5 9.5t-45.5 33.5z" />
<glyph unicode="&#xfa;" d="M102 388v674h318v-674q0 -79 36 -122t105 -43q52 0 98 21.5t89 60.5v757h317v-1062h-197q-59 0 -77 53l-20 62q-31 -30 -63.5 -54t-70 -41t-80.5 -26.5t-94 -9.5q-87 0 -154 30t-113 84.5t-70 128t-24 161.5zM438 1196l140 251q17 30 40.5 45.5t71.5 15.5h307l-266 -269 q-24 -24 -45 -33.5t-57 -9.5h-191z" />
<glyph unicode="&#xfb;" d="M102 388v674h318v-674q0 -79 36 -122t105 -43q52 0 98 21.5t89 60.5v757h317v-1062h-197q-59 0 -77 53l-20 62q-31 -30 -63.5 -54t-70 -41t-80.5 -26.5t-94 -9.5q-87 0 -154 30t-113 84.5t-70 128t-24 161.5zM203 1196l239 296h299l240 -296h-211q-18 0 -33.5 5.5 t-27.5 15.5l-86 73q-7 5 -13.5 11.5t-12.5 14.5q-6 -8 -12.5 -14.5t-13.5 -11.5l-88 -73q-9 -8 -26 -14.5t-35 -6.5h-219z" />
<glyph unicode="&#xfc;" d="M102 388v674h318v-674q0 -79 36 -122t105 -43q52 0 98 21.5t89 60.5v757h317v-1062h-197q-59 0 -77 53l-20 62q-31 -30 -63.5 -54t-70 -41t-80.5 -26.5t-94 -9.5q-87 0 -154 30t-113 84.5t-70 128t-24 161.5zM229 1326q0 34 13.5 63.5t35.5 51.5t51 35t62 13q35 0 65 -13 t53.5 -35t36.5 -51.5t13 -63.5q0 -33 -13 -61.5t-36.5 -49.5t-53.5 -33.5t-65 -12.5q-33 0 -62 12.5t-51 33.5t-35.5 49.5t-13.5 61.5zM625 1326q0 34 12.5 63.5t35 51.5t52.5 35t64 13q35 0 65 -13t52.5 -35t35 -51.5t12.5 -63.5q0 -33 -12.5 -61.5t-35 -49.5t-53 -33.5 t-64.5 -12.5t-64 12.5t-52.5 33.5t-35 49.5t-12.5 61.5z" />
<glyph unicode="&#xfd;" horiz-adv-x="1132" d="M0 1062h281q37 0 57 -16.5t29 -38.5l174 -458q25 -63 40 -127q10 33 22 64.5t24 64.5l157 456q8 24 32.5 39.5t51.5 15.5h256l-567 -1337q-14 -32 -34.5 -47t-65.5 -15h-238l205 430zM430 1196l140 251q17 30 40.5 45.5t71.5 15.5h307l-266 -269q-24 -24 -45 -33.5 t-57 -9.5h-191z" />
<glyph unicode="&#xfe;" horiz-adv-x="1183" d="M123 -337v1870h317v-584q59 58 134.5 93.5t177.5 35.5q83 0 153.5 -35.5t121.5 -105t80.5 -169.5t29.5 -228q0 -120 -33.5 -221.5t-93.5 -176t-143.5 -116.5t-184.5 -42q-42 0 -77 7.5t-64 21.5t-53.5 33.5t-47.5 42.5v-426h-317zM440 289q36 -40 78 -56t88 -16 q44 0 81 17.5t64 56t42.5 100t15.5 149.5q0 84 -12.5 141t-34.5 92.5t-52.5 51t-68.5 15.5q-35 0 -63 -7t-52 -19t-44.5 -31t-41.5 -44v-450z" />
<glyph unicode="&#xff;" horiz-adv-x="1132" d="M0 1062h281q37 0 57 -16.5t29 -38.5l174 -458q25 -63 40 -127q10 33 22 64.5t24 64.5l157 456q8 24 32.5 39.5t51.5 15.5h256l-567 -1337q-14 -32 -34.5 -47t-65.5 -15h-238l205 430zM221 1326q0 34 13.5 63.5t35.5 51.5t51 35t62 13q35 0 65 -13t53.5 -35t36.5 -51.5 t13 -63.5q0 -33 -13 -61.5t-36.5 -49.5t-53.5 -33.5t-65 -12.5q-33 0 -62 12.5t-51 33.5t-35.5 49.5t-13.5 61.5zM617 1326q0 34 12.5 63.5t35 51.5t52.5 35t64 13q35 0 65 -13t52.5 -35t35 -51.5t12.5 -63.5q0 -33 -12.5 -61.5t-35 -49.5t-53 -33.5t-64.5 -12.5t-64 12.5 t-52.5 33.5t-35 49.5t-12.5 61.5z" />
<glyph unicode="&#x152;" horiz-adv-x="2187" d="M45 746q0 162 50 301.5t142 242t220.5 160.5t285.5 58q136 0 249.5 -44.5t201.5 -124.5v153h920v-266h-613v-348h469v-256h-469v-356h613v-266h-920v152q-88 -80 -201 -124t-250 -44q-158 0 -286 58t-220 161t-142 242.5t-50 300.5zM399 746q0 -112 25.5 -201.5 t74 -152.5t118.5 -97.5t161 -34.5q89 0 159 34.5t118 97.5t73 152.5t25 201.5q0 111 -25 201t-73 153t-118 97.5t-159 34.5q-91 0 -161 -34.5t-118.5 -97.5t-74 -153t-25.5 -201z" />
<glyph unicode="&#x153;" horiz-adv-x="1804" d="M51 534q0 126 38.5 226.5t106 171t161 108.5t202.5 38q121 0 215.5 -46t159.5 -133q59 83 152 131t219 48q94 0 175 -35.5t139.5 -102t92 -160t33.5 -209.5q0 -36 -3 -58.5t-11 -35.5t-21 -18t-35 -5h-583q17 -122 79 -177.5t156 -55.5q52 0 89.5 13.5t66.5 30t55 29.5 t55 13q17 0 31 -7.5t25 -19.5l94 -114q-49 -56 -105 -91.5t-114.5 -55.5t-116 -27.5t-111.5 -7.5q-52 0 -102 10.5t-96.5 33t-88 57t-74.5 81.5q-65 -88 -163 -135t-225 -47q-105 0 -196 38t-157.5 109.5t-104.5 173.5t-38 229zM379 531q0 -158 48 -235t151 -77 q102 0 149 77.5t47 234.5q0 158 -47 235t-149 77q-103 0 -151 -77t-48 -235zM1090 638h372q0 38 -8.5 77.5t-28.5 71t-53.5 52t-81.5 20.5q-90 0 -138.5 -57t-61.5 -164z" />
<glyph unicode="&#x178;" horiz-adv-x="1386" d="M-20 1492h305q45 0 71.5 -21t42.5 -54l211 -434q26 -52 47.5 -96t37.5 -87q15 44 37 88t46 95l209 434q6 13 17 26.5t24.5 24.5t31.5 17.5t40 6.5h307l-541 -925v-567h-346v567zM311 1708q0 32 12.5 60.5t34.5 50t50 34t59 12.5q34 0 63.5 -12.5t52 -34t35 -50 t12.5 -60.5q0 -33 -12.5 -60.5t-35 -48.5t-52.5 -33t-63 -12q-31 0 -59 12t-50 33t-34.5 48.5t-12.5 60.5zM761 1708q0 32 13 60.5t34.5 50t50.5 34t62 12.5t62 -12.5t50.5 -34t34.5 -50t13 -60.5q0 -33 -13 -60.5t-34.5 -48.5t-50.5 -33t-62 -12t-62 12t-50.5 33 t-34.5 48.5t-13 60.5z" />
<glyph unicode="&#x2c6;" horiz-adv-x="675" d="M-51 1196l239 296h299l240 -296h-211q-18 0 -33.5 5.5t-27.5 15.5l-86 73q-7 5 -13.5 11.5t-12.5 14.5q-6 -8 -12.5 -14.5t-13.5 -11.5l-88 -73q-9 -8 -26 -14.5t-35 -6.5h-219z" />
<glyph unicode="&#x2dc;" horiz-adv-x="675" d="M-14 1214q0 65 18.5 116.5t50 88.5t74.5 57t92 20q38 0 71.5 -11.5t61 -26t50.5 -26.5t40 -12q25 0 40.5 13t15.5 55h192q0 -65 -18 -116.5t-49.5 -88t-74.5 -56t-93 -19.5q-38 0 -71 12t-61 26.5t-51 26t-41 11.5q-25 0 -39 -14t-14 -56h-194z" />
<glyph unicode="&#x2000;" horiz-adv-x="975" />
<glyph unicode="&#x2001;" horiz-adv-x="1950" />
<glyph unicode="&#x2002;" horiz-adv-x="975" />
<glyph unicode="&#x2003;" horiz-adv-x="1950" />
<glyph unicode="&#x2004;" horiz-adv-x="650" />
<glyph unicode="&#x2005;" horiz-adv-x="487" />
<glyph unicode="&#x2006;" horiz-adv-x="325" />
<glyph unicode="&#x2007;" horiz-adv-x="325" />
<glyph unicode="&#x2008;" horiz-adv-x="243" />
<glyph unicode="&#x2009;" horiz-adv-x="390" />
<glyph unicode="&#x200a;" horiz-adv-x="108" />
<glyph unicode="&#x2010;" horiz-adv-x="757" d="M102 495v256h553v-256h-553z" />
<glyph unicode="&#x2011;" horiz-adv-x="757" d="M102 495v256h553v-256h-553z" />
<glyph unicode="&#x2012;" horiz-adv-x="757" d="M102 495v256h553v-256h-553z" />
<glyph unicode="&#x2013;" d="M174 513v217h840v-217h-840z" />
<glyph unicode="&#x2014;" horiz-adv-x="1763" d="M174 513v217h1415v-217h-1415z" />
<glyph unicode="&#x2018;" horiz-adv-x="483" d="M87 1228q0 110 57.5 210.5t168.5 185.5l101 -59q12 -8 17.5 -18t5.5 -20q0 -11 -5 -21.5t-12 -17.5q-11 -12 -25 -30t-26.5 -42t-21 -53.5t-8.5 -63.5q0 -37 13 -78.5t42 -90.5q10 -16 10 -32q0 -18 -12 -32.5t-34 -23.5l-190 -70q-41 65 -61 128.5t-20 127.5z" />
<glyph unicode="&#x2019;" horiz-adv-x="483" d="M77 1033q0 11 5 21.5t12 17.5q11 12 25 30t26.5 41.5t21 53.5t8.5 64q0 37 -12.5 78.5t-42.5 90.5q-10 16 -10 32q0 18 12 32.5t34 23.5l190 70q41 -65 61 -129t20 -128q0 -110 -57.5 -210t-168.5 -185l-101 59q-12 8 -17.5 18t-5.5 20z" />
<glyph unicode="&#x201a;" horiz-adv-x="483" d="M77 -215q0 11 5 21.5t12 17.5q11 12 25 30t26.5 41.5t21 53t8.5 63.5q0 37 -12.5 79t-42.5 90q-10 16 -10 33q0 18 12 32.5t34 22.5l190 71q41 -65 61 -129.5t20 -127.5q0 -110 -57.5 -210t-168.5 -185l-101 59q-12 8 -17.5 18t-5.5 20z" />
<glyph unicode="&#x201c;" horiz-adv-x="849" d="M87 1228q0 110 57.5 210.5t168.5 185.5l101 -59q12 -8 17.5 -18t5.5 -20q0 -11 -5 -21.5t-12 -17.5q-11 -12 -25 -30t-26.5 -42t-21 -53.5t-8.5 -63.5q0 -37 13 -78.5t42 -90.5q10 -16 10 -32q0 -18 -12 -32.5t-34 -23.5l-190 -70q-41 65 -61 128.5t-20 127.5zM454 1228 q0 110 57 210.5t169 185.5l100 -59q12 -8 18 -18t6 -20q0 -11 -5 -21.5t-13 -17.5q-11 -12 -24.5 -30t-26 -42t-21 -53.5t-8.5 -63.5q0 -37 12.5 -78.5t42.5 -90.5q10 -16 10 -32q0 -18 -12.5 -32.5t-33.5 -23.5l-190 -70q-41 65 -61 128.5t-20 127.5z" />
<glyph unicode="&#x201d;" horiz-adv-x="849" d="M77 1033q0 11 5 21.5t12 17.5q11 12 25 30t26.5 41.5t21 53.5t8.5 64q0 37 -12.5 78.5t-42.5 90.5q-10 16 -10 32q0 18 12 32.5t34 23.5l190 70q41 -65 61 -129t20 -128q0 -110 -57.5 -210t-168.5 -185l-101 59q-12 8 -17.5 18t-5.5 20zM443 1033q0 11 5.5 21.5 t12.5 17.5q11 12 25 30t26 41.5t21 53.5t9 64q0 37 -13 78.5t-43 90.5q-10 16 -10 32q0 18 12.5 32.5t33.5 23.5l191 70q41 -65 61 -129t20 -128q0 -110 -57.5 -210t-169.5 -185l-100 59q-12 8 -18 18t-6 20z" />
<glyph unicode="&#x201e;" horiz-adv-x="849" d="M77 -215q0 11 5 21.5t12 17.5q11 12 25 30t26.5 41.5t21 53t8.5 63.5q0 37 -12.5 79t-42.5 90q-10 16 -10 33q0 18 12 32.5t34 22.5l190 71q41 -65 61 -129.5t20 -127.5q0 -110 -57.5 -210t-168.5 -185l-101 59q-12 8 -17.5 18t-5.5 20zM443 -215q0 11 5.5 21.5 t12.5 17.5q11 12 25 30t26 41.5t21 53t9 63.5q0 37 -13 79t-43 90q-10 16 -10 33q0 18 12.5 32.5t33.5 22.5l191 71q41 -65 61 -129.5t20 -127.5q0 -110 -57.5 -210t-169.5 -185l-100 59q-12 8 -18 18t-6 20z" />
<glyph unicode="&#x2022;" d="M86 606q0 102 40 192.5t108.5 158t160.5 106.5t197 39t197.5 -39t161.5 -106.5t109 -157.5t40 -193q0 -101 -40 -191t-109 -157t-161.5 -105.5t-197.5 -38.5q-104 0 -196.5 38.5t-161 105.5t-108.5 157t-40 191z" />
<glyph unicode="&#x2026;" horiz-adv-x="1613" d="M61 161q0 37 14 68.5t38 55t57 37.5t72 14q38 0 70.5 -14t57 -37.5t38.5 -55t14 -68.5t-14 -69.5t-38.5 -56t-57 -36.5t-70.5 -13q-39 0 -72 13t-57 36.5t-38 56t-14 69.5zM627 161q0 37 13.5 68.5t37.5 55t57 37.5t72 14q38 0 70.5 -14t57 -37.5t38.5 -55t14 -68.5 t-14 -69.5t-38.5 -56t-57 -36.5t-70.5 -13q-39 0 -72 13t-57 36.5t-37.5 56t-13.5 69.5zM1192 161q0 37 14 68.5t38 55t56.5 37.5t71.5 14q38 0 71 -14t57.5 -37.5t38 -55t13.5 -68.5t-13.5 -69.5t-38 -56t-57.5 -36.5t-71 -13q-39 0 -71.5 13t-56.5 36.5t-38 56t-14 69.5z " />
<glyph unicode="&#x202f;" horiz-adv-x="390" />
<glyph unicode="&#x2039;" horiz-adv-x="667" d="M113 538v40l268 411l104 -47q25 -11 37 -27.5t12 -36.5q0 -25 -16 -53l-123 -220q-17 -31 -37 -48q18 -16 37 -47l123 -221q15 -27 16 -51q0 -20 -12 -37t-37 -28l-104 -47z" />
<glyph unicode="&#x203a;" horiz-adv-x="667" d="M134 238q0 25 16 51l122 221q15 29 37 47q-10 9 -19 21.5t-18 26.5l-122 220q-15 28 -16 53q0 20 12 36.5t36 27.5l105 47l268 -411v-40l-268 -412l-105 47q-25 11 -36.5 27.5t-11.5 37.5z" />
<glyph unicode="&#x205f;" horiz-adv-x="487" />
<glyph unicode="&#x20ac;" d="M41 542v169h100v35v29t1 29h-101v169h123q26 121 79 219.5t127.5 168.5t169 107.5t201.5 37.5q145 0 251.5 -57.5t170.5 -153.5l-116 -120q-11 -12 -25 -22t-37 -10q-25 0 -41.5 15.5t-39 34t-56.5 34t-92 15.5q-96 0 -164.5 -68t-99.5 -201h471v-94q0 -13 -6.5 -26.5 t-17.5 -24.5t-27 -17.5t-35 -6.5h-407q-1 -14 -1 -28.5v-29.5v-35h395v-95q0 -13 -6 -26t-17.5 -24t-27 -17.5t-35.5 -6.5h-293q27 -148 93.5 -220t162.5 -72q43 0 74 8.5t52.5 21t36.5 28t27.5 27.5t25.5 21t30 9q14 0 24 -4.5t21 -15.5l139 -124q-71 -116 -185.5 -175.5 t-260.5 -59.5q-122 0 -218.5 40.5t-168 113t-117 175t-64.5 227.5h-116z" />
<glyph unicode="&#x2122;" horiz-adv-x="1497" d="M51 1319v173h522v-173h-153v-455h-217v455h-152zM625 864v628h188q13 0 23 -1t17.5 -4.5t14 -10t15.5 -16.5l96 -222q19 -43 34 -86q7 22 16 43.5t20 42.5l102 222q17 20 30 26t40 6h188v-628h-190v258l14 116l-129 -275q-10 -22 -29.5 -33.5t-44.5 -11.5h-31 q-25 0 -44 11.5t-29 33.5l-123 270l12 -111v-258h-190z" />
<glyph unicode="&#x25fc;" horiz-adv-x="1059" d="M0 0v1060h1060v-1060h-1060z" />
</font>
</defs></svg> 