<?xml version="1.0" encoding="utf-8"?>
<!-- Generator: Adobe Illustrator 17.0.0, SVG Export Plug-In . SVG Version: 6.00 Build 0)  -->
<!DOCTYPE svg PUBLIC "-//W3C//DTD SVG 1.1//EN" "http://www.w3.org/Graphics/SVG/1.1/DTD/svg11.dtd">
<svg version="1.1" id="Layer_1" xmlns="http://www.w3.org/2000/svg" xmlns:xlink="http://www.w3.org/1999/xlink" x="0px" y="0px"
	 width="37px" height="32px" viewBox="0 0 37 32" enable-background="new 0 0 37 32" xml:space="preserve">
<g>
	<path fill="#FFFFFF" d="M18.319,22.272c-0.762,0-1.38-0.618-1.38-1.38l0-8.41c0-0.762,0.618-1.38,1.38-1.38s1.38,0.618,1.38,1.38
		l0,8.41C19.698,21.654,19.081,22.272,18.319,22.272z"/>
</g>
<g>
	<circle fill="#FFFFFF" cx="18.326" cy="25.648" r="1.454"/>
</g>
<g opacity="0.5">
	<path d="M18.252,31.932L18.252,31.932l-17.07,0c-0.423,0-0.813-0.225-1.024-0.591c-0.211-0.366-0.211-0.817,0-1.183l17.07-29.566
		C17.44,0.225,17.83,0,18.252,0c0.423,0,0.813,0.225,1.024,0.591l17.07,29.566c0.211,0.366,0.211,0.817,0,1.183
		c-0.211,0.366-0.602,0.591-1.024,0.591L18.252,31.932z M3.231,29.566l15.021,0l15.022,0L18.252,3.548L3.231,29.566z"/>
</g>
</svg>
