<?xml version="1.0" encoding="utf-8"?>
<!-- Generator: Adobe Illustrator 16.0.4, SVG Export Plug-In . SVG Version: 6.00 Build 0)  -->
<!DOCTYPE svg PUBLIC "-//W3C//DTD SVG 1.1//EN" "http://www.w3.org/Graphics/SVG/1.1/DTD/svg11.dtd">
<svg version="1.1" xmlns="http://www.w3.org/2000/svg" xmlns:xlink="http://www.w3.org/1999/xlink" x="0px" y="0px"
	 width="23.752px" height="26px" viewBox="0 0 23.752 26" enable-background="new 0 0 23.752 26" xml:space="preserve">
<g id="bg" display="none">
	<g display="inline">
		<g>
			<rect x="-173.195" y="-72.709" fill="#D3D3D3" width="767" height="240"/>
		</g>
	</g>
</g>
<g id="icons">
	<g>
		
			<polygon fill="none" stroke="#FFFFFF" stroke-width="2" stroke-linecap="round" stroke-linejoin="round" stroke-miterlimit="10" points="
			6.229,17.809 1,17.809 1,1 6.145,1 13.326,1 22.752,1 22.752,17.809 22.752,25 16.936,17.809 12.904,17.809 		"/>
		
			<line opacity="0.5" fill="none" stroke="#FDFEFF" stroke-width="1.8169" stroke-linecap="round" stroke-linejoin="round" stroke-miterlimit="10" x1="4.928" y1="5.068" x2="9.893" y2="5.068"/>
		
			<line opacity="0.5" fill="none" stroke="#FDFEFF" stroke-width="1.8169" stroke-linecap="round" stroke-linejoin="round" stroke-miterlimit="10" x1="4.928" y1="9.033" x2="17.652" y2="9.033"/>
		
			<line opacity="0.5" fill="none" stroke="#FDFEFF" stroke-width="1.8169" stroke-linecap="round" stroke-linejoin="round" stroke-miterlimit="10" x1="4.928" y1="13" x2="14.039" y2="13"/>
	</g>
</g>
</svg>
