<?xml version="1.0" encoding="utf-8"?>
<!-- Generator: Adobe Illustrator 16.0.1, SVG Export Plug-In . SVG Version: 6.00 Build 0)  -->
<!DOCTYPE svg PUBLIC "-//W3C//DTD SVG 1.1//EN" "http://www.w3.org/Graphics/SVG/1.1/DTD/svg11.dtd">
<svg version="1.1" id="Layer_1" xmlns="http://www.w3.org/2000/svg" xmlns:xlink="http://www.w3.org/1999/xlink" x="0px" y="0px"
	 width="26px" height="30px" viewBox="-0.26 -0.225 26 30" enable-background="new -0.26 -0.225 26 30" xml:space="preserve">
<g id="bg" display="none">
	<g display="inline">
		<g>
			<rect x="-218.235" y="-181.875" fill="#D3D3D3" width="766.999" height="240"/>
		</g>
	</g>
</g>
<g id="icons">
	<path opacity="0.5" fill="#FFFFFF" enable-background="new    " d="M24.061,0.484H1.238c-0.476,0-0.861,0.387-0.861,0.861V13.14
		c0,0.476,0.387,0.861,0.861,0.861h6.371c-0.018-0.608,0.118-1.285,0.147-1.724H2.099V2.207H23.2v10.07h-5.583
		c0.118,0.565,0.338,1.196,0.286,1.724h6.159c0.476,0,0.861-0.386,0.861-0.861V1.346C24.922,0.871,24.537,0.484,24.061,0.484z"/>
	<path fill="#FFFFFF" d="M11.396,8.39H8.275C9.21,8.765,10.292,8.626,11.396,8.39z"/>
	<path fill="#FFFFFF" d="M20.473,4.529H4.494c-0.476,0-0.861,0.385-0.861,0.861v3.86c0,0.477,0.386,0.862,0.861,0.862h3.979
		C7.851,9.709,8.352,9.147,7.921,8.39H5.355V6.252h14.256V8.39h-3.067c0.472,0.354,0.885,0.901,1.215,1.723h2.714
		c0.476,0,0.86-0.386,0.86-0.862v-3.86C21.333,4.914,20.948,4.529,20.473,4.529z"/>
	<path fill="#FFFFFF" d="M17.125,22.27H8.116c-0.476,0-0.862-0.386-0.862-0.86V7.936c0-0.476,0.387-0.861,0.862-0.861h9.009
		c0.477,0,0.861,0.386,0.861,0.861v13.473C17.986,21.884,17.601,22.27,17.125,22.27z M8.977,20.547h7.287V8.797H8.977V20.547z"/>
	<g>
		<line fill="none" x1="14.122" y1="8.797" x2="14.122" y2="20.547"/>
		<path fill="#FFFFFF" d="M14.122,21.408c-0.475,0-0.86-0.387-0.86-0.861V8.797c0-0.476,0.386-0.861,0.86-0.861
			c0.477,0,0.862,0.386,0.862,0.861v11.75C14.983,21.021,14.598,21.408,14.122,21.408z"/>
	</g>
	<path opacity="0.5" fill="#FFFFFF" enable-background="new    " d="M10.422,19.88c-0.476,0-0.861-0.386-0.861-0.86v-2.459
		c0-0.477,0.386-0.86,0.861-0.86s0.861,0.385,0.861,0.86v2.459C11.283,19.494,10.897,19.88,10.422,19.88z"/>
	<path opacity="0.5" fill="#FFFFFF" enable-background="new    " d="M3.156,27.414c-0.221,0-0.441-0.085-0.609-0.253
		c-0.337-0.336-0.337-0.882,0-1.218l2.513-2.512c0.337-0.336,0.882-0.336,1.218,0c0.337,0.336,0.337,0.881,0,1.217l-2.512,2.513
		C3.597,27.329,3.376,27.414,3.156,27.414z"/>
	<path opacity="0.5" fill="#FFFFFF" enable-background="new    " d="M4.941,22.5H1.429c-0.477,0-0.862-0.386-0.862-0.861
		c0-0.477,0.386-0.861,0.862-0.861h3.512c0.475,0,0.86,0.386,0.86,0.861S5.416,22.5,4.941,22.5z"/>
	<path opacity="0.5" fill="#FFFFFF" enable-background="new    " d="M7.938,29.258c-0.477,0-0.862-0.386-0.862-0.861v-3.762
		c0-0.476,0.386-0.861,0.862-0.861c0.475,0,0.86,0.387,0.86,0.861v3.762C8.799,28.872,8.413,29.258,7.938,29.258z"/>
</g>
</svg>
