<?xml version="1.0" encoding="utf-8"?>
<!-- Generator: Adobe Illustrator 16.0.4, SVG Export Plug-In . SVG Version: 6.00 Build 0)  -->
<!DOCTYPE svg PUBLIC "-//W3C//DTD SVG 1.1//EN" "http://www.w3.org/Graphics/SVG/1.1/DTD/svg11.dtd">
<svg version="1.1" xmlns="http://www.w3.org/2000/svg" xmlns:xlink="http://www.w3.org/1999/xlink" x="0px" y="0px"
	 width="26.817px" height="25.834px" viewBox="0 0 26.817 25.834" enable-background="new 0 0 26.817 25.834" xml:space="preserve">
<g id="bg" display="none">
	<g display="inline">
		<g>
			<rect x="-25.207" y="-18.123" fill="#D3D3D3" width="767" height="240"/>
		</g>
	</g>
</g>
<g id="icons">
	<g>
		
			<line fill="none" stroke="#FDFEFF" stroke-width="1.8169" stroke-linecap="round" stroke-linejoin="round" stroke-miterlimit="10" x1="22.477" y1="4.246" x2="22.477" y2="11.598"/>
		
			<polyline fill="none" stroke="#FDFEFF" stroke-width="1.8169" stroke-linecap="round" stroke-linejoin="round" stroke-miterlimit="10" points="
			8.016,10.992 0.909,10.992 0.909,24.926 14.803,24.926 14.803,11.92 22.477,4.246 		"/>
		
			<path fill="none" stroke="#FDFEFF" stroke-width="1.8169" stroke-linecap="round" stroke-linejoin="round" stroke-miterlimit="10" d="
			M22.477,4.246"/>
		
			<path fill="none" stroke="#FDFEFF" stroke-width="1.8169" stroke-linecap="round" stroke-linejoin="round" stroke-miterlimit="10" d="
			M15.124,4.246"/>
		<path opacity="0.5" fill="#FDFEFF" d="M25.909,0H12.014c-0.502,0-0.909,0.406-0.909,0.908v12.63l-5.856,5.856v-5.156
			c0-0.502-0.407-0.908-0.909-0.908s-0.909,0.406-0.909,0.908v7.35c0,0.012,0.006,0.021,0.006,0.032
			c0.004,0.107,0.022,0.214,0.064,0.315c0.043,0.105,0.108,0.199,0.186,0.28c0.004,0.004,0.005,0.01,0.01,0.015
			c0.006,0.006,0.015,0.008,0.021,0.014c0.08,0.076,0.171,0.14,0.274,0.182c0.111,0.046,0.229,0.07,0.347,0.07h7.352
			c0.502,0,0.909-0.406,0.909-0.908s-0.407-0.908-0.909-0.908H6.534l6.123-6.123c0.17-0.171,0.266-0.401,0.266-0.643V1.816H25
			v12.117h-6.201c-0.502,0-0.909,0.406-0.909,0.908s0.407,0.908,0.909,0.908h7.109c0.502,0,0.909-0.406,0.909-0.908V0.908
			C26.817,0.406,26.411,0,25.909,0z"/>
		
			<line fill="none" stroke="#FDFEFF" stroke-width="1.8169" stroke-linecap="round" stroke-linejoin="round" stroke-miterlimit="10" x1="15.124" y1="4.246" x2="22.477" y2="4.246"/>
	</g>
</g>
</svg>
