<?xml version="1.0" encoding="utf-8"?>
<!-- Generator: Adobe Illustrator 16.0.1, SVG Export Plug-In . SVG Version: 6.00 Build 0)  -->
<!DOCTYPE svg PUBLIC "-//W3C//DTD SVG 1.1//EN" "http://www.w3.org/Graphics/SVG/1.1/DTD/svg11.dtd">
<svg version="1.1" id="Layer_1" xmlns="http://www.w3.org/2000/svg" xmlns:xlink="http://www.w3.org/1999/xlink" x="0px" y="0px"
	 width="33px" height="21px" viewBox="0 0 33 21" enable-background="new 0 0 33 21" xml:space="preserve">
<g id="bg" display="none">
	<g display="inline">
		<g>
			<rect x="-492.128" y="-25.424" fill="#D3D3D3" width="767" height="240"/>
		</g>
	</g>
</g>
<g id="icons">
	<g>
		<path fill="#FFFFFF" d="M26.823,7.397L26.823,7.397H4.646c-0.596,0-1.078-0.484-1.078-1.08c0-0.597,0.482-1.08,1.078-1.08l0,0
			l22.177,0.002c0.597,0,1.077,0.48,1.077,1.079C27.9,6.914,27.42,7.397,26.823,7.397z"/>
		<path opacity="0.5" fill="#FFFFFF" enable-background="new    " d="M26.047,14.396h-4.638c-0.599,0-1.08-0.483-1.08-1.08
			s0.481-1.078,1.08-1.078h4.638c0.596,0,1.079,0.481,1.079,1.078S26.643,14.396,26.047,14.396z"/>
		<path fill="#FFFFFF" d="M30.172,19.232H1.116c-0.617,0-1.116-0.5-1.116-1.116v-17C0,0.5,0.499,0,1.116,0h29.056
			c0.615,0,1.115,0.5,1.115,1.116v17C31.287,18.732,30.787,19.232,30.172,19.232z M2.231,17.001h26.824V2.231H2.231V17.001z"/>
	</g>
</g>
</svg>
