<?xml version="1.0" encoding="utf-8"?>
<!-- Generator: Adobe Illustrator 16.0.1, SVG Export Plug-In . SVG Version: 6.00 Build 0)  -->
<!DOCTYPE svg PUBLIC "-//W3C//DTD SVG 1.1//EN" "http://www.w3.org/Graphics/SVG/1.1/DTD/svg11.dtd">
<svg version="1.1" id="Layer_1" xmlns="http://www.w3.org/2000/svg" xmlns:xlink="http://www.w3.org/1999/xlink" x="0px" y="0px"
	 width="30px" height="26px" viewBox="0 0 30 26" enable-background="new 0 0 30 26" xml:space="preserve">
<g id="bg" display="none">
	<g display="inline">
		<g>
			<rect x="-711.616" y="-18.834" fill="#D3D3D3" width="767" height="240"/>
		</g>
	</g>
</g>
<g id="icons">
	<g>
		
			<line fill="none" stroke="#FDFEFF" stroke-width="1.7" stroke-linecap="round" stroke-linejoin="round" stroke-miterlimit="10" x1="9.917" y1="0.85" x2="9.917" y2="3.838"/>
		
			<polyline fill="none" stroke="#FDFEFF" stroke-width="1.7" stroke-linecap="round" stroke-linejoin="round" stroke-miterlimit="10" points="
			0.85,19.131 0.85,13.404 3.71,11.281 3.71,20.086 7.346,20.98 7.346,5.561 12.452,2.576 12.452,23.562 		"/>
		
			<polyline opacity="0.5" fill="none" stroke="#FDFEFF" stroke-width="1.8169" stroke-linecap="round" stroke-linejoin="round" stroke-miterlimit="10" enable-background="new    " points="
			27.564,19.131 27.564,13.404 24.705,11.281 24.705,20.086 21.068,20.98 21.068,5.561 15.963,2.576 15.963,23.562 		"/>
	</g>
</g>
</svg>
