<?xml version="1.0" encoding="utf-8"?>
<!-- Generator: Adobe Illustrator 16.0.1, SVG Export Plug-In . SVG Version: 6.00 Build 0)  -->
<!DOCTYPE svg PUBLIC "-//W3C//DTD SVG 1.1//EN" "http://www.w3.org/Graphics/SVG/1.1/DTD/svg11.dtd">
<svg version="1.1" id="Layer_1" xmlns="http://www.w3.org/2000/svg" xmlns:xlink="http://www.w3.org/1999/xlink" x="0px" y="0px"
	 width="45px" height="26px" viewBox="0 0 45 26" enable-background="new 0 0 45 26" xml:space="preserve">
<g id="bg" display="none">
	<g display="inline">
		<g>
			<rect x="-492.221" y="-130" fill="#D3D3D3" width="767" height="240"/>
		</g>
	</g>
</g>
<g id="icons">
	<g>
		<path fill="#FFFFFF" d="M30.939,20.373H3.726c-0.546,0-0.988-0.441-0.988-0.989V0.988C2.737,0.442,3.18,0,3.726,0h27.213
			c0.547,0,0.99,0.442,0.99,0.988v1.776c0,0.547-0.443,0.988-0.99,0.988c-0.545,0-0.988-0.441-0.988-0.988V1.978H4.716v16.418
			h25.235V17.57c0-0.547,0.443-0.989,0.988-0.989c0.547,0,0.99,0.442,0.99,0.989v1.812C31.93,19.932,31.486,20.373,30.939,20.373z"
			/>
		<path fill="#FFFFFF" d="M34.082,25H0.987C0.442,25,0,24.557,0,24.011c0-0.547,0.442-0.989,0.987-0.989h33.095
			c0.545,0,0.986,0.442,0.986,0.989C35.068,24.557,34.626,25,34.082,25z"/>
		<path opacity="0.5" fill="#FFFFFF" enable-background="new    " d="M40.777,9.011L40.777,9.011H28.496
			c-0.328,0-0.598-0.268-0.598-0.598s0.27-0.598,0.598-0.598l0,0l12.281,0.001c0.33,0,0.598,0.267,0.598,0.597
			C41.375,8.744,41.107,9.011,40.777,9.011z"/>
		<path fill="#FFFFFF" d="M40.348,12.888h-2.566c-0.33,0-0.6-0.268-0.6-0.598c0-0.331,0.27-0.599,0.6-0.599h2.566
			c0.329,0,0.6,0.268,0.6,0.599C40.945,12.62,40.677,12.888,40.348,12.888z"/>
		<path opacity="0.5" fill="#FFFFFF" enable-background="new    " d="M42.632,15.564h-16.09c-0.342,0-0.621-0.276-0.621-0.617V5.532
			c0-0.342,0.279-0.617,0.621-0.617h16.09c0.343,0,0.617,0.275,0.617,0.617v9.415C43.25,15.288,42.975,15.564,42.632,15.564z
			 M27.158,14.329h14.855V6.151H27.158V14.329z"/>
	</g>
</g>
</svg>
