<?xml version="1.0" encoding="utf-8"?>
<!-- Generator: Adobe Illustrator 16.0.1, SVG Export Plug-In . SVG Version: 6.00 Build 0)  -->
<!DOCTYPE svg PUBLIC "-//W3C//DTD SVG 1.1//EN" "http://www.w3.org/Graphics/SVG/1.1/DTD/svg11.dtd">
<svg version="1.1" id="Layer_1" xmlns="http://www.w3.org/2000/svg" xmlns:xlink="http://www.w3.org/1999/xlink" x="0px" y="0px"
	 width="29px" height="28px" viewBox="0 0 29 28" enable-background="new 0 0 29 28" xml:space="preserve">
<g id="bg" display="none">
	<g display="inline">
		<g>
			<rect x="-171.23" y="-128.492" fill="#D3D3D3" width="767" height="240"/>
		</g>
	</g>
</g>
<g id="icons">
	<g>
		
			<line fill="none" stroke="#FFFFFF" stroke-width="2.103" stroke-linecap="round" stroke-linejoin="round" stroke-miterlimit="10" x1="10.166" y1="8.221" x2="10.166" y2="1.859"/>
		
			<polyline fill="none" stroke="#FFFFFF" stroke-width="2.103" stroke-linecap="round" stroke-linejoin="round" stroke-miterlimit="10" points="
			4.349,24.188 10.166,24.188 10.166,15.094 10.166,14.7 		"/>
		
			<polyline fill="none" stroke="#FFFFFF" stroke-width="2.103" stroke-linecap="round" stroke-linejoin="round" stroke-miterlimit="10" points="
			10.166,1.859 20.311,1.859 20.311,8.221 		"/>
		<g>
			<path fill="#FFFFFF" d="M25.291,18.008h-8.997c-0.581,0-1.051-0.471-1.051-1.052s0.471-1.052,1.051-1.052h7.946V4.22
				c0-0.581,0.471-1.052,1.051-1.052s1.051,0.471,1.051,1.052v12.736C26.342,17.537,25.871,18.008,25.291,18.008z"/>
		</g>
		<g>
			<path fill="#FFFFFF" d="M25.291,4.784c-1.318,0-2.393-1.073-2.393-2.393C22.898,1.073,23.973,0,25.291,0
				c1.316,0,2.391,1.073,2.391,2.392S26.609,4.784,25.291,4.784z M25.291,1.578c-0.449,0-0.814,0.364-0.814,0.813
				c0,0.449,0.365,0.814,0.814,0.814s0.812-0.365,0.812-0.814C26.105,1.942,25.74,1.578,25.291,1.578z"/>
		</g>
		<g opacity="0.5">
			<path fill="#FFFFFF" d="M19.26,13.04v1.2c0,0.581,0.471,1.052,1.051,1.052s1.051-0.471,1.051-1.052v-2.252
				c0-0.581-0.471-1.052-1.051-1.052H3.442V4.529c0.79-0.393,1.341-1.197,1.341-2.138C4.782,1.073,3.709,0,2.391,0S0,1.073,0,2.392
				c0,0.94,0.55,1.747,1.34,2.138v6.943v0.516v8.129c0,0.581,0.471,1.052,1.051,1.052s1.051-0.471,1.051-1.052V13.04H19.26z
				 M2.391,1.577c0.449,0,0.814,0.365,0.814,0.814c0,0.415-0.316,0.746-0.719,0.796c-0.032-0.003-0.062-0.02-0.096-0.02
				c-0.034,0-0.062,0.017-0.096,0.02c-0.401-0.05-0.718-0.381-0.718-0.796C1.577,1.942,1.942,1.577,2.391,1.577z"/>
			<path fill="#FFFFFF" d="M25.29,21.795c-0.938,0-1.746,0.55-2.138,1.34h-1.791v-3.52c0-0.581-0.471-1.053-1.051-1.053
				s-1.052,0.472-1.052,1.053v3.52H14.3c-0.581,0-1.051,0.471-1.051,1.053c0,0.58,0.471,1.053,1.051,1.053h8.854
				c0.392,0.79,1.197,1.339,2.138,1.339c1.317,0,2.392-1.072,2.392-2.392C27.682,22.867,26.607,21.795,25.29,21.795z M25.29,25.001
				c-0.449,0-0.813-0.365-0.813-0.813s0.364-0.814,0.813-0.814s0.813,0.366,0.813,0.814C26.105,24.636,25.74,25.001,25.29,25.001z"
				/>
		</g>
		
			<circle fill="none" stroke="#FFFFFF" stroke-width="1.5773" stroke-linecap="round" stroke-linejoin="round" stroke-miterlimit="10" cx="2.391" cy="24.187" r="1.603"/>
		<g>
			<path fill="#FFFFFF" d="M14.345,19.348c-1.318,0-2.391-1.072-2.391-2.392c0-1.32,1.072-2.392,2.391-2.392
				c1.319,0,2.392,1.071,2.392,2.392C16.736,18.275,15.664,19.348,14.345,19.348z M14.345,16.143c-0.449,0-0.812,0.364-0.812,0.813
				s0.364,0.813,0.812,0.813c0.449,0,0.814-0.364,0.814-0.813S14.794,16.143,14.345,16.143z"/>
		</g>
	</g>
</g>
</svg>
