<?xml version="1.0" encoding="utf-8"?>
<!-- Generator: Adobe Illustrator 16.0.1, SVG Export Plug-In . SVG Version: 6.00 Build 0)  -->
<!DOCTYPE svg PUBLIC "-//W3C//DTD SVG 1.1//EN" "http://www.w3.org/Graphics/SVG/1.1/DTD/svg11.dtd">
<svg version="1.1" id="Layer_1" xmlns="http://www.w3.org/2000/svg" xmlns:xlink="http://www.w3.org/1999/xlink" x="0px" y="0px"
	 width="36px" height="25px" viewBox="0 0 36 25" enable-background="new 0 0 36 25" xml:space="preserve">
<g id="bg" display="none">
	<g display="inline">
		<g>
			<rect x="-383.396" y="-129.857" fill="#D3D3D3" width="767" height="240"/>
		</g>
	</g>
</g>
<g id="icons">
	<g>
		
			<polyline fill="none" stroke="#FFFFFF" stroke-width="1.8478" stroke-linecap="round" stroke-linejoin="round" stroke-miterlimit="10" points="
			21.898,18.708 34.064,18.708 34.064,10.51 29.33,2.917 23.59,2.917 21.594,0.924 0.924,0.924 0.924,18.708 19.309,18.708 
			19.309,5.966 		"/>
		
			<polygon fill="none" stroke="#FFFFFF" stroke-width="1.8478" stroke-linecap="round" stroke-linejoin="round" stroke-miterlimit="10" points="
			23.574,5.966 23.574,10.585 30.328,10.585 27.559,5.966 		"/>
		
			<path fill="none" stroke="#FFFFFF" stroke-width="1.8478" stroke-linecap="round" stroke-linejoin="round" stroke-miterlimit="10" d="
			M5.629,22.924c-1.164,0-2.107-0.943-2.107-2.107"/>
		
			<path fill="none" stroke="#FFFFFF" stroke-width="1.8478" stroke-linecap="round" stroke-linejoin="round" stroke-miterlimit="10" d="
			M7.736,20.816c0,1.164-0.945,2.106-2.107,2.106"/>
		
			<path fill="none" stroke="#FFFFFF" stroke-width="1.8478" stroke-linecap="round" stroke-linejoin="round" stroke-miterlimit="10" d="
			M28.914,22.924c-1.164,0-2.105-0.943-2.105-2.107"/>
		
			<path fill="none" stroke="#FFFFFF" stroke-width="1.8478" stroke-linecap="round" stroke-linejoin="round" stroke-miterlimit="10" d="
			M31.021,20.816c0,1.164-0.942,2.106-2.106,2.106"/>
	</g>
</g>
</svg>
