<?xml version="1.0" encoding="utf-8"?>
<!-- Generator: Adobe Illustrator 16.0.1, SVG Export Plug-In . SVG Version: 6.00 Build 0)  -->
<!DOCTYPE svg PUBLIC "-//W3C//DTD SVG 1.1//EN" "http://www.w3.org/Graphics/SVG/1.1/DTD/svg11.dtd">
<svg version="1.1" id="icons" xmlns="http://www.w3.org/2000/svg" xmlns:xlink="http://www.w3.org/1999/xlink" x="0px" y="0px"
	 width="32px" height="18px" viewBox="0 0 32 18" enable-background="new 0 0 32 18" xml:space="preserve">
<g>
	<g>
		
			<path fill="none" stroke="#FB4F14" stroke-width="2.167" stroke-linecap="round" stroke-linejoin="round" stroke-miterlimit="10" d="
			M12.272,13.697c-1.17,0.871-2.619,1.387-4.187,1.387c-3.867,0-7.002-3.135-7.002-6.999c0-3.865,3.135-7.001,7.002-7.001
			c1.821,0,3.818,1.032,5.066,2.176"/>
		
			<path fill="none" stroke="#FB4F14" stroke-width="2.167" stroke-linecap="round" stroke-linejoin="round" stroke-miterlimit="10" d="
			M21.702,5.452c1.385-0.218,2.683,0.738,2.901,2.124c0.207,1.39-0.74,2.688-2.135,2.9c-0.691,0.104-1.363-0.076-1.887-0.463"/>
		
			<line fill="none" stroke="#FB4F14" stroke-width="2.167" stroke-linecap="round" stroke-linejoin="round" stroke-miterlimit="10" x1="13.152" y1="3.259" x2="20.583" y2="10.014"/>
	</g>
	<g>
		
			<path fill="none" stroke="#004165" stroke-width="2.167" stroke-linecap="round" stroke-linejoin="round" stroke-miterlimit="10" d="
			M17.973,2.471c1.172-0.872,2.621-1.388,4.188-1.388c3.864,0,7.001,3.136,7.001,6.999c0,3.865-3.137,7.001-7.001,7.001
			c-1.823,0-3.821-1.033-5.067-2.176"/>
		
			<path fill="none" stroke="#004165" stroke-width="2.167" stroke-linecap="round" stroke-linejoin="round" stroke-miterlimit="10" d="
			M8.543,10.716c-1.385,0.218-2.686-0.737-2.899-2.125c-0.209-1.39,0.74-2.688,2.128-2.9C8.468,5.588,9.14,5.766,9.66,6.155"/>
		
			<line fill="none" stroke="#004165" stroke-width="2.167" stroke-linecap="round" stroke-linejoin="round" stroke-miterlimit="10" x1="17.094" y1="12.91" x2="9.66" y2="6.155"/>
	</g>
</g>
</svg>
