<?xml version="1.0" encoding="utf-8"?>
<!-- Generator: Adobe Illustrator 16.0.1, SVG Export Plug-In . SVG Version: 6.00 Build 0)  -->
<!DOCTYPE svg PUBLIC "-//W3C//DTD SVG 1.1//EN" "http://www.w3.org/Graphics/SVG/1.1/DTD/svg11.dtd">
<svg version="1.1" id="icons" xmlns="http://www.w3.org/2000/svg" xmlns:xlink="http://www.w3.org/1999/xlink" x="0px" y="0px"
	 width="33px" height="23px" viewBox="0 0 33 23" enable-background="new 0 0 33 23" xml:space="preserve">
<g>
	
		<polyline fill="none" stroke="#FB4F14" stroke-width="1.9391" stroke-linecap="round" stroke-linejoin="round" stroke-miterlimit="10" points="
		18.424,18.828 20.613,20.982 30.631,10.963 20.637,0.97 10.762,10.848 14.552,14.736 	"/>
	
		<path fill="none" stroke="#004165" stroke-width="1.9391" stroke-linecap="round" stroke-linejoin="round" stroke-miterlimit="10" d="
		M18.102,7.817c0.412,1.074,0.621,2.247,0.578,3.469c-0.164,4.889-4.262,8.719-9.151,8.554c-4.889-0.165-8.718-4.262-8.554-9.151
		C1.141,5.8,5.238,1.97,10.126,2.135c1.516,0.052,2.926,0.479,4.15,1.191"/>
</g>
</svg>
