<?xml version="1.0" encoding="utf-8"?>
<!-- Generator: Adobe Illustrator 16.0.4, SVG Export Plug-In . SVG Version: 6.00 Build 0)  -->
<!DOCTYPE svg PUBLIC "-//W3C//DTD SVG 1.1//EN" "http://www.w3.org/Graphics/SVG/1.1/DTD/svg11.dtd">
<svg version="1.1" id="icons" xmlns="http://www.w3.org/2000/svg" xmlns:xlink="http://www.w3.org/1999/xlink" x="0px" y="0px"
	 width="25.483px" height="29.552px" viewBox="0 0 25.483 29.552" enable-background="new 0 0 25.483 29.552" xml:space="preserve">
<g>
	<path fill="#FB4F14" d="M24.061,0.484H1.238c-0.476,0-0.861,0.387-0.861,0.861v11.794C0.376,13.615,0.762,14,1.238,14h6.371
		c-0.017-0.608,0.118-1.285,0.148-1.724H2.099V2.207H23.2v10.07h-5.583c0.118,0.565,0.338,1.196,0.286,1.724h6.159
		c0.476,0,0.862-0.386,0.862-0.861V1.345C24.922,0.871,24.537,0.484,24.061,0.484z"/>
	<path fill="#FFFFFF" d="M11.396,8.389H8.275C9.21,8.764,10.292,8.625,11.396,8.389z"/>
	<path fill="#024364" d="M20.473,4.529H4.494c-0.476,0-0.861,0.385-0.861,0.861V9.25c0,0.477,0.385,0.862,0.861,0.862h3.979
		C7.851,9.708,8.352,9.147,7.921,8.389H5.355V6.251h14.256v2.138h-3.067c0.471,0.354,0.884,0.901,1.215,1.723h2.713
		c0.476,0,0.861-0.386,0.861-0.862V5.39C21.333,4.914,20.948,4.529,20.473,4.529z"/>
	<path fill="#024364" d="M17.125,22.269H8.116c-0.476,0-0.862-0.386-0.862-0.861V7.935c0-0.476,0.386-0.861,0.862-0.861h9.009
		c0.476,0,0.861,0.386,0.861,0.861v13.473C17.986,21.883,17.601,22.269,17.125,22.269z M8.977,20.546h7.287V8.796H8.977V20.546z"/>
	<line fill="#FFFFFF" x1="14.122" y1="8.796" x2="14.122" y2="20.546"/>
	<path fill="#024364" d="M14.122,21.408c-0.475,0-0.861-0.386-0.861-0.861V8.796c0-0.476,0.386-0.861,0.861-0.861
		c0.476,0,0.862,0.386,0.862,0.861v11.75C14.983,21.022,14.598,21.408,14.122,21.408z"/>
	<path fill="#FB4F14" d="M10.422,19.879c-0.476,0-0.862-0.386-0.862-0.861v-2.459c0-0.476,0.386-0.86,0.862-0.86
		c0.475,0,0.861,0.385,0.861,0.86v2.459C11.283,19.494,10.897,19.879,10.422,19.879z"/>
	<path fill="#FB4F14" d="M3.156,27.414c-0.221,0-0.441-0.085-0.609-0.253c-0.337-0.336-0.337-0.882,0-1.218l2.512-2.512
		c0.337-0.336,0.882-0.336,1.218,0c0.337,0.336,0.337,0.881,0,1.218l-2.512,2.512C3.597,27.329,3.376,27.414,3.156,27.414z"/>
	<path fill="#FB4F14" d="M4.941,22.5H1.429c-0.476,0-0.862-0.386-0.862-0.861c0-0.477,0.386-0.861,0.862-0.861h3.512
		c0.475,0,0.861,0.385,0.861,0.861C5.802,22.114,5.416,22.5,4.941,22.5z"/>
	<path fill="#FB4F14" d="M7.938,29.257c-0.476,0-0.862-0.386-0.862-0.861v-3.762c0-0.476,0.386-0.861,0.862-0.861
		c0.475,0,0.861,0.386,0.861,0.861l0,3.762C8.799,28.872,8.413,29.257,7.938,29.257z"/>
</g>
</svg>
