<?xml version="1.0" encoding="utf-8"?>
<!-- Generator: Adobe Illustrator 16.0.1, SVG Export Plug-In . SVG Version: 6.00 Build 0)  -->
<!DOCTYPE svg PUBLIC "-//W3C//DTD SVG 1.1//EN" "http://www.w3.org/Graphics/SVG/1.1/DTD/svg11.dtd">
<svg version="1.1" id="icons" xmlns="http://www.w3.org/2000/svg" xmlns:xlink="http://www.w3.org/1999/xlink" x="0px" y="0px"
	 width="18px" height="28px" viewBox="0 0 18 28" enable-background="new 0 0 18 28" xml:space="preserve">
<g>
	
		<polyline fill="none" stroke="#004165" stroke-width="1.4282" stroke-linecap="round" stroke-linejoin="round" stroke-miterlimit="10" points="
		7.9,19.484 0.714,19.484 0.714,0.714 14.449,0.714 14.449,10.86 	"/>
	
		<line fill="none" stroke="#004165" stroke-width="1.4282" stroke-linecap="round" stroke-linejoin="round" stroke-miterlimit="10" x1="3.588" y1="5.493" x2="11.574" y2="5.493"/>
	
		<line fill="none" stroke="#004165" stroke-width="1.4282" stroke-linecap="round" stroke-linejoin="round" stroke-miterlimit="10" x1="3.588" y1="8.784" x2="11.574" y2="8.784"/>
	
		<line fill="none" stroke="#004165" stroke-width="1.4282" stroke-linecap="round" stroke-linejoin="round" stroke-miterlimit="10" x1="3.588" y1="12.278" x2="9.179" y2="12.278"/>
	
		<line fill="none" stroke="#004165" stroke-width="1.4282" stroke-linecap="round" stroke-linejoin="round" stroke-miterlimit="10" x1="3.588" y1="15.855" x2="8.54" y2="15.855"/>
	
		<circle fill="none" stroke="#FB4F14" stroke-width="1.4282" stroke-linecap="round" stroke-linejoin="round" stroke-miterlimit="10" cx="13.501" cy="15.821" r="2.565"/>
	
		<polyline fill="none" stroke="#FB4F14" stroke-width="1.4282" stroke-linecap="round" stroke-linejoin="round" stroke-miterlimit="10" points="
		16.066,19.484 16.066,25.714 13.501,23.316 10.936,25.714 10.936,19.484 	"/>
</g>
</svg>
