<?xml version="1.0" encoding="utf-8"?>
<!-- Generator: Adobe Illustrator 16.0.1, SVG Export Plug-In . SVG Version: 6.00 Build 0)  -->
<!DOCTYPE svg PUBLIC "-//W3C//DTD SVG 1.1//EN" "http://www.w3.org/Graphics/SVG/1.1/DTD/svg11.dtd">
<svg version="1.1" id="icons" xmlns="http://www.w3.org/2000/svg" xmlns:xlink="http://www.w3.org/1999/xlink" x="0px" y="0px"
	 width="30px" height="28px" viewBox="-0.695 -0.562 30 28" enable-background="new -0.695 -0.562 30 28" xml:space="preserve">
<g>
	
		<polyline fill="none" stroke="#004165" stroke-width="1.8767" stroke-linecap="round" stroke-linejoin="round" stroke-miterlimit="10" points="
		8.391,7.562 0.938,7.562 0.938,20.431 0.938,25.938 5.391,20.431 17.594,20.431 17.594,7.562 13.656,7.562 	"/>
	
		<polyline fill="none" stroke="#FB4F14" stroke-width="1.8767" stroke-linecap="round" stroke-linejoin="round" stroke-miterlimit="10" points="
		15.02,13.809 11.017,13.809 11.017,0.938 14.954,0.938 20.454,0.938 27.672,0.938 27.672,13.809 27.672,19.315 23.219,13.809 
		20.131,13.809 	"/>
</g>
</svg>
