<?xml version="1.0" encoding="utf-8"?>
<!-- Generator: Adobe Illustrator 16.0.1, SVG Export Plug-In . SVG Version: 6.00 Build 0)  -->
<!DOCTYPE svg PUBLIC "-//W3C//DTD SVG 1.1//EN" "http://www.w3.org/Graphics/SVG/1.1/DTD/svg11.dtd">
<svg version="1.1" id="icons" xmlns="http://www.w3.org/2000/svg" xmlns:xlink="http://www.w3.org/1999/xlink" x="0px" y="0px"
	 width="23px" height="28px" viewBox="0 0 23 28" enable-background="new 0 0 23 28" xml:space="preserve">
<g>
	<g>
		
			<polyline fill="none" stroke="#FB4F14" stroke-width="1.9839" stroke-linecap="round" stroke-linejoin="round" stroke-miterlimit="10" points="
			16.85,19.641 10.498,25.992 4.305,19.801 		"/>
		
			<line fill="none" stroke="#FB4F14" stroke-width="1.9839" stroke-linecap="round" stroke-linejoin="round" stroke-miterlimit="10" x1="10.498" y1="25.992" x2="10.557" y2="12.309"/>
	</g>
	
		<polyline fill="none" stroke="#004165" stroke-width="1.9839" stroke-linecap="round" stroke-linejoin="round" stroke-miterlimit="10" points="
		15.48,16.246 20.82,10.905 10.906,0.992 0.992,10.906 6.107,16.021 	"/>
</g>
</svg>
