<?xml version="1.0" encoding="utf-8"?>
<!-- Generator: Adobe Illustrator 16.0.1, SVG Export Plug-In . SVG Version: 6.00 Build 0)  -->
<!DOCTYPE svg PUBLIC "-//W3C//DTD SVG 1.1//EN" "http://www.w3.org/Graphics/SVG/1.1/DTD/svg11.dtd">
<svg version="1.1" id="icons" xmlns="http://www.w3.org/2000/svg" xmlns:xlink="http://www.w3.org/1999/xlink" x="0px" y="0px"
	 width="26px" height="28px" viewBox="0 0 26 28" enable-background="new 0 0 26 28" xml:space="preserve">
<g>
	
		<circle fill="none" stroke="#004165" stroke-width="1.7676" stroke-linecap="round" stroke-linejoin="round" stroke-miterlimit="10" cx="12.84" cy="2.769" r="1.885"/>
	
		<circle fill="none" stroke="#FB4F14" stroke-width="2.0201" stroke-linecap="round" stroke-linejoin="round" stroke-miterlimit="10" cx="12.84" cy="23.999" r="1.885"/>
	
		<line fill="none" stroke="#FB4F14" stroke-width="2.0201" stroke-linecap="round" stroke-linejoin="round" stroke-miterlimit="10" x1="12.84" y1="13.366" x2="12.84" y2="21.792"/>
	
		<line fill="none" stroke="#004165" stroke-width="2.0201" stroke-linecap="round" stroke-linejoin="round" stroke-miterlimit="10" x1="12.84" y1="4.94" x2="12.84" y2="9.84"/>
	
		<circle fill="none" stroke="#FB4F14" stroke-width="2.0201" stroke-linecap="round" stroke-linejoin="round" stroke-miterlimit="10" cx="22.098" cy="7.955" r="1.886"/>
	
		<circle fill="none" stroke="#004165" stroke-width="1.7676" stroke-linecap="round" stroke-linejoin="round" stroke-miterlimit="10" cx="2.933" cy="18.432" r="1.885"/>
	
		<line fill="none" stroke="#004165" stroke-width="2.0201" stroke-linecap="round" stroke-linejoin="round" stroke-miterlimit="10" x1="9.623" y1="15.157" x2="5.488" y2="17.459"/>
	
		<line fill="none" stroke="#FB4F14" stroke-width="2.0201" stroke-linecap="round" stroke-linejoin="round" stroke-miterlimit="10" x1="20.211" y1="9.261" x2="12.84" y2="13.366"/>
	
		<circle fill="none" stroke="#004165" stroke-width="1.7676" stroke-linecap="round" stroke-linejoin="round" stroke-miterlimit="10" cx="22.098" cy="18.432" r="1.884"/>
	
		<circle fill="none" stroke="#FB4F14" stroke-width="2.0201" stroke-linecap="round" stroke-linejoin="round" stroke-miterlimit="10" cx="2.896" cy="7.955" r="1.885"/>
	
		<line fill="none" stroke="#FB4F14" stroke-width="2.0201" stroke-linecap="round" stroke-linejoin="round" stroke-miterlimit="10" x1="12.84" y1="13.366" x2="5.535" y2="9.189"/>
	
		<line fill="none" stroke="#004165" stroke-width="2.0201" stroke-linecap="round" stroke-linejoin="round" stroke-miterlimit="10" x1="20.164" y1="17.555" x2="15.971" y2="15.157"/>
</g>
</svg>
