<?xml version="1.0" encoding="utf-8"?>
<!-- Generator: Adobe Illustrator 16.0.1, SVG Export Plug-In . SVG Version: 6.00 Build 0)  -->
<!DOCTYPE svg PUBLIC "-//W3C//DTD SVG 1.1//EN" "http://www.w3.org/Graphics/SVG/1.1/DTD/svg11.dtd">
<svg version="1.1" id="icons" xmlns="http://www.w3.org/2000/svg" xmlns:xlink="http://www.w3.org/1999/xlink" x="0px" y="0px"
	 width="23px" height="25px" viewBox="0 0 23 25" enable-background="new 0 0 23 25" xml:space="preserve">
<g>
	
		<line fill="none" stroke="#014364" stroke-width="1.6552" stroke-linecap="round" stroke-linejoin="round" stroke-miterlimit="10" x1="0.828" y1="14.139" x2="20.318" y2="14.139"/>
	
		<line fill="none" stroke="#FB4F14" stroke-width="1.6552" stroke-linecap="round" stroke-linejoin="round" stroke-miterlimit="10" x1="13.305" y1="19.492" x2="16.861" y2="19.492"/>
	
		<rect x="0.828" y="9.794" fill="none" stroke="#014364" stroke-width="1.6552" stroke-linecap="round" stroke-linejoin="round" stroke-miterlimit="10" width="19.49" height="13.034"/>
	
		<path fill="none" stroke="#FB4F14" stroke-width="1.6552" stroke-linecap="round" stroke-linejoin="round" stroke-miterlimit="10" d="
		M10.937,5.761c1.088-1.826,3.558-5.312,6.334-4.9c0,0.08,2.59,0.3,2.147,2.969c0.08,0.057-1.209,4.434-7.976,3.399"/>
	
		<path fill="none" stroke="#FB4F14" stroke-width="1.6552" stroke-linecap="round" stroke-linejoin="round" stroke-miterlimit="10" d="
		M4.438,0.861c0,0.08-2.589,0.3-2.149,2.969c-0.08,0.057,1.209,4.434,7.976,3.399"/>
	
		<path fill="none" stroke="#FB4F14" stroke-width="1.6552" stroke-linecap="round" stroke-linejoin="round" stroke-miterlimit="10" d="
		M11.363,6.832c0,0-3.184-6.527-6.925-5.97"/>
</g>
</svg>
