<?xml version="1.0" encoding="utf-8"?>
<!-- Generator: Adobe Illustrator 16.0.1, SVG Export Plug-In . SVG Version: 6.00 Build 0)  -->
<!DOCTYPE svg PUBLIC "-//W3C//DTD SVG 1.1//EN" "http://www.w3.org/Graphics/SVG/1.1/DTD/svg11.dtd">
<svg version="1.1" id="icons" xmlns="http://www.w3.org/2000/svg" xmlns:xlink="http://www.w3.org/1999/xlink" x="0px" y="0px"
	 width="23px" height="29px" viewBox="0 0 23 29" enable-background="new 0 0 23 29" xml:space="preserve">
<g>
	<path fill="#FB4F14" d="M6.415,17.78c-0.322,0-0.625-0.195-0.747-0.515c-0.157-0.412,0.05-0.875,0.462-1.031l13.849-5.28
		c0.412-0.156,0.875,0.05,1.03,0.462c0.158,0.413-0.049,0.875-0.461,1.031L6.7,17.729C6.606,17.763,6.51,17.78,6.415,17.78z"/>
	<g>
		<path fill="#FB4F14" d="M4.442,12.61c-0.322,0-0.625-0.196-0.747-0.515c-0.157-0.412,0.049-0.874,0.462-1.031l13.897-5.297
			c0.413-0.157,0.872,0.05,1.03,0.462c0.156,0.413-0.051,0.874-0.463,1.031L4.727,12.557C4.633,12.593,4.537,12.61,4.442,12.61z"/>
	</g>
	<path fill="#FB4F14" d="M12.307,20.846c-3.825,0-7.311-2.402-8.674-5.978c-0.883-2.317-0.812-4.84,0.201-7.103
		C4.848,5.502,6.683,3.77,9.001,2.886c1.064-0.406,2.176-0.612,3.306-0.612c3.825,0,7.312,2.402,8.674,5.979
		c1.821,4.784-0.586,10.158-5.365,11.979C14.548,20.641,13.438,20.846,12.307,20.846z M12.307,3.873
		c-0.935,0-1.854,0.17-2.736,0.507c-1.92,0.732-3.439,2.166-4.278,4.04s-0.898,3.961-0.167,5.88c1.129,2.96,4.015,4.949,7.181,4.949
		c0.936,0,1.854-0.17,2.737-0.507c3.959-1.508,5.951-5.958,4.442-9.918C18.357,5.862,15.473,3.873,12.307,3.873z"/>
	<path fill="#FB4F14" d="M14.1,20.574c-0.146,0-0.291-0.041-0.425-0.123C5.054,15.027,6.241,4.967,6.253,4.866
		C6.31,4.429,6.711,4.12,7.147,4.176c0.438,0.057,0.747,0.457,0.69,0.893l0,0c-0.046,0.372-1.055,9.16,6.688,14.029
		c0.373,0.234,0.485,0.729,0.25,1.104C14.625,20.441,14.365,20.574,14.1,20.574z"/>
	<path fill="#FB4F14" d="M16.693,19.143c-0.062,0-0.119-0.007-0.182-0.021c-0.431-0.099-0.697-0.529-0.599-0.958
		c2.228-9.608-5.369-14.083-5.446-14.127c-0.383-0.219-0.516-0.707-0.297-1.09c0.22-0.383,0.708-0.516,1.09-0.296
		c0.087,0.049,8.7,5.123,6.208,15.875C17.384,18.895,17.057,19.143,16.693,19.143z"/>
	<path fill="#004165" d="M12.376,27.121h-2.274c-0.441,0-0.799-0.357-0.799-0.799c0-0.442,0.357-0.799,0.799-0.799h1.476v-2.536
		c0-0.441,0.357-0.8,0.799-0.8c0.439,0,0.797,0.357,0.797,0.8v3.335C13.173,26.764,12.816,27.121,12.376,27.121z"/>
	<path fill="#004165" d="M0.799,12.278C0.358,12.278,0,11.921,0,11.479c0-5.035,3.011-9.518,7.67-11.42
		c0.409-0.166,0.875,0.029,1.042,0.438S8.683,1.371,8.274,1.538c-4.056,1.656-6.677,5.559-6.677,9.941
		C1.598,11.921,1.24,12.278,0.799,12.278z"/>
	<path fill="#004165" d="M12.332,23.812C5.532,23.812,0,18.279,0,11.479c0-0.44,0.358-0.799,0.799-0.799
		c0.441,0,0.799,0.358,0.799,0.799c0,5.919,4.815,10.733,10.733,10.733c0.44,0,0.799,0.358,0.799,0.799
		C13.13,23.452,12.771,23.812,12.332,23.812z"/>
</g>
</svg>
