<?xml version="1.0" encoding="utf-8"?>
<!-- Generator: Adobe Illustrator 16.0.1, SVG Export Plug-In . SVG Version: 6.00 Build 0)  -->
<!DOCTYPE svg PUBLIC "-//W3C//DTD SVG 1.1//EN" "http://www.w3.org/Graphics/SVG/1.1/DTD/svg11.dtd">
<svg version="1.1" id="icons" xmlns="http://www.w3.org/2000/svg" xmlns:xlink="http://www.w3.org/1999/xlink" x="0px" y="0px"
	 width="36px" height="22px" viewBox="0 0 36 22" enable-background="new 0 0 36 22" xml:space="preserve">
<g>
	
		<path fill="none" stroke="#004165" stroke-width="1.9985" stroke-linecap="round" stroke-linejoin="round" stroke-miterlimit="10" d="
		M32.886,13.271c0-0.611,0-8.106,0-8.106l-16.729,7.122L0.999,5.696l15.156-4.697l6.202,1.407"/>
	
		<path fill="none" stroke="#004165" stroke-width="1.9985" stroke-linecap="round" stroke-linejoin="round" stroke-miterlimit="10" d="
		M6.454,10.621v6.367c0,0,9.955,6.772,19.912,0c0,0.076,0-6.367,0-6.367"/>
	
		<line fill="none" stroke="#004165" stroke-width="1.9985" stroke-linecap="round" stroke-linejoin="round" stroke-miterlimit="10" x1="32.886" y1="5.165" x2="16.409" y2="5.165"/>
	
		<path fill="none" stroke="#FB4F14" stroke-width="1.9985" stroke-linecap="round" stroke-linejoin="round" stroke-miterlimit="10" d="
		M33.536,16.638c0,0.359-0.289,0.648-0.65,0.648c-0.362,0-0.649-0.289-0.649-0.648c0-0.36,0.287-0.649,0.649-0.649
		C33.247,15.988,33.536,16.275,33.536,16.638z"/>
</g>
</svg>
