<?xml version="1.0" encoding="utf-8"?>
<!-- Generator: Adobe Illustrator 16.0.1, SVG Export Plug-In . SVG Version: 6.00 Build 0)  -->
<!DOCTYPE svg PUBLIC "-//W3C//DTD SVG 1.1//EN" "http://www.w3.org/Graphics/SVG/1.1/DTD/svg11.dtd">
<svg version="1.1" id="icons" xmlns="http://www.w3.org/2000/svg" xmlns:xlink="http://www.w3.org/1999/xlink" x="0px" y="0px"
	 width="35px" height="27px" viewBox="-0.612 -0.5 35 27" enable-background="new -0.612 -0.5 35 27" xml:space="preserve">
<g>
	
		<line fill="none" stroke="#FB4F14" stroke-width="2" stroke-linecap="round" stroke-linejoin="round" stroke-miterlimit="10" x1="4.712" y1="6.444" x2="13.118" y2="6.444"/>
	
		<line fill="none" stroke="#FB4F14" stroke-width="2" stroke-linecap="round" stroke-linejoin="round" stroke-miterlimit="10" x1="4.78" y1="10.302" x2="11.257" y2="10.302"/>
	
		<line fill="none" stroke="#FB4F14" stroke-width="2" stroke-linecap="round" stroke-linejoin="round" stroke-miterlimit="10" x1="4.712" y1="14.298" x2="13.118" y2="14.298"/>
	
		<line fill="none" stroke="#FB4F14" stroke-width="2" stroke-linecap="round" stroke-linejoin="round" stroke-miterlimit="10" x1="4.712" y1="18.288" x2="10.361" y2="18.288"/>
	
		<line fill="none" stroke="#FB4F14" stroke-width="2" stroke-linecap="round" stroke-linejoin="round" stroke-miterlimit="10" x1="20.56" y1="6.444" x2="28.967" y2="6.444"/>
	
		<line fill="none" stroke="#FB4F14" stroke-width="2" stroke-linecap="round" stroke-linejoin="round" stroke-miterlimit="10" x1="20.628" y1="10.302" x2="27.105" y2="10.302"/>
	
		<line fill="none" stroke="#FB4F14" stroke-width="2" stroke-linecap="round" stroke-linejoin="round" stroke-miterlimit="10" x1="20.56" y1="14.298" x2="28.967" y2="14.298"/>
	<path fill="none" stroke="#004165" stroke-width="2" stroke-linecap="round" stroke-linejoin="round" stroke-miterlimit="10" d="
		M16.947,24.958L2.486,25C1.665,25,1,24.4,1,23.657V2.042c0-0.742,9.66-2.315,15.89,0.92"/>
	<path fill="none" stroke="#004165" stroke-width="2" stroke-linecap="round" stroke-linejoin="round" stroke-miterlimit="10" d="
		M16.83,24.958L31.291,25c0.822,0,1.486-0.6,1.486-1.344V2.042c0-0.742-9.774-2.315-16.004,0.92"/>
	
		<line fill="none" stroke="#004165" stroke-width="2" stroke-linecap="round" stroke-linejoin="round" stroke-miterlimit="10" x1="16.947" y1="3.425" x2="16.947" y2="24.958"/>
</g>
</svg>
