<?xml version="1.0" encoding="utf-8"?>
<!-- Generator: Adobe Illustrator 16.0.1, SVG Export Plug-In . SVG Version: 6.00 Build 0)  -->
<!DOCTYPE svg PUBLIC "-//W3C//DTD SVG 1.1//EN" "http://www.w3.org/Graphics/SVG/1.1/DTD/svg11.dtd">
<svg version="1.1" id="icons" xmlns="http://www.w3.org/2000/svg" xmlns:xlink="http://www.w3.org/1999/xlink" x="0px" y="0px"
	 width="34px" height="28px" viewBox="0 0 34 28" enable-background="new 0 0 34 28" xml:space="preserve">
<g>
	
		<polyline fill="none" stroke="#004165" stroke-width="2.1358" stroke-linecap="round" stroke-linejoin="round" stroke-miterlimit="10" points="
		31.482,18.154 31.482,24.068 5.533,24.068 5.533,5.702 31.482,5.702 31.482,13.972 	"/>
	
		<polyline fill="none" stroke="#FB4F14" stroke-width="2.1358" stroke-linecap="round" stroke-linejoin="round" stroke-miterlimit="10" points="
		27.102,2.841 27.102,1.068 1.068,1.068 1.068,19.857 2.923,19.857 	"/>
	
		<circle fill="#FB4F14" stroke="#FB4F14" stroke-width="2.1358" stroke-linecap="round" stroke-linejoin="round" stroke-miterlimit="10" cx="11.797" cy="11.928" r="0.695"/>
	
		<polyline fill="none" stroke="#004165" stroke-width="2.1358" stroke-linecap="round" stroke-linejoin="round" stroke-miterlimit="10" points="
		31.375,17.992 26.984,13.882 23.07,16.884 18.676,11.779 12.778,18.839 	"/>
</g>
</svg>
