<?xml version="1.0" encoding="utf-8"?>
<!-- Generator: Adobe Illustrator 16.0.1, SVG Export Plug-In . SVG Version: 6.00 Build 0)  -->
<!DOCTYPE svg PUBLIC "-//W3C//DTD SVG 1.1//EN" "http://www.w3.org/Graphics/SVG/1.1/DTD/svg11.dtd">
<svg version="1.1" id="icons" xmlns="http://www.w3.org/2000/svg" xmlns:xlink="http://www.w3.org/1999/xlink" x="0px" y="0px"
	 width="37px" height="26px" viewBox="0 0 37 26" enable-background="new 0 0 37 26" xml:space="preserve">
<g>
	<path fill="none" stroke="#004165" stroke-width="2" stroke-linecap="round" stroke-linejoin="round" stroke-miterlimit="10" d="
		M34.182,23.095c0,0.452-0.316,0.819-0.714,0.819h-13.27c-0.396,0-0.714-0.367-0.714-0.819v-9.954c0-0.452,0.318-0.817,0.714-0.817
		h13.27c0.396,0,0.714,0.366,0.714,0.817V23.095z"/>
	
		<circle fill="none" stroke="#004165" stroke-width="2" stroke-linecap="round" stroke-linejoin="round" stroke-miterlimit="10" cx="26.834" cy="4.929" r="3.929"/>
	<path fill="none" stroke="#FB4F14" stroke-width="2" stroke-linecap="round" stroke-linejoin="round" stroke-miterlimit="10" d="
		M15.695,23.095c0,0.452-0.317,0.819-0.714,0.819H1.713C1.318,23.914,1,23.547,1,23.095v-9.954c0-0.452,0.317-0.817,0.713-0.817
		h13.269c0.396,0,0.714,0.366,0.714,0.817L15.695,23.095L15.695,23.095z"/>
	
		<circle fill="none" stroke="#FB4F14" stroke-width="2" stroke-linecap="round" stroke-linejoin="round" stroke-miterlimit="10" cx="8.348" cy="4.929" r="3.929"/>
</g>
</svg>
