<?xml version="1.0" encoding="utf-8"?>
<!-- Generator: Adobe Illustrator 16.0.1, SVG Export Plug-In . SVG Version: 6.00 Build 0)  -->
<!DOCTYPE svg PUBLIC "-//W3C//DTD SVG 1.1//EN" "http://www.w3.org/Graphics/SVG/1.1/DTD/svg11.dtd">
<svg version="1.1" id="icons" xmlns="http://www.w3.org/2000/svg" xmlns:xlink="http://www.w3.org/1999/xlink" x="0px" y="0px"
	 width="35px" height="25px" viewBox="0 0 35 25" enable-background="new 0 0 35 25" xml:space="preserve">
<g>
	<g>
		
			<path fill="none" stroke="#005678" stroke-width="1.8405" stroke-linecap="round" stroke-linejoin="round" stroke-miterlimit="10" d="
			M16.771,9.911"/>
		<g>
			
				<line fill="none" stroke="#014364" stroke-width="1.8405" stroke-linecap="round" stroke-linejoin="round" stroke-miterlimit="10" x1="12.635" y1="22.725" x2="12.635" y2="9.911"/>
			
				<line fill="none" stroke="#014364" stroke-width="1.8405" stroke-linecap="round" stroke-linejoin="round" stroke-miterlimit="10" x1="20.908" y1="22.725" x2="20.908" y2="9.911"/>
		</g>
		
			<line fill="none" stroke="#014364" stroke-width="1.8405" stroke-linecap="round" stroke-linejoin="round" stroke-miterlimit="10" x1="12.632" y1="9.605" x2="20.908" y2="9.605"/>
		
			<path fill="none" stroke="#014364" stroke-width="1.8405" stroke-linecap="round" stroke-linejoin="round" stroke-miterlimit="10" d="
			M27.416,9.605h4.992c0.281,0.238,0.26,0.663,0.082,0.984L25.871,22.92H7.584L0.92,10.589c0-0.543,0.44-0.984,0.984-0.984h4.662"/>
		
			<line fill="none" stroke="#014364" stroke-width="1.8405" stroke-linecap="round" stroke-linejoin="round" stroke-miterlimit="10" x1="27.162" y1="9.605" x2="26.955" y2="9.605"/>
		
			<path fill="none" stroke="#005678" stroke-width="1.8405" stroke-linecap="round" stroke-linejoin="round" stroke-miterlimit="10" d="
			M16.771,9.605"/>
		
			<path fill="none" stroke="#005678" stroke-width="1.8405" stroke-linecap="round" stroke-linejoin="round" stroke-miterlimit="10" d="
			M16.771,9.605"/>
		
			<path fill="none" stroke="#005678" stroke-width="1.8405" stroke-linecap="round" stroke-linejoin="round" stroke-miterlimit="10" d="
			M16.771,9.605"/>
		
			<path fill="none" stroke="#005678" stroke-width="1.8405" stroke-linecap="round" stroke-linejoin="round" stroke-miterlimit="10" d="
			M16.771,9.605"/>
		
			<polyline fill="none" stroke="#014364" stroke-width="1.8405" stroke-linecap="round" stroke-linejoin="round" stroke-miterlimit="10" points="
			12.635,12.764 12.635,9.605 15.141,9.605 		"/>
		
			<polyline fill="none" stroke="#014364" stroke-width="1.8405" stroke-linecap="round" stroke-linejoin="round" stroke-miterlimit="10" points="
			20.908,12.764 20.908,9.605 18.4,9.605 		"/>
		<g>
			
				<line fill="none" stroke="#FB4F14" stroke-width="1.8405" stroke-linecap="round" stroke-linejoin="round" stroke-miterlimit="10" x1="19.884" y1="0.92" x2="24.773" y2="10.812"/>
			
				<line fill="none" stroke="#FB4F14" stroke-width="1.8405" stroke-linecap="round" stroke-linejoin="round" stroke-miterlimit="10" x1="13.961" y1="0.92" x2="9.071" y2="10.812"/>
		</g>
	</g>
	
		<line fill="none" stroke="#014364" stroke-width="1.8405" stroke-linecap="round" stroke-linejoin="round" stroke-miterlimit="10" x1="3.71" y1="14.043" x2="30.188" y2="14.043"/>
	
		<line fill="none" stroke="#014364" stroke-width="1.8405" stroke-linecap="round" stroke-linejoin="round" stroke-miterlimit="10" x1="5.707" y1="18.482" x2="28.119" y2="18.482"/>
</g>
</svg>
