<?xml version="1.0" encoding="utf-8"?>
<!-- Generator: Adobe Illustrator 16.0.1, SVG Export Plug-In . SVG Version: 6.00 Build 0)  -->
<!DOCTYPE svg PUBLIC "-//W3C//DTD SVG 1.1//EN" "http://www.w3.org/Graphics/SVG/1.1/DTD/svg11.dtd">
<svg version="1.1" id="icons" xmlns="http://www.w3.org/2000/svg" xmlns:xlink="http://www.w3.org/1999/xlink" x="0px" y="0px"
	 width="26px" height="26px" viewBox="0 0 26 26" enable-background="new 0 0 26 26" xml:space="preserve">
<g>
	
		<polyline fill="none" stroke="#FB4F14" stroke-width="2.0223" stroke-linecap="round" stroke-linejoin="round" stroke-miterlimit="10" points="
		16.348,19.104 16.348,23.741 1.011,23.741 1.011,8.404 5.637,8.404 	"/>
	
		<polyline fill="none" stroke="#FB4F14" stroke-width="2.0223" stroke-linecap="round" stroke-linejoin="round" stroke-miterlimit="10" points="
		11.114,8.404 16.348,8.404 16.348,13.625 	"/>
	
		<rect x="8.407" y="1.011" fill="none" stroke="#004165" stroke-width="2.0223" stroke-linecap="round" stroke-linejoin="round" stroke-miterlimit="10" width="15.334" height="15.335"/>
</g>
</svg>
