<?xml version="1.0" encoding="utf-8"?>
<!-- Generator: Adobe Illustrator 16.0.1, SVG Export Plug-In . SVG Version: 6.00 Build 0)  -->
<!DOCTYPE svg PUBLIC "-//W3C//DTD SVG 1.1//EN" "http://www.w3.org/Graphics/SVG/1.1/DTD/svg11.dtd">
<svg version="1.1" id="icons" xmlns="http://www.w3.org/2000/svg" xmlns:xlink="http://www.w3.org/1999/xlink" x="0px" y="0px"
	 width="33px" height="24px" viewBox="0 0 33 24" enable-background="new 0 0 33 24" xml:space="preserve">
<g>
	<path fill="none" stroke="#004165" stroke-width="2" stroke-linecap="round" stroke-linejoin="round" stroke-miterlimit="10" d="
		M30.934,1v19.95c0,0.327-0.615,0.594-1.375,0.594H2.375C1.615,21.543,1,21.277,1,20.95V6.07c0-0.328,0.09-0.595,0.85-0.595h0.224
		H27.33"/>
	
		<rect x="4.969" y="9.695" fill="none" stroke="#FB4F14" stroke-width="1.8" stroke-linecap="round" stroke-linejoin="round" stroke-miterlimit="10" width="8.6" height="7.938"/>
	
		<line fill="none" stroke="#FB4F14" stroke-width="1.8" stroke-linecap="round" stroke-linejoin="round" stroke-miterlimit="10" x1="18.24" y1="13.665" x2="26.836" y2="13.665"/>
	
		<line fill="none" stroke="#FB4F14" stroke-width="1.8" stroke-linecap="round" stroke-linejoin="round" stroke-miterlimit="10" x1="18.24" y1="9.695" x2="26.836" y2="9.695"/>
	
		<line fill="none" stroke="#FB4F14" stroke-width="1.8" stroke-linecap="round" stroke-linejoin="round" stroke-miterlimit="10" x1="18.24" y1="17.633" x2="26.836" y2="17.633"/>
	
		<polyline fill="none" stroke="#004165" stroke-width="2" stroke-linecap="round" stroke-linejoin="round" stroke-miterlimit="10" points="
		30.502,1 4.846,1 4.846,2.631 	"/>
</g>
</svg>
