<?xml version="1.0" encoding="utf-8"?>
<!-- Generator: Adobe Illustrator 16.0.1, SVG Export Plug-In . SVG Version: 6.00 Build 0)  -->
<!DOCTYPE svg PUBLIC "-//W3C//DTD SVG 1.1//EN" "http://www.w3.org/Graphics/SVG/1.1/DTD/svg11.dtd">
<svg version="1.1" id="icons" xmlns="http://www.w3.org/2000/svg" xmlns:xlink="http://www.w3.org/1999/xlink" x="0px" y="0px"
	 width="31px" height="28px" viewBox="0 0 31 28" enable-background="new 0 0 31 28" xml:space="preserve">
<g>
	<circle fill="#FB4F14" cx="18.941" cy="9.656" r="1.895"/>
	
		<polygon fill="none" stroke="#004165" stroke-width="1.8841" stroke-linecap="round" stroke-linejoin="round" stroke-miterlimit="10" points="
		24.913,4.822 23.949,13.888 9.028,25.941 0.942,15.932 15.833,3.903 	"/>
	
		<path fill="none" stroke="#FB4F14" stroke-width="1.8841" stroke-linecap="round" stroke-linejoin="round" stroke-miterlimit="10" d="
		M21.123,1.408c0.673-0.3,1.417-0.466,2.201-0.466c2.988,0,5.412,2.424,5.412,5.413c0,2.99-2.424,5.413-5.412,5.413
		c-1.691,0-3.202-0.775-4.194-1.99"/>
</g>
</svg>
