<?xml version="1.0" encoding="utf-8"?>
<!-- Generator: Adobe Illustrator 16.0.1, SVG Export Plug-In . SVG Version: 6.00 Build 0)  -->
<!DOCTYPE svg PUBLIC "-//W3C//DTD SVG 1.1//EN" "http://www.w3.org/Graphics/SVG/1.1/DTD/svg11.dtd">
<svg version="1.1" id="icons" xmlns="http://www.w3.org/2000/svg" xmlns:xlink="http://www.w3.org/1999/xlink" x="0px" y="0px"
	 width="29px" height="28px" viewBox="0 0 29 28" enable-background="new 0 0 29 28" xml:space="preserve">
<g>
	
		<line fill="none" stroke="#FB4F14" stroke-width="2.103" stroke-linecap="round" stroke-linejoin="round" stroke-miterlimit="10" x1="20.311" y1="19.615" x2="20.311" y2="23.457"/>
	
		<polyline fill="none" stroke="#FB4F14" stroke-width="2.103" stroke-linecap="round" stroke-linejoin="round" stroke-miterlimit="10" points="
		2.391,4.219 2.391,11.988 20.311,11.988 20.311,14.24 	"/>
	
		<line fill="none" stroke="#004165" stroke-width="2.103" stroke-linecap="round" stroke-linejoin="round" stroke-miterlimit="10" x1="10.166" y1="8.22" x2="10.166" y2="1.859"/>
	
		<polyline fill="none" stroke="#004165" stroke-width="2.103" stroke-linecap="round" stroke-linejoin="round" stroke-miterlimit="10" points="
		4.349,24.186 10.166,24.186 10.166,15.093 10.166,14.701 	"/>
	
		<polyline fill="none" stroke="#004165" stroke-width="2.103" stroke-linecap="round" stroke-linejoin="round" stroke-miterlimit="10" points="
		10.166,1.859 20.311,1.859 20.311,8.22 	"/>
	
		<line fill="none" stroke="#FB4F14" stroke-width="2.103" stroke-linecap="round" stroke-linejoin="round" stroke-miterlimit="10" x1="14.299" y1="24.186" x2="23.264" y2="24.186"/>
	
		<polyline fill="none" stroke="#004165" stroke-width="2.103" stroke-linecap="round" stroke-linejoin="round" stroke-miterlimit="10" points="
		25.291,4.219 25.291,16.957 16.293,16.957 	"/>
	
		<line fill="none" stroke="#FB4F14" stroke-width="2.103" stroke-linecap="round" stroke-linejoin="round" stroke-miterlimit="10" x1="2.391" y1="20.117" x2="2.391" y2="11.472"/>
	
		<circle fill="none" stroke="#FB4F14" stroke-width="1.577" stroke-linecap="round" stroke-linejoin="round" stroke-miterlimit="10" cx="2.391" cy="2.391" r="1.603"/>
	
		<circle fill="none" stroke="#004165" stroke-width="1.5773" stroke-linecap="round" stroke-linejoin="round" stroke-miterlimit="10" cx="25.29" cy="2.391" r="1.603"/>
	
		<circle fill="none" stroke="#FB4F14" stroke-width="1.577" stroke-linecap="round" stroke-linejoin="round" stroke-miterlimit="10" cx="25.29" cy="24.186" r="1.603"/>
	
		<circle fill="none" stroke="#004165" stroke-width="1.5773" stroke-linecap="round" stroke-linejoin="round" stroke-miterlimit="10" cx="2.391" cy="24.186" r="1.603"/>
	
		<circle fill="none" stroke="#004165" stroke-width="1.5773" stroke-linecap="round" stroke-linejoin="round" stroke-miterlimit="10" cx="14.345" cy="16.956" r="1.603"/>
</g>
</svg>
