<?xml version="1.0" encoding="UTF-8"?>
<!-- Generator: Adobe Illustrator 16.0.0, SVG Export Plug-In . SVG Version: 6.00 Build 0)  -->
<!DOCTYPE svg PUBLIC "-//W3C//DTD SVG 1.1//EN" "http://www.w3.org/Graphics/SVG/1.1/DTD/svg11.dtd">
<svg version="1.1" id="Layer_1" xmlns="http://www.w3.org/2000/svg" xmlns:xlink="http://www.w3.org/1999/xlink" x="0px" y="0px" width="18px" height="136px" viewBox="0 0 18 136" enable-background="new 0 0 18 136" xml:space="preserve">
<path fill="#555555" d="M10.335,8.999l2.592-2.591c0.311-0.311,0.032-0.631-0.337-0.999c-0.367-0.368-0.688-0.646-0.998-0.336  L9,7.665L6.409,5.073c-0.311-0.31-0.631-0.032-1,0.336C5.042,5.776,4.764,6.097,5.074,6.408l2.592,2.591l-2.59,2.591  C4.764,11.9,5.04,12.223,5.409,12.588c0.369,0.369,0.689,0.646,1,0.336L9,10.333l2.591,2.591c0.311,0.311,0.631,0.033,0.998-0.334  c0.369-0.369,0.647-0.689,0.335-1L10.335,8.999z"/>
<circle fill="#AAAAAA" cx="9" cy="108.999" r="9"/>
<path fill="#555555" d="M10.335,108.999l2.592-2.591c0.311-0.311,0.032-0.632-0.337-1c-0.367-0.367-0.688-0.645-0.998-0.336  L9,107.664l-2.591-2.592c-0.311-0.309-0.631-0.031-1,0.336c-0.367,0.368-0.646,0.689-0.335,1l2.592,2.591l-2.59,2.591  c-0.313,0.311-0.036,0.633,0.333,0.998c0.369,0.369,0.689,0.646,1,0.336L9,110.333l2.591,2.591c0.311,0.311,0.631,0.033,0.998-0.334  c0.369-0.369,0.647-0.689,0.335-1L10.335,108.999z"/>
</svg>