<?xml version="1.0" encoding="UTF-8"?>
<!-- Generator: Adobe Illustrator 16.0.0, SVG Export Plug-In . SVG Version: 6.00 Build 0)  -->
<!DOCTYPE svg PUBLIC "-//W3C//DTD SVG 1.1//EN" "http://www.w3.org/Graphics/SVG/1.1/DTD/svg11.dtd">
<svg version="1.1" id="Layer" xmlns="http://www.w3.org/2000/svg" xmlns:xlink="http://www.w3.org/1999/xlink" x="0px" y="0px" width="202px" height="129px" viewBox="0 0 202 129" enable-background="new 0 0 202 129" xml:space="preserve">
<path fill="#555555" d="M191,128H4c-1.657,0-3-1.344-3-3v-22c0-1.656,1.343-3,3-3h187l10,14L191,128z"/>
<path fill="#555555" d="M11,0h187c1.657,0,3,1.343,3,3v22c0,1.657-1.343,3-3,3H11L1,14L11,0z"/>
</svg>