<?xml version="1.0" standalone="no"?>
<!DOCTYPE svg PUBLIC "-//W3C//DTD SVG 1.1//EN" "http://www.w3.org/Graphics/SVG/1.1/DTD/svg11.dtd" >
<svg xmlns="http://www.w3.org/2000/svg">
<metadata>Generated by IcoMoon</metadata>
<defs>
<font id="icomoon" horiz-adv-x="1024">
<font-face units-per-em="1024" ascent="960" descent="-64" />
<missing-glyph horiz-adv-x="1024" />
<glyph unicode="&#x20;" d="" horiz-adv-x="512" />
<glyph unicode="&#xe600;" d="M3547.828 226.092c0-42.292-0.064-14.18-0.094-37.090-104.874-59.134-242.59-103.53-381.194-103.53-294.836 0-553.474 160.434-553.474 331.454 0 170.96 258.638 331.826 553.474 331.826 146.974 0 291.984-47.862 397.932-112.448l22.604-13.808 85.724 134.49-23.302 14.428c-131.82 81.486-303.364 126.376-482.96 126.376-393.35 0-713.412-215.728-713.412-480.868 0-265.2 320.062-480.928 713.412-480.928 203.12 0 397.046 58.328 532.13 160.062l10.746 8.11 0.19 273.56h-450.624v-151.64h288.844zM5235.208 417.424c0 174.118 251.466 331.89 549.092 331.89 292.522 0 549.156-160.806 549.156-331.89s-256.634-331.578-549.156-331.578c-297.626 0-549.092 157.524-549.092 331.578zM5075.332 417.424c0-265.262 318.074-480.99 708.97-480.99 390.958 0 708.97 215.728 708.97 480.99 0 265.264-318.012 481.116-708.97 481.116-390.894 0-708.97-215.852-708.97-481.116zM7588.030 877.486h-134.42v-921.486h161.462v921.486h-27.042zM6754.47 877.486h-134.388v-920.434l27.138-0.124h657.262v161.424c0 0-472.626 0-522.97 0 0 50.342 0 759.134 0 759.134h-27.042zM4903.534 877.486h-134.356c0 0 0-576.594 0-681.798-80.652 77.028-713.82 681.674-713.82 681.674l-10.812 0.124h-134.452v-921.486h161.494c0 0 0 577.214 0 682.476 80.652-77.088 713.82-682.23 713.82-682.23l10.81-0.248h134.356v921.486h-27.042zM579.070 320.89l431.456 556.35h149.472v-922.106h-161.484c0 0 0 457.274 0 596.596l-420.868-496.41-416.224 496.098c0-139.194 0-595.418 0-595.418h-161.424v921.486l149.474-0.682 429.596-555.914zM1974.526 876.866h-206.414l-476.78-919.38 182.354-2.538c0 0 362.784 705.014 405.51 788.050 42.786-83.036 406.192-788.050 406.192-788.050l182.292 2.538-476.718 919.38h-16.434zM8963.996-45.052l-477.762 921.918h-222.744l-476.778-919.38 183.4 0.186c0 0 361.602 702.29 404.336 785.326 42.766-83.036 406.208-788.050 406.208-788.050h183.336zM1654.118 220.15l237.31-159.318 209.724 159.318h-447.036zM8156.682 220.15l237.294-159.318 209.714 159.318h-447.010zM8742.836 891.17c11.952 0 28.596-1.968 28.596 14.13 0 11.914-9.924 13.5-20.226 13.5h-23.46v-27.63h15.092zM8727.746 843.284h-10.906v85.448h36.744c22.254 0 29.8-8.334 29.8-23.64 0-16.52-11.54-22.652-26.44-23.84l25.426-37.966h-12.3l-24.032 37.966h-18.292v-37.966zM8807.414 885.596c0 36.36-26.218 62.614-62.612 62.614-36.552 0-62.962-26.254-62.962-62.614 0-36.73 26.408-62.96 62.962-62.96 36.396 0 62.612 26.228 62.612 62.96zM8669.92 885.596c0 40.942 33.604 74.528 74.882 74.528 41.15 0 74.532-33.586 74.532-74.528 0-41.288-33.382-74.884-74.532-74.884-41.278 0-74.882 33.598-74.882 74.884z" horiz-adv-x="8964" />
<glyph unicode="&#xe601;" d="M131.090 660.376h88.682c61.378 0 69.594 43.152 69.594 85.318 0 53.514-23.45 74.32-83.698 74.32h-74.576v-159.638zM131.090 317.288h-124.99v626.68h241.222c103.046 0 167.070-78.284 167.070-204.212 0-70.294-35.85-203.23-171.3-203.23h-112.006v-219.236zM578.974 566.448h104.598l-51.394 196.696-53.204-196.696zM885.876 317.288h-135.196l-1.832 7.092-30.626 118.19h-172.694l-33.4-118.4-1.956-6.884h-131.5l3.652 12.154 182.83 614.524h136.43l1.952-6.826 182.342-619.856zM1136.682 301.182c-148.768 0-241.264 125.954-241.264 328.63 0 200.556 95.318 330.192 242.68 330.192 147.232 0 221.638-116.004 228.394-223.9l0.672-10.020h-123.538l-1.742 7.346c-8.51 36.46-22.782 97.626-103.124 97.626-27.226 0-116.274-14.63-116.274-202.968 0-46.416 8.382-197.818 116.274-197.818 54.736 0 91.296 37.744 103.040 106.256l1.326 7.862h125.072l-1.786-10.958c-23.652-147.592-107.39-232.246-229.73-232.246zM1578.222 317.288h-124.908v626.68h124.908v-626.68zM1806.23 317.288h-124.908v626.68h379.948v-126.484h-255.040v-118.148h223.212v-126.416h-223.212v-255.634zM2254.706 317.288h-124.962v626.68h124.962v-626.68zM2567.212 294.952c-148.772 0-241.222 125.954-241.222 328.594 0 200.602 95.228 330.24 242.712 330.24 147.186 0 221.56-116.024 228.316-223.884l0.67-10.056h-123.538l-1.746 7.366c-8.542 36.496-22.776 97.622-103.126 97.622-27.262 0-116.18-14.652-116.18-203.026 0-46.416 8.38-197.818 116.18-197.818 54.712 0 91.306 37.76 103.004 106.398l1.37 7.844h125.068l-1.746-10.932c-23.676-147.688-107.436-232.342-229.764-232.342zM0-64h2786.744v298.78h-2786.744v-298.78zM117.562 173.158h34.984v-70.092l65.73 70.092h45.938l-69.844-69.97 73.412-100.128h-45.68l-52.466 74.276-17.090-17.428v-56.85h-34.984v170.1zM326.168 3.058h35.322v170.098h-35.322v-170.098zM559.716 173.158v-30.128h-50.912v-139.972h-35.778v139.972h-51.12v30.128h137.81zM638.076 155.394c13.686 13.98 31.14 21 52.296 21 28.302 0 49.012-9.376 62.128-28.172 7.218-10.506 11.086-21.088 11.62-31.746h-35.52c-2.282 8.168-5.188 14.356-8.712 18.466-6.354 7.432-15.732 11.078-28.182 11.078-12.652 0-22.658-5.192-29.938-15.606-7.308-10.414-10.96-25.18-10.96-44.276 0-19.044 3.86-33.4 11.578-42.912 7.702-9.452 17.49-14.226 29.408-14.226 12.198 0 21.494 4.102 27.838 12.232 3.568 4.406 6.52 10.964 8.84 19.75h35.31c-3.028-18.544-10.822-33.652-23.36-45.272-12.532-11.568-28.548-17.428-48.138-17.428-24.196 0-43.178 7.894-57.038 23.58-13.866 15.764-20.788 37.388-20.788 64.85 0 29.716 7.884 52.578 23.616 68.678zM833.664 3.058v170.098h35.32v-64.856h66.146v64.856h35.274v-170.098h-35.274v75.904h-66.146v-75.904h-35.32zM1171.75 143.028h-90.010v-36.102h82.664v-29.592h-82.664v-43.698h94.158v-30.578h-128.892v170.1h124.742v-30.128zM1244.412 173.158h37.268l67.518-118.6v118.6h33.156v-170.1h-35.56l-69.262 120.682v-120.682h-33.116v170.098zM1613.138 124.528c1.464-2.208 4.526-6.192 9.334-11.908 4.78 3.236 8.22 6.016 10.3 8.246 3.974 4.12 6.002 8.646 6.002 13.494 0 3.568-1.194 6.716-3.598 9.5-2.404 2.78-6.016 4.154-10.878 4.154-3.022 0-5.882-0.788-8.514-2.414-3.962-2.404-6.002-6.216-6.002-11.368 0-3.074 1.154-6.312 3.356-9.704zM1598.662 33.39c4.686-4.684 10.664-7.056 17.928-7.056 5.466 0 10.664 1.244 15.55 3.74 4.902 2.45 8.876 5.23 11.912 8.298l-31.828 38.716c-8.286-5.472-13.818-10.284-16.546-14.438-2.686-4.198-4.016-8.766-4.016-13.77 0-5.566 2.324-10.754 6.998-15.49zM1566.512 74.15c5.064 7.292 13.376 14.558 24.912 21.692l3.572 2.204c-4.914 5.524-8.73 11.2-11.414 17.006-2.7 5.776-4.028 11.75-4.028 18.024 0 12.4 4.19 22.070 12.57 29.048 8.446 6.966 19.352 10.45 32.756 10.45 12.248 0 22.334-3.524 30.298-10.702 8.018-7.144 12.006-16.274 12.006-27.356 0-10.028-2.416-18.212-7.198-24.43-4.768-6.232-11.806-12.040-21.070-17.39l24.442-29.63c2.78 4.028 4.982 8.342 6.472 13.024 1.53 4.738 2.324 9.678 2.416 14.94h29.196c-0.538-10.376-3.022-20.826-7.494-31.412-2.416-5.98-6.446-12.486-11.966-19.672l30.888-36.89h-39.806l-11.872 14.394c-5.722-5.346-11.12-9.296-16.102-11.866-8.836-4.564-19.042-6.804-30.618-6.804-17.432 0-31.104 5.062-40.894 15.188-9.804 10.214-14.692 21.504-14.692 33.862 0 10.25 2.538 19.016 7.628 26.318zM1882.964 3.058v170.098h35.306v-64.856h66.154v64.856h35.32v-170.098h-35.32v75.904h-66.154v-75.904h-35.306zM2204.024 44.014c8.298 10.37 12.41 25.196 12.41 44.328 0 19.082-4.108 33.826-12.41 44.274-8.26 10.376-19.418 15.606-33.532 15.606-14.062 0-25.316-5.192-33.654-15.562-8.42-10.376-12.61-25.144-12.61-44.318 0-19.132 4.19-33.956 12.61-44.328 8.34-10.376 19.594-15.596 33.654-15.596 14.114 0 25.274 5.22 33.532 15.596zM2226.262 18.168c-12.864-13.236-31.438-19.882-55.774-19.882-24.306 0-42.854 6.648-55.72 19.882-17.23 16.262-25.852 39.592-25.852 70.174 0 31.16 8.622 54.568 25.852 70.164 12.864 13.246 31.412 19.846 55.72 19.846 24.334 0 42.908-6.6 55.774-19.846 17.148-15.596 25.732-39.004 25.732-70.164 0-30.584-8.582-53.914-25.732-70.174zM2433.334 173.158h51.14v-170.1h-33.118v115.078c0 3.278 0.040 7.922 0.162 13.902 0.054 5.97 0.134 10.528 0.134 13.77l-32.298-142.75h-34.568l-31.99 142.75c0-3.242 0.082-7.8 0.122-13.77 0.094-5.982 0.134-10.624 0.134-13.902v-115.078h-33.118v170.098h51.704l30.954-133.788 30.74 133.788zM2684.56 143.028h-90.046v-36.102h82.632v-29.592h-82.632v-43.698h94.208v-30.578h-128.936v170.1h124.774v-30.128zM2851.594 194.49h4.62c5.344 0 9.656 1.784 9.656 6.1 0 3.814-2.78 6.384-8.916 6.384-2.526 0-4.312-0.246-5.358-0.534v-11.952zM2851.34 171.044h-9.656v41.784c3.814 0.498 9.16 1.284 16.062 1.284 7.882 0 11.442-1.284 14.262-3.322 2.538-1.778 4.324-4.846 4.324-8.914 0-5.102-3.814-8.418-8.676-9.956v-0.498c4.068-1.284 6.098-4.562 7.386-10.178 1.29-6.39 2.282-8.672 3.074-10.202h-10.206c-1.248 1.53-2.042 5.098-3.318 10.202-0.752 4.312-3.278 6.348-8.636 6.348h-4.62v-16.552zM2825.622 192.708c0-18.596 14.020-33.414 32.62-33.414 18.090-0.236 31.828 14.818 31.828 33.17 0 18.582-13.738 33.61-32.324 33.61-18.104 0-32.124-15.028-32.124-33.364zM2900.774 192.708c0-23.448-18.842-42.044-42.786-42.044s-43.082 18.596-43.082 42.044c0 23.438 19.138 41.784 43.336 41.784 23.69 0 42.53-18.346 42.53-41.784z" horiz-adv-x="2902" />
<glyph unicode="&#xe602;" d="M0 438.858q0 119.428 58.856 220.286t159.714 159.714 220.286 58.856 220.286-58.856 159.714-159.714 58.856-220.286-58.856-220.286-159.714-159.714-220.286-58.856-220.286 58.856-159.714 159.714-58.856 220.286z" horiz-adv-x="878" />
<glyph unicode="&#xe604;" d="M512 801.276l-344.834-737.276h689.668l-344.834 737.276zM512 960v0c22.070 0 44.14-14.882 60.884-44.648l437.072-871.112c33.49-59.532 5-108.24-63.302-108.24h-869.308c-68.304 0-96.79 48.708-63.304 108.24l437.074 871.112c16.744 29.766 38.814 44.648 60.884 44.648zM448 192c0 35.346 28.654 64 64 64s64-28.654 64-64c0-35.346-28.654-64-64-64s-64 28.654-64 64zM512 576c35.346 0 64-28.654 64-64l-20-192h-88l-20 192c0 35.346 28.654 64 64 64z" />
<glyph unicode="&#xe605;" d="M512 960c-282.77 0-512-229.23-512-512s229.23-512 512-512 512 229.23 512 512-229.23 512-512 512zM768 613.49l-165.488-165.49 165.488-165.488v-90.512h-90.512l-165.488 165.488-165.49-165.488h-90.51v90.512l165.49 165.488-165.49 165.49v90.51h90.51l165.49-165.49 165.488 165.49h90.512v-90.51z" />
<glyph unicode="&#xe607;" d="M158.598 771.648c-20.818 0-37.564-16.842-37.564-37.562 0-20.796 16.746-37.538 37.564-37.538 20.738 0 37.442 16.744 37.442 37.538 0 20.72-16.704 37.562-37.442 37.562zM161.988 563.826l-93.224 109.798 12.874 130.414 112.682 87.376 448.214-43.334-30.416-325.908-450.128 41.654zM923.732 334.916v-320.668h-376.124v320.668h376.124zM1001.914 334.916h376.152v-320.668h-376.152v320.668zM1669.97-64l-3.642 861.014-960.846-0.474 7.334 78.754c0.88 8.964-1.808 17.706-7.552 24.674-5.746 6.926-13.836 11.204-22.758 12.060l-495.002 47.848c-0.562 0.066-2.698 0.164-3.292 0.164-7.552 0-14.944-2.566-20.632-7.066l-134.692-104.38c-7.382-5.646-12.118-14.218-13.022-23.466l-15.66-158.932c-1.018-9.108 1.85-18.334 7.84-25.35l111.37-131.204c5.72-6.762 13.754-10.96 22.644-11.774l64.772-6.002v-555.862h1463.142z" horiz-adv-x="1670" />
<glyph unicode="&#xe608;" d="M406.088 276.736c-153.008-0.35-277.724 124.032-277.964 276.99-0.382 153.062 123.89 277.81 276.952 278.108 152.96 0.326 277.77-123.898 278.106-277.054 0.39-152.904-124.092-277.716-277.094-278.044zM1000.756 81.836l-245.722 244.95c-2.744 2.784-5.86 4.942-8.942 7.306 41.24 63.73 65.404 139.348 65.274 220.932-0.49 224.048-182.428 405.416-406.44 404.88-223.994-0.376-405.356-182.32-404.926-406.472 0.428-223.996 182.42-405.27 406.37-404.88 81.544 0.196 157.342 24.634 220.776 66.186 2.364-3.134 4.638-6.12 7.368-8.966l245.666-244.848c16.668-16.738 38.566-24.962 60.418-24.924s43.656 8.38 60.392 25.126c33.118 33.498 33.080 87.508-0.232 120.71z" horiz-adv-x="1026" />
<glyph unicode="&#xe609;" d="M1270.798 792.654c-9.144 11.966-23.376 19.010-38.428 19.010h-962.144l-30.164 112.422c-5.664 21.146-24.818 35.832-46.694 35.832h-145.010c-26.714 0-48.358-21.65-48.358-48.356 0-26.69 21.644-48.352 48.358-48.352h107.91l174.236-649.658c5.68-21.116 24.816-35.842 46.692-35.842h694.032c26.69 0 48.34 21.668 48.34 48.376s-21.65 48.34-48.34 48.34h-656.942l-30.274 112.836h758.962c21.808 0 40.912 14.582 46.662 35.62l89.394 327.698c3.98 14.528 0.942 30.102-8.232 42.072zM525.398 129.382c-53.404 0-96.71-43.28-96.71-96.666 0-53.418 43.306-96.716 96.71-96.716s96.698 43.298 96.698 96.716c0 53.386-43.294 96.666-96.698 96.666zM963.776 129.382c-53.398 0-96.684-43.28-96.684-96.666 0-53.418 43.286-96.716 96.684-96.716 53.406 0 96.706 43.298 96.706 96.716 0 53.386-43.298 96.666-96.706 96.666z" horiz-adv-x="1282" />
<glyph unicode="&#xe60a;" d="M567.474 796.56c35.868 43.348 59.908 103.56 53.314 163.518-51.51-1.896-113.938-34.298-150.882-77.55-33.108-38.35-62.186-99.668-54.288-158.392 57.408-4.462 116.152 29.204 151.854 72.424zM833.906 208.9c-1.284-3.672-21.504-73.534-70.924-145.64-42.684-62.428-87-124.6-156.78-125.898-68.566-1.298-90.63 40.69-168.972 40.69-78.456 0-102.998-39.392-167.822-41.986-67.362-2.532-118.69 67.458-161.722 129.63-87.96 127.164-155.082 359.374-64.844 515.962 44.722 77.866 124.906 127.13 211.866 128.396 66.19 1.234 128.556-44.454 169.022-44.454 40.45 0 116.26 54.99 196.026 46.924 33.35-1.424 127.076-13.448 187.312-101.566-4.802-3.038-111.86-65.338-110.692-194.874 1.38-155.008 135.96-206.55 137.53-207.182z" horiz-adv-x="834" />
<glyph unicode="&#xe60b;" d="M444.142 243.064c9.222-23.126 6.282-52.678 1.88-70.78-7.94-31.842-29.488-64.188-93.262-64.188-59.734 0-96.096 34.446-96.096 86.63l-0.092 92.692h-256.444l-0.13-73.746c0-213.248 167.9-277.668 347.504-277.668 173.038 0 315.276 58.984 338.012 218.544 11.656 82.486 3.070 136.522-0.958 156.79-40.376 200.272-403.238 259.978-430.186 371.924-4.7 19.294-3.548 39.482-1.218 50.202 6.942 30.64 27.724 64.178 87.46 64.178 56.082 0 88.764-34.42 88.764-86.632 0-17.608 0-59.1 0-59.1h238.718v67.284c0 208.146-187.116 240.826-322.436 240.826-169.956 0-308.952-56.302-334.308-212.314-6.876-42.628-7.912-80.802 2.254-128.87 41.372-195.492 381.222-252.056 430.534-375.77zM3552.672 245.006c9.216-22.998 6.332-52.264 1.922-70.028-7.758-31.57-29.204-63.62-92.256-63.62-59.174 0-95.206 34.068-95.206 85.736l-0.1 91.706h-253.804l-0.106-72.93c0-211.174 166.178-274.95 344.046-274.95 171.252 0 312.072 58.466 334.582 216.444 11.436 81.644 3.016 135.164-1.094 155.222-39.878 198.224-399.058 257.336-425.842 368.182-4.542 19.114-3.316 39.068-0.994 49.684 6.664 30.366 27.282 63.556 86.488 63.556 55.46 0 87.814-34.056 87.814-85.762 0-17.458 0-58.528 0-58.528h236.392v66.598c0 206.136-185.34 238.394-319.3 238.394-168.116 0-305.756-55.682-330.89-210.168-6.862-42.188-7.766-80.024 2.306-127.614 40.956-193.474 377.346-249.504 426.042-371.926zM5536.396 159.982l-13.326 769.802h236.79v-946.17h-340.548l-241.564 794.536 13.524-794.536h-235.198v946.17h355.002l225.32-769.802zM1238.664 858.758l-133.336-884.946h-258.376l177.068 955.972h425.37l176.238-955.972h-256.848l-130.114 884.946zM2633.848 858.758l-164.684-884.946h-242.55l-164.662 884.946-6.344-884.946h-239.236l21.106 955.972h389.822l120.66-747.426 120.596 747.426h389.73l20.982-955.972h-239.106l-6.308 884.946zM4355.364 116.51c66.498 0 87.052 45.712 91.76 69.382 2.056 10.23 2.42 24.11 2.288 36.452v707.376h241.796v-685.686c0.464-17.546-1.292-53.52-2.288-62.842-16.674-178.414-157.726-236.322-333.554-236.322-175.794 0-316.88 57.908-333.488 236.322-0.96 9.322-2.752 45.296-2.32 62.842v685.686h241.862v-707.376c-0.1-12.342 0.266-26.222 2.254-36.452 4.708-23.672 25.162-69.382 91.694-69.382zM6349.828 126.418c69.118 0 93.382 43.924 97.626 69.472 1.824 10.774 2.486 24.048 2.254 36.284v138.75h-98.056v139.438h338.726v-256.37c-0.1-17.934-0.498-31.078-3.382-62.932-15.878-174.088-166.744-236.22-336.238-236.22-169.628 0-320.494 62.13-336.372 236.22-2.884 31.856-3.216 44.998-3.314 62.932l0.1 402.304c0 17.092 2.056 47.034 4.012 62.998 21.314 178.764 165.948 236.194 335.676 236.194 169.53 0 317.874-57.014 335.576-236.194 2.984-30.494 2.056-62.998 2.188-62.998v-31.826h-241.164v53.606c0.1-0.142-0.232 22.532-3.016 36.49-4.31 20.942-22.476 69.266-95.604 69.266-69.548 0-89.902-45.762-95.106-69.266-2.85-12.664-4.012-29.822-4.012-45.36v-437.036c-0.034-12.236 0.464-25.51 2.32-36.284 4.376-25.548 28.51-69.472 97.792-69.472z" horiz-adv-x="6690" />
<glyph unicode="&#xe60c;" d="M11.544 695.428c63.126 165.408 259.484 220.928 423.572 238.66 189.376 20.49 374.242-16.504 547.25-87.558 16.192-8.71 26.654 47.196 26.654 47.196l127.654 0.090 0.376-310.842-118.248-0.324c-0.336 64.802-108.67 152.048-197.156 179.574-184.068 57.27-362.734 72.38-528.076-32.358-88.86-56.294-12.24-99.658 13.47-105.712 211.272-49.73 419.114-38.434 623.846-101.758 75.774-23.434 162.486-34.842 210.972-113.698 47.442-77.168 63.076-161.356 32.396-236.1-48.65-118.448-165.516-178.85-291.73-210.75-93.458-23.61-186.048-23.982-278.498-25.784-147.152-2.896-407.132 79.056-407.132 79.056-31.998 0.224-36.21-39.814-36.21-39.814l-141.372 0.248-0.522 350.382 133.258 0.932c0.41-142.28 238.134-239.354 402.536-248.96 126.026-7.356 298.404 3.418 367.73 101.832 20.042 28.456 7.802 72.942-21.536 84.376-232.534 90.708-491.012 46.012-722.534 139.794-57.384 23.226-120.596 56.512-150.27 113.7-27.324 52.688-38.136 120.946-16.426 177.818zM1879.106 774.966c-183.722-85.578-266.606-322.608-168.932-505.138 58.252-108.852 163.776-158.93 278.78-184.28 150.73-33.178 304.442 22.428 393.354 156.174 91.89 138.24 88.948 304.862-10.962 431.962-118.98 151.338-323.43 179.904-492.24 101.284zM1481.030 736.136c229.24 249.298 592.11 263.612 892.516 172.216 171.146-52.064 329.020-171.68 356.298-361.094 16.214-112.606 18.104-226.044-48.216-325.926-68.030-102.418-156.606-176.476-267.078-217.67-234.856-87.63-487.938-80.21-724.136 0.496-169.060 57.782-294.192 194.596-317.056 374.876-16.478 130.002 18.984 260.664 107.672 357.102zM3026.046 710.836c-1.826 85.928-169.804 70.52-169.804 70.52l0.41 121.788 458.736 0.624 580.968-525.144 14.76 0.124-0.762 369.592c-0.222 39.716-168.63 33.764-168.63 33.764l0.51 122 529.496-0.918-0.064-120.796c0 0-157.432 4.426-157.242-32.99l-0.19-753.934-200.506 0.434-684.194 605.518-0.446-461.932c0.446-28.332 108.89-22.616 167.166-22.082 0-39.864-0.51-131.32-0.51-131.32h-530.268l-0.034 132.836c0 0 158.782-9.010 159.24 29.948l1.368 561.976zM4546.35 769.126c-14.060 16.428-167.104 12.702-167.104 12.702l-0.35 122.212 629.86 0.136-0.35-133.346-65.118-0.56c-16.574-3.382-12.248-14.254-11.61-15.062l201.588-228.468 199.202 220.69c8.716 12.6 11.070 30.668-7.444 34.744l-59.9-0.346 0.19 122.35h509.806l0.382-122.388c0 0-159.47 7.504-194.556-32.418l-351.864-398.274 0.444-201.64c23.19-29.574 166.944-21.97 166.944-21.97l0.444-132.462h-619.394l-0.128 133.544c0 0 149.32-4.958 158.642 31.35l-0.51 178.974-389.176 430.232zM5666.006 115.186c14.952 0 28.312 1.056 28.312 19.198 0 14.6-13.074 17.31-25.354 17.31h-24.082v-36.508h21.122zM5644.884 48.954h-17.654v117.864h44.408c27.548 0 41.132-10.252 41.132-33.514 0-21.1-13.106-30.294-30.19-32.47l33.146-51.88h-19.788l-30.762 51.072h-20.296v-51.072zM5666.292 22.736c45.68 0 81.786 36.222 81.786 85.43 0 48.4-36.106 84.87-81.786 84.87-46.284 0-82.36-36.472-82.36-84.87 0-49.208 36.074-85.43 82.36-85.43zM5563.606 108.164c0 58.652 47.080 101.894 102.686 101.894 55.064 0 102.114-43.244 102.114-101.894 0-59.212-47.048-102.492-102.114-102.492-55.606 0-102.686 43.28-102.686 102.492z" horiz-adv-x="5776" />
<glyph unicode="&#xe60d;" d="M456.96 460.43h567.068v499.584l-567.068-79.222v-420.362zM433.416 460.43v417.070l-433.416-60.556v-356.516h433.416zM433.416 436.818h-433.416v-357.846l433.416-60.514v418.36zM456.96 436.818v-421.652l567.068-79.166v500.818h-567.068zM2128.070 754.834l-173.486-614.168h-84.306l-126.404 449.308c-4.876 16.846-7.972 37.54-9.404 62.012h-1.722c-2.318-21.070-6.164-41.414-11.584-61.208l-127.154-450.11h-83.528l-179.5 614.168h78.82l130.682-471.11c5.372-20.876 8.956-41.346 10.72-61.668h1.668c1.458 17.486 5.71 38.028 12.82 61.668l136.25 471.11h69.348l129.792-474.486c4.914-17.736 8.292-36.778 10.248-56.986h1.778c1.362 14.792 5.222 34.376 11.516 58.668l125.486 472.806h77.958zM2255.432 140.668h-70.264v438.612h70.264v-438.612zM2267.432 723.556c0-13.238-4.612-24.096-13.668-32.778-9.138-8.804-20.056-13.096-32.568-13.096-12.86 0-23.764 4.206-32.568 12.622-8.85 8.516-13.208 19.532-13.208 33.252 0 12.18 4.306 22.862 13.056 31.876 8.64 9.028 19.584 13.458 32.722 13.458 13.166 0 24.11-4.416 32.946-13.224 8.89-8.846 13.292-19.512 13.292-32.11zM2725.806 140.668h-70.252v250.082c0 92.822-33.972 139.292-101.932 139.292-34.528 0-63.484-13.124-86.748-39.192-23.278-26.154-34.862-59.502-34.862-100.1v-250.082h-70.252v438.612h70.252v-72.86h1.64c32.832 55.708 80.86 83.556 143.904 83.556 48.278 0 85.028-15.794 110.332-47.168 25.262-31.404 37.916-75.918 37.916-133.528v-268.61zM3143.028 338.972v64.722c0 36.236-12.1 66.39-36.266 90.346-24.124 23.986-53.388 36-88.014 36-42.246 0-75.804-15.652-100.622-46.972-24.85-31.222-37.266-74.568-37.266-129.998 0-50.208 11.642-89.932 35.068-119.334 23.556-29.182 55.028-43.818 94.724-43.818 38.556 0 70.164 13.986 95.11 42 24.846 28.028 37.266 63.722 37.266 107.056zM3213.238 140.668h-70.208v74.582h-1.71c-32.502-56.832-82.848-85.25-150.876-85.25-55.236 0-99.47 19.89-132.302 59.696-32.806 39.832-49.208 93.028-49.208 159.582 0 72.53 18.194 130.806 54.542 174.71 36.444 43.972 85.276 65.988 146.276 65.988 60.044 0 103.794-23.724 131.57-71.072h1.71v271.11h70.208v-649.346zM3659.84 359.168c0 55.026-12.16 97.332-36.694 126.692-24.32 29.418-59.272 44.18-104.676 44.18-45.068 0-80.764-15.154-107.012-45.29-26.294-30.056-39.378-72.516-39.378-127.374 0-52.544 13.17-93.544 39.53-123.072 26.444-29.542 62.042-44.39 106.858-44.39 45.688 0 80.676 14.554 104.924 43.722 24.32 29.082 36.444 70.972 36.444 125.528zM3731.768 361.64c0-69.61-19.768-125.696-59.306-168-39.502-42.444-92.586-63.64-159.086-63.64-64.89 0-116.568 20.596-155.25 61.846-38.696 41.318-58.084 95.668-58.084 163.028 0 72.498 19.86 129.788 59.556 171.942 39.638 42.028 94.404 63.154 164.014 63.154 65.152 0 116.068-20.376 152.938-61.042 36.836-40.764 55.218-96.486 55.218-167.292zM4371.058 579.278l-131.448-438.612h-72.818l-90.348 313.956c-3.2 10.834-5.44 24.276-6.862 40.196h-1.742c-0.854-9.988-3.804-22.972-8.996-39.292l-98.098-314.86h-70.222l-132.266 438.612h73.636l90.382-329.75c2.844-11.486 4.872-24.626 6.010-39.418h3.414c0.568 10.804 3.236 24.236 8.142 40.166l100.658 329h64.178l91.27-330.666c2.88-11.096 4.8-24.306 5.972-39.376h3.378c0.604 13.722 2.88 26.818 6.932 39.376l89.494 330.666h69.332zM4670.364 258.028c0-37.986-14.614-68.79-43.912-92.472-29.262-23.708-68.088-35.556-116.694-35.556-41.494 0-77.654 8.89-108.764 26.542v75.376c34.56-28.014 72.462-42 113.884-42 55.716 0 83.556 20.444 83.556 61.292 0 16.514-5.404 29.958-16.248 40.472-10.916 10.486-35.556 24.472-74.098 42.154-38.898 16.526-66.24 34.332-82.24 53.332-16 18.996-24.036 44.178-24.036 75.622 0 36.18 14.542 66.486 43.698 90.766 29.156 24.332 66.132 36.416 110.932 36.416 34.524 0 65.814-6.904 93.796-20.568v-70.68c-28.552 20.89-61.618 31.316-99.378 31.316-23.076 0-41.708-5.792-55.858-17.124-14.116-11.526-21.156-26.18-21.156-44.138 0-19.388 5.404-34.374 16.212-44.836 10.844-10.428 33.208-22.734 67.2-36.972 41.742-17.736 71.004-36.25 87.858-55.636 16.818-19.488 25.244-43.822 25.244-73.308z" horiz-adv-x="4670" />
<glyph unicode="&#xe610;" d="M1024-16.556c0-26.358-21.086-47.444-47.444-47.444h-929.112c-26.358 0-47.444 21.086-47.444 47.444v929.112c0 26.358 21.086 47.444 47.444 47.444h929.112c26.358 0 47.444-21.086 47.444-47.444v-929.112zM896.164 663.476c-27.676-11.86-56.668-21.086-88.298-23.722 31.63 18.45 55.35 48.762 67.212 84.346-28.994-17.134-61.942-30.312-97.524-36.9-27.676 30.31-67.212 48.762-112.020 48.762-84.346 0-152.876-68.53-152.876-152.876 0-11.86 1.318-23.722 3.954-35.582-127.834 6.59-239.856 67.212-316.294 160.782-13.18-22.404-21.086-48.762-21.086-76.438 0-52.716 27.676-100.16 68.53-127.834-25.040 1.318-48.762 7.906-69.848 19.768 0 0 0-1.318 0-1.318 0-73.802 52.716-135.744 122.564-150.24-13.178-3.954-26.358-5.272-40.856-5.272-9.224 0-19.768 1.318-28.994 2.636 19.768-60.624 76.438-105.432 143.65-106.75-52.716-40.856-118.61-65.894-189.776-65.894-11.86 0-25.040 1.318-36.902 2.636 67.212-43.49 148.92-68.53 234.584-68.53 282.028 0 436.222 233.266 436.222 436.222 0 6.588 0 13.178 0 19.768 31.63 19.768 56.668 46.126 77.754 76.438z" />
<glyph unicode="&#xe611;" d="M967.476 960h-910.952c-31.548 0-56.524-24.976-56.524-56.524v-910.952c0-31.548 24.976-56.524 56.524-56.524h490.312v396.98h-132.764v153.798h134.080v114.362c0 132.764 80.184 203.748 198.49 203.748 56.524 0 105.16-3.944 119.62-6.572v-138.024h-81.5c-64.41 0-76.24-30.234-76.24-74.926v-98.588h152.484l-19.718-155.112h-135.394v-396.98h260.272c31.548 0 56.524 24.976 56.524 56.524v912.268c1.314 31.548-23.66 56.524-55.208 56.524z" />
<glyph unicode="&#xe612;" d="M946.939 949.163h-884.962c-30.692 0-54.989-24.299-54.989-54.989v-886.24c0-30.692 24.299-54.989 54.989-54.989h886.24c30.692 0 54.989 24.299 54.989 54.989v886.24c-1.278 30.692-25.577 54.989-56.268 54.989zM482.717 710.019c6.395-6.395 11.51-14.068 16.625-23.020s10.232-17.903 14.068-30.692c3.837-11.51 5.115-25.577 5.115-40.923 0-28.134-6.395-51.154-17.903-67.779-5.115-7.673-11.51-15.346-17.903-23.020-7.673-6.395-14.068-14.068-23.020-21.741-5.115-5.115-8.952-10.232-12.788-16.625-5.115-6.395-6.395-14.068-6.395-21.741s2.557-15.346 6.395-20.461c3.837-5.115 7.673-10.232 11.51-14.068l25.577-21.741c16.625-14.068 30.692-28.134 42.203-44.76s17.903-38.365 17.903-65.221c0-38.365-16.625-72.895-49.876-102.308-34.529-30.692-83.125-46.039-147.067-47.317-53.71 0-93.354 12.788-120.211 35.808-26.856 21.741-39.644 47.317-39.644 78.010 0 14.068 3.837 30.692 12.788 48.597s24.299 33.251 46.039 47.317c24.299 14.068 51.154 24.299 78.010 29.414 26.856 3.837 49.876 6.395 67.779 6.395-5.115 7.673-10.232 15.346-15.346 24.299-5.115 7.673-7.673 17.903-7.673 29.414 0 6.395 1.278 12.788 2.557 17.903s3.837 8.952 5.115 14.068c-8.952-1.278-16.625-1.278-24.299-1.278-40.923 0-71.615 14.068-93.354 39.644-23.020 24.299-33.251 52.433-33.251 84.403 0 38.365 15.346 74.172 47.317 106.144 21.741 17.903 44.76 30.692 67.779 35.808s44.76 7.673 65.221 7.673h153.463l-47.317-28.134h-47.317c7.673-3.837 12.788-7.673 17.903-14.068zM820.332 450.413h-85.683v-85.683h-43.48v85.683h-85.683v43.48h85.683v85.683h43.48v-85.683h85.683v-43.48zM496.785 268.817c0 20.461-6.395 37.088-19.182 52.433-14.068 14.068-34.529 31.971-62.664 52.433-5.115 0-10.232 1.278-16.625 1.278-3.837 0-14.068 0-29.414-1.278-15.346-2.557-31.971-6.395-48.597-11.51-3.837-1.278-8.952-3.837-16.625-6.395-7.673-3.837-14.068-7.673-21.741-14.068s-12.788-14.068-17.903-24.299c-5.115-10.232-8.952-21.741-8.952-35.808 0-28.134 12.788-51.154 37.088-69.058 23.020-17.903 54.989-26.856 95.913-28.134 35.808 0 63.943 8.952 83.125 24.299 16.625 14.068 25.577 34.529 25.577 60.107zM389.362 500.288c20.461 1.278 37.088 7.673 49.876 23.020 6.395 10.232 10.232 20.461 12.788 30.692 1.278 10.232 1.278 19.182 1.278 26.856 0 30.692-7.673 62.664-23.020 94.634-7.673 15.346-16.625 28.134-28.134 37.088s-25.577 14.068-42.203 14.068c-20.461 0-38.365-8.952-52.433-25.577-11.51-17.903-16.625-37.088-16.625-58.825 0-28.134 7.673-58.825 24.299-89.518 7.673-14.068 17.903-26.856 30.692-37.088 14.068-10.232 28.134-15.346 43.48-15.346z" horiz-adv-x="1008" />
<glyph unicode="&#xe613;" d="M946 953.145h-884.962c-30.692 0-54.989-24.299-54.989-54.989v-886.24c0-30.692 24.299-54.989 54.989-54.989h886.24c30.692 0 54.989 24.299 54.989 54.989v886.24c-1.278 30.692-25.577 54.989-56.268 54.989zM503.52 157.702c-30.692 0-60.107 5.115-88.241 12.788 11.51 19.182 30.692 52.433 37.088 78.010 3.837 14.068 19.182 71.615 19.182 71.615 10.232-17.903 38.365-34.529 67.779-34.529 89.518 0 154.741 83.125 154.741 185.433 0 98.471-80.567 171.365-182.875 171.365-127.885 0-196.941-85.683-196.941-180.318 0-43.48 23.020-98.471 60.107-115.096 5.115-2.557 8.952-1.278 10.232 3.837 1.278 3.837 6.395 24.299 7.673 33.251 1.278 2.557 0 5.115-2.557 8.952-12.788 15.346-21.741 42.203-21.741 67.779 0 65.221 49.876 129.163 134.278 129.163 72.895 0 124.046-49.876 124.046-121.491 0-80.567-40.923-136.835-93.354-136.835-29.414 0-51.154 24.299-43.48 53.71 8.952 35.808 24.299 72.895 24.299 98.471 0 23.020-12.788 42.203-37.088 42.203-29.414 0-53.71-30.692-53.71-71.615 0-26.856 8.952-44.76 8.952-44.76s-29.414-124.046-34.529-148.347c-6.395-25.577-3.837-61.385-1.278-85.683-111.26 43.48-189.269 150.904-189.269 277.509 0 163.693 133 297.973 297.973 297.973 163.693 0 297.973-133 297.973-297.973-1.278-162.412-135.557-295.414-299.25-295.414z" horiz-adv-x="1008" />
<glyph unicode="&#xf058;" d="M851.939 552.596q0 18.531-11.914 30.445l-60.227 59.567q-12.574 12.574-29.781 12.574t-29.782-12.574l-270.029-269.368-149.576 149.576q-12.574 12.574-29.781 12.574t-29.782-12.574l-60.227-59.566q-11.914-11.914-11.914-30.445 0-17.87 11.914-29.781l239.586-239.586q12.574-12.574 29.781-12.574 17.871 0 30.446 12.574l359.378 359.378q11.914 11.914 11.914 29.782zM1018.723 445.379q0-138.325-68.17-255.139t-184.985-184.985-255.139-68.17-255.139 68.17-184.985 184.985-68.17 255.139 68.17 255.139 184.985 184.985 255.139 68.17 255.139-68.17 184.985-184.985 68.17-255.139z" />
<glyph unicode="&#xe6051;" d="M438.426 741.582c21.402-20.89 230.502-240.436 230.502-240.436 11.47-11.162 17.152-25.754 17.152-40.346s-5.682-29.184-17.152-40.346c0 0-209.1-219.546-230.502-240.384-21.402-20.89-59.854-22.322-82.738 0-22.834 22.272-24.628 53.35 0 80.64l191.898 200.090-191.846 200.090c-24.628 27.34-22.834 58.418 0 80.69s61.338 20.89 82.688 0z" />
</font></defs></svg>