<?xml version="1.0" encoding="utf-8"?>
<!-- Generator: Adobe Illustrator 15.0.2, SVG Export Plug-In . SVG Version: 6.00 Build 0)  -->
<!DOCTYPE svg PUBLIC "-//W3C//DTD SVG 1.1//EN" "http://www.w3.org/Graphics/SVG/1.1/DTD/svg11.dtd">
<svg version="1.1" xmlns="http://www.w3.org/2000/svg" xmlns:xlink="http://www.w3.org/1999/xlink" x="0px" y="0px" width="40px"
	 height="600px" viewBox="0 0 40 600" enable-background="new 0 0 40 600" xml:space="preserve">
<g id="Document">
	<path fill="#939598" d="M16.73,3.55l-2.54-2.54C13.63,0.45,12.54,0,11.75,0H3.21C2.42,0,1.78,0.64,1.78,1.42v15.39
		c0,0.78,0.64,1.42,1.42,1.42h13.11c0.78,0,1.42-0.64,1.42-1.42V5.98C17.74,5.2,17.29,4.11,16.73,3.55z M15.93,4.36
		c0.05,0.06,0.11,0.12,0.16,0.2h-2.91V1.65c0.08,0.05,0.15,0.11,0.2,0.17L15.93,4.36z M16.6,16.81c0,0.15-0.13,0.28-0.29,0.28H3.21
		c-0.15,0-0.29-0.13-0.29-0.28V1.42c0-0.15,0.13-0.29,0.29-0.29h8.55c0.09,0,0.18,0.01,0.29,0.03V5.7h4.53
		c0.02,0.1,0.03,0.2,0.03,0.29V16.81z"/>
</g>
<g id="Layer_3">
	<rect x="1" y="1.56" fill="#FFFFFF" stroke="#ED1C24" stroke-miterlimit="10" width="12.81" height="13.06"/>
	<g>
		<path fill="#ED1C24" d="M12.45,9.48c-0.2-0.19-0.63-0.3-1.3-0.3c-0.45,0-0.99,0.04-1.56,0.11c-0.26-0.15-0.52-0.31-0.72-0.5
			C8.32,8.27,7.86,7.56,7.57,6.77c0.02-0.07,0.04-0.14,0.05-0.21c0,0,0.31-1.77,0.23-2.37C7.84,4.11,7.83,4.09,7.81,4.02L7.78,3.95
			c-0.08-0.2-0.25-0.4-0.51-0.39l-0.15,0h0c-0.29,0-0.53,0.15-0.59,0.37c-0.19,0.7,0.01,1.74,0.36,3.09L6.79,7.24
			C6.54,7.86,6.22,8.48,5.94,9.03L5.91,9.1c-0.3,0.58-0.56,1.07-0.8,1.48l-0.25,0.13c-0.02,0.01-0.45,0.24-0.55,0.3
			c-0.85,0.51-1.42,1.09-1.51,1.55c-0.03,0.15-0.01,0.33,0.14,0.42l0.24,0.12c0.11,0.05,0.22,0.08,0.33,0.08
			c0.61,0,1.31-0.76,2.29-2.45c1.12-0.37,2.4-0.67,3.52-0.84c0.85,0.48,1.9,0.81,2.57,0.81c0.12,0,0.22-0.01,0.3-0.03
			c0.13-0.03,0.23-0.11,0.3-0.2c0.13-0.19,0.15-0.46,0.12-0.73C12.59,9.65,12.52,9.55,12.45,9.48z M3.38,12.72
			c0.11-0.3,0.55-0.9,1.2-1.43c0.04-0.03,0.14-0.13,0.23-0.21C4.13,12.15,3.67,12.58,3.38,12.72z M7.22,3.87
			c0.2,0,0.31,0.49,0.31,0.95c0.01,0.46-0.1,0.79-0.23,1.03C7.19,5.49,7.14,4.93,7.14,4.57C7.14,4.57,7.13,3.87,7.22,3.87z
			 M6.07,10.17c0.14-0.24,0.28-0.5,0.42-0.77c0.35-0.67,0.58-1.19,0.74-1.62c0.33,0.6,0.74,1.11,1.22,1.52
			c0.06,0.05,0.12,0.1,0.19,0.15C7.67,9.65,6.82,9.89,6.07,10.17z M12.26,10.12c-0.06,0.04-0.23,0.06-0.34,0.06
			c-0.36,0-0.8-0.16-1.41-0.43c0.24-0.02,0.45-0.03,0.65-0.03c0.36,0,0.46,0,0.81,0.09C12.32,9.9,12.32,10.08,12.26,10.12z"/>
	</g>
</g>
<g id="Layer_5">
	<polygon fill="#71A9DC" points="2.6,100.69 12.97,100.69 16.97,105.03 16.97,117.44 2.6,117.44 	"/>
	<path fill="#0B4D9E" d="M16.61,103.55l-2.54-2.54c-0.55-0.55-1.65-1.01-2.43-1.01H3.09c-0.78,0-1.42,0.64-1.42,1.42v15.39
		c0,0.78,0.64,1.42,1.42,1.42H16.2c0.78,0,1.42-0.64,1.42-1.42v-10.83C17.62,105.2,17.17,104.11,16.61,103.55z M15.81,104.36
		c0.05,0.06,0.11,0.12,0.16,0.2h-2.91v-2.91c0.08,0.05,0.15,0.11,0.2,0.17L15.81,104.36z M16.48,116.81c0,0.15-0.13,0.28-0.29,0.28
		H3.09c-0.15,0-0.29-0.13-0.29-0.28v-15.39c0-0.15,0.13-0.29,0.29-0.29h8.55c0.09,0,0.18,0.01,0.29,0.03v4.53h4.53
		c0.02,0.1,0.03,0.2,0.03,0.29V116.81z"/>
	<rect x="0.88" y="101.56" fill="#71A9DC" stroke="#F9B82A" stroke-miterlimit="10" width="12.81" height="13.06"/>
	<g>
		<path fill="#FCBB30" d="M7.08,104.04c-0.31,0-0.55,0.17-0.55,0.38l0.19,2.12c0.02,0.13,0.18,0.23,0.37,0.23
			c0.19,0,0.35-0.1,0.37-0.23l0.19-2.12C7.63,104.21,7.39,104.04,7.08,104.04z"/>
		<polygon fill="#FCBB30" points="7.08,106.77 7.08,106.77 7.08,106.77 		"/>
		<polygon fill="#FCBB30" points="5.93,107.43 5.93,107.43 5.93,107.43 		"/>
		<path fill="#FCBB30" d="M4.17,105.78c-0.18-0.1-0.45,0.02-0.61,0.29c-0.15,0.27-0.13,0.57,0.05,0.67l1.93,0.9
			c0.12,0.04,0.28-0.04,0.38-0.21c0.09-0.16,0.09-0.35-0.01-0.43L4.17,105.78z"/>
		<polygon fill="#FCBB30" points="8.22,107.43 8.22,107.43 8.22,107.43 		"/>
		<path fill="#FCBB30" d="M9.98,105.78L8.24,107c-0.1,0.08-0.11,0.27-0.01,0.43c0.1,0.16,0.26,0.25,0.38,0.21l1.93-0.9
			c0.18-0.1,0.21-0.4,0.05-0.67C10.43,105.8,10.16,105.67,9.98,105.78z"/>
		<polygon fill="#FCBB30" points="7.08,109.42 7.08,109.42 7.08,109.42 		"/>
		<path fill="#FCBB30" d="M7.08,109.42c-0.19,0-0.35,0.1-0.37,0.23l-0.19,2.12c0,0.21,0.25,0.38,0.55,0.38
			c0.31,0,0.55-0.17,0.55-0.38l-0.19-2.12C7.42,109.52,7.27,109.42,7.08,109.42z"/>
		<path fill="#FCBB30" d="M10.53,109.45l-1.93-0.9c-0.12-0.05-0.28,0.04-0.38,0.2l0,0c-0.09,0.16-0.09,0.35,0.01,0.43l1.74,1.22
			c0.18,0.1,0.45-0.02,0.61-0.29C10.74,109.85,10.71,109.56,10.53,109.45z"/>
		<path fill="#FCBB30" d="M5.93,108.76c-0.09-0.16-0.26-0.25-0.38-0.2l-1.93,0.9c-0.18,0.1-0.21,0.4-0.05,0.67
			c0.15,0.27,0.43,0.39,0.61,0.29l1.74-1.22C6.02,109.1,6.02,108.92,5.93,108.76L5.93,108.76z"/>
		<path fill="#FCBB30" d="M10.98,110.4L10.98,110.4c0.02-0.01,0.03-0.02,0.03-0.04c0-0.01-0.01-0.03-0.02-0.03
			c-0.01-0.01-0.03-0.01-0.06-0.01c-0.03,0-0.05,0-0.06,0.01v0.16h0.04v-0.06h0.02c0.02,0,0.03,0.01,0.03,0.03
			c0.01,0.02,0.01,0.03,0.01,0.04h0.04c0-0.01-0.01-0.02-0.01-0.04C11,110.42,10.99,110.41,10.98,110.4z M10.93,110.39h-0.02v-0.05
			c0,0,0.01,0,0.02,0c0.02,0,0.03,0.01,0.03,0.02C10.97,110.38,10.95,110.39,10.93,110.39z"/>
		<path fill="#FCBB30" d="M10.94,110.23L10.94,110.23c-0.1,0-0.17,0.07-0.17,0.16c0,0.09,0.07,0.17,0.17,0.17
			c0.1,0,0.17-0.07,0.17-0.17C11.11,110.3,11.04,110.23,10.94,110.23z M10.94,110.53c-0.07,0-0.13-0.06-0.13-0.13
			c0-0.07,0.05-0.13,0.13-0.13h0c0.07,0,0.13,0.06,0.13,0.13C11.07,110.47,11.01,110.53,10.94,110.53z"/>
	</g>
</g>
<g id="Layer_7">
	<polygon fill="#FFFFFF" points="2.72,200.72 13.09,200.72 17.09,205.06 17.09,217.47 2.72,217.47 	"/>
	<path fill="#0B4D9E" d="M16.73,203.58l-2.54-2.54c-0.55-0.55-1.65-1.01-2.43-1.01H3.21c-0.78,0-1.42,0.64-1.42,1.42v15.39
		c0,0.78,0.64,1.42,1.42,1.42h13.11c0.78,0,1.42-0.64,1.42-1.42v-10.83C17.74,205.23,17.29,204.14,16.73,203.58z M15.93,204.39
		c0.05,0.06,0.11,0.12,0.16,0.2h-2.91v-2.91c0.08,0.05,0.15,0.11,0.2,0.17L15.93,204.39z M16.6,216.84c0,0.15-0.13,0.28-0.29,0.28
		H3.21c-0.15,0-0.29-0.13-0.29-0.28v-15.39c0-0.15,0.13-0.29,0.29-0.29h8.55c0.09,0,0.18,0.01,0.29,0.03v4.53h4.53
		c0.02,0.1,0.03,0.2,0.03,0.29V216.84z"/>
	<rect x="1" y="201.59" fill="#FFFFFF" stroke="#71A9DC" stroke-miterlimit="10" width="12.81" height="13.06"/>
	<polygon fill="#0B4D9E" points="12.48,213.17 12.48,210.6 6.05,210.6 6.05,208.03 12.48,208.03 12.48,205.45 16.34,209.31 	"/>
</g>
<g id="Layer_9">
	<circle fill="#71A9DC" stroke="#F9B82A" stroke-miterlimit="10" cx="9.86" cy="308.86" r="8.86"/>
	<polygon fill="#FFFFFF" points="6.83,304.14 14.92,308.86 6.83,313.58 	"/>
</g>
<g id="Layer_10">
	<path fill="#F8B727" d="M3.58,409.41v7.12c0.17,0.03,0.34,0.04,0.51,0.04h0.51v-7.2H4.1C3.92,409.37,3.75,409.38,3.58,409.41z
		 M12.84,409.37v7.2h0.51c0.17,0,0.35-0.01,0.51-0.04v-7.12c-0.17-0.02-0.34-0.04-0.51-0.04H12.84z M16.95,408.34
		c0-4.54-3.68-8.23-8.23-8.23c-4.54,0-8.23,3.68-8.23,8.23c0,0.99,0.17,1.93,0.49,2.81c-0.31,0.53-0.49,1.15-0.49,1.82
		c0,1.44,0.84,2.68,2.06,3.25v-6.51c-0.32,0.15-0.62,0.36-0.88,0.59c-0.1-0.47-0.15-0.96-0.15-1.46c0-3.97,3.22-7.2,7.2-7.2
		s7.2,3.22,7.2,7.2c0,0.5-0.05,0.98-0.15,1.46c-0.26-0.24-0.56-0.44-0.88-0.59v6.51c1.22-0.58,2.06-1.82,2.06-3.25
		c0-0.66-0.18-1.28-0.49-1.82C16.78,410.28,16.95,409.33,16.95,408.34z"/>
</g>
<g id="Calendar">
	<path fill="#0E79BF" d="M6.17,506.73h2.04v2.04H6.17V506.73z M9.24,506.73h2.04v2.04H9.24V506.73z M12.3,506.73h2.04v2.04H12.3
		V506.73z M3.11,512.86h2.04v2.04H3.11V512.86z M6.17,512.86h2.04v2.04H6.17V512.86z M9.24,512.86h2.04v2.04H9.24V512.86z
		 M6.17,509.79h2.04v2.04H6.17V509.79z M9.24,509.79h2.04v2.04H9.24V509.79z M12.3,509.79h2.04v2.04H12.3V509.79z M3.11,509.79h2.04
		v2.04H3.11V509.79z M14.34,500.61v1.02H12.3v-1.02H5.15v1.02H3.11v-1.02H1.07v16.33h15.31v-16.33H14.34z M15.36,515.92H2.09v-11.23
		h13.27V515.92z"/>
</g>
</svg>
