<?xml version="1.0" encoding="utf-8"?>
<!-- Generator: Adobe Illustrator 16.0.4, SVG Export Plug-In . SVG Version: 6.00 Build 0)  -->
<!DOCTYPE svg PUBLIC "-//W3C//DTD SVG 1.1//EN" "http://www.w3.org/Graphics/SVG/1.1/DTD/svg11.dtd">
<svg version="1.1" id="Layer_1" xmlns="http://www.w3.org/2000/svg" xmlns:xlink="http://www.w3.org/1999/xlink" x="0px" y="0px"
	 width="30px" height="30px" viewBox="0 0 30 30" enable-background="new 0 0 30 30" xml:space="preserve">
<g>
	<g>
		<g>
			<path fill="#00C0FF" d="M14.944,28.18c-6.54,0-12.186-4.654-13.424-11.066c-0.022-0.118-0.044-0.237-0.063-0.356
				c-0.083-0.509,0.263-0.989,0.772-1.071S3.218,15.95,3.3,16.458c0.017,0.103,0.035,0.201,0.054,0.301
				c1.069,5.535,5.943,9.552,11.59,9.552c5.799,0,10.697-4.145,11.644-9.854c0.085-0.509,0.566-0.853,1.075-0.769
				s0.853,0.564,0.769,1.073C27.334,23.377,21.661,28.18,14.944,28.18z"/>
		</g>
	</g>
	<g>
		<g>
			<path fill="#00C0FF" d="M12.395,23.176c-0.135,0-0.27-0.029-0.396-0.09c-0.328-0.152-0.537-0.482-0.537-0.846v-6.104
				c0-0.516,0.418-0.934,0.934-0.934c0.517,0,0.935,0.418,0.935,0.934v4.113l6.319-5.253l-6.319-5.253v3.12
				c0,0.516-0.418,0.935-0.935,0.935c-0.516,0-0.934-0.418-0.934-0.935V7.752c0-0.363,0.209-0.692,0.537-0.846
				c0.328-0.154,0.716-0.104,0.994,0.127l8.715,7.245c0.214,0.177,0.337,0.441,0.337,0.718c0,0.278-0.123,0.541-0.337,0.718
				l-8.715,7.244C12.821,23.102,12.609,23.176,12.395,23.176z"/>
		</g>
	</g>
	<g>
		<g>
			<path fill="#00C0FF" d="M2.386,13.797c-0.052,0-0.104-0.004-0.157-0.013c-0.509-0.085-0.852-0.567-0.766-1.076
				C2.575,6.112,8.245,1.324,14.943,1.324h0.001c6.699,0,12.369,4.788,13.481,11.383c0.087,0.509-0.257,0.991-0.766,1.077
				s-0.991-0.257-1.077-0.766c-0.96-5.693-5.854-9.826-11.639-9.826c-5.784,0-10.679,4.132-11.639,9.826
				C3.229,13.475,2.833,13.797,2.386,13.797z"/>
		</g>
	</g>
</g>
</svg>
