<svg xmlns="http://www.w3.org/2000/svg" viewBox="0 0 50 50" enable-background="new 0 0 50 50">
  <g fill="none">
    <circle stroke="#e9d917" stroke-dasharray="16,18,22,22" stroke-width="0.5" cx="25" cy="25" r="23.15" transform="rotate(20, 25, 25)" />
    <circle stroke="#fff" stroke-dasharray="22,22,18,16" stroke-width="0.5" stroke-opacity=".8" cx="25" cy="25" r="24.45" transform="rotate(25, 25, 25)"/>
  </g>
</svg>