<?xml version="1.0" standalone="no"?>
<!DOCTYPE svg PUBLIC "-//W3C//DTD SVG 1.1//EN" "http://www.w3.org/Graphics/SVG/1.1/DTD/svg11.dtd" >
<svg xmlns="http://www.w3.org/2000/svg">
<metadata></metadata>
<defs>
<font id="CabinRegular" horiz-adv-x="1261" >
<font-face units-per-em="2048" ascent="1638" descent="-410" />
<missing-glyph horiz-adv-x="460" />
<glyph horiz-adv-x="0" />
<glyph horiz-adv-x="2048" />
<glyph unicode=" "  horiz-adv-x="460" />
<glyph unicode="&#x09;" horiz-adv-x="460" />
<glyph unicode="&#xa0;" horiz-adv-x="460" />
<glyph unicode="!" horiz-adv-x="495" d="M121 1536h254l-62 -1126h-131zM162 0v176h172v-176h-172z" />
<glyph unicode="&#x22;" horiz-adv-x="823" d="M82 1536h192l-41 -614h-110zM553 1536h188l-41 -614h-106z" />
<glyph unicode="#" horiz-adv-x="1441" d="M68 442l82 187h235l92 235h-258l60 174h264l151 396h166l-153 -396h272l154 396h163l-151 -396h231l-59 -174h-238l-92 -235h262l-84 -187h-250l-176 -465h-166l179 465h-273l-178 -465h-164l176 465h-245zM551 629h270l92 235h-270z" />
<glyph unicode="$" horiz-adv-x="1052" d="M86 975q0 42 11 81t39 79t70 71.5t109 54.5t152 31l-35 240h184l-32 -240q103 -6 193.5 -27.5t135.5 -47.5l-18 -197q-209 98 -342 98q-105 0 -176.5 -28t-71.5 -91q0 -40 29 -70t76.5 -48t108 -37.5t123.5 -36t123.5 -44.5t108 -62.5t76.5 -91.5t29 -130q0 -38 -8 -72.5 t-33 -76t-66.5 -73t-115.5 -56.5t-172 -33l30 -234h-182l35 232q-119 6 -214.5 28t-146.5 50l25 223q65 -52 162.5 -85.5t218.5 -33.5q107 0 166 29t59 100q0 49 -36 85.5t-93.5 60t-126.5 44t-138.5 45.5t-127 56.5t-93.5 84.5t-36 122z" />
<glyph unicode="%" horiz-adv-x="1720" d="M72 1055q0 180 89 284.5t220 104.5t215 -98t84 -273q0 -184 -86 -287.5t-223 -103.5q-134 0 -216.5 98.5t-82.5 274.5zM186 1055q0 -118 55 -192.5t132 -74.5q83 0 138.5 78.5t55.5 206.5q0 116 -56 191t-132 75q-80 0 -136.5 -79t-56.5 -205zM332 -25l862 1459h152 l-861 -1459h-153zM1034 350q0 179 91 285t223 106q133 0 218 -100t85 -274q0 -184 -86.5 -289t-227.5 -105q-136 0 -219.5 100t-83.5 277zM1137 350q0 -130 53 -203t143 -73q96 0 150.5 77t54.5 216q0 128 -56 203t-143 75t-144.5 -80t-57.5 -215z" />
<glyph unicode="&#x26;" horiz-adv-x="1251" d="M74 332q0 120 61.5 221t196.5 197q-154 188 -154 348q0 156 115.5 249t284.5 93q145 0 218.5 -71.5t73.5 -186.5q0 -245 -335 -453l389 -399q38 48 56.5 165t23.5 224h165q-11 -321 -133 -514l178 -205h-188l-90 94q-91 -78 -178.5 -109.5t-206.5 -31.5q-124 0 -218 29.5 t-149.5 82t-82.5 119.5t-27 148zM252 346q0 -112 76.5 -183t226.5 -71q184 0 289 123l-426 426q-75 -53 -120.5 -130t-45.5 -165zM344 1094q0 -124 113 -263q16 12 50 39t47 37.5t39.5 32.5t37 33t28.5 30.5t25 33t16 32.5t12 37t3 39q0 73 -43.5 113t-118.5 40 q-88 0 -148.5 -53t-60.5 -151z" />
<glyph unicode="'" horiz-adv-x="372" d="M84 1536h205l-37 -614h-131z" />
<glyph unicode="(" horiz-adv-x="534" d="M86 629q0 306 60 516.5t178 390.5h161q-252 -409 -252 -907q0 -499 252 -908h-161q-118 179 -178 390.5t-60 517.5z" />
<glyph unicode=")" horiz-adv-x="534" d="M49 -279q252 409 252 908q0 498 -252 907h162q118 -180 178 -390.5t60 -516.5t-60 -517.5t-178 -390.5h-162z" />
<glyph unicode="*" horiz-adv-x="872" d="M68 1307l47 84l303 -177l-27 320h94l-32 -320l305 177l47 -86l-324 -129l232 -236l-68 -66l-209 273l-205 -279l-65 66l221 240z" />
<glyph unicode="+" horiz-adv-x="948" d="M94 487v177h297v262h164v-262h297v-177h-297v-278h-164v278h-297z" />
<glyph unicode="," horiz-adv-x="442" d="M117 -197l71 179l-69 18v176h205v-176l-160 -223z" />
<glyph unicode="-" horiz-adv-x="868" d="M117 487v177h635v-177h-635z" />
<glyph unicode="." horiz-adv-x="417" d="M117 0v176h184v-176h-184z" />
<glyph unicode="/" horiz-adv-x="1089" d="M39 -174l774 1608h205l-774 -1608h-205z" />
<glyph unicode="0" horiz-adv-x="1462" d="M129 692q0 171 48 316t130.5 244t195 154.5t240.5 55.5q167 0 301 -90.5t211.5 -258t77.5 -382.5q0 -347 -168.5 -553.5t-445.5 -206.5q-264 0 -427 196.5t-163 524.5zM336 692q0 -268 105 -406.5t282 -138.5q187 0 297 147t110 437q0 264 -111.5 409.5t-279.5 145.5 q-81 0 -152.5 -38t-128 -109.5t-89.5 -187t-33 -259.5z" />
<glyph unicode="1" horiz-adv-x="727" d="M70 1210q85 28 170.5 91t130.5 133h149v-1434h-205v1153q-115 -94 -213 -125z" />
<glyph unicode="2" horiz-adv-x="1073" d="M102 1264q8 16 26.5 37.5t55 50.5t81 53t109.5 40.5t136 16.5q87 0 156.5 -24t113.5 -62.5t73.5 -90.5t41.5 -105.5t12 -110.5q0 -144 -100.5 -348.5t-339.5 -544.5h496v-176h-848q195 278 319.5 470t182 304t76 169.5t18.5 105.5q0 110 -67.5 170.5t-182.5 60.5 q-62 0 -116 -17.5t-95.5 -49.5t-68.5 -59.5t-54 -63.5z" />
<glyph unicode="3" horiz-adv-x="1120" d="M82 80l47 180q109 -60 181 -86.5t163 -26.5q56 0 106 13.5t97 44.5t74.5 90t27.5 141q0 44 -8 80t-30.5 71.5t-59.5 60t-98.5 39.5t-143.5 15h-149l20 156h76q185 0 263.5 60t78.5 176q0 99 -61.5 145.5t-182.5 46.5q-176 0 -276 -84l-35 166q34 34 119 64t213 30 q103 0 182.5 -23.5t126 -60t76.5 -87t40.5 -98t10.5 -99.5q0 -87 -41 -157t-145 -142q68 -23 116 -62.5t73.5 -89t36.5 -99.5t11 -106q0 -114 -44 -205t-117.5 -147t-165.5 -85.5t-193 -29.5q-125 0 -241.5 39t-147.5 70z" />
<glyph unicode="4" horiz-adv-x="1144" d="M29 389l659 1045h162v-869h174v-176h-174v-389h-205v389h-616zM332 565h313v520z" />
<glyph unicode="5" horiz-adv-x="1107" d="M104 51l48 182q67 -39 148 -62.5t149 -23.5q141 0 240 93t99 235q0 130 -101 191t-331 61h-174l86 707h652l-19 -177h-477l-41 -356q332 -3 475 -102.5t143 -315.5q0 -114 -46 -211.5t-122.5 -162.5t-175.5 -101.5t-206 -36.5q-99 0 -211 27t-136 53z" />
<glyph unicode="6" horiz-adv-x="1163" d="M127 492q0 130 29.5 256t78.5 227t113 188t132 145.5t136 91.5t125 34l133 -78q-50 -23 -87 -42t-86 -50t-86.5 -64t-79.5 -81t-74 -102.5t-61.5 -127.5t-49.5 -158q96 129 289 129q89 0 166.5 -25.5t138 -75t95 -130t34.5 -183.5q0 -132 -60 -239.5t-174.5 -171.5 t-263.5 -64q-97 0 -175.5 28.5t-141 88t-97 162.5t-34.5 242zM332 412q0 -133 78 -202t190 -69q88 0 152 44.5t93 110.5t29 142q0 46 -11.5 87t-37.5 81t-78.5 64t-125.5 24q-121 0 -205 -78t-84 -204z" />
<glyph unicode="7" horiz-adv-x="1028" d="M80 1257v177h928l-621 -1434h-205l543 1257h-645z" />
<glyph unicode="8" horiz-adv-x="1247" d="M121 387q0 237 274 383q-105 82 -147.5 163t-42.5 173q0 69 21 128.5t67.5 112t133 83t204.5 30.5q113 0 196.5 -28t129 -76t66.5 -102.5t21 -116.5q0 -76 -24.5 -131t-72.5 -101t-142 -112q165 -57 242 -149.5t77 -237.5q0 -60 -18.5 -120t-60 -117t-100.5 -101 t-146.5 -70.5t-192.5 -26.5q-101 0 -184 24.5t-137.5 65t-92.5 95t-54.5 112.5t-16.5 119zM334 387q0 -119 73 -179.5t207 -60.5q129 0 216.5 73.5t87.5 187.5q0 105 -82 179t-209 105q-135 -26 -214 -102.5t-79 -202.5zM383 1094q0 -69 62 -131t165 -101q119 35 179.5 104 t60.5 150q0 80 -60 125t-169 45q-111 0 -174.5 -51t-63.5 -141z" />
<glyph unicode="9" horiz-adv-x="1167" d="M92 985q0 205 137 341t361 136q73 0 136 -15t121.5 -52.5t100 -95t66 -148t24.5 -205.5q0 -175 -42 -332t-108 -266.5t-146.5 -190t-158 -119t-141.5 -38.5l-149 78q48 22 88.5 43t91 53.5t91.5 66.5t83.5 82t73.5 100.5t55 120.5t35 144q-40 -55 -118 -86t-167 -31 q-204 0 -319 104t-115 310zM291 995q0 -45 11.5 -86.5t38 -81.5t79 -64t125.5 -24q121 0 205 79.5t84 207.5t-79 197t-190 69q-88 0 -152 -44.5t-93 -110.5t-29 -142z" />
<glyph unicode=":" horiz-adv-x="417" d="M117 0v176h184v-176h-184zM117 725v176h184v-176h-184z" />
<glyph unicode=";" horiz-adv-x="442" d="M117 -197l71 179l-69 18v176h205v-178l-160 -221zM119 725v176h205v-176h-205z" />
<glyph unicode="&#x3c;" horiz-adv-x="829" d="M68 582l442 422h195l-443 -422l443 -422h-195z" />
<glyph unicode="=" horiz-adv-x="1028" d="M135 328v155h758v-155h-758zM135 651v156h758v-156h-758z" />
<glyph unicode="&#x3e;" horiz-adv-x="827" d="M123 160l442 422l-442 422h194l443 -422l-443 -422h-194z" />
<glyph unicode="?" horiz-adv-x="903" d="M61 1399q38 59 127.5 98t198.5 39q100 0 183.5 -36t135 -93t79.5 -123t28 -131q0 -72 -36 -149.5t-87.5 -144.5t-103 -132.5t-87.5 -134t-36 -127.5v-55h-121q-6 82 -6 92q0 59 22.5 118t57 104.5t74 98t74 99t57 106.5t22.5 121q0 83 -40 142t-97.5 84.5t-124.5 25.5 q-92 0 -168.5 -46.5t-99.5 -92.5zM313 0v176h187v-176h-187z" />
<glyph unicode="@" horiz-adv-x="1478" d="M100 348q0 131 40 252.5t112.5 217t168.5 167t212 110t239 38.5q239 0 374.5 -140.5t135.5 -380.5q0 -150 -51 -286q-39 -61 -116 -97t-136 -36q-26 0 -42.5 10.5t-23 30.5t-8 33.5t-1.5 33.5q0 50 15 114.5t46.5 171.5t50.5 189q-105 109 -250 109q-124 0 -245.5 -84 t-198 -218.5t-76.5 -273.5q0 -98 46.5 -162.5t148.5 -64.5q88 0 194 65t166 172q0 -5 -3 -31t-3 -32q0 -66 27.5 -118t85.5 -52q60 0 140.5 39.5t131.5 91.5q-98 -178 -279.5 -286.5t-392.5 -108.5q-235 0 -371.5 139.5t-136.5 386.5zM510 348q0 82 37 161t92 132.5t117 86 t112 32.5q95 0 111 -45q-19 -107 -83.5 -224t-147 -195.5t-148.5 -78.5q-45 0 -67.5 37t-22.5 94z" />
<glyph unicode="A" d="M14 0l514 1434h205l514 -1434h-205l-137 387h-549l-137 -387h-205zM418 563h426l-213 598z" />
<glyph unicode="B" horiz-adv-x="1222" d="M164 0v1434h323q109 0 186.5 -7.5t148.5 -30t113.5 -61.5t67.5 -103t25 -153q0 -106 -20.5 -171t-96.5 -144q133 -52 186.5 -133.5t53.5 -204.5q0 -106 -30 -185t-76 -124t-114.5 -72.5t-132.5 -36t-143 -8.5h-491zM358 176h201q65 0 111.5 3t94 11t78.5 24.5t56 41.5 t37 63t12 89q0 75 -22.5 127t-64.5 78.5t-89.5 37.5t-109.5 11h-304v-486zM358 838h242q42 0 69 3t60 15.5t52 35.5t32.5 67t13.5 106q0 44 -9.5 77t-29.5 54t-43 34t-58.5 19.5t-67 8.5t-76.5 2h-185v-422z" />
<glyph unicode="C" d="M80 717q0 223 93 393.5t255.5 261t368.5 90.5q105 0 212.5 -23.5t184.5 -60.5l-20 -180q-10 3 -55.5 19t-61.5 21.5t-57 17.5t-67 16.5t-63.5 9t-72.5 4.5q-160 0 -276 -77t-172 -204t-56 -288q0 -120 33 -223t95.5 -180.5t160 -122t219.5 -44.5q30 0 58.5 2t60 8.5 t51.5 10.5t55.5 15t48 15t52.5 18.5t47 16.5l20 -180q-81 -37 -186 -59.5t-209 -22.5q-155 0 -287.5 53t-228 149t-149.5 236t-54 308z" />
<glyph unicode="D" horiz-adv-x="1488" d="M164 0v1434h530q156 0 287 -49t225.5 -139.5t147.5 -226t53 -302.5t-53 -302.5t-147.5 -226t-225.5 -139.5t-287 -49h-530zM358 176h336q241 0 370.5 146.5t129.5 394.5q0 247 -129.5 393.5t-370.5 146.5h-336v-1081z" />
<glyph unicode="E" horiz-adv-x="1134" d="M164 0v1434h874v-177h-680v-419h541v-176h-541v-486h699v-176h-893z" />
<glyph unicode="F" horiz-adv-x="1071" d="M164 0v1434h874v-177h-680v-419h525v-176h-525v-662h-194z" />
<glyph unicode="G" horiz-adv-x="1376" d="M80 719q0 223 92.5 392.5t255.5 260t371 90.5q106 0 224.5 -23t201.5 -59l-19 -170q-221 76 -401 76q-128 0 -227 -44t-160.5 -122t-93 -180t-31.5 -223q0 -125 33 -228t99 -180t171 -119.5t242 -42.5q143 0 239 39v357h-225v176h420v-639q-86 -45 -227.5 -77t-262.5 -32 q-148 0 -277 53t-223 149t-148 237t-54 309z" />
<glyph unicode="H" horiz-adv-x="1527" d="M164 0v1434h194v-592h811v592h195v-1434h-195v657h-811v-657h-194z" />
<glyph unicode="I" horiz-adv-x="522" d="M164 0v1434h194v-1434h-194z" />
<glyph unicode="J" horiz-adv-x="522" d="M-35 -238h8q113 0 152 52.5t39 179.5v1440h194v-1500q0 -286 -340 -286h-32z" />
<glyph unicode="K" horiz-adv-x="1181" d="M164 0v1434h194v-1434h-194zM438 760l531 674h205l-531 -674l531 -760h-205z" />
<glyph unicode="L" horiz-adv-x="1026" d="M164 0v1434h194v-1258h658v-176h-852z" />
<glyph unicode="M" horiz-adv-x="1662" d="M98 0l193 1434h166l377 -711l372 711h168l191 -1434h-205l-135 1083l-389 -743l-398 743l-135 -1083h-205z" />
<glyph unicode="N" horiz-adv-x="1441" d="M164 0v1434h211l706 -1074v1074h197v-1434h-166l-754 1133v-1133h-194z" />
<glyph unicode="O" horiz-adv-x="1572" d="M80 717q0 224 91 394t251 260.5t364 90.5q153 0 283.5 -53t224 -148.5t146.5 -235.5t53 -308t-53 -308t-146.5 -236t-224 -149t-283.5 -53t-283.5 53t-223.5 149t-146 236t-53 308zM293 717q0 -120 31.5 -223t91.5 -181t155 -122t215 -44t215 44.5t155.5 122t92 180.5 t31.5 223q0 162 -54 288.5t-167.5 203.5t-272.5 77q-120 0 -215 -44t-155 -122t-91.5 -180.5t-31.5 -222.5z" />
<glyph unicode="P" horiz-adv-x="1171" d="M164 0v1434h459q88 0 155 -9t134.5 -37.5t111 -76.5t71 -130t27.5 -194q0 -107 -28 -193t-72.5 -139.5t-104 -89t-118 -49.5t-119.5 -14h-311v-502h-205zM369 676h274q145 0 211 76.5t66 226.5q0 155 -73.5 218t-260.5 63h-217v-584z" />
<glyph unicode="Q" horiz-adv-x="1572" d="M80 717q0 224 91 394t251 260.5t364 90.5q153 0 283.5 -53t224 -148.5t146.5 -235.5t53 -308q0 -262 -152 -490l123 -100l-102 -121l-133 111q-203 -146 -443 -146q-153 0 -283.5 53t-223.5 149t-146 236t-53 308zM293 717q0 -121 31 -224t90.5 -180.5t155 -121.5 t216.5 -44q199 0 310 82l-211 172l102 125l215 -190q61 95 79.5 184t18.5 197q0 120 -34 223.5t-98 180.5t-162 121t-220 44q-161 0 -274 -76.5t-166 -203t-53 -289.5z" />
<glyph unicode="R" horiz-adv-x="1234" d="M164 0v1434h465q117 0 204.5 -21t154.5 -68t101.5 -130t34.5 -201q0 -132 -69 -239t-193 -165l334 -610h-209l-317 559h-301v-559h-205zM369 748h309q34 0 66.5 8t65 28t57 49.5t40 76t15.5 104.5q0 126 -75 194t-220 68h-258v-528z" />
<glyph unicode="S" horiz-adv-x="1196" d="M82 1049q0 57 15.5 112t53.5 110.5t95 97t148 67.5t204 26q130 0 256 -30t195 -68l-21 -207q-126 64 -220.5 96.5t-191.5 32.5q-79 0 -149 -20.5t-121 -70t-51 -120.5q0 -39 16.5 -71t41.5 -55t69 -44.5t83 -36t99 -32.5q194 -60 270 -95q183 -86 235 -228 q24 -64 24 -142q0 -53 -10 -100.5t-45 -105t-93 -98t-164 -68.5t-248 -28q-148 0 -272 26.5t-197 65.5l27 228q82 -61 197.5 -102.5t249.5 -41.5q69 0 128 12.5t108.5 37.5t77.5 69t28 103q0 40 -12 73t-39 59.5t-56 47t-77 41t-86.5 34t-100.5 33.5q-194 62 -270 101 q-158 83 -189 216q-8 35 -8 75z" />
<glyph unicode="T" horiz-adv-x="1091" d="M31 1257v177h1030v-177h-418v-1257h-194v1257h-418z" />
<glyph unicode="U" horiz-adv-x="1482" d="M147 608v826h195v-732q0 -93 8.5 -167t34.5 -149.5t68.5 -125.5t115.5 -81.5t172 -31.5t172 31.5t116 82t69 126t34.5 149t8.5 166.5v732h194v-826q0 -302 -149 -469.5t-445 -167.5t-445 167.5t-149 469.5z" />
<glyph unicode="V" horiz-adv-x="1318" d="M8 1434h205l449 -1211l444 1211h205l-549 -1434h-205z" />
<glyph unicode="W" horiz-adv-x="1988" d="M29 1434h204l318 -1213l358 1184h176l363 -1182l315 1211h205l-420 -1434h-215l-338 1176l-350 -1176h-215z" />
<glyph unicode="X" horiz-adv-x="1226" d="M18 0l482 715l-482 719h226l368 -560l398 560h204l-512 -695l515 -739h-205l-414 586l-375 -586h-205z" />
<glyph unicode="Y" horiz-adv-x="1161" d="M-6 1434h205l381 -596l381 596h204l-483 -772v-662h-203v662z" />
<glyph unicode="Z" horiz-adv-x="1124" d="M18 0l770 1257h-677v177h999l-772 -1258h680v-176h-1000z" />
<glyph unicode="[" horiz-adv-x="669" d="M143 -276v1812h527v-139h-357v-1534h357v-139h-527z" />
<glyph unicode="\" horiz-adv-x="1075" d="M72 1434h190l774 -1608h-190z" />
<glyph unicode="]" horiz-adv-x="681" d="M12 -104h357v1468h-357v172h527v-1812h-527v172z" />
<glyph unicode="^" horiz-adv-x="1046" d="M100 895v217l422 442l422 -442v-217l-422 442z" />
<glyph unicode="_" horiz-adv-x="1159" d="M6 -74h1147v-176h-1147v176z" />
<glyph unicode="`" horiz-adv-x="620" d="M119 1352v147l383 -194v-84z" />
<glyph unicode="a" horiz-adv-x="983" d="M49 270q0 81 38.5 145t98.5 103t142 64.5t159.5 35.5t161.5 11q0 135 -52.5 183t-166.5 48q-135 0 -264 -90l-27 150q62 47 152.5 75.5t187.5 28.5q130 0 206 -45t112.5 -149.5t36.5 -286.5v-205q0 -120 20 -165.5t94 -45.5h19l-29 -147h-14q-65 0 -109 9t-72 30 t-43.5 44.5t-33.5 63.5q-127 -147 -308 -147q-138 0 -223.5 81.5t-85.5 208.5zM238 281q0 -79 41.5 -116.5t113.5 -37.5q73 0 142.5 36.5t113.5 98.5v240q-221 -8 -316 -58.5t-95 -162.5z" />
<glyph unicode="b" horiz-adv-x="1136" d="M123 0v1536h184v-641q58 70 143 99.5t168 29.5q136 0 241 -74t158.5 -191.5t53.5 -256.5q0 -144 -60 -264t-164.5 -189t-230.5 -69q-75 0 -165.5 39t-143.5 108l-20 -127h-164zM297 502q0 -176 88.5 -267.5t210.5 -91.5q129 0 208 103.5t79 255.5q0 156 -78.5 257 t-208.5 101q-57 0 -109 -22.5t-95 -65t-69 -113t-26 -157.5z" />
<glyph unicode="c" horiz-adv-x="929" d="M68 504q0 111 31 205t91.5 164.5t156.5 110.5t218 40q204 0 309 -59l-28 -166q-125 61 -260 61q-164 0 -247 -92.5t-83 -263.5q0 -169 83.5 -266t246.5 -97q135 0 262 62l24 -148q-113 -75 -305 -75q-122 0 -218.5 42t-157 115t-92 166.5t-31.5 200.5z" />
<glyph unicode="d" horiz-adv-x="1136" d="M66 502q0 138 54.5 256t160 192t241.5 74q202 0 307 -127v639h185v-1536h-164l-21 127q-53 -69 -142.5 -108t-164.5 -39q-126 0 -231 69t-165 189t-60 264zM254 502q0 -153 77.5 -256t205.5 -103q58 0 111.5 20.5t99.5 61t74 111t28 160.5q0 87 -28 158.5t-73.5 115 t-100 67t-111.5 23.5q-130 0 -206.5 -100.5t-76.5 -257.5z" />
<glyph unicode="e" horiz-adv-x="1048" d="M63 510q0 142 57 257.5t170.5 186t264.5 70.5q192 0 312 -113t120 -311q0 -51 -8 -98h-727q35 -359 377 -359q157 0 289 60l24 -146q-172 -77 -336 -77q-129 0 -233.5 42t-171.5 115t-102.5 168.5t-35.5 204.5zM268 629h529q0 109 -61.5 170t-184.5 61q-119 0 -186.5 -59 t-96.5 -172z" />
<glyph unicode="f" horiz-adv-x="677" d="M20 860l25 144h150v253q0 126 60.5 202.5t172.5 76.5q126 0 209 -27l-29 -155q-58 18 -123 18q-70 0 -88 -44t-18 -202v-122h270v-144h-270v-860h-184v860h-175z" />
<glyph unicode="g" horiz-adv-x="1019" d="M53 -209q0 26 6 52t23 59.5t55 64t94 49.5q-102 49 -102 127q0 35 27.5 77.5t91.5 72.5q-174 127 -174 328q0 173 108.5 288t300.5 115q137 0 256 -74q107 58 244 58h16l-22 -123h-47q-54 0 -119 -15q92 -109 92 -239q0 -104 -45.5 -193.5t-139.5 -148t-220 -58.5 q-76 0 -144 19q-49 -27 -49 -62q0 -36 58.5 -54.5t252.5 -51.5q48 -8 86 -16.5t89.5 -23.5t89.5 -36t73 -49t53.5 -67.5t18.5 -86.5q0 -130 -133.5 -222.5t-370.5 -92.5q-100 0 -182 19t-134 49.5t-87.5 70.5t-50.5 81t-15 83zM229 -205q0 -71 80 -117.5t221 -46.5 q145 0 227.5 48t82.5 112q0 107 -269 156q-3 0 -83.5 10.5t-98.5 13.5q-69 -22 -114.5 -72t-45.5 -104zM250 627q0 -117 66 -185.5t173 -68.5q112 0 175 73.5t63 186.5q0 116 -66.5 180t-175.5 64q-112 0 -173.5 -69t-61.5 -181z" />
<glyph unicode="h" horiz-adv-x="1110" d="M123 0v1536h186v-641q103 129 291 129q395 0 395 -487v-537h-184v537q0 179 -53.5 251t-186.5 72q-179 0 -262 -131v-729h-186z" />
<glyph unicode="i" horiz-adv-x="434" d="M125 0v1004h184v-1004h-184zM125 1229v205h184v-205h-184z" />
<glyph unicode="j" horiz-adv-x="434" d="M-25 -354q92 9 121 46.5t29 157.5v1154h184v-1223q0 -68 -24 -119.5t-64 -80.5t-79.5 -44t-84.5 -22l-61 -11zM125 1229v205h184v-205h-184z" />
<glyph unicode="k" horiz-adv-x="917" d="M123 0v1536h184v-985l369 453h225l-414 -463l424 -541h-225l-379 510v-510h-184z" />
<glyph unicode="l" horiz-adv-x="483" d="M123 221v1315h184v-1208q0 -130 28.5 -165.5t133.5 -35.5l-27 -147h-59q-135 0 -197.5 69t-62.5 172z" />
<glyph unicode="m" horiz-adv-x="1796" d="M125 0v1004h143l21 -107q83 73 150 100t151 27q48 0 90.5 -8t88 -29t87 -62.5t74.5 -101.5q106 201 366 201q385 0 385 -432v-592h-184v590q0 142 -55.5 206t-179.5 64q-267 0 -267 -278v-582h-184v553q0 90 -17 151.5t-49.5 94.5t-73.5 47t-96 14q-89 0 -159 -33 t-107 -98v-729h-184z" />
<glyph unicode="n" horiz-adv-x="1144" d="M125 0v1004h143l21 -107q143 127 332 127q409 0 409 -471v-553h-184v553q0 162 -60.5 234.5t-201.5 72.5q-91 0 -164.5 -33t-110.5 -98v-729h-184z" />
<glyph unicode="o" horiz-adv-x="1126" d="M66 502q0 109 34 204t96 166t157 111.5t210 40.5q152 0 266.5 -70t173 -187.5t58.5 -264.5t-58.5 -264.5t-173 -187.5t-266.5 -70q-115 0 -210 40.5t-157 111.5t-96 166t-34 204zM254 502q0 -170 80.5 -264.5t228.5 -94.5t228.5 94.5t80.5 264.5t-80.5 264t-228.5 94 t-228.5 -94t-80.5 -264z" />
<glyph unicode="p" horiz-adv-x="1140" d="M125 -496v1500h143l21 -144q70 84 146 124t192 40q102 0 187.5 -43t141.5 -115.5t86.5 -166.5t30.5 -197q0 -149 -49 -265.5t-152 -186.5t-247 -70q-76 0 -169.5 39.5t-146.5 107.5v-623h-184zM299 502q0 -91 26.5 -162t71 -112.5t97.5 -63t110 -21.5q128 0 204.5 103 t76.5 256q0 157 -76 257.5t-205 100.5q-57 0 -110 -22.5t-97.5 -65t-71 -113t-26.5 -157.5z" />
<glyph unicode="q" horiz-adv-x="1140" d="M68 502q0 103 30.5 197t86.5 166.5t141.5 115.5t187.5 43q116 0 192 -40t146 -124l20 144h144v-1500h-185v623q-53 -68 -146 -107.5t-169 -39.5q-144 0 -247 70t-152 186.5t-49 265.5zM256 502q0 -153 76.5 -256t204.5 -103q57 0 110 21.5t97.5 63t71 112.5t26.5 162 q0 87 -26.5 157.5t-71 113t-97.5 65t-110 22.5q-129 0 -205 -100.5t-76 -257.5z" />
<glyph unicode="r" horiz-adv-x="657" d="M125 0v1004h151l23 -166q94 106 172 154t168 48h16l-41 -202h-63q-62 0 -132 -40.5t-97 -88.5v-709h-197z" />
<glyph unicode="s" horiz-adv-x="847" d="M66 68l22 178q41 -38 125.5 -70.5t187.5 -32.5q97 0 149 32.5t52 92.5q0 30 -13.5 55t-32.5 41.5t-49.5 31t-52.5 22t-53 16.5q-39 11 -61 17.5t-60.5 20.5t-61 27.5t-51 36t-44 48t-26.5 61.5t-11 78q0 60 21 112.5t64 95.5t118 68t174 25q142 0 272 -66l-22 -167 q-106 88 -246 88q-90 0 -142.5 -34t-52.5 -102q0 -28 10.5 -49t25 -35.5t49.5 -29.5t63 -24.5t86 -26.5q28 -8 47.5 -14.5t52 -20.5t55.5 -29t49.5 -38.5t43 -50.5t28 -65t11.5 -81t-10 -82.5t-37 -80t-68.5 -70t-110.5 -48t-157 -18.5q-119 0 -208 27.5t-136 60.5z" />
<glyph unicode="t" horiz-adv-x="690" d="M37 860l16 144h156v247l184 19v-266h264v-144h-264v-528q0 -54 1 -82.5t10 -55.5t19.5 -37.5t38 -19t57 -9.5t85.5 -1h47l-14 -147h-166q-133 0 -197.5 69t-64.5 170v641h-172z" />
<glyph unicode="u" horiz-adv-x="1073" d="M115 420v584h184v-533q0 -164 55.5 -246t177.5 -82q73 0 135 29t97 86v746h184v-1004h-164l-20 111q-48 -67 -115 -99t-164 -32q-180 0 -275 109t-95 331z" />
<glyph unicode="v" horiz-adv-x="1007" d="M18 1004h205l281 -801l278 801h207l-381 -1004h-207z" />
<glyph unicode="w" horiz-adv-x="1484" d="M25 1004h217l192 -801l213 770h191l215 -770l192 801h217l-303 -1004h-207l-209 741l-211 -741h-206z" />
<glyph unicode="x" horiz-adv-x="970" d="M23 0l350 500l-342 504h207l251 -398l232 398h215l-330 -488l342 -516h-207l-254 395l-258 -395h-206z" />
<glyph unicode="y" horiz-adv-x="1034" d="M14 1004h205l313 -746l283 746h205l-614 -1500h-205l231 541z" />
<glyph unicode="z" horiz-adv-x="964" d="M45 0l535 860h-514v144h847l-534 -861h524v-143h-858z" />
<glyph unicode="{" horiz-adv-x="612" d="M39 629q79 53 113 123t34 182q0 50 -8 153t-8 142q0 96 39 160t137.5 103t261.5 44v-141q-53 -2 -92 -6.5t-69.5 -15.5t-51 -22.5t-35.5 -35.5t-22.5 -45.5t-12 -61t-5.5 -73.5t-1 -91q0 -27 3.5 -87t3.5 -89q0 -76 -32 -128t-138 -111q74 -40 112.5 -77.5t48 -67 t9.5 -76.5q0 -28 -3.5 -92.5t-3.5 -100.5q0 -57 1 -91t5.5 -73.5t12 -61t22.5 -45t35.5 -35.5t51 -23t69.5 -15t92 -6v-141q-236 7 -337 82t-101 223q0 39 8 142.5t8 154.5q0 109 -32.5 180t-114.5 123z" />
<glyph unicode="|" horiz-adv-x="468" d="M143 -428v1964h183v-1964h-183z" />
<glyph unicode="}" horiz-adv-x="612" d="M4 -135q53 2 92 6t69.5 15t51 23t35.5 35.5t22.5 45t12 61t5.5 73.5t1 91q0 36 -3 100.5t-3 92.5q0 47 9.5 76.5t48 67t112.5 77.5q-106 59 -138 111t-32 128q0 29 3 89t3 87q0 57 -1 91t-5.5 73.5t-12 61t-22.5 45.5t-35.5 35.5t-51 22.5t-69.5 15.5t-92 6.5v141 q163 -5 261.5 -44t137.5 -103t39 -160q0 -39 -8 -142t-8 -153q0 -112 34 -182t113 -123q-82 -52 -114.5 -123t-32.5 -180q0 -51 8 -154.5t8 -142.5q0 -148 -101 -223t-337 -82v141z" />
<glyph unicode="~" horiz-adv-x="931" d="M111 389q23 92 85 138t126 46q44 0 147.5 -50t138.5 -50q47 0 80.5 26.5t61.5 78.5l69 -19q-23 -89 -82.5 -140.5t-136.5 -51.5q-39 0 -138.5 52t-131.5 52q-108 0 -146 -100z" />
<glyph unicode="&#xa1;" horiz-adv-x="458" d="M102 -512l62 1126h131l61 -1126h-254zM143 848v176h172v-176h-172z" />
<glyph unicode="&#xa2;" horiz-adv-x="976" d="M70 711q0 135 49 247t155 190t256 97l-38 287h139l-37 -287q106 -6 168 -21.5t110 -43.5l-16 -160q-128 67 -260 67q-145 0 -227 -107t-82 -269q0 -161 82 -267t227 -106q136 0 260 65l16 -159q-101 -57 -274 -66l33 -241h-139l34 241q-113 15 -201 63.5t-143 120.5 t-83.5 160.5t-28.5 188.5z" />
<glyph unicode="&#xa3;" horiz-adv-x="1024" d="M70 0q100 138 149 294t72 374h-195l23 120h180v256q0 68 6 120.5t26.5 108t54.5 91.5t95 59t144 23q125 0 192.5 -47t97.5 -133l-59 -78q-18 36 -30 55t-33.5 39.5t-51 29.5t-71.5 9q-51 0 -88 -15.5t-59.5 -41.5t-35.5 -68.5t-17.5 -88t-4.5 -108.5v-211h403l-24 -120 h-387q-11 -163 -35 -264.5t-94 -256.5h573v-147h-831z" />
<glyph unicode="&#xa4;" horiz-adv-x="1282" d="M125 713q0 225 164 395l-160 209l57 49l160 -211q155 78 295 78q144 0 293 -80l164 213l57 -49l-160 -211q162 -170 162 -393t-164 -398l162 -206l-59 -50l-162 211q-143 -77 -293 -77t-293 77l-162 -211l-57 50l158 208q-162 170 -162 396zM309 713q0 -171 87.5 -282.5 t244.5 -111.5t244.5 111.5t87.5 282.5t-87.5 282t-244.5 111t-244.5 -111t-87.5 -282z" />
<glyph unicode="&#xa5;" horiz-adv-x="1380" d="M61 1434h191l440 -629l441 629h190l-530 -787h344l-45 -102h-301v-135h346l-45 -111h-301v-299h-197v299h-365l43 111h322v135h-365l43 102h320z" />
<glyph unicode="&#xa6;" horiz-adv-x="475" d="M147 334h181v-764h-181v764zM147 631v905h181v-905h-181z" />
<glyph unicode="&#xa7;" horiz-adv-x="933" d="M76 676q0 238 223 305q-81 58 -106 109t-25 112q0 67 18 124.5t56 106t105.5 76t158.5 27.5q89 0 170 -24.5t131 -57.5l-27 -129q-142 88 -266 88q-90 0 -144.5 -51t-54.5 -125q0 -52 30 -89t78 -60.5t105.5 -45t115.5 -49.5t106 -65t78 -101t30 -149q0 -38 -9.5 -75.5 t-32 -78t-66.5 -77t-105 -62.5q35 -27 58.5 -52.5t36 -45.5t18.5 -47.5t7 -46t1 -52.5q0 -57 -18 -109.5t-56 -100t-107.5 -75.5t-162.5 -28q-88 0 -170.5 23t-122.5 57l27 129q139 -84 268 -84q96 0 153.5 42.5t57.5 127.5q0 52 -24 90t-63.5 59t-89.5 40.5t-102.5 34 t-102.5 41t-89.5 60t-63.5 92t-24 136.5zM215 700q0 -92 89 -151.5t243 -99.5q73 20 116.5 79.5t43.5 135.5q0 167 -289 233q-17 -1 -40 -6t-52.5 -19.5t-53.5 -35t-40.5 -56.5t-16.5 -80z" />
<glyph unicode="&#xa8;" horiz-adv-x="864" d="M178 1229v205h144v-205h-144zM543 1229v205h143v-205h-143z" />
<glyph unicode="&#xa9;" horiz-adv-x="1474" d="M100 748q0 150 48 276.5t132 212.5t202 134t255 48t254.5 -48t201.5 -134t131.5 -212t47.5 -277q0 -150 -47.5 -276t-131.5 -212.5t-201.5 -135t-254.5 -48.5t-255 48.5t-202 135t-132 212.5t-48 276zM207 748q0 -125 33.5 -230t97.5 -184t166.5 -123.5t232.5 -44.5 t231.5 44.5t166 123.5t98 184t33.5 230q0 124 -33.5 229t-98 183.5t-166 122.5t-231.5 44t-232.5 -44t-166.5 -122.5t-97.5 -183t-33.5 -229.5zM432 743q0 155 90.5 248.5t233.5 93.5q100 0 184 -38l-14 -123q-93 39 -170 39q-91 0 -139 -60.5t-48 -159.5q0 -97 48.5 -158 t138.5 -61q80 0 170 41l14 -121q-77 -41 -184 -41q-143 0 -233.5 93t-90.5 247z" />
<glyph unicode="&#xaa;" horiz-adv-x="714" d="M68 1063q0 47 25.5 84t62.5 59t86.5 36.5t90 20.5t79.5 7q-2 44 -27 65t-82 21q-70 0 -170 -41l-12 123q105 47 223 47q223 0 223 -221v-164q0 -61 9.5 -73.5t44.5 -12.5h20l-14 -125h-56q-98 0 -137 63q-63 -63 -188 -63q-76 0 -127 46.5t-51 127.5zM229 1069 q0 -34 19.5 -49.5t62.5 -15.5q58 0 103 34v129q-72 -2 -128.5 -27t-56.5 -71z" />
<glyph unicode="&#xab;" horiz-adv-x="1153" d="M31 582l301 422h205l-301 -422l301 -422h-205zM563 582l301 422h207l-303 -422l303 -422h-207z" />
<glyph unicode="&#xac;" horiz-adv-x="1220" d="M135 709v122h942v-522h-112v400h-830z" />
<glyph unicode="&#xad;" horiz-adv-x="868" d="M117 471v193h635v-193h-635z" />
<glyph unicode="&#xae;" horiz-adv-x="1474" d="M100 748q0 150 48 276.5t132 212.5t202 134t255 48t254.5 -48t201.5 -134t131.5 -212t47.5 -277q0 -150 -47.5 -276t-131.5 -212.5t-201.5 -135t-254.5 -48.5t-255 48.5t-202 135t-132 212.5t-48 276zM205 748q0 -125 33.5 -230t98.5 -184.5t167.5 -124.5t232.5 -45 q129 0 231.5 45t167.5 124.5t98.5 185t33.5 229.5t-33.5 229t-98.5 184t-167 123.5t-232 44.5t-232.5 -44.5t-167.5 -123.5t-98.5 -184t-33.5 -229zM500 430v657h241q111 0 168.5 -45.5t57.5 -158.5q0 -105 -111 -178l145 -275h-129l-133 240h-112v-240h-127zM627 784h82 q125 0 125 103q0 49 -27 74.5t-94 25.5h-86v-203z" />
<glyph unicode="&#xb0;" horiz-adv-x="681" d="M70 1266q0 121 73 200.5t197 79.5q125 0 198.5 -79.5t73.5 -200.5t-73 -200t-199 -79q-124 0 -197 79t-73 200zM160 1266q0 -92 48.5 -159t131.5 -67q87 0 133.5 66.5t46.5 159.5q0 92 -47 159.5t-133 67.5q-84 0 -132 -67.5t-48 -159.5z" />
<glyph unicode="&#xb1;" horiz-adv-x="1019" d="M131 86v137h758v-137h-758zM131 670v137h313v283h131v-283h314v-137h-314v-295h-131v295h-313z" />
<glyph unicode="&#xb2;" horiz-adv-x="622" d="M51 655q110 149 181 253t103 163t42 89t10 54q0 51 -31 80t-86 29q-104 0 -190 -121l-19 133q22 39 85.5 75t154.5 36q63 0 109.5 -19.5t71.5 -51t36.5 -66.5t11.5 -72q0 -75 -50.5 -176t-166.5 -262h246v-144h-508z" />
<glyph unicode="&#xb3;" horiz-adv-x="634" d="M39 700l37 136q27 -22 78 -38t102 -16q70 0 115 25.5t45 81.5q0 61 -32.5 96t-119.5 35h-106l12 113h55q158 0 158 98q0 41 -30 65.5t-93 24.5q-102 0 -145 -35l-23 109q21 20 72.5 35.5t114.5 15.5q62 0 109.5 -14t74.5 -35t44.5 -50t23.5 -55t6 -53q0 -107 -80 -154 q110 -63 110 -190q0 -81 -45 -141t-112.5 -87.5t-147.5 -27.5q-71 0 -140 21.5t-83 39.5z" />
<glyph unicode="&#xb4;" horiz-adv-x="620" d="M119 1221v84l383 194v-147z" />
<glyph unicode="&#xb5;" horiz-adv-x="1210" d="M150 -496v1500h182v-529q0 -170 54 -252t196 -82q77 0 128 27t109 92v744h178v-656q0 -113 20 -167t77 -54h45l-33 -147h-53q-162 0 -219 149q-68 -79 -126.5 -115.5t-148.5 -36.5q-65 0 -113 15t-116 63v-551h-180z" />
<glyph unicode="&#xb6;" horiz-adv-x="1273" d="M68 971q0 69 22 134.5t69 125.5t115 105t166.5 71.5t216.5 26.5h531v-138h-154v-1296h-98v1296h-207v-1296h-84v498q-146 8 -260 52t-181.5 111.5t-101.5 146t-34 163.5z" />
<glyph unicode="&#xb7;" horiz-adv-x="487" d="M117 436v266h254v-266h-254z" />
<glyph unicode="&#xb8;" horiz-adv-x="620" d="M295 -393l139 270l135 12l-180 -272z" />
<glyph unicode="&#xb9;" horiz-adv-x="442" d="M47 1309q39 6 88 44t66 77h116v-775h-153v566q-64 -29 -105 -35z" />
<glyph unicode="&#xba;" horiz-adv-x="757" d="M68 1188q0 125 84 211t227 86t227 -86t84 -211t-84 -212t-227 -87t-227 87t-84 212zM225 1188q0 -78 41 -127t113 -49t112.5 49t40.5 127t-40.5 127t-112.5 49t-113 -49t-41 -127z" />
<glyph unicode="&#xbb;" horiz-adv-x="1153" d="M84 160l303 422l-303 422h207l301 -422l-301 -422h-207zM616 160l302 422l-302 422h205l301 -422l-301 -422h-205z" />
<glyph unicode="&#xbc;" horiz-adv-x="1468" d="M80 1309q39 6 87.5 44t65.5 77h117v-775h-153v566q-64 -29 -105 -35zM125 -174l774 1608h205l-774 -1608h-205zM788 211l383 563h127v-446h101v-117h-101v-211h-151v211h-359zM995 328h152v225z" />
<glyph unicode="&#xbd;" horiz-adv-x="1492" d="M74 1309q39 6 87.5 44t65.5 77h117v-775h-154v566q-65 -29 -104 -35zM119 -174l774 1608h205l-774 -1608h-205zM913 0q110 149 181 253t103 163t42 89t10 54q0 51 -30.5 80t-85.5 29q-105 0 -191 -121l-18 133q22 40 85 75.5t154 35.5q63 0 110 -19.5t72 -51t36.5 -66.5 t11.5 -72q0 -75 -50.5 -177t-166.5 -262h245v-143h-508z" />
<glyph unicode="&#xbe;" horiz-adv-x="1812" d="M66 700l36 136q27 -22 78.5 -38t102.5 -16q70 0 114.5 25.5t44.5 81.5q0 61 -32 96t-119 35h-107l13 113h55q158 0 158 98q0 41 -30 65.5t-93 24.5q-103 0 -146 -35l-22 109q21 20 72.5 35.5t113.5 15.5t109.5 -14t74.5 -35t44.5 -50t23.5 -55t6 -53q0 -107 -80 -154 q111 -63 111 -190q0 -81 -45 -141t-112.5 -87.5t-147.5 -27.5q-71 0 -140 21.5t-83 39.5zM471 -174l774 1608h205l-774 -1608h-205zM1130 211l383 563h127v-446h101v-117h-101v-211h-151v211h-359zM1337 328h152v225z" />
<glyph unicode="&#xbf;" horiz-adv-x="919" d="M127 -129q0 72 36 149.5t87.5 144.5t103 132.5t87.5 134t36 127.5v55h121q6 -83 6 -92q0 -59 -22.5 -118t-57 -104.5t-74 -98t-74 -99t-57 -106.5t-22.5 -121q0 -83 40 -142t97.5 -84.5t124.5 -25.5q92 0 168.5 46.5t99.5 92.5l52 -137q-38 -59 -127.5 -98t-198.5 -39 q-100 0 -183.5 36t-135 93t-79.5 123t-28 131zM440 848v176h187v-176h-187z" />
<glyph unicode="&#xc0;" d="M14 0l514 1434h205l514 -1434h-205l-137 387h-549l-137 -387h-205zM418 563h426l-213 598zM440 1782v147l383 -194v-84z" />
<glyph unicode="&#xc1;" d="M14 0l514 1434h205l514 -1434h-205l-137 387h-549l-137 -387h-205zM418 563h426l-213 598zM440 1651v84l383 194v-147z" />
<glyph unicode="&#xc2;" d="M14 0l514 1434h205l514 -1434h-205l-137 387h-549l-137 -387h-205zM332 1665v74l301 217l301 -217v-74l-301 168zM418 563h426l-213 598z" />
<glyph unicode="&#xc3;" d="M14 0l514 1434h205l514 -1434h-205l-137 387h-549l-137 -387h-205zM279 1679q23 93 85 139t125 46q43 0 148 -50.5t139 -50.5q47 0 80.5 26.5t61.5 78.5l69 -19q-23 -89 -82.5 -140.5t-136.5 -51.5q-39 0 -138.5 52t-131.5 52q-108 0 -146 -100zM418 563h426l-213 598z " />
<glyph unicode="&#xc4;" d="M14 0l514 1434h205l514 -1434h-205l-137 387h-549l-137 -387h-205zM379 1659v205h143v-205h-143zM418 563h426l-213 598zM743 1659v205h144v-205h-144z" />
<glyph unicode="&#xc5;" d="M14 0l514 1434h205l514 -1434h-205l-137 387h-549l-137 -387h-205zM418 563h426l-213 598zM420 1792q0 75 57 129.5t156 54.5q100 0 156.5 -54t56.5 -130t-55.5 -129t-157.5 -53q-101 0 -157 53.5t-56 128.5zM510 1792q0 -55 36.5 -89t86.5 -34t86.5 34t36.5 89 q0 53 -36 87t-87 34t-87 -34t-36 -87z" />
<glyph unicode="&#xc6;" horiz-adv-x="1771" d="M-14 0l700 1434h989v-179h-639v-417h494v-176h-494v-486h660v-176h-893v369h-438l-189 -369h-190zM453 557h350v694z" />
<glyph unicode="&#xc7;" d="M80 717q0 223 93 393.5t255.5 261t368.5 90.5q105 0 212.5 -23.5t184.5 -60.5l-20 -180q-10 3 -55.5 19t-61.5 21.5t-57 17.5t-67 16.5t-63.5 9t-72.5 4.5q-160 0 -276 -77t-172 -204t-56 -288q0 -120 33 -223t95.5 -180.5t160 -122t219.5 -44.5q30 0 58.5 2t60 8.5 t51.5 10.5t55.5 15t48 15t52.5 18.5t47 16.5l20 -180q-81 -37 -186 -59.5t-209 -22.5q-155 0 -287.5 53t-228 149t-149.5 236t-54 308zM494 -393l139 270l135 12l-180 -272z" />
<glyph unicode="&#xc8;" horiz-adv-x="1134" d="M164 0v1434h874v-177h-680v-419h541v-176h-541v-486h699v-176h-893zM375 1782v147l383 -194v-84z" />
<glyph unicode="&#xc9;" horiz-adv-x="1134" d="M164 0v1434h874v-177h-680v-419h541v-176h-541v-486h699v-176h-893zM375 1651v84l383 194v-147z" />
<glyph unicode="&#xca;" horiz-adv-x="1134" d="M164 0v1434h874v-177h-680v-419h541v-176h-541v-486h699v-176h-893zM264 1665v74l301 217l301 -217v-74l-301 168z" />
<glyph unicode="&#xcb;" horiz-adv-x="1134" d="M164 0v1434h874v-177h-680v-419h541v-176h-541v-486h699v-176h-893zM311 1659v205h144v-205h-144zM676 1659v205h143v-205h-143z" />
<glyph unicode="&#xcc;" horiz-adv-x="522" d="M72 1782v147l383 -194v-84zM164 0v1434h194v-1434h-194z" />
<glyph unicode="&#xcd;" horiz-adv-x="522" d="M72 1651v84l383 194v-147zM164 0v1434h194v-1434h-194z" />
<glyph unicode="&#xce;" horiz-adv-x="522" d="M-39 1665v74l301 217l301 -217v-74l-301 168zM164 0v1434h194v-1434h-194z" />
<glyph unicode="&#xcf;" horiz-adv-x="522" d="M8 1659v205h144v-205h-144zM164 0v1434h194v-1434h-194zM373 1659v205h143v-205h-143z" />
<glyph unicode="&#xd0;" horiz-adv-x="1495" d="M-16 641v131h198v662h525q207 0 365.5 -84t249.5 -247.5t91 -385.5t-91 -385.5t-249.5 -247.5t-365.5 -84h-525v641h-198zM367 178h340q242 0 369.5 144.5t127.5 394.5q0 251 -127.5 395.5t-369.5 144.5h-340v-485h272v-131h-272v-463z" />
<glyph unicode="&#xd1;" horiz-adv-x="1441" d="M164 0v1434h211l706 -1074v1074h197v-1434h-166l-754 1133v-1133h-194zM367 1679q23 93 85 139t126 46q44 0 148 -50.5t138 -50.5q47 0 80.5 26.5t61.5 78.5l69 -19q-23 -89 -82.5 -140.5t-136.5 -51.5q-39 0 -138.5 52t-131.5 52q-108 0 -146 -100z" />
<glyph unicode="&#xd2;" horiz-adv-x="1572" d="M80 717q0 224 91 394t251 260.5t364 90.5q153 0 283.5 -53t224 -148.5t146.5 -235.5t53 -308t-53 -308t-146.5 -236t-224 -149t-283.5 -53t-283.5 53t-223.5 149t-146 236t-53 308zM293 717q0 -120 31.5 -223t91.5 -181t155 -122t215 -44t215 44.5t155.5 122t92 180.5 t31.5 223q0 162 -54 288.5t-167.5 203.5t-272.5 77q-120 0 -215 -44t-155 -122t-91.5 -180.5t-31.5 -222.5zM594 1782v147l383 -194v-84z" />
<glyph unicode="&#xd3;" horiz-adv-x="1572" d="M80 717q0 224 91 394t251 260.5t364 90.5q153 0 283.5 -53t224 -148.5t146.5 -235.5t53 -308t-53 -308t-146.5 -236t-224 -149t-283.5 -53t-283.5 53t-223.5 149t-146 236t-53 308zM293 717q0 -120 31.5 -223t91.5 -181t155 -122t215 -44t215 44.5t155.5 122t92 180.5 t31.5 223q0 162 -54 288.5t-167.5 203.5t-272.5 77q-120 0 -215 -44t-155 -122t-91.5 -180.5t-31.5 -222.5zM594 1651v84l383 194v-147z" />
<glyph unicode="&#xd4;" horiz-adv-x="1572" d="M80 717q0 224 91 394t251 260.5t364 90.5q153 0 283.5 -53t224 -148.5t146.5 -235.5t53 -308t-53 -308t-146.5 -236t-224 -149t-283.5 -53t-283.5 53t-223.5 149t-146 236t-53 308zM293 717q0 -120 31.5 -223t91.5 -181t155 -122t215 -44t215 44.5t155.5 122t92 180.5 t31.5 223q0 162 -54 288.5t-167.5 203.5t-272.5 77q-120 0 -215 -44t-155 -122t-91.5 -180.5t-31.5 -222.5zM485 1665v74l301 217l301 -217v-74l-301 168z" />
<glyph unicode="&#xd5;" horiz-adv-x="1572" d="M80 717q0 224 91 394t251 260.5t364 90.5q153 0 283.5 -53t224 -148.5t146.5 -235.5t53 -308t-53 -308t-146.5 -236t-224 -149t-283.5 -53t-283.5 53t-223.5 149t-146 236t-53 308zM293 717q0 -120 31.5 -223t91.5 -181t155 -122t215 -44t215 44.5t155.5 122t92 180.5 t31.5 223q0 162 -54 288.5t-167.5 203.5t-272.5 77q-120 0 -215 -44t-155 -122t-91.5 -180.5t-31.5 -222.5zM432 1679q23 93 85 139t126 46q43 0 148 -50.5t139 -50.5q47 0 80 26t61 79l70 -19q-23 -89 -82.5 -140.5t-136.5 -51.5q-39 0 -139 52t-132 52q-107 0 -145 -100z " />
<glyph unicode="&#xd6;" horiz-adv-x="1572" d="M80 717q0 224 91 394t251 260.5t364 90.5q153 0 283.5 -53t224 -148.5t146.5 -235.5t53 -308t-53 -308t-146.5 -236t-224 -149t-283.5 -53t-283.5 53t-223.5 149t-146 236t-53 308zM293 717q0 -120 31.5 -223t91.5 -181t155 -122t215 -44t215 44.5t155.5 122t92 180.5 t31.5 223q0 162 -54 288.5t-167.5 203.5t-272.5 77q-120 0 -215 -44t-155 -122t-91.5 -180.5t-31.5 -222.5zM532 1659v205h144v-205h-144zM897 1659v205h143v-205h-143z" />
<glyph unicode="&#xd7;" horiz-adv-x="899" d="M125 317l252 250l-252 250l74 74l250 -252l251 252l74 -74l-254 -250l254 -250l-74 -73l-251 252l-250 -252z" />
<glyph unicode="&#xd8;" horiz-adv-x="1570" d="M80 717q0 224 91 394t251 260.5t364 90.5q177 0 353 -86l63 90h189l-125 -182q227 -227 227 -569q0 -166 -53 -305t-147 -234.5t-225 -148t-284 -52.5q-183 0 -360 88l-86 -124h-191l150 215q-217 234 -217 563zM301 715q0 -100 25 -193t88 -203l616 904q-135 57 -246 57 q-119 0 -212 -43t-151.5 -120t-89 -179t-30.5 -223zM532 215q136 -59 254 -59q158 0 269.5 75.5t164 201t52.5 288.5q0 255 -119 401z" />
<glyph unicode="&#xd9;" horiz-adv-x="1486" d="M150 608v826h194v-732q0 -93 8.5 -167t34.5 -149.5t68.5 -125.5t115.5 -81.5t172 -31.5t172 31.5t116 82t69 126t34.5 149t8.5 166.5v732h194v-826q0 -302 -149 -469.5t-445 -167.5t-444.5 167.5t-148.5 469.5zM551 1782v147l383 -194v-84z" />
<glyph unicode="&#xda;" horiz-adv-x="1486" d="M150 608v826h194v-732q0 -93 8.5 -167t34.5 -149.5t68.5 -125.5t115.5 -81.5t172 -31.5t172 31.5t116 82t69 126t34.5 149t8.5 166.5v732h194v-826q0 -302 -149 -469.5t-445 -167.5t-444.5 167.5t-148.5 469.5zM551 1651v84l383 194v-147z" />
<glyph unicode="&#xdb;" horiz-adv-x="1486" d="M150 608v826h194v-732q0 -93 8.5 -167t34.5 -149.5t68.5 -125.5t115.5 -81.5t172 -31.5t172 31.5t116 82t69 126t34.5 149t8.5 166.5v732h194v-826q0 -302 -149 -469.5t-445 -167.5t-444.5 167.5t-148.5 469.5zM442 1665v74l301 217l301 -217v-74l-301 168z" />
<glyph unicode="&#xdc;" horiz-adv-x="1486" d="M150 608v826h194v-732q0 -93 8.5 -167t34.5 -149.5t68.5 -125.5t115.5 -81.5t172 -31.5t172 31.5t116 82t69 126t34.5 149t8.5 166.5v732h194v-826q0 -302 -149 -469.5t-445 -167.5t-444.5 167.5t-148.5 469.5zM489 1659v205h144v-205h-144zM854 1659v205h143v-205h-143z " />
<glyph unicode="&#xdd;" horiz-adv-x="1161" d="M-6 1434h205l381 -596l381 596h204l-483 -772v-662h-203v662zM414 1651v84l383 194v-147z" />
<glyph unicode="&#xde;" horiz-adv-x="1167" d="M164 0v1434h205v-287h139q137 0 230 -8t172 -29.5t123.5 -60t68.5 -99t24 -147.5q0 -210 -142 -295.5t-476 -85.5h-139v-422h-205zM369 535h213q180 0 265 63.5t85 189.5q0 130 -83 186t-267 56h-213v-495z" />
<glyph unicode="&#xdf;" horiz-adv-x="1140" d="M33 899l14 125h137v139q0 82 35.5 153.5t93 118.5t128.5 74t143 27q64 0 130.5 -21.5t126 -62.5t97 -111t37.5 -157q0 -69 -24 -133t-58.5 -108.5t-69 -80t-58.5 -62t-24 -40.5q0 -15 27 -39.5t67.5 -51.5t88 -67.5t88 -84t67.5 -104.5t27 -126q0 -79 -38 -141 t-102.5 -100t-145 -57.5t-171.5 -19.5q-23 0 -39.5 1t-33.5 2.5t-29 2.5v123q95 2 161.5 10.5t121 30t81.5 60t27 96.5q0 55 -26 107.5t-65 90.5t-84 75.5t-84 65.5t-65 57.5t-26 53.5q0 23 25 54t60 65.5t70.5 76t60.5 101t25 125.5q0 64 -22.5 111.5t-59.5 73.5t-78 38.5 t-85 12.5q-105 0 -164.5 -65t-59.5 -164v-1453h-176v1178h-151z" />
<glyph unicode="&#xe0;" horiz-adv-x="983" d="M49 270q0 81 38.5 145t98.5 103t142 64.5t159.5 35.5t161.5 11q0 135 -52.5 183t-166.5 48q-135 0 -264 -90l-27 150q62 47 152.5 75.5t187.5 28.5q130 0 206 -45t112.5 -149.5t36.5 -286.5v-205q0 -120 20 -165.5t94 -45.5h19l-29 -147h-14q-65 0 -109 9t-72 30 t-43.5 44.5t-33.5 63.5q-127 -147 -308 -147q-138 0 -223.5 81.5t-85.5 208.5zM238 281q0 -79 41.5 -116.5t113.5 -37.5q73 0 142.5 36.5t113.5 98.5v240q-221 -8 -316 -58.5t-95 -162.5zM299 1352v147l383 -194v-84z" />
<glyph unicode="&#xe1;" horiz-adv-x="983" d="M49 270q0 81 38.5 145t98.5 103t142 64.5t159.5 35.5t161.5 11q0 135 -52.5 183t-166.5 48q-135 0 -264 -90l-27 150q62 47 152.5 75.5t187.5 28.5q130 0 206 -45t112.5 -149.5t36.5 -286.5v-205q0 -120 20 -165.5t94 -45.5h19l-29 -147h-14q-65 0 -109 9t-72 30 t-43.5 44.5t-33.5 63.5q-127 -147 -308 -147q-138 0 -223.5 81.5t-85.5 208.5zM238 281q0 -79 41.5 -116.5t113.5 -37.5q73 0 142.5 36.5t113.5 98.5v240q-221 -8 -316 -58.5t-95 -162.5zM299 1221v84l383 194v-147z" />
<glyph unicode="&#xe2;" horiz-adv-x="983" d="M49 270q0 81 38.5 145t98.5 103t142 64.5t159.5 35.5t161.5 11q0 135 -52.5 183t-166.5 48q-135 0 -264 -90l-27 150q62 47 152.5 75.5t187.5 28.5q130 0 206 -45t112.5 -149.5t36.5 -286.5v-205q0 -120 20 -165.5t94 -45.5h19l-29 -147h-14q-65 0 -109 9t-72 30 t-43.5 44.5t-33.5 63.5q-127 -147 -308 -147q-138 0 -223.5 81.5t-85.5 208.5zM190 1235v74l302 217l301 -217v-74l-301 168zM238 281q0 -79 41.5 -116.5t113.5 -37.5q73 0 142.5 36.5t113.5 98.5v240q-221 -8 -316 -58.5t-95 -162.5z" />
<glyph unicode="&#xe3;" horiz-adv-x="983" d="M49 270q0 81 38.5 145t98.5 103t142 64.5t159.5 35.5t161.5 11q0 135 -52.5 183t-166.5 48q-135 0 -264 -90l-27 150q62 47 152.5 75.5t187.5 28.5q130 0 206 -45t112.5 -149.5t36.5 -286.5v-205q0 -120 20 -165.5t94 -45.5h19l-29 -147h-14q-65 0 -109 9t-72 30 t-43.5 44.5t-33.5 63.5q-127 -147 -308 -147q-138 0 -223.5 81.5t-85.5 208.5zM129 1249q23 93 85 139t126 46q44 0 148 -50.5t139 -50.5q47 0 80 26t61 79l70 -19q-23 -89 -83 -140.5t-137 -51.5q-39 0 -138.5 52t-131.5 52q-107 0 -145 -100zM238 281q0 -79 41.5 -116.5 t113.5 -37.5q73 0 142.5 36.5t113.5 98.5v240q-221 -8 -316 -58.5t-95 -162.5z" />
<glyph unicode="&#xe4;" horiz-adv-x="983" d="M49 270q0 81 38.5 145t98.5 103t142 64.5t159.5 35.5t161.5 11q0 135 -52.5 183t-166.5 48q-135 0 -264 -90l-27 150q62 47 152.5 75.5t187.5 28.5q130 0 206 -45t112.5 -149.5t36.5 -286.5v-205q0 -120 20 -165.5t94 -45.5h19l-29 -147h-14q-65 0 -109 9t-72 30 t-43.5 44.5t-33.5 63.5q-127 -147 -308 -147q-138 0 -223.5 81.5t-85.5 208.5zM238 281q0 -79 41.5 -116.5t113.5 -37.5q73 0 142.5 36.5t113.5 98.5v240q-221 -8 -316 -58.5t-95 -162.5zM238 1229v205h143v-205h-143zM602 1229v205h143v-205h-143z" />
<glyph unicode="&#xe5;" horiz-adv-x="983" d="M49 270q0 81 38.5 145t98.5 103t142 64.5t159.5 35.5t161.5 11q0 135 -52.5 183t-166.5 48q-135 0 -264 -90l-27 150q62 47 152.5 75.5t187.5 28.5q130 0 206 -45t112.5 -149.5t36.5 -286.5v-205q0 -120 20 -165.5t94 -45.5h19l-29 -147h-14q-65 0 -109 9t-72 30 t-43.5 44.5t-33.5 63.5q-127 -147 -308 -147q-138 0 -223.5 81.5t-85.5 208.5zM238 281q0 -79 41.5 -116.5t113.5 -37.5q73 0 142.5 36.5t113.5 98.5v240q-221 -8 -316 -58.5t-95 -162.5zM279 1362q0 75 57 129.5t156 54.5q100 0 156.5 -54t56.5 -130t-55.5 -129t-157.5 -53 q-101 0 -157 53.5t-56 128.5zM369 1362q0 -55 36.5 -89t86.5 -34q49 0 85.5 34t36.5 89q0 53 -35.5 87t-86.5 34t-87 -34t-36 -87z" />
<glyph unicode="&#xe6;" horiz-adv-x="1634" d="M45 242q0 65 21.5 119t57 92t86.5 68t104.5 48.5t117 31.5t117.5 19t113 9q-19 125 -73.5 178t-168.5 53t-250 -59l-16 143q174 80 319 80q32 0 66.5 -5.5t78 -22t78.5 -42.5t63.5 -71.5t39.5 -104.5q28 87 91 144t136 79.5t156 22.5q178 0 284.5 -108t106.5 -302 q0 -46 -8 -112h-688q0 -183 92 -279t245 -96q47 0 94 11t78 23t103 42l35 -142q-88 -40 -164.5 -60.5t-169.5 -20.5q-306 0 -412 231q-53 -117 -166.5 -178.5t-259.5 -61.5q-151 0 -229 72t-78 199zM233 258q0 -68 43.5 -99.5t116.5 -31.5q41 0 80.5 9t78 30t67 52t46 79.5 t17.5 108.5q0 59 -4 96q-76 0 -150.5 -13t-142.5 -40t-110 -76.5t-42 -114.5zM893 629h504q0 231 -223 231q-220 0 -281 -231z" />
<glyph unicode="&#xe7;" horiz-adv-x="929" d="M68 504q0 111 31 205t91.5 164.5t156.5 110.5t218 40q204 0 309 -59l-28 -166q-125 61 -260 61q-164 0 -247 -92.5t-83 -263.5q0 -169 83.5 -266t246.5 -97q135 0 262 62l24 -148q-113 -75 -305 -75q-122 0 -218.5 42t-157 115t-92 166.5t-31.5 200.5zM393 -393l139 270 l136 12l-181 -272z" />
<glyph unicode="&#xe8;" horiz-adv-x="1048" d="M63 510q0 142 57 257.5t170.5 186t264.5 70.5q192 0 312 -113t120 -311q0 -51 -8 -98h-727q35 -359 377 -359q157 0 289 60l24 -146q-172 -77 -336 -77q-129 0 -233.5 42t-171.5 115t-102.5 168.5t-35.5 204.5zM268 629h529q0 109 -61.5 170t-184.5 61q-119 0 -186.5 -59 t-96.5 -172zM332 1352v147l383 -194v-84z" />
<glyph unicode="&#xe9;" horiz-adv-x="1048" d="M63 510q0 142 57 257.5t170.5 186t264.5 70.5q192 0 312 -113t120 -311q0 -51 -8 -98h-727q35 -359 377 -359q157 0 289 60l24 -146q-172 -77 -336 -77q-129 0 -233.5 42t-171.5 115t-102.5 168.5t-35.5 204.5zM268 629h529q0 109 -61.5 170t-184.5 61q-119 0 -186.5 -59 t-96.5 -172zM332 1221v84l383 194v-147z" />
<glyph unicode="&#xea;" horiz-adv-x="1048" d="M63 510q0 142 57 257.5t170.5 186t264.5 70.5q192 0 312 -113t120 -311q0 -51 -8 -98h-727q35 -359 377 -359q157 0 289 60l24 -146q-172 -77 -336 -77q-129 0 -233.5 42t-171.5 115t-102.5 168.5t-35.5 204.5zM221 1235v74l301 217l301 -217v-74l-301 168zM268 629h529 q0 109 -61.5 170t-184.5 61q-119 0 -186.5 -59t-96.5 -172z" />
<glyph unicode="&#xeb;" horiz-adv-x="1048" d="M63 510q0 142 57 257.5t170.5 186t264.5 70.5q192 0 312 -113t120 -311q0 -51 -8 -98h-727q35 -359 377 -359q157 0 289 60l24 -146q-172 -77 -336 -77q-129 0 -233.5 42t-171.5 115t-102.5 168.5t-35.5 204.5zM268 629h529q0 109 -61.5 170t-184.5 61q-119 0 -186.5 -59 t-96.5 -172zM268 1229v205h144v-205h-144zM633 1229v205h143v-205h-143z" />
<glyph unicode="&#xec;" horiz-adv-x="434" d="M27 1352v147l383 -194v-84zM125 0v1004h184v-1004h-184z" />
<glyph unicode="&#xed;" horiz-adv-x="434" d="M27 1221v84l383 194v-147zM125 0v1004h184v-1004h-184z" />
<glyph unicode="&#xee;" horiz-adv-x="434" d="M-84 1235v74l301 217l301 -217v-74l-301 168zM125 0v1004h184v-1004h-184z" />
<glyph unicode="&#xef;" horiz-adv-x="434" d="M-37 1229v205h143v-205h-143zM125 0v1004h184v-1004h-184zM328 1229v205h143v-205h-143z" />
<glyph unicode="&#xf0;" horiz-adv-x="1058" d="M57 412q0 64 15.5 127.5t50 124t84 106.5t122.5 74t160 28q94 0 165 -33.5t112 -78.5q-13 100 -63 217.5t-113 169.5q-154 -110 -289 -127l-61 113q129 18 262 106q-123 111 -248 111l65 86q146 0 306 -113q63 56 120 131l95 -24q-43 -63 -142 -173 q132 -122 212.5 -321.5t80.5 -409.5q0 -126 -31 -225.5t-80 -159t-114.5 -98.5t-128 -53.5t-127.5 -14.5q-194 0 -323.5 124.5t-129.5 312.5zM262 430q0 -121 70.5 -203t185.5 -82q109 0 177.5 79t68.5 202t-66.5 199.5t-177.5 76.5q-117 0 -187.5 -80.5t-70.5 -191.5z" />
<glyph unicode="&#xf1;" horiz-adv-x="1144" d="M125 0v1004h143l21 -107q143 127 332 127q409 0 409 -471v-553h-184v553q0 162 -60.5 234.5t-201.5 72.5q-91 0 -164.5 -33t-110.5 -98v-729h-184zM217 1249q23 93 85 139t126 46q44 0 148 -50.5t139 -50.5q47 0 80 26t61 79l70 -19q-23 -89 -82.5 -140.5t-136.5 -51.5 q-39 0 -139 52t-132 52q-107 0 -145 -100z" />
<glyph unicode="&#xf2;" horiz-adv-x="1126" d="M66 502q0 109 34 204t96 166t157 111.5t210 40.5q152 0 266.5 -70t173 -187.5t58.5 -264.5t-58.5 -264.5t-173 -187.5t-266.5 -70q-115 0 -210 40.5t-157 111.5t-96 166t-34 204zM254 502q0 -170 80.5 -264.5t228.5 -94.5t228.5 94.5t80.5 264.5t-80.5 264t-228.5 94 t-228.5 -94t-80.5 -264zM371 1352v147l383 -194v-84z" />
<glyph unicode="&#xf3;" horiz-adv-x="1126" d="M66 502q0 109 34 204t96 166t157 111.5t210 40.5q152 0 266.5 -70t173 -187.5t58.5 -264.5t-58.5 -264.5t-173 -187.5t-266.5 -70q-115 0 -210 40.5t-157 111.5t-96 166t-34 204zM254 502q0 -170 80.5 -264.5t228.5 -94.5t228.5 94.5t80.5 264.5t-80.5 264t-228.5 94 t-228.5 -94t-80.5 -264zM371 1221v84l383 194v-147z" />
<glyph unicode="&#xf4;" horiz-adv-x="1126" d="M66 502q0 109 34 204t96 166t157 111.5t210 40.5q152 0 266.5 -70t173 -187.5t58.5 -264.5t-58.5 -264.5t-173 -187.5t-266.5 -70q-115 0 -210 40.5t-157 111.5t-96 166t-34 204zM254 502q0 -170 80.5 -264.5t228.5 -94.5t228.5 94.5t80.5 264.5t-80.5 264t-228.5 94 t-228.5 -94t-80.5 -264zM262 1235v74l301 217l301 -217v-74l-301 168z" />
<glyph unicode="&#xf5;" horiz-adv-x="1126" d="M66 502q0 109 34 204t96 166t157 111.5t210 40.5q152 0 266.5 -70t173 -187.5t58.5 -264.5t-58.5 -264.5t-173 -187.5t-266.5 -70q-115 0 -210 40.5t-157 111.5t-96 166t-34 204zM209 1249q23 93 85 139t126 46q44 0 148 -50.5t139 -50.5q47 0 80 26t61 79l70 -19 q-23 -89 -83 -140.5t-137 -51.5q-39 0 -138.5 52t-131.5 52q-107 0 -145 -100zM254 502q0 -170 80.5 -264.5t228.5 -94.5t228.5 94.5t80.5 264.5t-80.5 264t-228.5 94t-228.5 -94t-80.5 -264z" />
<glyph unicode="&#xf6;" horiz-adv-x="1126" d="M66 502q0 109 34 204t96 166t157 111.5t210 40.5q152 0 266.5 -70t173 -187.5t58.5 -264.5t-58.5 -264.5t-173 -187.5t-266.5 -70q-115 0 -210 40.5t-157 111.5t-96 166t-34 204zM254 502q0 -170 80.5 -264.5t228.5 -94.5t228.5 94.5t80.5 264.5t-80.5 264t-228.5 94 t-228.5 -94t-80.5 -264zM309 1229v205h144v-205h-144zM674 1229v205h143v-205h-143z" />
<glyph unicode="&#xf7;" horiz-adv-x="1212" d="M135 502v151h942v-151h-942zM506 41v192h182v-192h-182zM506 901v193h182v-193h-182z" />
<glyph unicode="&#xf8;" horiz-adv-x="1167" d="M68 510q0 145 60 263.5t179 190.5t277 72q73 0 172 -24l39 82h151l-69 -136q227 -172 227 -450q0 -145 -60 -263t-179.5 -189.5t-278.5 -71.5q-72 0 -176 22l-39 -78h-146l66 135q-223 166 -223 447zM266 508q0 -71 20 -139.5t74 -163.5l330 674q-82 14 -108 14 q-148 0 -232 -108.5t-84 -276.5zM475 139q86 -12 113 -12q149 0 233 108t84 273q0 89 -23 180t-73 127z" />
<glyph unicode="&#xf9;" horiz-adv-x="1073" d="M115 420v584h184v-533q0 -164 55.5 -246t177.5 -82q73 0 135 29t97 86v746h184v-1004h-164l-20 111q-48 -67 -115 -99t-164 -32q-180 0 -275 109t-95 331zM379 1352v147l383 -194v-84z" />
<glyph unicode="&#xfa;" horiz-adv-x="1073" d="M115 420v584h184v-533q0 -164 55.5 -246t177.5 -82q73 0 135 29t97 86v746h184v-1004h-164l-20 111q-48 -67 -115 -99t-164 -32q-180 0 -275 109t-95 331zM379 1221v84l383 194v-147z" />
<glyph unicode="&#xfb;" horiz-adv-x="1073" d="M115 420v584h184v-533q0 -164 55.5 -246t177.5 -82q73 0 135 29t97 86v746h184v-1004h-164l-20 111q-48 -67 -115 -99t-164 -32q-180 0 -275 109t-95 331zM270 1235v74l301 217l301 -217v-74l-301 168z" />
<glyph unicode="&#xfc;" horiz-adv-x="1073" d="M115 420v584h184v-533q0 -164 55.5 -246t177.5 -82q73 0 135 29t97 86v746h184v-1004h-164l-20 111q-48 -67 -115 -99t-164 -32q-180 0 -275 109t-95 331zM317 1229v205h144v-205h-144zM682 1229v205h143v-205h-143z" />
<glyph unicode="&#xfd;" horiz-adv-x="1034" d="M14 1004h205l313 -746l283 746h205l-614 -1500h-205l231 541zM324 1221v84l383 194v-147z" />
<glyph unicode="&#xfe;" horiz-adv-x="1187" d="M123 -494v2030h184v-639q127 127 324 127q113 0 206.5 -41.5t155 -113t95.5 -166.5t34 -201t-33.5 -200t-95.5 -166t-159 -114t-216 -42q-209 0 -311 135v-609h-184zM293 502q0 -80 17.5 -146.5t53 -118.5t96.5 -81t142 -29q159 0 246.5 104t87.5 271q0 164 -86.5 261 t-247.5 97q-159 0 -234 -96.5t-75 -261.5z" />
<glyph unicode="&#xff;" horiz-adv-x="1034" d="M14 1004h205l313 -746l283 746h205l-614 -1500h-205l231 541zM260 1229v205h143v-205h-143zM625 1229v205h143v-205h-143z" />
<glyph unicode="&#x152;" horiz-adv-x="2193" d="M82 717q0 168 52 308t143.5 235.5t219.5 148.5t277 53q128 0 245 -45t259 -153v168h821v-175h-635v-419h488v-176h-488v-486h654v-176h-840v170q-142 -108 -259.5 -153.5t-244.5 -45.5q-149 0 -277 53t-219.5 149t-143.5 236t-52 308zM287 717q0 -122 30.5 -225 t89.5 -180.5t153 -121t214 -43.5q119 0 213 43.5t153 121t89.5 180.5t30.5 225t-30.5 225t-89.5 180t-153 120.5t-213 43.5q-120 0 -214 -43.5t-153 -120.5t-89.5 -180t-30.5 -225z" />
<glyph unicode="&#x153;" horiz-adv-x="1847" d="M66 512q0 146 59 261t176.5 183t276.5 68q123 0 235.5 -54t155.5 -155q55 101 163 155t218 54q197 0 316.5 -111.5t119.5 -306.5q0 -57 -8 -104h-703q0 -92 23 -162t57 -109.5t80 -64t85 -32t79 -7.5q169 0 317 76l21 -158q-141 -65 -314 -65q-189 0 -294 54t-152 165 q-44 -103 -158 -161t-250 -58q-153 0 -269 72t-175 191.5t-59 268.5zM254 502q0 -171 81.5 -265t239.5 -94q153 0 232.5 101.5t79.5 263.5q0 158 -81.5 255t-227.5 97q-158 0 -241 -93.5t-83 -264.5zM1079 629h518q-9 110 -75 170.5t-174 60.5q-110 0 -176.5 -54.5 t-92.5 -176.5z" />
<glyph unicode="&#x178;" horiz-adv-x="1161" d="M-6 1434h205l381 -596l381 596h204l-483 -772v-662h-203v662zM352 1659v205h144v-205h-144zM717 1659v205h143v-205h-143z" />
<glyph unicode="&#x2c6;" horiz-adv-x="913" d="M156 1235v74l301 217l301 -217v-74l-301 168z" />
<glyph unicode="&#x2dc;" horiz-adv-x="1081" d="M188 1249q23 93 85 139t126 46q44 0 148.5 -50.5t138.5 -50.5q47 0 80 26t61 79l70 -19q-23 -89 -82.5 -140.5t-136.5 -51.5q-39 0 -138.5 52t-131.5 52q-108 0 -146 -100z" />
<glyph unicode="&#x2000;" horiz-adv-x="988" />
<glyph unicode="&#x2001;" horiz-adv-x="1976" />
<glyph unicode="&#x2002;" horiz-adv-x="988" />
<glyph unicode="&#x2003;" horiz-adv-x="1976" />
<glyph unicode="&#x2004;" horiz-adv-x="658" />
<glyph unicode="&#x2005;" horiz-adv-x="494" />
<glyph unicode="&#x2006;" horiz-adv-x="329" />
<glyph unicode="&#x2007;" horiz-adv-x="329" />
<glyph unicode="&#x2008;" horiz-adv-x="247" />
<glyph unicode="&#x2009;" horiz-adv-x="395" />
<glyph unicode="&#x200a;" horiz-adv-x="109" />
<glyph unicode="&#x2010;" horiz-adv-x="868" d="M117 487v177h635v-177h-635z" />
<glyph unicode="&#x2011;" horiz-adv-x="868" d="M117 487v177h635v-177h-635z" />
<glyph unicode="&#x2012;" horiz-adv-x="868" d="M117 487v177h635v-177h-635z" />
<glyph unicode="&#x2013;" horiz-adv-x="1028" d="M117 487v177h794v-177h-794z" />
<glyph unicode="&#x2014;" horiz-adv-x="1216" d="M117 487v177h983v-177h-983z" />
<glyph unicode="&#x2018;" horiz-adv-x="380" d="M88 1137v176l160 223l47 -27l-72 -178l70 -18v-176h-205z" />
<glyph unicode="&#x2019;" horiz-adv-x="346" d="M86 1163l72 178l-70 19v176h205v-176l-160 -223z" />
<glyph unicode="&#x201a;" horiz-adv-x="442" d="M117 -197l71 179l-69 18v176h205v-176l-160 -223z" />
<glyph unicode="&#x201c;" horiz-adv-x="811" d="M88 1137v176l160 223l47 -27l-72 -178l70 -18v-176h-205zM518 1137v176l160 223l47 -27l-72 -178l70 -18v-176h-205z" />
<glyph unicode="&#x201d;" horiz-adv-x="776" d="M86 1163l72 178l-70 19v176h205v-176l-160 -223zM516 1163l72 178l-70 19v176h205v-176l-160 -223z" />
<glyph unicode="&#x201e;" horiz-adv-x="913" d="M117 -197l71 179l-69 18v176h205v-176l-160 -223zM588 -197l71 179l-69 18v176h205v-176l-160 -223z" />
<glyph unicode="&#x2022;" horiz-adv-x="626" d="M90 569q0 92 65.5 158t157.5 66t158 -66t66 -158t-66 -157.5t-158 -65.5t-157.5 65.5t-65.5 157.5z" />
<glyph unicode="&#x2026;" horiz-adv-x="1384" d="M117 0v176h184v-176h-184zM600 0v176h184v-176h-184zM1083 0v176h185v-176h-185z" />
<glyph unicode="&#x202f;" horiz-adv-x="395" />
<glyph unicode="&#x2039;" horiz-adv-x="659" d="M29 582l325 422h224l-326 -422l326 -422h-224z" />
<glyph unicode="&#x203a;" horiz-adv-x="661" d="M84 160l326 422l-326 422h223l326 -422l-326 -422h-223z" />
<glyph unicode="&#x205f;" horiz-adv-x="494" />
<glyph unicode="&#x20ac;" horiz-adv-x="1439" d="M68 440l49 142h202q-8 76 -8 135v49h-182l45 131h156q58 235 228 368.5t405 133.5q208 0 360 -70l-25 -201q-184 78 -335 78q-301 0 -394 -309h529l-49 -131h-500v-49q0 -69 10 -135h498l-49 -142h-406q63 -110 151 -161.5t210 -51.5q151 0 335 78l25 -201 q-150 -69 -360 -69q-208 0 -368.5 106.5t-238.5 298.5h-288z" />
<glyph unicode="&#x2122;" horiz-adv-x="1488" d="M63 1331v103h531l-12 -103h-205v-641h-105v641h-209zM627 690l96 744h59l215 -367l213 367h60l98 -744h-111l-63 549l-193 -332h-12l-188 334l-68 -551h-106z" />
<glyph unicode="&#xe000;" horiz-adv-x="1003" d="M0 0v1004h1004v-1004h-1004z" />
</font>
</defs></svg> 