<?xml version="1.0" encoding="utf-8"?>
<!-- Generator: Adobe Illustrator 18.1.1, SVG Export Plug-In . SVG Version: 6.00 Build 0)  -->
<!DOCTYPE svg PUBLIC "-//W3C//DTD SVG 1.1//EN" "http://www.w3.org/Graphics/SVG/1.1/DTD/svg11.dtd">
<svg version="1.1" id="Layer_1" xmlns="http://www.w3.org/2000/svg" xmlns:xlink="http://www.w3.org/1999/xlink" x="0px" y="0px"
	 width="35px" height="35px" viewBox="-288 379 35 35" enable-background="new -288 379 35 35" xml:space="preserve">
<g>
	<g>
		<defs>
			<rect id="SVGID_1_" x="-288" y="379" width="35" height="35"/>
		</defs>
		<clipPath id="SVGID_2_">
			<use xlink:href="#SVGID_1_"  overflow="visible"/>
		</clipPath>
		<path clip-path="url(#SVGID_2_)" fill="#666766" d="M-282.7,406.2h9.4l0,0c1.1,1.3,1.6,3.2,1.6,3.3c0.1,0.4,0.4,0.6,0.7,0.6l0,0h0
			c0.4,0,0.7-0.2,0.7-0.6c0,0,0.5-2,1.6-3.3l0,0h10.2c1.3,0,2.4-1.1,2.4-2.4v-17.3c0-1.3-1.1-2.4-2.4-2.4H-270c0,0,0,0-0.1,0
			c-0.6,0.1-1.6,0.6-1.6,1.9v16.4c0,0.4,0.3,0.8,0.8,0.8s0.8-0.3,0.8-0.8V386c0-0.1,0-0.3,0.1-0.3l0,0h11.6c0.5,0,0.9,0.4,0.9,0.9
			v17.3c0,0.5-0.4,0.9-0.9,0.9h-10.5c-0.2,0-0.4,0.1-0.6,0.2c-0.5,0.5-1,1.2-1.4,2l-0.1,0.2l-0.1-0.2c-0.4-0.8-0.9-1.5-1.4-2.1
			c-0.1-0.1-0.3-0.2-0.5-0.2h-9.8c-0.5,0-0.9-0.4-0.9-0.9v-17.3c0-0.5,0.4-0.9,0.9-0.9h8.2c0.4,0,0.8-0.3,0.8-0.8
			c0-0.4-0.3-0.8-0.8-0.8h-8.2c-1.3,0-2.4,1.1-2.4,2.4v17.3C-285.1,405.2-284,406.2-282.7,406.2"/>
	</g>
	<g>
		<defs>
			<rect id="SVGID_3_" x="-288" y="379" width="35" height="35"/>
		</defs>
		<clipPath id="SVGID_4_">
			<use xlink:href="#SVGID_3_"  overflow="visible"/>
		</clipPath>
		<path clip-path="url(#SVGID_4_)" fill="#666766" d="M-267.9,389h8.4c0.3,0,0.6-0.3,0.6-0.6s-0.3-0.6-0.6-0.6h-8.4
			c-0.3,0-0.6,0.3-0.6,0.6S-268.2,389-267.9,389"/>
	</g>
	<g>
		<defs>
			<rect id="SVGID_5_" x="-288" y="379" width="35" height="35"/>
		</defs>
		<clipPath id="SVGID_6_">
			<use xlink:href="#SVGID_5_"  overflow="visible"/>
		</clipPath>
		<path clip-path="url(#SVGID_6_)" fill="#666766" d="M-267.9,391.8h8.4c0.3,0,0.6-0.3,0.6-0.6c0-0.3-0.3-0.6-0.6-0.6h-8.4
			c-0.3,0-0.6,0.3-0.6,0.6C-268.5,391.5-268.2,391.8-267.9,391.8"/>
	</g>
	<g>
		<defs>
			<rect id="SVGID_7_" x="-288" y="379" width="35" height="35"/>
		</defs>
		<clipPath id="SVGID_8_">
			<use xlink:href="#SVGID_7_"  overflow="visible"/>
		</clipPath>
		<path clip-path="url(#SVGID_8_)" fill="#666766" d="M-267.9,394.6h8.4c0.3,0,0.6-0.3,0.6-0.6s-0.3-0.6-0.6-0.6h-8.4
			c-0.3,0-0.6,0.3-0.6,0.6S-268.2,394.6-267.9,394.6"/>
	</g>
	<g>
		<defs>
			<rect id="SVGID_9_" x="-288" y="379" width="35" height="35"/>
		</defs>
		<clipPath id="SVGID_10_">
			<use xlink:href="#SVGID_9_"  overflow="visible"/>
		</clipPath>
		<path clip-path="url(#SVGID_10_)" fill="#666766" d="M-282.2,396.6c0,0.3,0.3,0.6,0.6,0.6h8.4c0.3,0,0.6-0.3,0.6-0.6
			s-0.3-0.6-0.6-0.6h-8.4C-282,396-282.2,396.3-282.2,396.6"/>
	</g>
	<g>
		<defs>
			<rect id="SVGID_11_" x="-288" y="379" width="35" height="35"/>
		</defs>
		<clipPath id="SVGID_12_">
			<use xlink:href="#SVGID_11_"  overflow="visible"/>
		</clipPath>
		<path clip-path="url(#SVGID_12_)" fill="#666766" d="M-273.3,398.8h-8.4c-0.3,0-0.6,0.3-0.6,0.6s0.3,0.6,0.6,0.6h8.4
			c0.3,0,0.6-0.3,0.6-0.6S-273,398.8-273.3,398.8"/>
	</g>
	<g>
		<defs>
			<rect id="SVGID_13_" x="-288" y="379" width="35" height="35"/>
		</defs>
		<clipPath id="SVGID_14_">
			<use xlink:href="#SVGID_13_"  overflow="visible"/>
		</clipPath>
		<path clip-path="url(#SVGID_14_)" fill="#666766" d="M-273.3,401.6h-8.4c-0.3,0-0.6,0.3-0.6,0.6s0.3,0.6,0.6,0.6h8.4
			c0.3,0,0.6-0.3,0.6-0.6S-273,401.6-273.3,401.6"/>
	</g>
</g>
</svg>
