<?xml version="1.0" encoding="utf-8"?>
<!-- Generator: Adobe Illustrator 18.1.1, SVG Export Plug-In . SVG Version: 6.00 Build 0)  -->
<!DOCTYPE svg PUBLIC "-//W3C//DTD SVG 1.1//EN" "http://www.w3.org/Graphics/SVG/1.1/DTD/svg11.dtd">
<svg version="1.1" id="Layer_1" xmlns="http://www.w3.org/2000/svg" xmlns:xlink="http://www.w3.org/1999/xlink" x="0px" y="0px"
	 width="35px" height="35px" viewBox="-288 379 35 35" enable-background="new -288 379 35 35" xml:space="preserve">
<g>
	<g>
		<defs>
			<rect id="SVGID_1_" x="-288" y="379" width="35" height="35"/>
		</defs>
		<clipPath id="SVGID_2_">
			<use xlink:href="#SVGID_1_"  overflow="visible"/>
		</clipPath>
		<path clip-path="url(#SVGID_2_)" fill="#666766" d="M-270.5,381.8c-8.1,0-14.7,6.6-14.7,14.7c0,8.1,6.6,14.7,14.7,14.7
			s14.7-6.6,14.7-14.7C-255.8,388.4-262.4,381.8-270.5,381.8 M-270,403.7c1.5,0.1,3,0.3,4.3,0.8c-1,2.4-2.4,4.2-4.1,5.1
			c0,0-0.1,0-0.1,0c0,0,0,0-0.1,0C-270,409.7-270,403.7-270,403.7z M-270,391.3c1.8-0.1,3.5-0.4,5-0.9c0.5,1.7,0.7,3.5,0.8,5.4h-5.8
			C-270,395.9-270,391.3-270,391.3z M-270,383.3c0,0,0.1,0,0.1,0c1.9,1,3.5,3.3,4.5,6.2c-1.4,0.5-3,0.8-4.7,0.9L-270,383.3
			C-270,383.3-270,383.3-270,383.3 M-264.8,404.9c1,0.4,2,1,2.8,1.7c-1.7,1.4-3.7,2.4-5.9,2.9C-266.6,408.3-265.6,406.8-264.8,404.9
			 M-270,397.1h5.8c-0.1,2.4-0.5,4.6-1.1,6.5c-1.4-0.5-3-0.7-4.6-0.8V397.1z M-264.4,404c0.7-2,1.2-4.4,1.2-6.8h5.9
			c-0.1,3-1.3,5.8-3.2,8c-0.2,0.2-0.4,0.4-0.6,0.7C-262.1,405.1-263.2,404.4-264.4,404 M-267.9,383.6c2.5,0.5,4.8,1.7,6.6,3.5
			c-0.9,0.8-1.9,1.5-3.1,2.1C-265.2,386.8-266.4,384.9-267.9,383.6 M-260.6,387.9c1.9,2.2,3.1,5.1,3.2,8h-5.9c0-2.1-0.4-4-0.9-5.8
			C-262.8,389.5-261.6,388.8-260.6,387.9 M-271.2,402.8c-1.6,0-3.2,0.3-4.6,0.8c-0.7-1.9-1.1-4.1-1.1-6.5h5.7V402.8z M-271.2,403.7
			v5.9c0,0,0,0-0.1,0c0,0,0,0-0.1,0c-1.7-0.9-3.1-2.8-4.1-5.2C-274.2,404-272.8,403.8-271.2,403.7 M-279.9,405.7
			c-0.2-0.2-0.4-0.4-0.6-0.6c-1.9-2.2-3-5-3.2-8h5.7c0.1,2.5,0.5,4.8,1.2,6.8C-277.9,404.4-279,405-279.9,405.7 M-276.4,404.8
			c0.8,1.9,1.8,3.4,3.1,4.5c-2.1-0.5-4.2-1.5-5.8-3C-278.3,405.8-277.4,405.3-276.4,404.8 M-271.2,390.4c-1.7-0.1-3.2-0.4-4.6-0.9
			c1-2.9,2.5-5.1,4.4-6.2c0,0,0,0,0.1,0c0,0,0.1,0,0.1,0V390.4z M-271.2,391.3v4.6h-5.7c0-1.9,0.3-3.8,0.8-5.4
			C-274.6,391-273,391.3-271.2,391.3 M-276.8,389.1c-1.1-0.5-2.1-1.2-3-2c1.8-1.8,4-3,6.4-3.5C-274.8,384.9-276,386.8-276.8,389.1
			 M-277.1,390.1c-0.5,1.8-0.8,3.7-0.9,5.8h-5.7c0.1-2.9,1.2-5.7,3.1-7.9C-279.5,388.8-278.4,389.5-277.1,390.1"/>
	</g>
</g>
</svg>
