<?xml version="1.0" encoding="utf-8"?>
<!-- Generator: Adobe Illustrator 18.1.0, SVG Export Plug-In . SVG Version: 6.00 Build 0)  -->
<!DOCTYPE svg PUBLIC "-//W3C//DTD SVG 1.1//EN" "http://www.w3.org/Graphics/SVG/1.1/DTD/svg11.dtd">
<svg version="1.1" id="Layer_1" xmlns="http://www.w3.org/2000/svg" xmlns:xlink="http://www.w3.org/1999/xlink" x="0px" y="0px"
	 viewBox="0 0 125.8 45.8" enable-background="new 0 0 125.8 45.8" xml:space="preserve">
<g>
	<defs>
		<rect id="SVGID_3_" x="-1.9" width="126.8" height="46.4"/>
	</defs>
	<clipPath id="SVGID_1_">
		<use xlink:href="#SVGID_3_"  overflow="visible"/>
	</clipPath>
	<path clip-path="url(#SVGID_1_)" fill="#FDB913" d="M47.3,14.1c1.6-1.4,3-3.2,4.8-4.8c1.8-1.6,4.5-2.3,7.5-2
		c2.4,0.3,5.2,0.8,7.2-0.6c0.2-0.2,0.3,0,0.1,0.1C66.8,7,66.9,7,66.8,7c-2.3,1.9-3.7,3.2-7,6c-1.3,1.1-3.2,1.7-5.1,1.7
		c-3.4,0-5.1,0-8.3,0c-0.2,0-0.1-0.1-0.1-0.1C46.6,14.6,47,14.3,47.3,14.1"/>
	<path clip-path="url(#SVGID_1_)" fill="#FDB913" d="M47.3,16.6c1.6,1.4,3,3.2,4.8,4.8c1.8,1.6,4.5,2.3,7.5,2
		c2.4-0.3,5.2-0.8,7.2,0.6c0.2,0.2,0.3,0,0.1-0.1c-0.1-0.1-0.1-0.1-0.2-0.1c-2.3-1.9-3.7-3.2-7-6c-1.3-1.1-3.1-1.7-5.1-1.7
		c-3.4,0-5.1,0-8.3,0c-0.2,0-0.1,0.1-0.1,0.1C46.6,16.1,47,16.4,47.3,16.6"/>
	<path clip-path="url(#SVGID_1_)" fill="#FDB913" d="M60.7,16.6c1.6,1.4,3,3.2,4.8,4.8c1.8,1.6,4.5,2.3,7.5,2
		c2.4-0.3,5.2-0.8,7.2,0.6c0.2,0.2,0.3,0,0.1-0.1c-0.1-0.1-0.1-0.1-0.2-0.1c-2.3-1.9-3.7-3.2-7-6c-1.3-1.1-3.1-1.7-5.1-1.7
		c-3.4,0-5.1,0-8.3,0c-0.2,0-0.1,0.1-0.1,0.1C60.1,16.1,60.5,16.4,60.7,16.6"/>
	<path clip-path="url(#SVGID_1_)" fill="#FDB913" d="M74.2,14.1c1.6-1.4,3-3.2,4.8-4.8c1.8-1.6,4.5-2.3,7.5-2
		c2.4,0.3,5.2,0.8,7.2-0.6c0.2-0.2,0.3,0,0.1,0.1C93.8,7,93.8,7,93.7,7c-2.3,1.9-3.7,3.2-7,6c-1.3,1.1-3.2,1.7-5.1,1.7
		c-3.4,0-5.1,0-8.3,0c-0.2,0-0.1-0.1-0.1-0.1C73.6,14.6,74,14.3,74.2,14.1"/>
	<path clip-path="url(#SVGID_1_)" fill="#FDB913" d="M74.2,16.6c1.6,1.4,3,3.2,4.8,4.8c1.8,1.6,4.5,2.3,7.5,2
		c2.4-0.3,5.2-0.8,7.2,0.6c0.2,0.2,0.3,0,0.1-0.1c-0.1-0.1-0.1-0.1-0.2-0.1c-2.3-1.9-3.7-3.2-7-6c-1.3-1.1-3.1-1.7-5.1-1.7
		c-3.4,0-5.1,0-8.3,0c-0.2,0-0.1,0.1-0.1,0.1C73.6,16.1,74,16.4,74.2,16.6"/>
	<path clip-path="url(#SVGID_1_)" fill="#FDB913" d="M87.7,14.1c1.6-1.4,3-3.2,4.8-4.8c1.8-1.6,4.5-2.3,7.5-2
		c2.4,0.3,5.2,0.8,7.2-0.6c0.2-0.2,0.3,0,0.1,0.1C107.2,7,107.3,7,107.2,7c-2.3,1.9-3.7,3.2-7,6c-1.3,1.1-3.2,1.7-5.1,1.7
		c-3.4,0-5.1,0-8.3,0c-0.2,0-0.1-0.1,0-0.1C87,14.6,87.4,14.3,87.7,14.1"/>
	<path clip-path="url(#SVGID_1_)" fill="#FDB913" d="M87.7,16.6c1.6,1.4,3,3.2,4.8,4.8c1.8,1.6,4.5,2.3,7.5,2
		c2.4-0.3,5.2-0.8,7.2,0.6c0.2,0.2,0.3,0,0.1-0.1c-0.1-0.1-0.1-0.1-0.2-0.1c-2.3-1.9-3.7-3.2-7-6C98.8,16.5,97,16,95,16
		c-3.4,0-5.1,0-8.3,0c-0.2,0-0.1,0.1,0,0.1C87,16.1,87.4,16.4,87.7,16.6"/>
	<path clip-path="url(#SVGID_1_)" fill="#FDB913" d="M60.7,14.1c1.6-1.4,3-3.2,4.8-4.8C67.4,7.7,70,7,73,7.3
		c2.4,0.3,5.2,0.8,7.2-0.6c0.2-0.2,0.3,0,0.1,0.1C80.3,7,80.3,7,80.2,7c-2.3,1.9-3.7,3.2-7,6c-1.3,1.1-3.2,1.7-5.1,1.7
		c-3.4,0-5.1,0-8.3,0c-0.2,0-0.1-0.1-0.1-0.1C60.1,14.6,60.5,14.3,60.7,14.1"/>
	<path clip-path="url(#SVGID_1_)" fill="#FDB913" d="M98.4,15.4c0.4-0.2,0.9-0.5,1.3-0.9c3.1-2.3,4.3-3.9,7.7-4.2
		c4-0.3,6,2.8,9.5,4.2c1,0.4,2,0.7,3.1,0.8c-1.1,0.1-2.1,0.3-3.1,0.8c-3.4,1.4-5.4,4.6-9.5,4.2c-3.4-0.3-4.6-1.9-7.7-4.2
		C99.3,15.9,98.8,15.6,98.4,15.4"/>
	<path clip-path="url(#SVGID_1_)" fill="#FFFFFF" d="M4.1,9c0.1-0.3,0.3-0.8,0.7-1.3c1-1.1,2.1-1.1,3.7-1.1c0.3,0,0.3,0.2,0.3,0.2
		s0,12.6,0,13.9c0,0.9-0.9,1.4-1.6,1.6c0,0-0.3,0.2,0.1,0.2h7.9c0.4,0.1,0.2-0.2,0.2-0.2c-0.7-0.3-1.8-0.7-1.8-1.7V6.8
		c0,0-0.1-0.2,0.3-0.2c1.5,0,3.5-0.1,3.5,1c0,3.7,0,8.4,0,13.1c0,0.9-0.6,1.5-1.3,1.6c-0.2,0.1-0.1,0.2,0.2,0.2c2.4,0,4.3,0,6.7,0
		c0.4,0,0.4-0.1,0.1-0.2c-0.6-0.2-1.2-0.6-1.2-1.6l0-5.8c0-1,0.4-1.3,0.7-1.6c0.6-0.5,1.5-0.5,2.1-0.2c0.8,0.4,0.9,1.3,0.9,1.9v5.8
		c0,1-0.5,1.4-1.1,1.6c-0.1,0-0.2,0.3,0.1,0.2c2.4,0,5-0.1,6.8,0c0.3,0,0.3-0.1,0.1-0.2c-0.6-0.3-1.3-0.7-1.3-1.6c0-2.3,0-3.9,0-6.1
		c0-1.9-1.4-3.2-2.5-3.6c-1.9-0.7-4.2,0.1-5.6,1.7c0,0.1-0.2,0.2-0.2-0.1V5.4c0-0.5-0.1-0.3-0.4-0.4C16.4,5.3,11.3,5.4,5.4,5.4
		C4.4,5.4,4,5,4,5.5C3.9,6.7,3.9,7.7,3.9,9C3.9,9.3,4,9.2,4.1,9"/>
	<path clip-path="url(#SVGID_1_)" fill="#FFFFFF" d="M75.3,32.4c-0.3-0.3-0.4-1-0.1-1.4c0.3-0.4,0.9-0.7,1.5-0.7
		c1.6,0,2.6,1.6,3.2,2.8c0.1,0.1,0.3,0.1,0.3-0.1c0-0.5,0-2.3,0-3c0-0.8-0.6,0.1-1.2,0c-1.8-0.3-3.6-1-5.9,0.2
		c-1.1,0.6-1.9,1.9-1.7,3.4c0.6,3.3,4,2.7,5.5,4.8c0.3,0.4,0.3,1.1,0.1,1.4c-0.2,0.4-0.6,0.9-1.2,1c-1.7,0.3-3-1.8-3.7-3.3
		c-0.3-0.6-0.5-0.4-0.5-0.1c-0.1,1.2,0,2.5,0,3.7c0,0.2,0.1,0.3,0.3,0.2c0.5-0.4,0.9-0.5,1.9-0.2c2.2,0.6,4.4,0.8,6.2-1.2
		c0.7-0.7,0.8-2,0.6-3.4C80.1,33.9,77,34.1,75.3,32.4"/>
	<path clip-path="url(#SVGID_1_)" fill="#FFFFFF" d="M37.3,11.8c1.2,0,2,1.5,2,3.3h-3.9C35.3,13.4,36.1,11.8,37.3,11.8 M37.3,23
		c2.8,0,5.6-2.2,6-4c0.1-0.3-0.2-0.2-0.3,0c-1.1,1.7-2.7,2.1-3.5,2c-1.5,0-2.5-0.5-3.3-1.8c-0.7-1.1-0.7-3.4-0.7-3.4s5.4,0,7.9,0
		c0.2,0,0.2-0.1,0.2-0.1c-0.5-2.9-3.1-5-6.2-5c-3.5,0-6.4,2.7-6.4,6.1C30.9,20.3,33.8,23,37.3,23"/>
	<path clip-path="url(#SVGID_1_)" fill="#FFFFFF" d="M55,30.5c1.2,0,2,1.5,2,3.3H53C52.9,32.1,53.8,30.5,55,30.5 M60.5,37.8
		c-1.1,1.7-2.7,2.1-3.5,2c-1.5,0-2.5-0.5-3.3-1.8C53,36.9,53,34.7,53,34.7s5.4,0,7.9,0c0.2,0,0.2-0.1,0.2-0.1c-0.5-2.9-3.1-5-6.2-5
		c-3.5,0-6.4,2.7-6.4,6.1c0,3.4,2.8,6.1,6.4,6.1c2.8,0,5.6-2.2,6-4C60.9,37.5,60.7,37.6,60.5,37.8"/>
	<path clip-path="url(#SVGID_1_)" fill="#FFFFFF" d="M43.4,39.5c0,0.5-0.2,0.8-0.6,1c-0.8,0.3-2-0.1-2.7-0.9
		c-1.5-1.7-1.9-5.1-0.9-7.3c0.7-1.7,2.4-1.9,3.5-1c0.4,0.3,0.8,0.7,0.8,1.3V39.5z M49.3,41.2c-0.6-0.3-1.3-0.7-1.3-1.6
		c0-2.3,0-14.5,0-16.6c0,0,0-0.4-0.4-0.3c-0.5,0.1-5.8,0.4-6,0.5c-0.3,0.1-0.1,0.2,0.1,0.3c0.2,0,1.8,0.1,1.7,1.1c0,1.7,0,4.4,0,5.9
		c0,0.3-0.2,0.2-0.2,0.1c-0.9-0.5-1.9-0.7-3-0.7c-3.4,0-6.2,2.7-6.2,5.9c0,3.3,2.8,5.7,6.2,5.7c2.4,0,7.2-0.1,9,0
		C49.5,41.4,49.5,41.2,49.3,41.2"/>
	<path clip-path="url(#SVGID_1_)" fill="#FFFFFF" d="M8,34.2l1.9-5.4l1.9,5.4H8z M34.9,41.2c-0.6-0.3-1.3-0.7-1.3-1.6
		c0-2.3,0-3.9,0-6.1c0-1.9-1.5-3.2-2.5-3.6c-1.9-0.7-4.2,0.1-5.6,1.7c0,0.1-0.2,0.2-0.2-0.1v-0.3V31v-0.8c0-0.5-0.1-0.3-0.4-0.4
		c-2.2,0.1-3.5,0.2-4.9,0.3c-0.5,0-0.4,0.3-0.1,0.4c0.6,0.2,0.8,1.4,0.8,1.8c0,3.7,0,2.6,0,7.2c0,0.4,0,1-0.5,1.1
		c-0.6,0.1-1.1-0.7-1.3-1.2c-1.8-5.2-3.4-9.7-5.3-14.8c-0.1-0.2-0.2-0.3-0.7-0.3c-0.8,0-1.9,0-2.6,0c-0.4,0-0.4,0-0.5,0.2
		c-0.7,2.1-3.7,10.7-5.1,15c-0.4,0.8-0.5,1.2-1.5,1.6c-0.1,0.1-0.2,0.2,0.1,0.2h4.4c0.3,0,0.2-0.1,0.1-0.2c-1.6-0.4-1.6-1.5-1.4-2.4
		l1.1-3.1h4.8l1.4,3.9c0.2,0.7-0.2,1.4-1.5,1.6c-0.1,0-0.1,0.2,0.2,0.2c3.3,0,12,0,14,0c0.4,0,0.3-0.1,0-0.2
		c-0.6-0.2-1.2-0.6-1.2-1.6l0-5.8c0-1,0.4-1.3,0.7-1.6c0.6-0.5,1.5-0.5,2.1-0.2c0.8,0.4,0.9,1.3,0.9,1.9v5.8c0,1-0.5,1.4-1.1,1.6
		c-0.1,0-0.2,0.3,0.1,0.2c2.4,0,5,0,6.8,0C35.1,41.4,35.1,41.2,34.9,41.2"/>
	<path clip-path="url(#SVGID_1_)" fill="#FFFFFF" d="M70.2,29.6c-1.9-0.6-2.6,1.1-3.8,2.7c0,0.1-0.2,0.2-0.2-0.1v-2
		c0-0.5-0.1-0.3-0.4-0.4c-2.2,0.1-3.5,0.2-4.9,0.3c-0.5,0-0.4,0.3-0.1,0.4c0.6,0.2,0.8,1.4,0.8,1.8c0,3.7,0,2.6,0,7.2
		c0,0.4-0.2,1.3-0.8,1.6c-0.1,0.1-0.4,0.2,0,0.2c0.2,0,4,0,6.6,0c0.3,0,0.3-0.1,0-0.2c-0.6-0.2-1.2-0.6-1.2-1.6l0-4.9
		c0-1,0.4-1.3,0.7-1.6c0.6-0.5,1.5-0.5,2.1-0.2c0.8,0.4,1.5,1.5,1.6,0.9l0.7-3.5C71.4,30,71.1,29.9,70.2,29.6"/>
	<path clip-path="url(#SVGID_1_)" fill="#FFFFFF" d="M88.5,40.6c-1.5,0-2.8-2.3-2.8-5.1c0-2.8,1.2-5.1,2.8-5.1
		c1.5,0,2.8,2.3,2.8,5.1C91.3,38.3,90,40.6,88.5,40.6 M88.5,29.2c-4.1,0-7.4,2.8-7.4,6.3c0,3.5,3.3,6.3,7.4,6.3
		c4.1,0,7.4-2.8,7.4-6.3C95.9,32.1,92.6,29.2,88.5,29.2"/>
	<path clip-path="url(#SVGID_1_)" fill="#FFFFFF" d="M119.3,36.7c-0.5-2.8-3.6-2.6-5.3-4.2c-0.3-0.3-0.4-1-0.1-1.4
		c0.3-0.4,0.9-0.7,1.5-0.7c1.6,0,2.6,1.6,3.2,2.8c0.1,0.1,0.3,0.1,0.3-0.1c0-0.5,0-2.3,0-3c0-0.8-0.6,0.1-1.2,0
		c-1.8-0.3-3.6-1-5.9,0.2c-1.1,0.6-1.9,1.9-1.7,3.4c0.6,3.3,4,2.7,5.5,4.8c0.3,0.4,0.3,1.1,0.1,1.4c-0.2,0.4-0.6,0.9-1.2,1
		c-1.7,0.3-3-1.8-3.7-3.3c-0.3-0.6-0.5-0.4-0.5-0.1c-0.1,1.1,0,2.5,0,3.2c-0.1,0.7-1.2-0.1-1.2-1.1c0-2.3,0-3.9,0-6.1
		c0-1.9-1.5-3.2-2.5-3.6c-1.9-0.7-4.2,0.1-5.6,1.7c0,0.1-0.2,0.2-0.2-0.1v-0.3V31v-0.8c0-0.5-0.1-0.3-0.4-0.4
		c-2.2,0.1-3.5,0.2-4.9,0.3c-0.5,0-0.4,0.3-0.1,0.4c0.6,0.2,0.8,1.4,0.8,1.8c0,3.7,0,2.6,0,7.2c0,0.4-0.2,1.3-0.8,1.6
		c-0.1,0.1-0.4,0.2,0,0.2c0.2,0,4,0,6.6,0c0.3,0,0.3-0.2,0-0.2c-0.6-0.2-1.2-0.6-1.2-1.6l0-5.8c0-1,0.4-1.3,0.7-1.6
		c0.6-0.5,1.5-0.5,2.1-0.2c0.8,0.4,0.9,1.3,0.9,1.9v5.8c0,1-0.5,1.4-1.1,1.6c-0.1,0-0.2,0.3,0.1,0.2c2.2,0,4.6,0,6.3,0
		c0.2,0,0.6,0,0.9-0.1c0.8-0.3,0.8-0.3,1.7-0.1c2.2,0.6,4.4,0.8,6.2-1.2C119.4,39.3,119.6,38,119.3,36.7"/>
	<path clip-path="url(#SVGID_1_)" fill="#FFFFFF" d="M121.7,33.3c-0.2,0-0.5,0-0.7-0.1c-0.2-0.1-0.4-0.2-0.6-0.4
		c-0.2-0.2-0.3-0.3-0.4-0.6c-0.1-0.2-0.1-0.4-0.1-0.7v0c0-0.2,0-0.5,0.1-0.7c0.1-0.2,0.2-0.4,0.4-0.6c0.2-0.2,0.3-0.3,0.6-0.4
		c0.2-0.1,0.4-0.1,0.7-0.1c0.2,0,0.5,0,0.7,0.1c0.2,0.1,0.4,0.2,0.6,0.4c0.2,0.2,0.3,0.3,0.4,0.6c0.1,0.2,0.1,0.4,0.1,0.7v0
		c0,0.2,0,0.5-0.1,0.7c-0.1,0.2-0.2,0.4-0.4,0.6c-0.2,0.2-0.3,0.3-0.6,0.4C122.2,33.3,122,33.3,121.7,33.3 M121.7,33.1
		c0.2,0,0.4,0,0.6-0.1c0.2-0.1,0.4-0.2,0.5-0.3c0.1-0.1,0.2-0.3,0.3-0.5c0.1-0.2,0.1-0.4,0.1-0.6v0c0-0.2,0-0.4-0.1-0.6
		c-0.1-0.2-0.2-0.4-0.3-0.5c-0.1-0.1-0.3-0.3-0.5-0.3c-0.2-0.1-0.4-0.1-0.6-0.1c-0.2,0-0.4,0-0.6,0.1s-0.4,0.2-0.5,0.3
		c-0.1,0.1-0.2,0.3-0.3,0.5c-0.1,0.2-0.1,0.4-0.1,0.6v0c0,0.2,0,0.4,0.1,0.6c0.1,0.2,0.2,0.4,0.3,0.5c0.1,0.1,0.3,0.3,0.5,0.3
		C121.3,33.1,121.5,33.1,121.7,33.1 M121,30.6h0.9c0.1,0,0.3,0,0.4,0.1c0.1,0,0.2,0.1,0.3,0.2c0.1,0.1,0.2,0.3,0.2,0.4v0
		c0,0.1,0,0.3-0.1,0.4c-0.1,0.1-0.2,0.2-0.3,0.2l0.4,0.7h-0.6l-0.4-0.6h0h-0.2v0.6H121V30.6z M121.8,31.5c0.1,0,0.2,0,0.2-0.1
		s0.1-0.1,0.1-0.2v0c0-0.1,0-0.1-0.1-0.2c-0.1,0-0.1-0.1-0.2-0.1h-0.3v0.5H121.8z"/>
</g>
</svg>