<svg xmlns="http://www.w3.org/2000/svg" xmlns:xlink="http://www.w3.org/1999/xlink" version="1.1" id="Layer_1" x="0px" y="0px" width="30px" height="30px" viewBox="0 0 30 30" enable-background="new 0 0 30 30" xml:space="preserve">
<g>
	<defs>
		<rect id="SVGID_1_" x="11" y="7.8" width="8.2" height="14.3"/>
	</defs>
	<clipPath id="SVGID_2_">
		<use xlink:href="#SVGID_1_" overflow="visible"/>
	</clipPath>
	<line clip-path="url(#SVGID_2_)" fill="none" stroke="#010101" x1="15.1" y1="22" x2="15.1" y2="8.5"/>
	<polyline clip-path="url(#SVGID_2_)" fill="none" stroke="#010101" points="11.4,12.5 15.1,8.5 18.8,12.5"/>
</g>
</svg>
