<svg xmlns="http://www.w3.org/2000/svg" xmlns:xlink="http://www.w3.org/1999/xlink" version="1.1" id="Layer_1" x="0px" y="0px" viewBox="-0.5 0 51 51" enable-background="new -0.5 0 51 51" xml:space="preserve">
<path fill="#48154A" d="M25 50.2c-13.6 0-24.6-11.1-24.6-24.5C0.4 12.2 11.5 1 25 1c13.6 0 24.5 11.1 24.5 24.6 C49.6 39.2 38.5 50.2 25 50.2z"/>
<g>
	<g>
		<defs>
			<rect id="SVGID_1_" x="-0.3" y="0.2" width="50.8" height="50.8"/>
		</defs>
		<clipPath id="SVGID_2_">
			<use xlink:href="#SVGID_1_" overflow="visible"/>
		</clipPath>
		<path clip-path="url(#SVGID_2_)" fill="none" stroke="#48154A" stroke-width="3" d="M25.2 49.5C12 49.5 1.2 38.7 1.2 25.6 S12 1.7 25.2 1.7S49 12.5 49 25.6S38.2 49.5 25.2 49.5z"/>
	</g>
</g>
<rect x="12.1" y="24.3" fill="#FFFFFF" width="22" height="2.5"/>
<polygon fill="#FFFFFF" points="24.2,37.6 22.4,35.8 33.1,25.6 22.4,15.4 24.2,13.6 36.8,25.6"/>
</svg>
