<?xml version="1.0" standalone="no"?>
<!DOCTYPE svg PUBLIC "-//W3C//DTD SVG 1.1//EN" "http://www.w3.org/Graphics/SVG/1.1/DTD/svg11.dtd" >
<svg xmlns="http://www.w3.org/2000/svg">
<metadata></metadata>
<defs>
<font id="helveticabold" horiz-adv-x="1138" >
<font-face units-per-em="2048" ascent="1638" descent="-410" />
<missing-glyph horiz-adv-x="569" />
<glyph horiz-adv-x="2048" />
<glyph horiz-adv-x="2048" />
<glyph unicode="&#xd;" horiz-adv-x="569" />
<glyph unicode=" "  horiz-adv-x="569" />
<glyph unicode="&#x09;" horiz-adv-x="569" />
<glyph unicode="&#xa0;" horiz-adv-x="569" />
<glyph unicode="!" horiz-adv-x="681" d="M184 1096v374h316v-374l-82 -688h-152zM193 0v289h299v-289h-299z" />
<glyph unicode="&#x22;" horiz-adv-x="970" d="M201 915v555h200v-555h-200zM569 915v555h201v-555h-201z" />
<glyph unicode="#" d="M37 408l24 184h199l35 246h-199l25 184h198l58 408h192l-57 -408h199l57 408h193l-58 -408h199l-25 -184h-198l-35 -246h198l-24 -184h-199l-57 -408h-193l58 408h-199l-57 -408h-193l58 408h-199zM453 592h198l35 246h-199z" />
<glyph unicode="$" d="M61 440h269q10 -123 41 -172q43 -66 151 -86v430q-199 53 -291 123q-139 104 -139 293q0 178 107 295q117 129 323 131v133h94v-133q170 -18 265 -84q150 -104 168 -344h-265q-8 127 -59 176q-35 35 -109 35v-383q258 -82 342 -162q113 -106 113 -286q0 -166 -100 -285 q-123 -143 -355 -156v-201h-94v201q-246 20 -353.5 132t-107.5 343zM350 1077q0 -155 172 -194v354q-84 -4 -131 -57q-41 -45 -41 -103zM616 182q68 4 115 43q66 53 66 158q-1 146 -181 195v-396z" />
<glyph unicode="%" horiz-adv-x="1820" d="M57 1081q0 156 109.5 264.5t263.5 108.5q152 0 262.5 -109.5t110.5 -263.5t-109.5 -263t-263.5 -109t-263.5 108t-109.5 264zM268 1081q0 -68 48.5 -114.5t113.5 -46.5q66 0 114 47t48 114q0 68 -48 115t-114 47t-114 -47t-48 -115zM422 -39l815 1493h152l-816 -1493 h-151zM1018 348q0 156 109.5 264.5t263.5 108.5q152 0 262 -109.5t110 -263.5t-109.5 -263.5t-262.5 -109.5q-154 0 -263.5 108.5t-109.5 264.5zM1229 348q0 -68 48 -115t114 -47t113.5 47.5t47.5 114.5q0 68 -48 115t-113 47q-66 0 -114 -47t-48 -115z" />
<glyph unicode="&#x26;" horiz-adv-x="1478" d="M111 379q0 125 49 213q66 115 233 215l31 18q-133 152 -133 308q0 150 109.5 243.5t281.5 93.5q137 0 242 -81q119 -94 118 -259q0 -207 -243 -350l209 -258q63 98 75 242h254q-23 -252 -168 -442l267 -322h-346l-101 125q-164 -164 -420 -164q-203 0 -333 127 q-125 121 -125 291zM397 397q0 -63 45 -118q59 -76 172 -76q115 0 228 102l-271 338q-102 -76 -133 -113q-41 -51 -41 -133zM553 1135q0 -68 106 -185q136 87 136 183q0 121 -123 120q-51 0 -85 -31.5t-34 -86.5z" />
<glyph unicode="'" horiz-adv-x="487" d="M143 915v555h201v-555h-201z" />
<glyph unicode="(" horiz-adv-x="681" d="M72 535q0 487 360 968h211q-135 -229 -197 -426q-80 -250 -79 -542q0 -289 82 -543q61 -187 194 -418h-211q-360 485 -360 961z" />
<glyph unicode=")" horiz-adv-x="681" d="M39 -426q135 229 197 426q80 250 79 543q0 289 -82 542q-61 187 -194 418h211q360 -485 360 -960q0 -487 -360 -969h-211z" />
<glyph unicode="*" horiz-adv-x="796" d="M55 1147l47 149l209 -69v243h174v-243l207 69l49 -149l-215 -66l142 -198l-129 -90l-140 186l-141 -186l-129 90l139 198z" />
<glyph unicode="+" horiz-adv-x="1196" d="M82 403v230h401v403h230v-403h401v-230h-401v-403h-230v403h-401z" />
<glyph unicode="," horiz-adv-x="569" d="M131 0v299h307v-258q0 -313 -305 -385h-2v108q76 27 111 64q55 57 61 172h-172z" />
<glyph unicode="-" horiz-adv-x="681" d="M55 440v267h572v-267h-572z" />
<glyph unicode="." horiz-adv-x="569" d="M131 0v299h307v-299h-307z" />
<glyph unicode="/" horiz-adv-x="569" d="M-68 -39l465 1548h240l-465 -1548h-240z" />
<glyph unicode="0" d="M66 709q0 381 123.5 563t379.5 182t380 -182t124 -563q0 -383 -124 -565.5t-380 -182.5t-379.5 182.5t-123.5 565.5zM360 709q0 -287 43 -400q45 -119 166 -119t166 119q43 113 43 400t-44 401.5t-165 114.5t-165 -114.5t-44 -401.5z" />
<glyph unicode="1" d="M141 1001v201h41q186 0 281 86q70 66 76 166h235v-1454h-287v1001h-346z" />
<glyph unicode="2" d="M53 0q10 172 56 266q72 158 282 312q225 164 281 223q86 92 86 205q0 82 -47 139q-57 68 -154 67q-131 0 -178 -96q-29 -57 -31 -176h-278q0 307 188 434q119 80 287 80q217 0 354 -119q145 -125 145 -340q0 -166 -98 -293q-63 -82 -205 -180q-176 -123 -223 -160 q-80 -63 -102 -108h631v-254h-994z" />
<glyph unicode="3" d="M55 446l279 -2q0 -254 213 -254q92 0 153.5 62.5t61.5 177.5q0 131 -113 178q-70 29 -213 29v205h45q244 0 244 196q0 63 -33 113q-47 74 -149 74q-197 0 -197 -238h-266q0 213 119 336q125 131 362 131q176 0 299 -88q152 -109 152 -317q0 -102 -56 -181 q-47 -63 -118 -96v-4q72 -20 129 -82q90 -96 90 -256q0 -207 -138.5 -338t-357.5 -131q-182 0 -305 72q-201 119 -201 413z" />
<glyph unicode="4" d="M55 322v247l535 885h325v-909h162v-223h-162v-322h-286v322h-574zM266 545h363q0 215 3 428t3 196h-4z" />
<glyph unicode="5" d="M55 389h287q20 -199 203 -199q100 0 158.5 77t58.5 196q0 109 -49 178q-57 82 -164 82q-135 0 -193 -105l-256 13l101 799h798v-242h-591l-52 -316q115 80 260 80q170 0 293 -108q147 -131 148 -361q0 -197 -105 -336q-137 -186 -424 -186q-186 0 -315 105 q-147 117 -158 323z" />
<glyph unicode="6" d="M63 692q0 762 541 762q63 0 144 -20q106 -27 153 -74q63 -61 88 -109q29 -55 47 -166h-284q-14 139 -168 140q-217 0 -240 -402l4 -4q88 121 273 121q211 0 335 -143q109 -125 109 -305q0 -238 -132 -384.5t-343 -146.5q-526 0 -527 731zM350 461q0 -119 62.5 -195 t165.5 -76q86 0 139 66q61 72 61 211q0 125 -69 190q-57 53 -140 54q-92 0 -149 -58q-70 -66 -70 -192z" />
<glyph unicode="7" d="M51 1176l6 254h1024v-222q-494 -537 -530 -1208h-295q20 377 225 758q133 248 293 418h-723z" />
<glyph unicode="8" d="M66 403q0 266 221 369q-176 88 -176 285q0 182 131 291q125 106 321 106q217 0 344 -115q117 -104 117 -264q0 -205 -168 -293q111 -55 162 -131q55 -84 55 -219q0 -174 -106 -305q-137 -166 -398 -166q-258 0 -393 148q-111 121 -110 294zM360 422q0 -104 56.5 -168 t154.5 -64q102 0 160 78q47 64 47 152q0 90 -47 151q-57 76 -166 76q-86 0 -141 -53q-63 -61 -64 -172zM385 1044q0 -70 50 -125t136 -55q82 0 130.5 50.5t48.5 129.5q0 82 -48.5 131.5t-119.5 49.5q-94 0 -145.5 -49.5t-51.5 -131.5z" />
<glyph unicode="9" d="M61 932q0 258 142 395q131 127 354 127q512 0 512 -747q0 -391 -166 -584q-139 -162 -362 -162q-186 0 -309.5 101.5t-141.5 273.5h285v-2q23 -143 168 -144q100 0 164 89q74 106 75 317l-4 4q-82 -123 -276 -123q-201 0 -324 135q-117 129 -117 320zM348 973 q0 -266 215 -266q84 0 144 57q68 66 67 186q0 268 -219 269q-78 0 -131 -45q-76 -64 -76 -201z" />
<glyph unicode=":" horiz-adv-x="681" d="M188 0v299h308v-299h-308zM188 750v299h308v-299h-308z" />
<glyph unicode=";" horiz-adv-x="681" d="M188 0v299h308v-258q0 -313 -306 -385h-2v108q76 27 111 64q55 57 61 172h-172zM188 750v299h308v-299h-308z" />
<glyph unicode="&#x3c;" horiz-adv-x="1196" d="M78 426v184l1040 443v-222l-743 -313l743 -313v-221z" />
<glyph unicode="=" horiz-adv-x="1196" d="M82 178v230h1032v-230h-1032zM82 629v229h1032v-229h-1032z" />
<glyph unicode="&#x3e;" horiz-adv-x="1196" d="M78 -16v221l743 313l-743 313v222l1040 -443v-184z" />
<glyph unicode="?" horiz-adv-x="1251" d="M123 1010q0 246 162 372q133 106 329 107q176 0 310 -68q215 -111 215 -368q0 -117 -66 -209q-53 -76 -182 -168q-72 -51 -96 -94q-29 -52 -29 -156h-270q0 158 32 231q41 90 177 185q127 90 126 202q0 109 -67 162q-51 41 -131 41q-197 0 -221 -235v-2h-289zM487 0v289 h299v-289h-299z" />
<glyph unicode="@" horiz-adv-x="1996" d="M242 735q0 326 231.5 550t558.5 224q289 0 500 -172q221 -182 221 -460q0 -291 -209 -463q-160 -133 -313 -133q-111 0 -117 108l-4 2q-98 -111 -215 -110q-133 0 -231.5 105.5t-98.5 250.5q0 201 121 348q127 158 318 158q165 0 247 -133l27 108h180l-119 -522 q-14 -63 -14 -86q0 -43 31 -43q88 0 155 96q76 106 76 264q0 244 -162 385q-152 133 -397 134q-260 0 -422 -175.5t-162 -439.5q0 -270 172 -438t441 -168q250 0 430 166h182q-223 -330 -625 -330q-336 0 -569 221t-233 553zM786 668q0 -82 43 -132.5t117 -50.5 q104 0 176 93q68 83 68 192q0 76 -46 125t-118 49q-100 0 -170 -87t-70 -189z" />
<glyph unicode="A" horiz-adv-x="1478" d="M41 0l524 1470h355l518 -1470h-334l-94 303h-543l-102 -303h-324zM549 557h375l-183 582h-4z" />
<glyph unicode="B" horiz-adv-x="1478" d="M156 0v1470h714q242 0 363 -131q90 -100 90 -245q0 -211 -180 -301q227 -86 227 -357q0 -180 -127 -303q-72 -72 -151 -96q-104 -37 -314 -37h-622zM451 254h376q236 0 236 215q0 90 -70 137q-59 41 -151 41h-391v-393zM451 895h360q217 0 217 164q0 158 -225 158h-352 v-322z" />
<glyph unicode="C" horiz-adv-x="1478" d="M90 733q0 373 197 582q181 194 476 194h3q299 0 477 -178q144 -145 158 -342h-307q-31 106 -76 160q-84 94 -250 94q-141 0 -238 -100q-127 -135 -127 -414q0 -217 84 -350q96 -152 281 -152q268 0 326 277h307q-47 -250 -205 -391q-168 -152 -434 -152q-303 0 -483 197 q-188 205 -189 575z" />
<glyph unicode="D" horiz-adv-x="1478" d="M156 0v1470h649q332 0 485 -245q113 -182 113 -455q0 -299 -123 -504q-160 -266 -487 -266h-637zM457 254h299q174 0 260 156q74 131 74 338q0 469 -338 469h-295v-963z" />
<glyph unicode="E" horiz-adv-x="1366" d="M156 0v1470h1081v-260h-780v-309h717v-260h-717v-381h815v-260h-1116z" />
<glyph unicode="F" horiz-adv-x="1251" d="M156 0v1470h1046v-260h-739v-331h647v-261h-647v-618h-307z" />
<glyph unicode="G" horiz-adv-x="1593" d="M90 731q0 328 174 541q194 237 542 237h3q305 0 485 -172q145 -139 160 -323h-307q0 63 -80 143q-98 98 -242 98q-180 0 -293 -122q-129 -139 -129 -406q0 -276 136 -403q109 -102 292 -103q96 0 181 51q135 82 176 273h-342v248h614v-793h-205l-30 184 q-88 -102 -158 -145q-125 -78 -301 -78q-285 0 -471 193q-205 209 -205 577z" />
<glyph unicode="H" horiz-adv-x="1478" d="M145 0v1470h308v-557h573v557h307v-1470h-307v659h-573v-659h-308z" />
<glyph unicode="I" horiz-adv-x="569" d="M131 0v1470h307v-1470h-307z" />
<glyph unicode="J" d="M45 555h287q0 -193 28 -258q37 -86 152 -86q109 0 145 65q27 45 27 150v1044h307v-1044q0 -463 -456 -463q-326 0 -429 191q-61 113 -61 401z" />
<glyph unicode="K" horiz-adv-x="1478" d="M178 0v1470h307v-598l562 598h397l-600 -602l635 -868h-396l-454 645l-144 -147v-498h-307z" />
<glyph unicode="L" horiz-adv-x="1251" d="M156 0v1470h307v-1204h731v-266h-1038z" />
<glyph unicode="M" horiz-adv-x="1705" d="M141 0v1470h449l266 -1159h4l262 1159h445v-1470h-287v1229h-4l-275 -1229h-301l-268 1229h-4v-1229h-287z" />
<glyph unicode="N" horiz-adv-x="1478" d="M141 0v1470h324l584 -1024h4v1024h286v-1470h-307l-600 1049h-4v-1049h-287z" />
<glyph unicode="O" horiz-adv-x="1593" d="M90 735q0 449 281 645q182 129 426 129t426 -129q281 -197 280 -645q0 -449 -280 -645q-182 -129 -426 -129t-426 129q-281 196 -281 645zM397 735q0 -276 138 -411q106 -102 262 -103q156 0 262 103q137 135 137 411t-137 412q-106 102 -262 102t-262 -102 q-138 -136 -138 -412z" />
<glyph unicode="P" horiz-adv-x="1366" d="M156 0v1470h671q213 0 335 -126.5t122 -344.5q0 -156 -86 -284q-125 -184 -383 -185h-352v-530h-307zM463 784h285q229 0 229 230q0 106 -63.5 154.5t-206.5 48.5h-244v-433z" />
<glyph unicode="Q" horiz-adv-x="1593" d="M90 735q0 449 281 645q182 129 426 129t426 -129q280 -196 280 -642q0 -333 -153 -527l159 -152l-161 -165l-174 165q-168 -98 -377 -98q-244 0 -426 129q-281 197 -281 645zM397 735q0 -276 138 -411q106 -102 262 -103q90 0 166 39l-148 139l158 166l155 -145 q68 125 68 315q0 276 -137 412q-106 102 -262 102t-262 -102q-137 -135 -138 -412z" />
<glyph unicode="R" horiz-adv-x="1478" d="M156 0v1470h743q256 0 379 -159q84 -113 84 -256q0 -123 -60.5 -218.5t-166.5 -131.5q104 -45 139 -103q47 -80 47 -270q0 -174 8 -217q10 -57 57 -76v-39h-339q-33 111 -33 297q0 166 -35 215q-45 63 -205 63h-317v-575h-301zM457 823h360q238 0 238 201q0 193 -215 193 h-383v-394z" />
<glyph unicode="S" horiz-adv-x="1366" d="M80 453h295q6 -238 311 -238q307 0 307 191q0 78 -73 120q-51 29 -193 62l-158 37q-236 55 -321 114q-145 102 -146 318q0 170 105 289q144 163 457 163h4q301 0 454 -170q117 -129 119 -305h-295q-27 221 -301 221q-102 0 -172 -38q-84 -45 -84 -138q0 -115 156 -153 l358 -88q180 -45 268 -117q117 -98 117 -279q0 -285 -241 -405q-147 -76 -338 -76q-356 0 -516 178q-113 126 -113 314z" />
<glyph unicode="T" horiz-adv-x="1251" d="M29 1210v260h1196v-260h-445v-1210h-307v1210h-444z" />
<glyph unicode="U" horiz-adv-x="1478" d="M147 496v974h314v-954q0 -145 78 -223q70 -72 184 -72q297 0 297 281v968h313v-956q0 -553 -604 -553q-307 0 -467 178q-115 129 -115 357z" />
<glyph unicode="V" horiz-adv-x="1366" d="M39 1470h330l315 -1114h4l320 1114h319l-500 -1470h-292z" />
<glyph unicode="W" horiz-adv-x="1933" d="M33 1470h327q195 -834 234 -1075h4q25 152 205 1075h325q176 -829 220 -1075h4q41 229 239 1075h312l-414 -1470h-295q-162 768 -227 1147h-4q-37 -233 -228 -1147h-286z" />
<glyph unicode="X" horiz-adv-x="1366" d="M29 0l475 752l-449 718h367l262 -475l268 475h355l-449 -706l479 -764h-374l-279 502l-297 -502h-358z" />
<glyph unicode="Y" horiz-adv-x="1366" d="M31 1470h362l305 -639l291 639h348l-491 -919v-551h-307v555z" />
<glyph unicode="Z" horiz-adv-x="1251" d="M51 0v260l760 950h-739v260h1124v-241l-770 -969h774v-260h-1149z" />
<glyph unicode="[" horiz-adv-x="681" d="M129 -401v1880h504v-197h-254v-1487h254v-196h-504z" />
<glyph unicode="\" horiz-adv-x="569" d="M-68 1509h240l465 -1548h-240z" />
<glyph unicode="]" horiz-adv-x="681" d="M49 -205h254v1487h-254v197h504v-1880h-504v196z" />
<glyph unicode="^" horiz-adv-x="1196" d="M127 662l369 768h204l369 -768h-225l-246 538l-248 -538h-223z" />
<glyph unicode="_" d="M0 -154h1139v-102h-1139v102z" />
<glyph unicode="`" horiz-adv-x="681" d="M-47 1536h315l193 -299h-207z" />
<glyph unicode="a" d="M59 289q0 301 318 348l258 39q100 14 100 86q0 127 -188 127q-156 0 -176 -152h-277q23 225 172 316q109 65 310 65h6q162 0 274 -57q160 -80 160 -258v-590q0 -147 63 -170v-43h-309q-20 61 -27 129q-154 -158 -352 -158q-137 0 -227 74q-104 86 -105 244zM346 307 q0 -68 45 -102q37 -29 88 -29q100 0 178 59.5t78 155.5v139q-45 -35 -194 -59q-96 -16 -138 -43q-57 -39 -57 -121z" />
<glyph unicode="b" horiz-adv-x="1251" d="M125 0v1470h287v-522h4q111 170 315 170q193 0 316 -139q137 -154 137 -422q0 -246 -109 -405q-123 -180 -350 -181q-221 0 -315 166h-4v-137h-281zM399 520q0 -133 60 -217q66 -96 194 -96q125 0 187 117q49 90 49 213q0 145 -53 231q-63 102 -191 102q-246 0 -246 -350 z" />
<glyph unicode="c" d="M70 514q0 279 123 434q135 170 399 170q170 0 295 -82q168 -109 186 -336h-291q-30 177 -185 177h-5q-123 -4 -180 -109q-47 -82 -47 -207q0 -354 221 -354q96 0 151 76q43 57 43 114h291q-12 -141 -102 -256q-135 -170 -396 -170q-276 0 -405 187q-98 139 -98 356z" />
<glyph unicode="d" horiz-adv-x="1251" d="M70 557q0 268 137 422q123 139 315 139q205 0 316 -170h4v522h286v-1470h-280v137h-4q-94 -166 -316 -166q-227 0 -350 181q-109 160 -108 405zM365 537q0 -123 49 -213q61 -117 186 -117q129 0 195 96q59 84 59 217q0 350 -246 350q-127 0 -190 -102q-53 -86 -53 -231z " />
<glyph unicode="e" d="M47 567q0 184 82 326q133 225 440 225q207 0 336 -112q176 -154 176 -488v-51h-747q10 -109 45 -164q61 -102 211 -102q63 0 115.5 31.5t68.5 86.5h295q-53 -182 -199 -272q-121 -76 -280 -76q-543 0 -543 596zM342 653h444q-10 121 -81 181q-57 49 -140 49 q-196 -1 -223 -230z" />
<glyph unicode="f" horiz-adv-x="681" d="M20 885v205h158v88q0 311 320 311q98 0 147 -4v-232h-80q-70 0 -85 -23.5t-15 -96.5v-43h186v-205h-186v-885h-287v885h-158z" />
<glyph unicode="g" horiz-adv-x="1251" d="M82 557q0 268 137 422q123 139 316 139q227 0 319 -190h4v162h275v-1033q0 -215 -74 -321q-125 -180 -477 -180q-188 0 -318 77q-150 88 -158 250h312q12 -53 43 -76q46 -34 151 -34h6q227 0 228 250v131l-4 4q-92 -164 -291 -164q-207 0 -332 139q-137 150 -137 424z M377 539q0 -123 49 -203q61 -100 178 -100q244 0 244 315q0 137 -65.5 228t-180.5 91q-94 0 -151 -69q-74 -88 -74 -262z" />
<glyph unicode="h" horiz-adv-x="1251" d="M133 0v1470h287v-522h4q29 72 116 121t199 49q166 0 271 -92q108 -98 108 -272v-754h-287v662q0 92 -24 137q-43 78 -162 78q-98 0 -161.5 -66t-63.5 -186v-625h-287z" />
<glyph unicode="i" horiz-adv-x="569" d="M141 0v1090h287v-1090h-287zM141 1219v266h287v-266h-287z" />
<glyph unicode="j" horiz-adv-x="569" d="M6 -209h51q84 0 84 100v1199h287v-1205q0 -199 -92 -268q-74 -55 -258 -55h-72v229zM141 1219v266h287v-266h-287z" />
<glyph unicode="k" d="M141 0v1470h287v-794l360 414h353l-385 -422l395 -668h-344l-260 467l-119 -123v-344h-287z" />
<glyph unicode="l" horiz-adv-x="569" d="M141 0v1470h287v-1470h-287z" />
<glyph unicode="m" horiz-adv-x="1820" d="M131 0v1090h275v-160h4q96 188 309 188q113 0 182 -43q61 -39 121 -131q121 174 291 174q166 0 270 -92q109 -98 109 -272v-754h-287v662q0 215 -156 215q-195 0 -194 -224v-653h-287v655q0 102 -20 146q-39 76 -152 76q-178 0 -178 -213v-664h-287z" />
<glyph unicode="n" horiz-adv-x="1251" d="M133 0v1090h275v-160h4q113 188 327 188q166 0 271 -92q108 -98 108 -272v-754h-287v662q0 92 -24 137q-43 78 -162 78q-98 0 -161.5 -66t-63.5 -186v-625h-287z" />
<glyph unicode="o" horiz-adv-x="1251" d="M70 545q0 279 168 434q152 139 389 139q238 0 389 -139q168 -155 168 -434t-168 -434q-152 -139 -389 -140q-238 0 -389 140q-168 156 -168 434zM365 545q0 -332 262 -332t262 332t-262 332t-262 -332z" />
<glyph unicode="p" horiz-adv-x="1251" d="M127 -424v1514h274v-158h5q115 186 325 186q193 0 316 -139q137 -154 137 -422q0 -246 -109 -405q-123 -180 -350 -181q-209 0 -307 168h-4v-563h-287zM401 520q0 -133 58 -217q68 -96 194 -96q125 0 187 117q49 90 49 213q0 145 -53 231q-63 102 -191 102 q-244 0 -244 -350z" />
<glyph unicode="q" horiz-adv-x="1251" d="M70 522q0 250 112 412q127 184 365 184q197 0 305 -190h4v162h274v-1514h-286v559h-4q-88 -164 -310 -164q-233 0 -358 189q-102 154 -102 362zM365 524q0 -311 245 -311q106 0 173 83t67 243q0 195 -100 278q-63 53 -146 53q-239 0 -239 -346z" />
<glyph unicode="r" horiz-adv-x="796" d="M131 0v1090h275v-189h4q57 106 106 150q75 67 190 67h3q18 0 55 -4v-291q-25 4 -82 4q-264 0 -264 -260v-567h-287z" />
<glyph unicode="s" d="M61 348h295q0 -160 238 -160q98 0 147 41q35 31 35 72q0 70 -176 109q-260 55 -324 86q-176 82 -176 258q0 145 93 241q117 123 348 123q462 0 489 -360h-280q-12 68 -43 98q-45 45 -150 45q-176 0 -176 -106q0 -66 176 -105q260 -55 330 -88q176 -82 176 -256 q0 -211 -174 -307q-125 -68 -303 -68q-217 0 -353 80q-166 96 -172 297z" />
<glyph unicode="t" horiz-adv-x="681" d="M20 885v205h148v294h287v-294h178v-205h-178v-592q0 -53 16 -68q20 -20 102 -20q18 0 60 4v-217q-90 -4 -135 -4h-37q-172 0 -240 65q-53 51 -53 170v662h-148z" />
<glyph unicode="u" horiz-adv-x="1251" d="M135 373v717h287v-676q0 -201 186 -201q86 0 146 51q76 66 75 197v629h287v-1090h-274v154h-4q-102 -182 -332 -183q-170 0 -266 97q-104 104 -105 305z" />
<glyph unicode="v" d="M27 1090h319l225 -803h4l232 803h305l-393 -1090h-301z" />
<glyph unicode="w" horiz-adv-x="1593" d="M20 1090h306l170 -783h4l153 783h289l164 -783h4l170 783h295l-313 -1090h-295l-170 795h-4l-170 -795h-295z" />
<glyph unicode="x" d="M31 0l370 555l-356 535h348l185 -318l180 318h338l-359 -535l371 -555h-354l-189 328l-188 -328h-346z" />
<glyph unicode="y" d="M20 1090h320l233 -803h5l223 803h303l-375 -1072q-109 -309 -170 -378q-70 -78 -252 -78q-47 0 -129 4v229q25 -4 55 -4q88 0 123 27q47 33 66 137z" />
<glyph unicode="z" horiz-adv-x="1024" d="M41 0v223l559 637h-520v230h883v-236l-551 -618h571v-236h-942z" />
<glyph unicode="{" horiz-adv-x="796" d="M98 444v189q63 0 119 31q74 41 74 124v410q0 133 94 213q82 68 193 68h170v-181h-93q-115 0 -114 -135v-401q-14 -115 -101 -174q-59 -41 -133 -47v-4q74 -6 133 -48q86 -59 101 -174v-401q0 -135 114 -135h93v-180h-170q-111 0 -193 67q-94 80 -94 213v410q0 84 -74 125 q-55 31 -119 30z" />
<glyph unicode="|" horiz-adv-x="573" d="M172 -39v1548h229v-1548h-229z" />
<glyph unicode="}" horiz-adv-x="796" d="M49 -221h92q115 0 115 135v401q14 115 100 174q59 41 133 48v4q-74 6 -133 47q-86 59 -100 174v401q0 135 -115 135h-92v181h170q111 0 193 -68q94 -80 94 -213v-410q0 -84 76 -124q53 -31 116 -31v-189q-63 0 -116 -30q-76 -41 -76 -125v-410q0 -133 -94 -213 q-82 -68 -193 -67h-170v180z" />
<glyph unicode="~" horiz-adv-x="1196" d="M125 518q92 176 256 176q78 0 227 -65q172 -76 209 -76q82 -1 180 149l74 -184q-61 -86 -102 -121q-70 -55 -154 -55q-86 0 -209 68q-133 74 -235 73q-104 0 -172 -149z" />
<glyph unicode="&#xa1;" horiz-adv-x="681" d="M184 -6l82 688h152l82 -688v-375h-316v375zM193 801v289h299v-289h-299z" />
<glyph unicode="&#xa2;" d="M70 514q0 279 123 434q135 170 399 170q43 0 92 -6l49 174h107l-58 -201q266 -90 291 -385h-291q-18 94 -69 140l-178 -625q18 -8 51 -8q96 0 151 76q43 57 43 114h291q-12 -141 -102 -256q-135 -170 -396 -170q-61 0 -104 9l-63 -222h-107l70 246q-162 59 -238 219 q-61 125 -61 291zM365 561q-1 -219 77 -297l174 613h-24q-123 0 -180 -107q-47 -84 -47 -209z" />
<glyph unicode="&#xa3;" d="M57 657v123h119q-84 180 -84 291q0 141 107 256q137 143 383 143q197 0 323 -94q164 -123 170 -379h-268q-18 125 -55 174q-51 70 -172 70q-104 0 -160 -70q-41 -53 -41 -118q0 -55 98 -273h293v-123h-244q10 -61 11 -108q0 -123 -88 -227q-35 -41 -121 -111l4 -4 q135 53 231 53q74 0 146 -22q90 -29 108 -29q96 0 207 74l84 -224q-152 -92 -311 -92q-94 0 -199 37q-127 45 -199 45q-63 0 -223 -72l-110 199q49 18 127 98q100 106 100 201q0 92 -47 182h-189z" />
<glyph unicode="&#xa4;" d="M-6 291l201 201q-63 104 -64 239q0 135 64 236l-201 200l135 136l201 -201q111 68 239 67q137 0 240 -67l201 201l135 -136l-201 -200q68 -102 68 -236q0 -137 -68 -239l201 -201l-135 -135l-201 200q-102 -68 -240 -67q-129 0 -239 67l-201 -200zM360 731 q0 -98 57.5 -164.5t151.5 -66.5t153.5 66.5t59.5 164.5t-59 162.5t-154 64.5q-94 0 -151.5 -64.5t-57.5 -162.5z" />
<glyph unicode="&#xa5;" d="M-18 1430h307l295 -603l282 603h291l-307 -601h274v-122h-338l-77 -154h415v-123h-417v-430h-261v430h-415v123h415l-81 154h-334v122h268z" />
<glyph unicode="&#xa6;" horiz-adv-x="573" d="M172 -39v594h229v-594h-229zM172 915v594h229v-594h-229z" />
<glyph unicode="&#xa7;" d="M70 614q0 164 190 271q-106 96 -106 237q0 150 106 254q117 113 307 113q168 0 275 -78q131 -96 139 -297h-260q-10 158 -160 158q-68 0 -107.5 -36t-39.5 -79q0 -69 78 -108l331 -166q119 -59 174 -123q72 -84 72 -211q0 -55 -43 -131q-55 -100 -152 -144 q127 -104 127 -262q0 -184 -137 -293q-123 -96 -305 -96q-238 0 -350 154q-78 104 -80 229h270q18 -166 181 -166q82 0 120 58q27 39 27 88q0 78 -121 139l-313 160q-117 59 -166 125q-57 78 -57 204zM311 666q0 -76 95 -127l321 -172q88 49 88 135q0 72 -117 131l-299 151 q-43 -14 -67 -57q-20 -35 -21 -61z" />
<glyph unicode="&#xa8;" horiz-adv-x="681" d="M12 1257v236h258v-236h-258zM412 1257v236h258v-236h-258z" />
<glyph unicode="&#xa9;" horiz-adv-x="1509" d="M-23 737q0 352 236 570q221 203 543 202q322 0 542 -202q236 -218 236 -570q0 -354 -236 -571q-221 -205 -542 -205q-322 0 -543 205q-236 217 -236 571zM201 737q0 -264 159.5 -431t395.5 -165v-2q231 0 391 164q164 172 164 434t-162 428t-393 166q-236 0 -395.5 -166 t-159.5 -428zM360 743q0 195 115 319t307 124q143 0 240.5 -81t122.5 -233h-176q-27 135 -187 136q-98 0 -154.5 -71t-56.5 -189q0 -115 60.5 -193t154.5 -78q171 1 183 144h184q-25 -152 -127 -237t-240 -85q-190 0 -308 127t-118 317z" />
<glyph unicode="&#xaa;" horiz-adv-x="757" d="M45 1012q0 184 209 213l168 22q66 8 65 47q0 70 -122 70q-100 0 -115 -84h-178q14 135 110 190q72 39 205 39q104 0 178 -34q103 -50 103 -156v-354q0 -88 43 -101v-26h-201q-12 35 -16 77q-98 -94 -230 -94q-90 0 -149 45q-70 51 -70 146zM68 565v164h614v-164h-614z M238 1022q0 -76 84 -76q66 0 115.5 36t49.5 93v82q-33 -23 -127 -35q-123 -16 -122 -100z" />
<glyph unicode="&#xab;" d="M180 451v245l342 295v-237l-205 -181l205 -180v-237zM616 451v245l342 295v-237l-204 -181l204 -180v-237z" />
<glyph unicode="&#xac;" horiz-adv-x="1196" d="M82 629v229h1032v-637h-229v408h-803z" />
<glyph unicode="&#xad;" horiz-adv-x="681" d="M55 440v267h572v-267h-572z" />
<glyph unicode="&#xae;" horiz-adv-x="1509" d="M-23 735q0 354 236 572q219 203 543 202q322 0 542 -202q234 -218 234 -572t-234 -571q-221 -203 -542 -203q-324 0 -543 203q-236 217 -236 571zM201 735q0 -262 159.5 -429t395.5 -165v-2q229 0 391 167t162 429t-162 428t-391 166q-236 0 -395.5 -166t-159.5 -428z M449 319v834h311q170 0 252 -55q90 -59 90 -197q0 -203 -201 -217l213 -365h-211l-192 351h-84v-351h-178zM627 811h157q66 0 93 18q35 25 34 91q0 92 -159 92h-125v-201z" />
<glyph unicode="&#xaf;" horiz-adv-x="681" d="M-12 1237v152h706v-152h-706z" />
<glyph unicode="&#xb0;" horiz-adv-x="819" d="M117 1165q0 121 86 207t207 86t206.5 -86t85.5 -207t-86 -207t-206 -86q-121 0 -207 86t-86 207zM231 1165q0 -74 52.5 -126t126.5 -52t126 52.5t52 125.5q0 74 -52.5 126t-125.5 52q-74 0 -126.5 -52t-52.5 -126z" />
<glyph unicode="&#xb1;" horiz-adv-x="1196" d="M82 0v229h1032v-229h-1032zM82 551v229h401v256h230v-256h401v-229h-401v-258h-230v258h-401z" />
<glyph unicode="&#xb2;" horiz-adv-x="681" d="M18 580q6 100 37 163q49 98 174 183q145 98 183 135q55 55 55 123q6 35 -23 69q-37 39 -98 39q-131 1 -137 -149h-180q0 184 123 262q78 49 186 49q139 0 231.5 -73.5t92.5 -202.5q0 -176 -181 -285q-156 -94 -198 -145h381v-168h-646z" />
<glyph unicode="&#xb3;" horiz-adv-x="681" d="M16 846h183q0 -137 137 -137q131 0 131 127q0 78 -68 104q-43 16 -135 16v131h31q150 0 149 109q0 104 -110 104q-127 0 -127 -126h-174q0 127 80 203.5t233 76.5q115 0 195 -53q98 -66 98 -191t-113 -168v-4q45 -12 84 -49q57 -57 58 -153q0 -123 -89.5 -202t-232.5 -79 q-330 0 -330 291z" />
<glyph unicode="&#xb4;" horiz-adv-x="681" d="M221 1237l193 299h315l-301 -299h-207z" />
<glyph unicode="&#xb6;" d="M-16 1065q0 369 499 369h621v-1825h-230v1651h-206v-1651h-230v1102q-217 0 -335.5 94t-118.5 260z" />
<glyph unicode="&#xb7;" horiz-adv-x="569" d="M119 518q0 70 48 118t118 48t118 -48t48 -118t-47.5 -118t-118.5 -48q-72 0 -119 48t-47 118z" />
<glyph unicode="&#xb8;" horiz-adv-x="681" d="M12 -416l45 99q106 -33 158 -33q35 0 65.5 21.5t30.5 58.5q0 74 -80 73q-29 0 -81 -16l-44 41l113 172h121l-78 -113q33 8 62 9q61 0 110 -31q68 -43 68 -129q0 -90 -71 -146.5t-183 -56.5q-94 0 -236 51z" />
<glyph unicode="&#xb9;" horiz-adv-x="681" d="M53 1176v127h27q221 0 231 151h174v-874h-206v596h-226z" />
<glyph unicode="&#xba;" horiz-adv-x="747" d="M12 1165q0 135 84 232q98 113 279 112q180 0 278 -112q84 -97 84 -232t-84 -231q-98 -113 -278 -113t-279 113q-84 96 -84 231zM68 565v164h614v-164h-614zM213 1165q0 -84 41 -137q45 -59 121 -59t121 59q41 53 41 137t-43 140.5t-119 56.5t-119 -56.5t-43 -140.5z" />
<glyph unicode="&#xbb;" d="M180 156v237l205 180l-205 181v237l342 -295v-245zM616 156v237l205 180l-205 181v237l342 -295v-245z" />
<glyph unicode="&#xbc;" horiz-adv-x="1708" d="M53 1176v127h27q221 0 231 151h174v-874h-206v596h-226zM279 -39l876 1493h160l-875 -1493h-161zM897 184v152l348 532h221v-542h103v-142h-103v-184h-194v184h-375zM1044 322h236q0 129 2 257t2 117h-4z" />
<glyph unicode="&#xbd;" horiz-adv-x="1708" d="M53 1176v127h27q221 0 231 151h174v-874h-206v596h-226zM279 -39l876 1493h160l-875 -1493h-161zM981 0q6 100 37 164q49 98 174 182q145 98 182 135q55 55 56 123q6 35 -23 70q-37 39 -98 39q-132 0 -138 -150h-180q0 184 123 262q78 49 186 49q139 0 231.5 -73.5 t92.5 -202.5q0 -176 -180 -285q-156 -94 -199 -145h381v-168h-645z" />
<glyph unicode="&#xbe;" horiz-adv-x="1708" d="M33 846h182q0 -137 137 -137q131 0 131 127q0 78 -67 104q-43 16 -135 16v131h30q150 0 150 109q0 104 -111 104q-127 0 -127 -126h-174q0 127 80 203.5t233 76.5q115 0 195 -53q98 -66 98 -191t-112 -168v-4q45 -12 84 -49q57 -57 57 -153q0 -123 -89 -202t-233 -79 q-329 0 -329 291zM369 -39l876 1493h160l-875 -1493h-161zM965 184v152l348 532h221v-542h102v-142h-102v-184h-195v184h-374zM1110 326h229q0 127 2 251.5t2 110.5h-4z" />
<glyph unicode="&#xbf;" horiz-adv-x="1251" d="M113 37q0 117 65 209q53 76 182 168q72 51 97 94q28 52 28 156h271q0 -158 -33 -232q-41 -90 -176 -184q-127 -90 -127 -203q0 -109 67 -162q51 -41 131 -41q197 0 222 236v2h288q0 -246 -161 -373q-133 -106 -330 -106q-176 0 -307 67q-217 111 -217 369zM465 801v289 h299v-289h-299z" />
<glyph unicode="&#xc0;" horiz-adv-x="1478" d="M41 0l524 1470h355l518 -1470h-334l-94 303h-543l-102 -303h-324zM352 1917h315l193 -299h-207zM549 557h375l-183 582h-4z" />
<glyph unicode="&#xc1;" horiz-adv-x="1478" d="M41 0l524 1470h355l518 -1470h-334l-94 303h-543l-102 -303h-324zM549 557h375l-183 582h-4zM620 1618l193 299h315l-301 -299h-207z" />
<glyph unicode="&#xc2;" horiz-adv-x="1478" d="M41 0l524 1470h355l518 -1470h-334l-94 303h-543l-102 -303h-324zM379 1618l233 299h256l233 -299h-231l-131 168l-129 -168h-231zM549 557h375l-183 582h-4z" />
<glyph unicode="&#xc3;" horiz-adv-x="1478" d="M41 0l524 1470h355l518 -1470h-334l-94 303h-543l-102 -303h-324zM364 1630q51 252 248 252q45 0 168 -47q72 -27 106 -27q79 0 97 82h133q-41 -246 -223 -245q-53 0 -156 32q-129 41 -145 41q-80 0 -97 -88h-131zM549 557h375l-183 582h-4z" />
<glyph unicode="&#xc4;" horiz-adv-x="1478" d="M41 0l524 1470h355l518 -1470h-334l-94 303h-543l-102 -303h-324zM411 1638v236h258v-236h-258zM549 557h375l-183 582h-4zM811 1638v236h258v-236h-258z" />
<glyph unicode="&#xc5;" horiz-adv-x="1478" d="M41 0l524 1470h355l518 -1470h-334l-94 303h-543l-102 -303h-324zM520 1757q0 92 72 156q68 57 149 57q82 0 150 -57q71 -64 71 -156t-69.5 -152.5t-151.5 -60.5t-151.5 60.5t-69.5 152.5zM549 557h375l-183 582h-4zM635 1757q0 -45 30.5 -75.5t75.5 -30.5t76 30.5 t31 75.5t-31 76t-76 31t-75.5 -31t-30.5 -76z" />
<glyph unicode="&#xc6;" horiz-adv-x="2048" d="M10 0l537 1470h1392v-260h-759v-309h684v-260h-684v-381h774v-260h-1075v313h-441l-106 -313h-322zM518 555h361v655h-134z" />
<glyph unicode="&#xc7;" horiz-adv-x="1478" d="M90 733q0 373 197 582q182 195 479 194q299 0 477 -178q144 -145 158 -342h-307q-31 106 -76 160q-84 94 -250 94q-141 0 -238 -100q-127 -135 -127 -414q0 -217 84 -350q96 -152 281 -152q268 0 326 277h307q-47 -250 -205 -391q-168 -152 -434 -152q-303 0 -483 197 q-188 205 -189 575zM452 -416l45 99q106 -33 158 -33q35 0 65.5 21.5t30.5 58.5q0 74 -80 73q-29 0 -81 -16l-44 41l113 172h121l-78 -113q33 8 62 9q61 0 110 -31q68 -43 68 -129q0 -90 -71 -146.5t-183 -56.5q-94 0 -236 51z" />
<glyph unicode="&#xc8;" horiz-adv-x="1366" d="M156 0v1470h1081v-260h-780v-309h717v-260h-717v-381h815v-260h-1116zM295 1917h315l193 -299h-207z" />
<glyph unicode="&#xc9;" horiz-adv-x="1366" d="M156 0v1470h1081v-260h-780v-309h717v-260h-717v-381h815v-260h-1116zM563 1618l193 299h315l-301 -299h-207z" />
<glyph unicode="&#xca;" horiz-adv-x="1366" d="M156 0v1470h1081v-260h-780v-309h717v-260h-717v-381h815v-260h-1116zM322 1618l233 299h256l233 -299h-231l-131 168l-129 -168h-231z" />
<glyph unicode="&#xcb;" horiz-adv-x="1366" d="M156 0v1470h1081v-260h-780v-309h717v-260h-717v-381h815v-260h-1116zM354 1638v236h258v-236h-258zM754 1638v236h258v-236h-258z" />
<glyph unicode="&#xcc;" horiz-adv-x="569" d="M-102 1917h315l193 -299h-207zM131 0v1470h307v-1470h-307z" />
<glyph unicode="&#xcd;" horiz-adv-x="569" d="M131 0v1470h307v-1470h-307zM166 1618l193 299h315l-301 -299h-207z" />
<glyph unicode="&#xce;" horiz-adv-x="569" d="M-75 1618l233 299h256l233 -299h-231l-131 168l-129 -168h-231zM131 0v1470h307v-1470h-307z" />
<glyph unicode="&#xcf;" horiz-adv-x="569" d="M-43 1638v236h258v-236h-258zM131 0v1470h307v-1470h-307zM357 1638v236h258v-236h-258z" />
<glyph unicode="&#xd0;" horiz-adv-x="1478" d="M-10 647v254h166v569h649q332 0 485 -245q113 -182 113 -455q0 -299 -123 -504q-160 -266 -487 -266h-637v647h-166zM457 254h299q174 0 260 156q74 131 74 338q0 469 -338 469h-295v-316h340v-254h-340v-393z" />
<glyph unicode="&#xd1;" horiz-adv-x="1478" d="M141 0v1470h324l584 -1024h4v1024h286v-1470h-307l-600 1049h-4v-1049h-287zM364 1630q51 252 248 252q45 0 168 -47q72 -27 106 -27q79 0 97 82h133q-41 -246 -223 -245q-53 0 -156 32q-129 41 -145 41q-80 0 -97 -88h-131z" />
<glyph unicode="&#xd2;" horiz-adv-x="1593" d="M90 735q0 449 281 645q182 129 426 129t426 -129q281 -197 280 -645q0 -449 -280 -645q-182 -129 -426 -129t-426 129q-281 196 -281 645zM397 735q0 -276 138 -411q106 -102 262 -103q156 0 262 103q137 135 137 411t-137 412q-106 102 -262 102t-262 -102 q-138 -136 -138 -412zM410 1917h315l193 -299h-207z" />
<glyph unicode="&#xd3;" horiz-adv-x="1593" d="M90 735q0 449 281 645q182 129 426 129t426 -129q281 -197 280 -645q0 -449 -280 -645q-182 -129 -426 -129t-426 129q-281 196 -281 645zM397 735q0 -276 138 -411q106 -102 262 -103q156 0 262 103q137 135 137 411t-137 412q-106 102 -262 102t-262 -102 q-138 -136 -138 -412zM678 1618l193 299h315l-301 -299h-207z" />
<glyph unicode="&#xd4;" horiz-adv-x="1593" d="M90 735q0 449 281 645q182 129 426 129t426 -129q281 -197 280 -645q0 -449 -280 -645q-182 -129 -426 -129t-426 129q-281 196 -281 645zM397 735q0 -276 138 -411q106 -102 262 -103q156 0 262 103q137 135 137 411t-137 412q-106 102 -262 102t-262 -102 q-138 -136 -138 -412zM437 1618l233 299h256l233 -299h-231l-131 168l-129 -168h-231z" />
<glyph unicode="&#xd5;" horiz-adv-x="1593" d="M90 735q0 449 281 645q182 129 426 129t426 -129q281 -197 280 -645q0 -449 -280 -645q-182 -129 -426 -129t-426 129q-281 196 -281 645zM397 735q0 -276 138 -411q106 -102 262 -103q156 0 262 103q137 135 137 411t-137 412q-106 102 -262 102t-262 -102 q-138 -136 -138 -412zM422 1630q51 252 248 252q45 0 168 -47q72 -27 106 -27q79 0 97 82h133q-41 -246 -223 -245q-53 0 -156 32q-129 41 -145 41q-80 0 -97 -88h-131z" />
<glyph unicode="&#xd6;" horiz-adv-x="1593" d="M90 735q0 449 281 645q182 129 426 129t426 -129q281 -197 280 -645q0 -449 -280 -645q-182 -129 -426 -129t-426 129q-281 196 -281 645zM397 735q0 -276 138 -411q106 -102 262 -103q156 0 262 103q137 135 137 411t-137 412q-106 102 -262 102t-262 -102 q-138 -136 -138 -412zM469 1638v236h258v-236h-258zM869 1638v236h258v-236h-258z" />
<glyph unicode="&#xd7;" horiz-adv-x="1196" d="M82 164l354 354l-354 354l162 162l354 -354l354 354l162 -162l-354 -354l356 -354l-164 -162l-354 354l-352 -354z" />
<glyph unicode="&#xd8;" horiz-adv-x="1593" d="M68 23l174 190q-152 195 -152 522q0 449 281 645q182 129 426 129q281 0 475 -166l166 183l86 -78l-172 -188q152 -197 151 -525q0 -449 -280 -645q-182 -129 -426 -129q-285 0 -475 168l-168 -184zM397 735q1 -174 56 -289l622 682q-111 121 -278 121q-156 0 -262 -102 q-137 -135 -138 -412zM516 344q109 -123 281 -123q156 0 262 103q137 135 137 411q0 182 -57 291z" />
<glyph unicode="&#xd9;" horiz-adv-x="1478" d="M147 496v974h314v-954q0 -145 78 -223q70 -72 184 -72q297 0 297 281v968h313v-956q0 -553 -604 -553q-307 0 -467 178q-115 129 -115 357zM352 1917h315l193 -299h-207z" />
<glyph unicode="&#xda;" horiz-adv-x="1478" d="M147 496v974h314v-954q0 -145 78 -223q70 -72 184 -72q297 0 297 281v968h313v-956q0 -553 -604 -553q-307 0 -467 178q-115 129 -115 357zM620 1618l193 299h315l-301 -299h-207z" />
<glyph unicode="&#xdb;" horiz-adv-x="1478" d="M147 496v974h314v-954q0 -145 78 -223q70 -72 184 -72q297 0 297 281v968h313v-956q0 -553 -604 -553q-307 0 -467 178q-115 129 -115 357zM379 1618l233 299h256l233 -299h-231l-131 168l-129 -168h-231z" />
<glyph unicode="&#xdc;" horiz-adv-x="1478" d="M147 496v974h314v-954q0 -145 78 -223q70 -72 184 -72q297 0 297 281v968h313v-956q0 -553 -604 -553q-307 0 -467 178q-115 129 -115 357zM411 1638v236h258v-236h-258zM811 1638v236h258v-236h-258z" />
<glyph unicode="&#xdd;" horiz-adv-x="1366" d="M31 1470h362l305 -639l291 639h348l-491 -919v-551h-307v555zM563 1618l193 299h315l-301 -299h-207z" />
<glyph unicode="&#xde;" horiz-adv-x="1366" d="M156 0v1470h307v-200h364q213 0 335 -129t122 -346q0 -156 -86 -285q-125 -184 -383 -184h-352v-326h-307zM463 580h285q229 0 229 229q0 207 -270 207h-244v-436z" />
<glyph unicode="&#xdf;" horiz-adv-x="1251" d="M141 0v1104q0 166 115 274q129 119 362 119q176 0 295 -61q188 -98 189 -340q0 -180 -150 -254q233 -104 234 -373q0 -203 -109 -336q-133 -162 -393 -162q-39 1 -113 13v225q20 -2 60 -2q268 0 268 254q0 152 -108 209q-61 33 -205 41v198q113 4 155 27q74 39 74 151 q0 180 -207 181q-70 0 -119 -39q-61 -47 -61 -144v-1085h-287z" />
<glyph unicode="&#xe0;" d="M59 289q0 301 318 348l258 39q100 14 100 86q0 127 -188 127q-156 0 -176 -152h-277q23 225 172 316q111 66 316 65q162 0 274 -57q160 -80 160 -258v-590q0 -147 63 -170v-43h-309q-20 61 -27 129q-154 -158 -352 -158q-137 0 -227 74q-104 86 -105 244zM182 1536h315 l193 -299h-207zM346 307q0 -68 45 -102q37 -29 88 -29q100 0 178 59.5t78 155.5v139q-45 -35 -194 -59q-96 -16 -138 -43q-57 -39 -57 -121z" />
<glyph unicode="&#xe1;" d="M59 289q0 301 318 348l258 39q100 14 100 86q0 127 -188 127q-156 0 -176 -152h-277q23 225 172 316q111 66 316 65q162 0 274 -57q160 -80 160 -258v-590q0 -147 63 -170v-43h-309q-20 61 -27 129q-154 -158 -352 -158q-137 0 -227 74q-104 86 -105 244zM346 307 q0 -68 45 -102q37 -29 88 -29q100 0 178 59.5t78 155.5v139q-45 -35 -194 -59q-96 -16 -138 -43q-57 -39 -57 -121zM450 1237l193 299h315l-301 -299h-207z" />
<glyph unicode="&#xe2;" d="M59 289q0 301 318 348l258 39q100 14 100 86q0 127 -188 127q-156 0 -176 -152h-277q23 225 172 316q111 66 316 65q162 0 274 -57q160 -80 160 -258v-590q0 -147 63 -170v-43h-309q-20 61 -27 129q-154 -158 -352 -158q-137 0 -227 74q-104 86 -105 244zM209 1237 l233 299h256l233 -299h-231l-131 168l-129 -168h-231zM346 307q0 -68 45 -102q37 -29 88 -29q100 0 178 59.5t78 155.5v139q-45 -35 -194 -59q-96 -16 -138 -43q-57 -39 -57 -121z" />
<glyph unicode="&#xe3;" d="M59 289q0 301 318 348l258 39q100 14 100 86q0 127 -188 127q-156 0 -176 -152h-277q23 225 172 316q111 66 316 65q162 0 274 -57q160 -80 160 -258v-590q0 -147 63 -170v-43h-309q-20 61 -27 129q-154 -158 -352 -158q-137 0 -227 74q-104 86 -105 244zM194 1249 q51 252 248 252q45 0 168 -47q72 -27 106 -27q79 0 97 82h133q-41 -246 -223 -245q-53 0 -156 32q-129 41 -145 41q-80 0 -97 -88h-131zM346 307q0 -68 45 -102q37 -29 88 -29q100 0 178 59.5t78 155.5v139q-45 -35 -194 -59q-96 -16 -138 -43q-57 -39 -57 -121z" />
<glyph unicode="&#xe4;" d="M59 289q0 301 318 348l258 39q100 14 100 86q0 127 -188 127q-156 0 -176 -152h-277q23 225 172 316q111 66 316 65q162 0 274 -57q160 -80 160 -258v-590q0 -147 63 -170v-43h-309q-20 61 -27 129q-154 -158 -352 -158q-137 0 -227 74q-104 86 -105 244zM241 1257v236 h258v-236h-258zM346 307q0 -68 45 -102q37 -29 88 -29q100 0 178 59.5t78 155.5v139q-45 -35 -194 -59q-96 -16 -138 -43q-57 -39 -57 -121zM641 1257v236h258v-236h-258z" />
<glyph unicode="&#xe5;" d="M59 289q0 301 318 348l258 39q100 14 100 86q0 127 -188 127q-156 0 -176 -152h-277q23 225 172 316q111 66 316 65q162 0 274 -57q160 -80 160 -258v-590q0 -147 63 -170v-43h-309q-20 61 -27 129q-154 -158 -352 -158q-137 0 -227 74q-104 86 -105 244zM346 307 q0 -68 45 -102q37 -29 88 -29q100 0 178 59.5t78 155.5v139q-45 -35 -194 -59q-96 -16 -138 -43q-57 -39 -57 -121zM350 1376q0 92 72 156q68 57 149 57q82 0 150 -57q71 -64 71 -156t-69.5 -152.5t-151.5 -60.5t-151.5 60.5t-69.5 152.5zM465 1376q0 -45 30.5 -75.5 t75.5 -30.5t76 30.5t31 75.5t-31 76t-76 31t-75.5 -31t-30.5 -76z" />
<glyph unicode="&#xe6;" horiz-adv-x="1820" d="M59 305q0 264 277 311l268 46q98 16 123 34.5t25 71.5q0 121 -201 121q-172 0 -172 -154h-281q29 383 492 383q199 0 336 -121q72 55 118 78q90 41 201 43q205 2 336 -112q176 -154 176 -488v-51h-747q10 -109 45 -164q61 -102 211 -102q63 0 115.5 31.5t68.5 86.5h295 q-53 -180 -199 -272q-121 -74 -280 -76q-176 -2 -281 58q-61 35 -127 118q-51 -82 -162.5 -129t-249.5 -47q-387 0 -387 334zM346 303q0 -127 162 -127q86 0 161.5 62.5t75.5 146.5v137q-43 -37 -213 -61q-98 -14 -135 -39q-51 -35 -51 -119zM1018 653h444q-10 121 -82 181 q-57 49 -139 49q-196 -1 -223 -230z" />
<glyph unicode="&#xe7;" d="M70 514q0 279 123 434q135 170 399 170q170 0 295 -82q168 -109 186 -336h-291q-31 180 -190 177q-123 -4 -180 -109q-47 -82 -47 -207q0 -354 221 -354q96 0 151 76q43 57 43 114h291q-12 -141 -102 -256q-135 -170 -396 -170q-276 0 -405 187q-98 139 -98 356z M282 -416l45 99q106 -33 158 -33q35 0 65.5 21.5t30.5 58.5q0 74 -80 73q-29 0 -81 -16l-44 41l113 172h121l-78 -113q33 8 62 9q61 0 110 -31q68 -43 68 -129q0 -90 -71 -146.5t-183 -56.5q-94 0 -236 51z" />
<glyph unicode="&#xe8;" d="M47 567q0 184 82 326q133 225 440 225q207 0 336 -112q176 -154 176 -488v-51h-747q10 -109 45 -164q61 -102 211 -102q63 0 115.5 31.5t68.5 86.5h295q-53 -182 -199 -272q-121 -76 -280 -76q-543 0 -543 596zM182 1536h315l193 -299h-207zM342 653h444q-10 121 -81 181 q-57 49 -140 49q-196 -1 -223 -230z" />
<glyph unicode="&#xe9;" d="M47 567q0 184 82 326q133 225 440 225q207 0 336 -112q176 -154 176 -488v-51h-747q10 -109 45 -164q61 -102 211 -102q63 0 115.5 31.5t68.5 86.5h295q-53 -182 -199 -272q-121 -76 -280 -76q-543 0 -543 596zM342 653h444q-10 121 -81 181q-57 49 -140 49 q-196 -1 -223 -230zM450 1237l193 299h315l-301 -299h-207z" />
<glyph unicode="&#xea;" d="M47 567q0 184 82 326q133 225 440 225q207 0 336 -112q176 -154 176 -488v-51h-747q10 -109 45 -164q61 -102 211 -102q63 0 115.5 31.5t68.5 86.5h295q-53 -182 -199 -272q-121 -76 -280 -76q-543 0 -543 596zM209 1237l233 299h256l233 -299h-231l-131 168l-129 -168 h-231zM342 653h444q-10 121 -81 181q-57 49 -140 49q-196 -1 -223 -230z" />
<glyph unicode="&#xeb;" d="M47 567q0 184 82 326q133 225 440 225q207 0 336 -112q176 -154 176 -488v-51h-747q10 -109 45 -164q61 -102 211 -102q63 0 115.5 31.5t68.5 86.5h295q-53 -182 -199 -272q-121 -76 -280 -76q-543 0 -543 596zM241 1257v236h258v-236h-258zM342 653h444q-10 121 -81 181 q-57 49 -140 49q-196 -1 -223 -230zM641 1257v236h258v-236h-258z" />
<glyph unicode="&#xec;" horiz-adv-x="569" d="M-102 1536h315l193 -299h-207zM141 0v1090h287v-1090h-287z" />
<glyph unicode="&#xed;" horiz-adv-x="569" d="M141 0v1090h287v-1090h-287zM166 1237l193 299h315l-301 -299h-207z" />
<glyph unicode="&#xee;" horiz-adv-x="569" d="M-75 1237l233 299h256l233 -299h-231l-131 168l-129 -168h-231zM141 0v1090h287v-1090h-287z" />
<glyph unicode="&#xef;" horiz-adv-x="569" d="M-43 1257v236h258v-236h-258zM141 0v1090h287v-1090h-287zM357 1257v236h258v-236h-258z" />
<glyph unicode="&#xf0;" horiz-adv-x="1251" d="M70 543q0 229 141 378.5t364 149.5q162 0 252 -113l4 5q-57 125 -198 247l-221 -96l-129 107l221 96q-84 61 -150 92l221 100q86 -35 162 -90l209 90l127 -106l-207 -90q317 -299 318 -709q0 -322 -178 -491q-150 -141 -373 -142q-231 0 -383 127q-180 152 -180 445z M365 535q0 -156 70.5 -239t193.5 -83q158 0 221 137q39 80 39 193q0 94 -47 172q-70 114 -215 114q-143 0 -213 -118q-49 -82 -49 -176z" />
<glyph unicode="&#xf1;" horiz-adv-x="1251" d="M133 0v1090h275v-160h4q113 188 327 188q166 0 271 -92q108 -98 108 -272v-754h-287v662q0 92 -24 137q-43 78 -162 78q-98 0 -161.5 -66t-63.5 -186v-625h-287zM250 1249q51 252 248 252q45 0 168 -47q72 -27 106 -27q79 0 97 82h133q-41 -246 -223 -245q-53 0 -156 32 q-129 41 -145 41q-80 0 -97 -88h-131z" />
<glyph unicode="&#xf2;" horiz-adv-x="1251" d="M70 545q0 279 168 434q152 139 389 139q238 0 389 -139q168 -155 168 -434t-168 -434q-152 -139 -389 -140q-238 0 -389 140q-168 156 -168 434zM238 1536h315l193 -299h-207zM365 545q0 -332 262 -332t262 332t-262 332t-262 -332z" />
<glyph unicode="&#xf3;" horiz-adv-x="1251" d="M70 545q0 279 168 434q152 139 389 139q238 0 389 -139q168 -155 168 -434t-168 -434q-152 -139 -389 -140q-238 0 -389 140q-168 156 -168 434zM365 545q0 -332 262 -332t262 332t-262 332t-262 -332zM506 1237l193 299h315l-301 -299h-207z" />
<glyph unicode="&#xf4;" horiz-adv-x="1251" d="M70 545q0 279 168 434q152 139 389 139q238 0 389 -139q168 -155 168 -434t-168 -434q-152 -139 -389 -140q-238 0 -389 140q-168 156 -168 434zM265 1237l233 299h256l233 -299h-231l-131 168l-129 -168h-231zM365 545q0 -332 262 -332t262 332t-262 332t-262 -332z" />
<glyph unicode="&#xf5;" horiz-adv-x="1251" d="M70 545q0 279 168 434q152 139 389 139q238 0 389 -139q168 -155 168 -434t-168 -434q-152 -139 -389 -140q-238 0 -389 140q-168 156 -168 434zM250 1249q51 252 248 252q45 0 168 -47q72 -27 106 -27q79 0 97 82h133q-41 -246 -223 -245q-53 0 -156 32q-129 41 -145 41 q-80 0 -97 -88h-131zM365 545q0 -332 262 -332t262 332t-262 332t-262 -332z" />
<glyph unicode="&#xf6;" horiz-adv-x="1251" d="M70 545q0 279 168 434q152 139 389 139q238 0 389 -139q168 -155 168 -434t-168 -434q-152 -139 -389 -140q-238 0 -389 140q-168 156 -168 434zM297 1257v236h258v-236h-258zM365 545q0 -332 262 -332t262 332t-262 332t-262 -332zM697 1257v236h258v-236h-258z" />
<glyph unicode="&#xf7;" horiz-adv-x="1196" d="M82 403v230h1032v-230h-1032zM418 94q0 76 54 129t128 53q72 0 126 -54t54 -128q0 -68 -54 -124t-124 -56q-76 0 -130 53t-54 127zM418 940q0 76 54 129t128 53q72 0 126 -54t54 -128q0 -68 -54 -124t-124 -56q-76 0 -130 53t-54 127z" />
<glyph unicode="&#xf8;" horiz-adv-x="1251" d="M45 0l150 158q-125 152 -125 387q0 279 168 434q152 139 389 139q215 0 366 -121l142 150l71 -66l-145 -151q123 -150 123 -385q0 -279 -168 -434q-152 -139 -389 -140q-217 0 -363 119l-141 -149zM365 545q-1 -104 30 -178l416 438q-68 72 -184 72q-262 0 -262 -332z M446 283q63 -70 181 -70q262 0 262 332q0 106 -29 174z" />
<glyph unicode="&#xf9;" horiz-adv-x="1251" d="M135 373v717h287v-676q0 -201 186 -201q86 0 146 51q76 66 75 197v629h287v-1090h-274v154h-4q-102 -182 -332 -183q-170 0 -266 97q-104 104 -105 305zM238 1536h315l193 -299h-207z" />
<glyph unicode="&#xfa;" horiz-adv-x="1251" d="M135 373v717h287v-676q0 -201 186 -201q86 0 146 51q76 66 75 197v629h287v-1090h-274v154h-4q-102 -182 -332 -183q-170 0 -266 97q-104 104 -105 305zM506 1237l193 299h315l-301 -299h-207z" />
<glyph unicode="&#xfb;" horiz-adv-x="1251" d="M135 373v717h287v-676q0 -201 186 -201q86 0 146 51q76 66 75 197v629h287v-1090h-274v154h-4q-102 -182 -332 -183q-170 0 -266 97q-104 104 -105 305zM265 1237l233 299h256l233 -299h-231l-131 168l-129 -168h-231z" />
<glyph unicode="&#xfc;" horiz-adv-x="1251" d="M135 373v717h287v-676q0 -201 186 -201q86 0 146 51q76 66 75 197v629h287v-1090h-274v154h-4q-102 -182 -332 -183q-170 0 -266 97q-104 104 -105 305zM297 1257v236h258v-236h-258zM697 1257v236h258v-236h-258z" />
<glyph unicode="&#xfd;" d="M20 1090h320l233 -803h5l223 803h303l-375 -1072q-109 -309 -170 -378q-70 -78 -252 -78q-47 0 -129 4v229q25 -4 55 -4q88 0 123 27q47 33 66 137zM450 1237l193 299h315l-301 -299h-207z" />
<glyph unicode="&#xfe;" horiz-adv-x="1251" d="M127 -426v1896h287v-520h4q109 168 313 168q193 0 316 -139q137 -154 137 -422q0 -246 -109 -405q-123 -180 -350 -181q-209 0 -307 168h-4v-565h-287zM401 520q0 -133 58 -217q68 -96 194 -96q125 0 187 117q49 90 49 213q0 145 -53 231q-63 102 -191 102 q-244 0 -244 -350z" />
<glyph unicode="&#xff;" d="M20 1090h320l233 -803h5l223 803h303l-375 -1072q-109 -309 -170 -378q-70 -78 -252 -78q-47 0 -129 4v229q25 -4 55 -4q88 0 123 27q47 33 66 137zM241 1257v236h258v-236h-258zM641 1257v236h258v-236h-258z" />
<glyph unicode="&#x152;" horiz-adv-x="2048" d="M76 735q0 315 135 522q162 252 477 252q193 0 318 -125v86h962v-260h-682v-309h635v-260h-635v-381h682v-260h-962v102q-68 -76 -129 -106q-76 -35 -197 -35q-231 0 -393 158q-211 203 -211 616zM377 719q0 -195 78 -334q92 -170 264 -170q121 0 199 61q67 55 67 125v666 q0 98 -92 150q-70 39 -162 38q-180 0 -272 -157q-82 -139 -82 -379z" />
<glyph unicode="&#x153;" horiz-adv-x="1933" d="M70 545q0 279 168 434q152 139 389 139q111 0 213 -46t161 -118q76 78 136 111q94 53 219 53q207 0 336 -112q176 -154 176 -488v-51h-748q10 -109 45 -164q61 -102 211 -102q63 0 116 31.5t69 86.5h294q-53 -182 -198 -272q-121 -76 -281 -76t-264 52q-61 31 -129 100 q-123 -152 -356 -152q-238 0 -389 140q-168 156 -168 434zM365 545q0 -332 262 -332t262 332t-262 332t-262 -332zM1128 653h445q-10 121 -82 181q-57 49 -139 49q-197 -1 -224 -230z" />
<glyph unicode="&#x178;" horiz-adv-x="1366" d="M31 1470h362l305 -639l291 639h348l-491 -919v-551h-307v555zM354 1638v236h258v-236h-258zM754 1638v236h258v-236h-258z" />
<glyph unicode="&#x2c6;" horiz-adv-x="681" d="M-20 1237l233 299h256l233 -299h-231l-131 168l-129 -168h-231z" />
<glyph unicode="&#x2dc;" horiz-adv-x="681" d="M-35 1249q51 252 248 252q45 0 168 -47q72 -27 106 -27q79 0 97 82h133q-41 -246 -223 -245q-53 0 -156 32q-129 41 -145 41q-80 0 -97 -88h-131z" />
<glyph unicode="&#x2000;" horiz-adv-x="985" />
<glyph unicode="&#x2001;" horiz-adv-x="1970" />
<glyph unicode="&#x2002;" horiz-adv-x="985" />
<glyph unicode="&#x2003;" horiz-adv-x="1970" />
<glyph unicode="&#x2004;" horiz-adv-x="656" />
<glyph unicode="&#x2005;" horiz-adv-x="492" />
<glyph unicode="&#x2006;" horiz-adv-x="328" />
<glyph unicode="&#x2007;" horiz-adv-x="328" />
<glyph unicode="&#x2008;" horiz-adv-x="246" />
<glyph unicode="&#x2009;" horiz-adv-x="394" />
<glyph unicode="&#x200a;" horiz-adv-x="109" />
<glyph unicode="&#x2010;" horiz-adv-x="681" d="M55 440v267h572v-267h-572z" />
<glyph unicode="&#x2011;" horiz-adv-x="681" d="M55 440v267h572v-267h-572z" />
<glyph unicode="&#x2012;" horiz-adv-x="681" d="M55 440v267h572v-267h-572z" />
<glyph unicode="&#x2013;" d="M0 465v217h1139v-217h-1139z" />
<glyph unicode="&#x2014;" horiz-adv-x="2048" d="M0 465v217h2048v-217h-2048z" />
<glyph unicode="&#x2018;" horiz-adv-x="569" d="M141 930v209q0 291 281 350v-105q-92 -29 -125 -84q-23 -37 -27 -110h158v-260h-287z" />
<glyph unicode="&#x2019;" horiz-adv-x="569" d="M141 1210v260h287v-208q0 -291 -281 -351v105q92 29 125 84q23 37 27 110h-158z" />
<glyph unicode="&#x201a;" horiz-adv-x="569" d="M141 0v260h287v-209q0 -291 -281 -350v104q92 29 125 84q23 37 27 111h-158z" />
<glyph unicode="&#x201c;" horiz-adv-x="1024" d="M131 930v209q0 291 281 350v-105q-92 -29 -125 -84q-23 -37 -27 -110h158v-260h-287zM606 930v209q0 291 281 350v-105q-92 -29 -125 -84q-23 -37 -27 -110h158v-260h-287z" />
<glyph unicode="&#x201d;" horiz-adv-x="1024" d="M131 1210v260h287v-208q0 -291 -281 -351v105q92 29 125 84q23 37 27 110h-158zM606 1210v260h287v-208q0 -291 -281 -351v105q92 29 125 84q23 37 27 110h-158z" />
<glyph unicode="&#x201e;" horiz-adv-x="1024" d="M131 0v260h287v-209q0 -291 -281 -350v104q92 29 125 84q23 37 27 111h-158zM606 0v260h287v-209q0 -291 -281 -350v104q92 29 125 84q23 37 27 111h-158z" />
<glyph unicode="&#x2022;" horiz-adv-x="716" d="M20 737q0 141 98.5 238.5t239.5 97.5t239.5 -97t98.5 -239q0 -141 -98 -240.5t-240 -99.5q-141 0 -239.5 98.5t-98.5 241.5z" />
<glyph unicode="&#x2026;" horiz-adv-x="2048" d="M188 0v299h308v-299h-308zM870 0v299h308v-299h-308zM1552 0v299h308v-299h-308z" />
<glyph unicode="&#x202f;" horiz-adv-x="394" />
<glyph unicode="&#x2039;" horiz-adv-x="681" d="M170 451v245l342 295v-237l-205 -181l205 -180v-237z" />
<glyph unicode="&#x203a;" horiz-adv-x="681" d="M170 156v237l205 180l-205 181v237l342 -295v-245z" />
<glyph unicode="&#x205f;" horiz-adv-x="492" />
<glyph unicode="&#x2122;" horiz-adv-x="2048" d="M90 1296v174h698v-174h-235v-669h-229v669h-234zM948 627v843h314l192 -512l191 512h313v-843h-217v575h-4l-201 -575h-166l-201 575h-4v-575h-217z" />
<glyph unicode="&#xe000;" horiz-adv-x="1085" d="M0 0v1085h1085v-1085h-1085z" />
</font>
</defs></svg> 