<?xml version="1.0" encoding="utf-8"?>
<!-- Generator: Adobe Illustrator 18.1.1, SVG Export Plug-In . SVG Version: 6.00 Build 0)  -->
<!DOCTYPE svg PUBLIC "-//W3C//DTD SVG 1.1//EN" "http://www.w3.org/Graphics/SVG/1.1/DTD/svg11.dtd">
<svg version="1.1" id="Layer_1" xmlns="http://www.w3.org/2000/svg" xmlns:xlink="http://www.w3.org/1999/xlink" x="0px" y="0px"
	 width="612px" height="792px" viewBox="0 0 612 792" enable-background="new 0 0 612 792" xml:space="preserve">
<g>
	<path fill="#FFFFFF" d="M340.9,368.5c0-4.9-3.1-7.3-8-7.3s-10.4,0-15.3,0c-5.5,0-11-4.9-12.9-10.4c-1.8-4.9,1.2-8,4.3-11
		s6.1-6.1,9.2-9.2c4.9-4.9,4.9-8,0-12.2c-3.7-3.7-7.3-8-11.6-11.6c-4.9-4.3-8-4.3-12.2,0c-3.1,3.1-6.1,6.1-9.2,9.2
		c-4.9,5.5-11,4.3-15.9,2.4s-6.7-6.1-6.1-11.6c0-1.8,0-3.7,0-6.1v-0.6c0-15.3,0-15.3-15.3-16.5c-4.3,0-9.2,0-13.5,1.2
		c-2.4,0.6-4.9,4.3-4.9,7.3c-0.6,4.3-0.6,9.2,0,14.1c0.6,7.3-4.3,11-9.8,13.5c-4.9,2.4-8.6-1.2-12.2-4.3c-3.1-3.1-6.1-6.1-9.2-9.2
		c-4.3-4.3-8-4.3-12.2,0c-4.3,4.3-8,8-12.2,12.2c-3.7,3.7-3.7,7.3,0,11c3.1,3.1,6.1,6.7,9.2,9.2c4.9,4.3,4.9,9.2,3.7,14.1
		c-1.2,6.1-5.5,8-11,8c-4.9,0-9.8,0-15.3,0s-8,3.1-8,8.6c0,5.5,0,11,0,16.5c0,6.1,3.1,9.2,9.2,9.2c4.9,0,9.2,0,14.1,0
		c6.7,0,9.8,4.9,12.2,9.2s0,8-3.1,11c-3.7,3.7-6.7,6.7-10.4,10.4c-3.7,3.7-4.3,7.3,0,11.6c4.3,4.3,8.6,8.6,12.9,12.9
		c3.7,3.7,7.3,3.1,11,0c3.1-3.1,6.1-5.5,8.6-8.6c4.3-5.5,10.4-5.5,15.9-3.7c4.3,1.2,6.7,4.3,6.7,9.2c0,5.5,0,11,0,16.5
		c0,5.5,2.4,8.6,8.6,9.2c5.5,0.6,11.6,0.6,17.7,0c5.5-0.6,8.6-3.1,8-9.2c0-4.3,0-8,0-12.2c0-6.1,4.3-12.9,9.8-14.1
		c3.1-0.6,6.7,0.6,9.2,2.4c4.3,3.1,7.3,7.3,11,11c4.3,4.3,8.6,4.3,12.9,0c4.3-3.7,8-8,12.2-12.2c4.3-4.3,4.3-7.3,0-12.2
		c-3.1-3.1-5.5-6.1-8.6-8.6c-4.3-4.3-4.9-9.2-4.3-14.1c0.6-5.5,3.7-8.6,9.8-8.6c4.9,0,10.4,0,15.3,0c6.7,0,9.8-2.4,9.8-9.2
		C340.9,379.5,340.9,374,340.9,368.5z M273,377.6c0.6,11-9.2,26.3-25.7,26.3c-14.1,0-25.7-11.6-25.7-25.7c0-14.7,11-25.7,25.7-26.3
		C261.3,351.3,272.3,363,273,377.6z"/>
	<path fill="#FFFFFF" d="M426.6,503.7c3.1-1.2,4.3-3.7,3.1-6.7c-1.2-3.1-2.4-6.7-3.7-9.8c-1.2-3.7,0-8,3.1-11c2.4-2.4,5.5-1.2,8,0
		c2.4,1.2,5.5,2.4,8.6,3.7c4.3,1.8,6.1,0.6,8-3.1c1.2-3.7,3.1-6.7,4.3-10.4c1.8-4.3,0.6-6.1-3.1-8c-2.4-1.2-5.5-2.4-8-3.1
		c-4.9-1.8-5.5-5.5-6.1-9.8c-0.6-3.7,2.4-5.5,5.5-6.7c1.2-0.6,2.4-1.2,3.7-1.2c0,0,0,0,0.6,0c9.8-4.3,9.8-4.3,6.7-14.1
		c-1.2-3.1-2.4-6.1-4.3-8c-1.2-1.2-4.3-1.8-6.1-1.2c-3.1,0.6-6.1,2.4-9.2,3.7c-4.3,2.4-8,0-11-3.1c-3.1-2.4-1.8-5.5-0.6-8.6
		c1.2-2.4,2.4-5.5,3.7-8c1.8-3.7,0.6-6.1-3.1-8s-7.3-3.1-11-4.9c-3.1-1.2-5.5-0.6-7.3,3.1c-1.2,3.1-2.4,5.5-3.7,8.6
		c-1.2,4.3-4.3,5.5-8,6.1c-4.3,0.6-6.7-1.8-8-4.9s-2.4-6.7-4.3-9.8c-1.2-3.7-4.3-4.3-7.3-3.1c-3.1,1.2-6.7,3.1-10.4,4.3
		c-4.3,1.8-4.9,4.3-3.7,8.6c1.2,3.1,2.4,6.1,3.7,9.2c1.8,4.3-0.6,7.3-3.1,10.4c-2.4,2.4-5.5,1.8-8,0.6c-3.1-1.2-6.1-2.4-9.2-3.7
		c-3.7-1.2-6.1-0.6-7.3,3.1c-1.8,3.7-3.1,7.3-4.9,11.6c-1.2,3.1,0,5.5,3.1,7.3c2.4,1.2,4.9,2.4,8,3.1c4.9,1.2,6.1,4.9,6.7,9.2
		c0.6,3.1-0.6,5.5-3.7,6.7c-3.7,1.2-6.7,3.1-10.4,4.3c-3.7,1.2-4.9,4.3-3.7,8c1.2,3.7,3.1,7.3,4.9,11c1.8,3.1,4.3,4.3,8,2.4
		c2.4-1.2,4.9-2.4,8-3.1c4.3-1.8,9.2-0.6,11.6,2.4c1.2,1.8,1.2,4.9,1.2,6.7c-0.6,3.7-2.4,6.7-4.3,9.8c-1.8,3.7-0.6,6.7,3.1,8
		c3.7,1.8,7.3,3.1,11,4.3c4.3,1.8,5.5,0.6,7.3-3.1c1.2-2.4,2.4-4.9,3.1-8c1.2-3.7,4.3-5.5,7.3-6.1c3.7-1.2,6.1,0.6,8,4.3
		c1.2,3.1,2.4,6.7,4.3,9.8c1.8,4.3,4.3,5.5,8.6,3.7C419.8,506.8,423.5,505.5,426.6,503.7z M406.4,470.1c-9.8,4.3-26.9,1.2-33.7-13.5
		c-5.5-12.9,0.6-28.2,13.5-33c12.9-5.5,27.5,0.6,33,13.5C425.3,449.2,418.6,463.9,406.4,470.1z"/>
</g>
<path fill="#FFFFFF" d="M542.2,197.1h-101v-19c0-37.3-30.6-67.9-67.9-67.9H243.6c-37.3,0-67.9,30.6-67.9,67.9v19H69.8
	c-36.7,0-66.7,30-66.7,66.7v273.6c0,24.5,14.1,47.1,35.5,58.8v25.1c0,33,26.9,60,60,60h406.4c33,0,60-26.9,60-60v-21.4
	c25.7-9.8,43.5-34.9,43.5-62.4V263.8C608.3,227.1,579,197.1,542.2,197.1z M212.4,178.1c0-17.1,14.1-31.2,31.2-31.2h129.7
	c17.1,0,31.2,14.1,31.2,31.2v19H212.4V178.1z M526.9,621.8c0,12.2-9.8,22-22,22H99.1c-12.2,0-22-9.8-22-22v-17.7h450.4L526.9,621.8
	L526.9,621.8z M571,537.4c0,15.9-12.9,28.8-28.8,28.8H69.8c-15.9,0-28.8-12.9-28.8-28.8V263.8c0-15.9,12.9-28.8,28.8-28.8h471.9
	c15.9,0,28.8,12.9,28.8,28.8v273.6H571z"/>
</svg>
