<?xml version="1.0" encoding="utf-8"?>
<!-- Generator: Adobe Illustrator 18.1.1, SVG Export Plug-In . SVG Version: 6.00 Build 0)  -->
<!DOCTYPE svg PUBLIC "-//W3C//DTD SVG 1.1//EN" "http://www.w3.org/Graphics/SVG/1.1/DTD/svg11.dtd">
<svg version="1.1" id="Layer_1" xmlns="http://www.w3.org/2000/svg" xmlns:xlink="http://www.w3.org/1999/xlink" x="0px" y="0px"
	 width="612px" height="792px" viewBox="0 0 612 792" enable-background="new 0 0 612 792" xml:space="preserve">
<g>
	<path fill="#FFB81C" d="M520.2,319.5C520.2,199.5,418,90,306,90S91.8,199.5,91.8,319.5c0,87.5,48.3,168.3,118.7,201.3
		c0,6.7,0,12.9,0,13.5v89.4c0,45.3,47.1,78.9,89.4,78.9h0.6c42.2,0,89.4-33.7,89.4-78.9v-90c0,0,0-3.7,0-8.6
		C465.7,495.8,520.2,411.3,520.2,319.5z M246,566.7h107.7v4.9H246V566.7z M246,587.6h107.7v4.9H246V587.6z M300.5,666.5h-0.6
		c-23.9,0-53.2-20.2-53.2-43.5v-15.3h107.7v15.3C353.7,646.3,324.4,666.5,300.5,666.5z M366.6,495.8c-7.3,2.4-12.9,9.2-12.9,17.1
		c0,1.2,0,20.2,0,20.8v17.7H246v-17.7c0-2.4,0-22,0-23.9c0.6-8-4.3-15.3-11.6-17.7c-63-23.9-107.1-94.9-107.1-172.6
		c0-99.8,86.9-194,178.7-194s178.7,94.2,178.7,194C484.7,400.9,435.1,474.9,366.6,495.8z"/>
	<path fill="#FFB81C" d="M452.3,304.2c-13.5-115.1-116.3-143.8-120.6-145c-9.8-2.4-19,3.1-22,12.9c-2.4,9.8,3.1,19,12.9,22
		c0.6,0,83.8,23.3,94.2,114.4c1.2,9.2,8.6,15.9,17.7,15.9c0.6,0,1.2,0,1.8,0C446.8,323.2,453.5,314,452.3,304.2z"/>
</g>
</svg>
