<?xml version="1.0" encoding="utf-8"?>
<!-- Generator: Adobe Illustrator 18.1.1, SVG Export Plug-In . SVG Version: 6.00 Build 0)  -->
<!DOCTYPE svg PUBLIC "-//W3C//DTD SVG 1.1//EN" "http://www.w3.org/Graphics/SVG/1.1/DTD/svg11.dtd">
<svg version="1.1" id="Layer_1" xmlns="http://www.w3.org/2000/svg" xmlns:xlink="http://www.w3.org/1999/xlink" x="0px" y="0px"
	 width="612px" height="792px" viewBox="0 0 612 792" enable-background="new 0 0 612 792" xml:space="preserve">
<path fill="#666666" d="M526.9,276.7L345.2,102.2c-0.6-0.6-0.6-0.6-1.2-1.2c-3.7-3.1-8.6-4.9-13.5-4.9H123
	c-25.1,0-44.7,20.2-44.7,44.7v510.4c0,25.1,20.2,44.7,44.7,44.7h364.8c25.1,0,44.7-20.2,44.7-44.7V299.9c1.2-2.4,1.8-4.9,1.8-8
	C534.3,285.8,531.2,280.3,526.9,276.7z M351.3,271.8V163.4l112.6,108.3L351.3,271.8L351.3,271.8z M331.1,312.2h161v339
	c0,2.4-2.4,4.9-4.9,4.9H123c-2.4,0-4.9-2.4-4.9-4.9V140.8c0-2.4,2.4-4.9,4.9-4.9h188.5V292C311.5,303,320.1,312.2,331.1,312.2z"/>
</svg>
