<?xml version="1.0" encoding="utf-8"?>
<!-- Generator: Adobe Illustrator 18.1.1, SVG Export Plug-In . SVG Version: 6.00 Build 0)  -->
<!DOCTYPE svg PUBLIC "-//W3C//DTD SVG 1.1//EN" "http://www.w3.org/Graphics/SVG/1.1/DTD/svg11.dtd">
<svg version="1.1" id="Layer_1" xmlns="http://www.w3.org/2000/svg" xmlns:xlink="http://www.w3.org/1999/xlink" x="0px" y="0px"
	 width="612px" height="792px" viewBox="0 0 612 792" enable-background="new 0 0 612 792" xml:space="preserve">
<g>
	<path fill="#777777" d="M47.7,246.7H13.5c-4.9,0-9.2,4.3-9.2,9.2v34.3c0,4.9,4.3,9.2,9.2,9.2h34.3c4.9,0,9.2-4.3,9.2-9.2v-34.3
		C56.9,251,52.6,246.7,47.7,246.7z"/>
	<path fill="#777777" d="M47.7,369.7H13.5c-4.9,0-9.2,4.3-9.2,9.2v34.3c0,4.9,4.3,9.2,9.2,9.2h34.3c4.9,0,9.2-4.3,9.2-9.2v-34.3
		C56.9,374,52.6,369.7,47.7,369.7z"/>
	<path fill="#777777" d="M47.7,492.7H13.5c-4.9,0-9.2,4.3-9.2,9.2v34.3c0,4.9,4.3,9.2,9.2,9.2h34.3c4.9,0,9.2-4.3,9.2-9.2v-34.3
		C56.9,496.4,52.6,492.7,47.7,492.7z"/>
	<path fill="#777777" d="M598.5,246.7H108.3c-4.9,0-9.2,4.3-9.2,9.2v34.3c0,4.9,4.3,9.2,9.2,9.2h490.8c4.9,0,9.2-4.3,9.2-9.2v-34.3
		C607.7,251,604,246.7,598.5,246.7z"/>
	<path fill="#777777" d="M598.5,369.7H108.3c-4.9,0-9.2,4.3-9.2,9.2v34.3c0,4.9,4.3,9.2,9.2,9.2h490.8c4.9,0,9.2-4.3,9.2-9.2v-34.3
		C607.7,374,604,369.7,598.5,369.7z"/>
	<path fill="#777777" d="M598.5,492.7H108.3c-4.9,0-9.2,4.3-9.2,9.2v34.3c0,4.9,4.3,9.2,9.2,9.2h490.8c4.9,0,9.2-4.3,9.2-9.2v-34.3
		C607.7,496.4,604,492.7,598.5,492.7z"/>
</g>
</svg>
