<?xml version="1.0" encoding="utf-8"?>
<!-- Generator: Adobe Illustrator 18.1.1, SVG Export Plug-In . SVG Version: 6.00 Build 0)  -->
<!DOCTYPE svg PUBLIC "-//W3C//DTD SVG 1.1//EN" "http://www.w3.org/Graphics/SVG/1.1/DTD/svg11.dtd">
<svg version="1.1" id="Layer_1" xmlns="http://www.w3.org/2000/svg" xmlns:xlink="http://www.w3.org/1999/xlink" x="0px" y="0px"
	 width="100px" height="100px" viewBox="-255 347 100 100" enable-background="new -255 347 100 100" xml:space="preserve">
<path fill="#FFFFFF" d="M-156.8,437.2l-28.5-28.5c-0.3-0.3-0.6-0.5-0.9-0.7c4.5-6.2,7.2-13.9,7.2-22.2c0-20.8-17-37.8-37.9-37.8
	c-20.8,0-37.8,17-37.8,37.8c0,20.8,17,37.8,37.8,37.8c9,0,17.2-3.1,23.7-8.4c0.2,0.2,0.4,0.5,0.6,0.7l28.5,28.5c1,1,2.3,1.5,3.6,1.5
	c1.3,0,2.6-0.5,3.6-1.5C-154.8,442.5-154.8,439.2-156.8,437.2z M-216.9,417.5c-17.5,0-31.7-14.2-31.7-31.7s14.2-31.7,31.7-31.7
	s31.7,14.2,31.7,31.7S-199.4,417.5-216.9,417.5z"/>
</svg>
