<?xml version="1.0" standalone="no"?>
<!DOCTYPE svg PUBLIC "-//W3C//DTD SVG 1.1//EN" "http://www.w3.org/Graphics/SVG/1.1/DTD/svg11.dtd" >
<svg xmlns="http://www.w3.org/2000/svg">
<metadata>
<json>
{
	"fontFamily": "quanta-icons",
	"version": "Version 0.0",
	"fontId": "quanta-icons",
	"psName": "quanta-icons",
	"subFamily": "Regular",
	"fullName": "quanta-icons",
	"description": "Generated by IcoMoon"
}
</json>
</metadata>
<defs>
<font id="quanta-icons" horiz-adv-x="1024">
<font-face units-per-em="1024" ascent="960" descent="-64" />
<missing-glyph horiz-adv-x="1024" />
<glyph unicode="&#x20;" d="" horiz-adv-x="512" />
<glyph unicode="&#xe000;" d="M881.986 206.215c41.010-27.417 46.030-78.395 11.143-113.291l-13.854-13.845c-34.887-34.887-85.865-29.877-113.282 11.134l-184.222 275.506c-27.417 41.010-16.304 52.123 24.706 24.706l275.509-184.21zM274.331 89.319c-27.417-41.010-78.395-46.030-113.282-11.143l-13.854 13.854c-34.887 34.887-29.867 85.865 11.143 113.282l275.515 184.21c41.010 27.417 52.123 16.304 24.706-24.706l-184.229-275.497zM159.232 696.962c-41.010 27.417-46.030 78.395-11.143 113.291l13.854 13.845c34.887 34.887 85.865 29.877 113.282-11.134l184.21-275.506c27.417-41.010 16.304-52.123-24.706-24.706l-275.497 184.21zM759.698 806.702c27.417 41.010 78.395 46.030 113.282 11.143l13.854-13.854c34.887-34.887 29.867-85.865-11.143-113.282l-275.497-184.231c-41.010-27.417-52.123-16.304-24.706 24.706l184.21 275.518zM946.055 535.099c48.389 9.607 87.984-22.889 87.984-72.233v-19.586c0-49.333-39.595-81.84-87.984-72.233l-325.061 64.553c-48.389 9.607-48.389 25.339 0 34.946l325.061 64.553zM599.040 22.779c9.607-48.389-22.889-87.984-72.233-87.984h-19.586c-49.333 0-81.84 39.595-72.233 87.984l64.553 325.070c9.607 48.389 25.339 48.389 34.946 0l64.553-325.070zM87.984 371.049c-48.389-9.607-87.984 22.889-87.984 72.233v19.586c0 49.333 39.595 81.84 87.984 72.233l325.061-64.553c48.389-9.607 48.389-25.339 0-34.946l-325.061-64.553zM434.999 873.232c-9.607 48.398 22.88 87.982 72.233 87.982h19.586c49.333 0 81.84-39.595 72.233-87.984l-64.553-325.061c-9.607-48.389-25.339-48.389-34.946 0l-64.553 325.063z" horiz-adv-x="1033" />
<glyph unicode="&#xe001;" d="M871.207 448l-871.79-512v1024z" horiz-adv-x="869" />
<glyph unicode="&#xe002;" d="M73.634 859.618l291.090-251.227-306.197-281.833 321.383-318.064 26.734 27.008-293.074 290.062 308.267 283.749-323.367 279.088zM0.050 874.007c-0.001-0.186-0.002-0.407-0.002-0.627 0-47.493 38.5-85.993 85.993-85.993 46.831 0 84.919 37.436 85.971 84.014 0.021 2.792 0.022 3.012 0.022 3.233 0 47.493-38.5 85.993-85.993 85.993-46.831 0-84.919-37.436-85.971-84.014zM307.287 608.855c0-47.493 38.501-85.994 85.994-85.994s85.994 38.501 85.994 85.994c0 47.493-38.501 85.994-85.994 85.994-47.493 0-85.994-38.501-85.994-85.994zM0.050 330.123c-0.001-0.186-0.002-0.407-0.002-0.627 0-47.493 38.5-85.993 85.993-85.993 46.831 0 84.919 37.436 85.971 84.014 0.021 2.792 0.022 3.012 0.022 3.233 0 47.493-38.5 85.993-85.993 85.993-46.831 0-84.919-37.436-85.971-84.014zM307.287 21.993c0-47.493 38.501-85.994 85.994-85.994s85.994 38.501 85.994 85.994c0 47.493-38.501 85.994-85.994 85.994-47.493 0-85.994-38.501-85.994-85.994z" horiz-adv-x="478" />
<glyph unicode="&#xe003;" d="M156.528 873.189c17.303 47.744 73.045 86.811 123.84 86.811h206.775c50.798 0 68.423-33.989 39.182-75.497l-158.171-224.597c-29.241-41.529-11.616-75.497 39.182-75.497h79.81c50.798 0 64.937-31.227 31.424-69.403l-486.526-554.222c-33.513-38.167-43.888-31.506-23.065 14.832l135.893 302.359c20.821 46.329-3.694 84.238-54.501 84.238h-26.894c-50.798 0-78.176 39.067-60.862 86.811l153.913 424.165z" horiz-adv-x="537" />
<glyph unicode="&#xe004;" d="M1423.653 902.978c-39.557 39.584-94.178 64.043-154.507 64.043-73.991 0-139.264-30.311-178.731-86.661l-72.937-69.719c-25.394 26.272-60.855 42.656-100.382 42.656-41.223 0-78.176-17.73-103.803-45.993l-58.661 64.043c-38.971 59.6-109.424 95.673-185.959 95.673-62.231 0-118.375-26.009-158.135-67.701l-303.632-297.282c-66.354-71.417-106.905-167.088-106.905-272.267 0-221.33 179.433-400.763 400.763-400.763 173.817 0 321.36 110.855 376.891 265.568 38.357-27.296 85.138-43.534 135.813-43.534 56.379 0 108.075 19.895 148.597 53.072 52.75-159.744 202.985-275.104 380.373-275.104 221.33 0 400.763 179.433 400.763 400.763 0 106.117-41.312 202.606-108.661 274.256l-310.887 298.949zM398.951 89.659c-130.603 0-236.514 105.881-236.514 236.514s105.938 236.455 236.514 236.455 236.514-105.881 236.514-236.514-105.881-236.455-236.514-236.455zM918.002 271.989c-64.336 0-116.443 52.137-116.443 116.443s52.135 116.443 116.443 116.443 116.443-52.137 116.443-116.443-52.137-116.443-116.443-116.443zM1442.464 89.659c-130.574 0-236.514 105.881-236.514 236.514s105.881 236.455 236.514 236.455 236.514-105.881 236.514-236.514-105.938-236.455-236.514-236.455z" horiz-adv-x="1842" />
<glyph unicode="&#xe005;" d="M0 636.251l512-471.659 512 471.659-87.666 95.163-424.334-390.903-424.35 390.903z" />
<glyph unicode="&#xe006;" d="M900.594 960l123.353-123.378-900.594-900.622-123.378 123.378zM0.025 836.674l123.381 123.378 900.594-900.594-123.378-123.381z" />
<glyph unicode="&#xe007;" d="M908.341 844.35c-154.21 154.199-404.242 154.21-558.453 0-128.165-128.165-149.701-322.466-64.843-472.994l-254.304-254.293c-40.981-40.981-40.992-107.447 0-148.448l1.893-1.883c40.992-41.001 107.458-40.981 148.439 0l254.293 254.293c150.517-84.869 344.83-63.323 472.994 64.843 154.192 154.24 154.192 404.251-0.018 558.482zM830.030 364.187c-110.965-110.965-290.889-110.965-401.854 0-110.965 110.974-110.965 290.878 0 401.854s290.878 110.974 401.842 0 110.976-290.889 0.011-401.854z" />
<glyph unicode="&#xe008;" d="M650.192 494.126l-260.194 427.493c-22.953 37.705-72.13 49.666-109.833 26.72-37.707-22.953-49.671-72.133-26.725-109.84l187.639-308.29-360.43-1.968c-38.647-0.215-70.741-27.826-77.966-64.325-5.387-20.309-2.866-42.681 8.923-62.043l260.19-427.493c22.946-37.707 72.126-49.664 109.842-26.715 37.707 22.946 49.669 72.133 26.715 109.835l-189.666 311.621 363.282 1.986c37.344 0.208 68.487 26.032 77.065 60.697 0.288 1.083 0.571 2.169 0.818 3.264 0.041 0.215 0.080 0.432 0.121 0.645 4.169 19.321 1.305 40.201-9.783 58.414zM302.174 25.586c5.125 21.070 26.357 33.993 47.429 28.866 21.065-5.127 33.991-26.357 28.866-47.424-5.131-21.070-26.363-33.993-47.431-28.866-21.070 5.127-33.986 26.354-28.864 47.424z" horiz-adv-x="661" />
<glyph unicode="&#xe009;" d="M611.328 960h-611.063v-133.81h64.080v69.735h179.483v-278.789h-168.176v-133.81h64.075l0.002 69.73h104.101v-261.415l-130.485-0.005v-133.81h64.080v69.735h66.402v-291.566h64.075v10.064l119.675 100.288 119.675-100.288v-10.064h64.080v291.566h68.663v-69.735h64.080v133.81h-132.743l-0.002 261.419h106.359v-69.73h64.075v133.81h-170.43v278.789h181.742v-69.73h64.080l0.002 133.806h-245.833zM547.253 701.79l-69.799 58.485 69.799 58.48v-116.965zM547.253 355.15l-69.799 58.48 69.799 58.485v-116.965zM307.902 472.117l69.799-58.485-69.799-58.48v116.965zM311.081 553.056h233.001l-116.505-97.623-116.496 97.623zM427.573 371.838l95.703-80.19-191.401-0.007 95.698 80.197zM544.082 227.566l-116.51-97.627-116.505 97.627h233.015zM547.253 617.136h-239.351v1.054l119.675 100.283 119.675-100.288-0.005-1.049zM307.902 818.757l69.794-58.48-69.794-58.487v116.967zM315.577 895.925h223.995l-112-93.856-111.995 93.856zM307.902 29.664v116.962l69.799-58.48-69.799-58.482zM477.458 88.144l69.799 58.48v-116.962l-69.799 58.482z" horiz-adv-x="857" />
<glyph unicode="&#xe00a;" d="M323.753-63.998l471.659 512-471.659 512-95.166-87.664 390.903-424.336-390.903-424.35z" />
<glyph unicode="&#xe00b;" d="M700.247 960.002l-471.659-512 471.659-512 95.166 87.666-390.903 424.334 390.903 424.352z" />
<glyph unicode="&#xe600;" d="M592 512h-16v192c0 105.87-86.13 192-192 192h-128c-105.87 0-192-86.13-192-192v-192h-16c-26.4 0-48-21.6-48-48v-480c0-26.4 21.6-48 48-48h544c26.4 0 48 21.6 48 48v480c0 26.4-21.6 48-48 48zM384 64h-128l27.84 139.2c-16.808 11.532-27.84 30.874-27.84 52.8 0 35.346 28.654 64 64 64 35.346 0 64-28.654 64-64 0-21.926-11.032-41.268-27.84-52.8l27.84-139.2zM448 512h-256v192c0 35.29 28.71 64 64 64h128c35.29 0 64-28.71 64-64v-192z" />
<glyph unicode="&#xf000;" d="M0 960l1024-1024h-1024z" />
<glyph unicode="&#xf099;" d="M925.714 726.857q-38.286-56-92.571-95.429 0.571-8 0.571-24 0-74.286-21.714-148.286t-66-142-105.429-120.286-147.429-83.429-184.571-31.143q-154.857 0-283.429 82.857 20-2.286 44.571-2.286 128.571 0 229.143 78.857-60 1.143-107.429 36.857t-65.143 91.143q18.857-2.857 34.857-2.857 24.571 0 48.571 6.286-64 13.143-106 63.714t-42 117.429v2.286q38.857-21.714 83.429-23.429-37.714 25.143-60 65.714t-22.286 88q0 50.286 25.143 93.143 69.143-85.143 168.286-136.286t212.286-56.857q-4.571 21.714-4.571 42.286 0 76.571 54 130.571t130.571 54q80 0 134.857-58.286 62.286 12 117.143 44.571-21.143-65.714-81.143-101.714 53.143 5.714 106.286 28.571z" horiz-adv-x="951" />
<glyph unicode="&#xf09a;" d="M292 642.286h146.857l-17.143-162.286h-129.714v-470.857h-194.857v470.857h-97.143v162.286h97.143v97.714q0 104 49.143 157.429t161.714 53.429h129.714v-162.286h-81.143q-22.286 0-35.714-3.714t-19.429-13.429-7.714-19.714-1.714-28.286v-81.143z" horiz-adv-x="439" />
<glyph unicode="&#xf0c9;" d="M877.714 192v-73.143q0-14.857-10.857-25.714t-25.714-10.857h-804.571q-14.857 0-25.714 10.857t-10.857 25.714v73.143q0 14.857 10.857 25.714t25.714 10.857h804.571q14.857 0 25.714-10.857t10.857-25.714zM877.714 484.571v-73.143q0-14.857-10.857-25.714t-25.714-10.857h-804.571q-14.857 0-25.714 10.857t-10.857 25.714v73.143q0 14.857 10.857 25.714t25.714 10.857h804.571q14.857 0 25.714-10.857t10.857-25.714zM877.714 777.143v-73.143q0-14.857-10.857-25.714t-25.714-10.857h-804.571q-14.857 0-25.714 10.857t-10.857 25.714v73.143q0 14.857 10.857 25.714t25.714 10.857h804.571q14.857 0 25.714-10.857t10.857-25.714z" horiz-adv-x="878" />
</font></defs></svg>