<?xml version="1.0" standalone="no"?>
<!DOCTYPE svg PUBLIC "-//W3C//DTD SVG 1.1//EN" "http://www.w3.org/Graphics/SVG/1.1/DTD/svg11.dtd" >
<svg xmlns="http://www.w3.org/2000/svg">
<metadata>
This is a custom SVG webfont generated by Font Squirrel.
Copyright   : NA
</metadata>
<defs>
<font id="PNCSansLight" horiz-adv-x="1052" >
<font-face units-per-em="2048" ascent="1638" descent="-410" />
<missing-glyph horiz-adv-x="522" />
<glyph unicode=" "  horiz-adv-x="522" />
<glyph unicode="&#x09;" horiz-adv-x="522" />
<glyph unicode="&#xa0;" horiz-adv-x="522" />
<glyph unicode="!" horiz-adv-x="622" d="M272 0v137h138v-137h-138zM285 1458h112l-6 -1065h-100z" />
<glyph unicode="&#x22;" horiz-adv-x="835" d="M195 1139v319h129v-319h-129zM512 1139v319h129v-319h-129z" />
<glyph unicode="#" horiz-adv-x="1050" d="M174 727v6v68h152l36 235h-143l-2 74h158l53 348h6h80l-55 -348h268l55 348h76h10l-57 -348h137v-4v-70h-147l-39 -235h141v-74h-153l-58 -362h-6h-78l58 362h-267l-57 -362h-80h-6l57 362h-139zM410 801h268l4 24l33 211h-266z" />
<glyph unicode="$" horiz-adv-x="1202" d="M104 180l78 78q88 -88 169 -125t192 -45v604l-33 4q-160 23 -260 107q-115 98 -115 268q0 174 108.5 279.5t299.5 117.5v183h92v-183q203 -10 373 -155l-72 -72q-135 121 -301 133v-594l59 -10q186 -33 260 -96q127 -104 127 -283q0 -176 -118.5 -283.5t-327.5 -117.5 v-223h-92v221q-139 6 -241 51t-198 141zM244 1075q0 -127 75 -190q84 -72 224 -90v579q-141 -10 -220 -90t-79 -209zM635 88q158 10 247 88t89 211q0 137 -80 205q-23 18 -45.5 31.5t-52 22.5t-47 12.5t-57.5 9.5l-54 8v-588z" />
<glyph unicode="%" horiz-adv-x="1695" d="M141 979v219q0 123 75 199t196 76q119 0 193.5 -76t74.5 -199v-219q0 -121 -75 -196.5t-193 -75.5q-121 0 -196 75.5t-75 196.5zM231 983q0 -199 181 -199q178 0 178 199v211q0 201 -178 201q-180 0 -181 -201v-211zM463 0l680 1458h92l-680 -1458h-92zM1016 260v219 q0 123 74.5 199t195.5 76q119 0 193.5 -76t74.5 -199v-219q0 -123 -74.5 -198.5t-193.5 -75.5q-121 0 -195.5 75.5t-74.5 198.5zM1106 264q0 -201 180 -201q178 0 178 201v211q0 201 -178 201q-180 0 -180 -201v-211z" />
<glyph unicode="&#x26;" horiz-adv-x="1527" d="M172 403q0 68 21.5 127.5t44 97.5t80 87t85 69.5t103.5 71.5l-79 100q-28 37 -55.5 100.5t-27.5 123.5q0 123 87 206.5t210 83.5t210 -85t87 -207q0 -147 -168 -263q-76 -53 -108 -73l417 -506q49 74 67.5 149.5t18.5 212.5h109q0 -287 -127 -444l209 -254h-142l-141 172 q-184 -184 -448 -184q-201 0 -327 114.5t-126 300.5zM283 410q0 -143 94 -233.5t246 -90.5q207 0 389 162l-443 534q-152 -104 -198 -155q-88 -94 -88 -217zM455 1184q0 -57 29.5 -112.5t113.5 -156.5l33 23q41 25 51 35q70 47 108.5 93t38.5 112q0 84 -54 139t-134 55 t-133 -53t-53 -135z" />
<glyph unicode="'" horiz-adv-x="518" d="M195 1139v319h129v-319h-129z" />
<glyph unicode="(" horiz-adv-x="567" d="M102 729q0 485 256 920l76 -41q-119 -225 -176 -429t-57 -450t57 -449.5t176 -429.5l-76 -40q-256 434 -256 919z" />
<glyph unicode=")" horiz-adv-x="567" d="M133 -150l78 -40q254 430 254 919.5t-254 919.5l-78 -41q119 -225 177.5 -429t58.5 -450q0 -248 -58.5 -451t-177.5 -428z" />
<glyph unicode="*" horiz-adv-x="956" d="M147 975l252 139l-252 139l46 78l245 -149l-6 288h92l-6 -288l246 149l45 -78l-252 -139l252 -139l-45 -78l-246 150l6 -289h-92l6 289l-245 -150z" />
<glyph unicode="+" d="M109 492v96h370v368h96v-368h369v-96h-369v-371h-96v371h-370z" />
<glyph unicode="," horiz-adv-x="542" d="M195 -164v-76q74 23 112.5 89.5t40.5 148.5v154h-147v-152h73q1 -8 1 -15q0 -40 -18 -83q-21 -52 -62 -66z" />
<glyph unicode="-" horiz-adv-x="872" d="M168 492v96h537v-96h-537z" />
<glyph unicode="." horiz-adv-x="540" d="M195 0v152h151v-152h-151z" />
<glyph unicode="/" horiz-adv-x="692" d="M0 -152l584 1762h108l-583 -1762h-109z" />
<glyph unicode="0" d="M143 377v704q0 170 107.5 279.5t275.5 109.5t275.5 -109.5t107.5 -279.5v-704q0 -170 -107.5 -279.5t-275.5 -109.5t-275.5 109.5t-107.5 279.5zM248 387q0 -135 72.5 -221t205.5 -86t206 86t73 221v684q0 135 -73 221t-206 86t-205.5 -86t-72.5 -221v-684z" />
<glyph unicode="1" d="M272 1106v125l265 227h104v-1458h-104v1339z" />
<glyph unicode="2" d="M147 0v92l586 768q82 104 82 227q0 133 -74.5 212t-205.5 79q-123 0 -202 -72.5t-79 -218.5h-104q0 166 104 274.5t281 108.5q174 0 279.5 -105t105.5 -278q0 -150 -101 -280l-547 -715h648v-92h-773z" />
<glyph unicode="3" d="M86 354h104q12 -139 99.5 -207.5t212.5 -68.5q133 0 221 84t88 227q0 311 -317 311h-25v93h25q289 0 288 292q0 139 -79.5 217t-202.5 78q-127 0 -202 -70.5t-89 -195.5h-105q16 168 124 263.5t272 95.5q174 0 280.5 -105.5t106.5 -282.5q0 -244 -207 -331 q236 -80 235 -365q0 -190 -115.5 -296.5t-297.5 -106.5q-178 0 -291 93t-125 275z" />
<glyph unicode="4" d="M88 240v92l537 1126h110l-536 -1126h467v463h104v-463h195v-92h-195v-240h-104v240h-578z" />
<glyph unicode="5" d="M152 322h104q35 -244 274 -244q127 0 201 74q41 41 61.5 102t23.5 105t3 118q0 78 -10 139.5t-37 122t-84 94t-141 33.5q-100 0 -171 -40t-93 -113h-93v745h701v-92h-608v-516q96 109 276 108q158 0 246 -88q119 -119 119 -393q0 -131 -21.5 -224t-91.5 -163 q-104 -104 -281 -104q-186 0 -280 98q-86 86 -98 238z" />
<glyph unicode="6" d="M145 397q0 135 82 305l375 756h105l-336 -674q76 35 170 35q174 0 275.5 -115.5t101.5 -291.5q0 -182 -103.5 -303t-282.5 -121q-180 0 -283.5 113.5t-103.5 295.5zM250 403.5q0 -147.5 75.5 -235.5t204.5 -88t206 88t77 235q0 137 -74.5 230.5t-208.5 93.5 q-129 0 -204.5 -88t-75.5 -235.5z" />
<glyph unicode="7" d="M176 1137v321h764v-92l-516 -1366h-107l517 1366h-553v-229h-105z" />
<glyph unicode="8" d="M111 393q0 242 231 365q-201 111 -201 332q0 162 108.5 271t276.5 109t276.5 -109.5t108.5 -270.5q0 -225 -198 -332q229 -121 229 -365q0 -174 -118.5 -289.5t-297 -115.5t-297 115.5t-118.5 289.5zM215 393q0 -135 89 -224t222 -89t222.5 89t89.5 224 q0 133 -90.5 224.5t-221.5 91.5t-221 -91.5t-90 -224.5zM246 1090q0 -127 77.5 -208t202.5 -81t203 81t78 208t-78 207.5t-203 80.5t-202.5 -80.5t-77.5 -207.5z" />
<glyph unicode="9" d="M135 1047q0 182 103.5 302.5t281.5 120.5q180 0 283.5 -113.5t103.5 -295.5q0 -135 -82 -305l-374 -756h-105l336 674q-76 -35 -172 -35q-174 0 -274.5 116t-100.5 292zM240 1055q0 -137 73.5 -230.5t206.5 -93.5q129 0 206 88t77 235.5t-77 235.5t-206 88t-204.5 -88 t-75.5 -235z" />
<glyph unicode=":" horiz-adv-x="540" d="M195 0v152h151v-152h-151zM195 639v152h151v-152h-151z" />
<glyph unicode=";" horiz-adv-x="542" d="M195 -164v-76q74 23 112.5 89.5t40.5 148.5v154h-147v-152h73q1 -8 1 -15q0 -40 -18 -83q-21 -52 -62 -66zM201 639h147v152h-147v-152z" />
<glyph unicode="&#x3c;" horiz-adv-x="1269" d="M215 680v94l2 2l838 352v-116l-711 -285l711 -289v-114l-838 354z" />
<glyph unicode="=" d="M109 334v96h835v-96h-835zM109 647v96h835v-96h-835z" />
<glyph unicode="&#x3e;" horiz-adv-x="1269" d="M215 324v114l709 289l-709 285v116l836 -352l4 -2v-94l-4 -2z" />
<glyph unicode="?" horiz-adv-x="907" d="M164 1268q104 203 319 202q129 0 225.5 -77.5t96.5 -223.5q0 -20 -3 -39.5t-6 -35t-13.5 -36t-13.5 -31.5t-18.5 -32.5t-19.5 -29t-24.5 -31t-23.5 -26.5t-25.5 -28.5t-24.5 -27.5q-8 -8 -34 -37t-34 -39l-27 -35q-19 -25 -27 -42l-17 -43q-10 -26 -14.5 -53.5 t-4.5 -57.5v-101h-104v99q0 80 27.5 149.5t54 104t84.5 96.5q109 119 135 174q29 55 28 111q0 78 -58 139t-155 61q-164 0 -231 -157zM354 0h138v137h-138v-137z" />
<glyph unicode="@" horiz-adv-x="1974" d="M133 440q0 369 254 630t608 261q395 0 624.5 -231.5t229.5 -616.5v-28q0 -18 -5 -70.5t-16 -100.5t-37 -106.5t-62.5 -100.5t-96 -71t-135.5 -29q-150 0 -205 125q-88 -86 -237 -108q-47 -6 -101 -6q-203 0 -290 90q-72 76 -72 192q0 127 81 201t224 82q12 2 39 2h319 v111q0 121 -65.5 181t-212.5 60h-25q-90 -2 -146 -31.5t-101 -93.5l-76 66q61 84 142 117.5t206 33.5q383 0 383 -323v-463q0 -150 151 -150q119 0 175.5 116t56.5 304q0 336 -197.5 545t-550.5 209q-307 0 -532 -237.5t-225 -559.5q0 -328 224 -562t525 -234v-95 q-354 2 -604 263t-250 628zM696 272q0 -98 62.5 -145t195.5 -47q57 0 84 4q100 10 162 72q55 53 55 188v127h-307h-30q-222 -13 -222 -199z" />
<glyph unicode="A" horiz-adv-x="1232" d="M31 0l536 1458h99l536 -1458h-119l-127 354h-680l-126 -354h-119zM311 453h611l-306 858z" />
<glyph unicode="B" horiz-adv-x="1374" d="M225 0v1458h537q186 0 304 -102.5t118 -278.5q0 -117 -60.5 -205t-167.5 -122q119 -41 184.5 -133.5t65.5 -219.5q0 -190 -115.5 -293.5t-312.5 -103.5h-553zM336 98h430q152 0 241 80t89 219.5t-89 219t-241 79.5h-430v-598zM336 795h414q143 0 233 69.5t90 213t-90 213 t-233 69.5h-414v-565z" />
<glyph unicode="C" horiz-adv-x="1318" d="M168 729.5q0 276.5 21.5 388t113.5 203.5q150 150 365 149q195 0 326.5 -113.5t168.5 -312.5h-112q-33 152 -134.5 240t-248.5 88q-164 0 -277 -112q-74 -74 -93 -176.5t-19 -354.5t19 -354.5t93 -175.5q113 -113 277 -113q147 0 250.5 88t136.5 240h108 q-37 -197 -170 -311.5t-325 -114.5q-215 0 -365 149q-92 92 -113.5 204t-21.5 388.5z" />
<glyph unicode="D" horiz-adv-x="1388" d="M225 0v1458h490q231 0 364 -133q53 -53 84 -117.5t42.5 -158t13.5 -140.5t2 -159q0 -115 -2 -166.5t-13.5 -153.5t-43.5 -174t-83 -123q-133 -133 -364 -133h-490zM336 98h352q207 0 313 113q53 55 79 166.5t28 175t2 197.5q0 127 -2 184t-27.5 157.5t-79.5 155.5 q-106 113 -313 113h-352v-1262z" />
<glyph unicode="E" horiz-adv-x="1257" d="M225 0v1458h885v-98h-774v-576h659v-98h-659v-588h774v-98h-885z" />
<glyph unicode="F" horiz-adv-x="1179" d="M225 0v1458h885v-98h-774v-600h659v-98h-659v-662h-111z" />
<glyph unicode="G" horiz-adv-x="1333" d="M168 729.5q0 276.5 21.5 388t113.5 203.5q150 150 365 149q190 0 327.5 -116.5t169.5 -309.5h-110q-33 152 -136.5 240t-250.5 88q-164 0 -277 -112q-74 -74 -93 -176.5t-19 -354.5t19 -354.5t93 -175.5q113 -113 277 -113q186 0 303 141q88 111 88 289v131h-391v98h501 v-237q0 -227 -118 -352q-152 -168 -383 -168q-215 0 -365 149q-92 92 -113.5 204t-21.5 388.5z" />
<glyph unicode="H" horiz-adv-x="1431" d="M225 0v1458h111v-674h760v674h110v-1458h-110v686h-760v-686h-111z" />
<glyph unicode="I" horiz-adv-x="561" d="M225 0v1458h111v-1458h-111z" />
<glyph unicode="J" horiz-adv-x="1019" d="M61 113l76 75q51 -51 103.5 -76.5t140.5 -25.5q158 0 241 94t83 273v1005h110v-1028q0 -201 -118.5 -321.5t-315.5 -120.5q-195 0 -320 125z" />
<glyph unicode="K" horiz-adv-x="1320" d="M225 0v1458h111v-911l739 911h133l-450 -557l526 -901h-131l-469 817l-348 -422v-395h-111z" />
<glyph unicode="L" horiz-adv-x="1171" d="M225 0v1458h111v-1360h774v-98h-885z" />
<glyph unicode="M" horiz-adv-x="1675" d="M225 0v1458h111l508 -1124l495 1124h111v-1458h-111v1202l-442 -997h-111l-450 997v-1202h-111z" />
<glyph unicode="N" horiz-adv-x="1513" d="M225 0v1458h111l842 -1263v1263h110v-1458h-110l-842 1268v-1268h-111z" />
<glyph unicode="O" horiz-adv-x="1335" d="M168 729.5q0 276.5 21.5 388t113.5 203.5q150 150 365 149.5t364 -149.5q92 -92 113.5 -203.5t21.5 -388t-21.5 -388.5t-113.5 -204q-150 -150 -364.5 -149.5t-364.5 149.5q-92 92 -113.5 204t-21.5 388.5zM279 729q0 -252 19 -354.5t93 -175.5q113 -113 276.5 -113 t276.5 113q74 74 93.5 176t19.5 354t-19.5 354.5t-93.5 176.5q-113 113 -276.5 112.5t-276.5 -112.5q-74 -74 -93 -176.5t-19 -354.5z" />
<glyph unicode="P" horiz-adv-x="1292" d="M225 0v1458h535q195 0 317.5 -111.5t122.5 -308.5q0 -195 -123 -307.5t-317 -112.5h-424v-618h-111zM336 717h412q158 0 250 81t92 240.5t-92.5 240.5t-249.5 81h-412v-643z" />
<glyph unicode="Q" horiz-adv-x="1333" d="M168 729.5q0 276.5 21.5 388t113.5 203.5q150 150 365 149.5t364 -149.5q92 -92 113.5 -203.5t21.5 -388.5q0 -256 -16 -365.5t-88 -191.5l172 -172l-74 -74l-172 172q-139 -111 -321 -110q-215 0 -365 149q-92 92 -113.5 204t-21.5 388.5zM279 729q0 -252 19 -354.5 t93 -175.5q113 -113 277 -113q139 0 247 86l-204 205l73 74l203 -203q45 63 57.5 162.5t12.5 318.5q0 252 -19.5 354.5t-93.5 176.5q-113 113 -276.5 112.5t-276.5 -112.5q-74 -74 -93 -176.5t-19 -354.5z" />
<glyph unicode="R" horiz-adv-x="1345" d="M225 0v1458h555q184 0 301 -103.5t117 -287.5q0 -162 -90 -264.5t-246 -128.5l352 -674h-129l-348 672h-401v-672h-111zM336 770h430q147 0 234 74t87 221t-87 221t-234 74h-430v-590z" />
<glyph unicode="S" horiz-adv-x="1202" d="M104 180l78 78q96 -96 188.5 -134t225.5 -38q174 0 274.5 80t100.5 221q0 137 -80 205q-45 35 -85 50t-126 28l-170 26q-166 25 -260 107q-115 96 -115 268q0 184 121 291.5t332 107.5q131 0 227 -36.5t193 -120.5l-72 -72q-141 135 -354 135q-160 0 -249 -79.5 t-89 -221.5q0 -127 75 -190q78 -66 218 -90l157 -25q176 -25 260 -96q127 -104 127 -283q0 -186 -132 -294.5t-359 -108.5q-160 0 -272 45t-214 147z" />
<glyph unicode="T" horiz-adv-x="1103" d="M61 1360v98h981v-98h-436v-1360h-110v1360h-435z" />
<glyph unicode="U" horiz-adv-x="1409" d="M205 473v985h110v-971q0 -182 106.5 -291.5t283 -109.5t283 109.5t106.5 291.5v971h110v-985q0 -213 -140 -349t-359.5 -136t-359.5 136t-140 349z" />
<glyph unicode="V" horiz-adv-x="1093" d="M20 1458h117l410 -1263l409 1263h117l-479 -1458h-94z" />
<glyph unicode="W" horiz-adv-x="1724" d="M41 1458h117l307 -1268l340 1268h115l340 -1268l307 1268h116l-364 -1458h-113l-344 1270l-344 -1270h-112z" />
<glyph unicode="X" horiz-adv-x="1089" d="M37 0l446 748l-417 710h129l348 -612l350 612h127l-418 -710l451 -748h-129l-381 649l-381 -649h-125z" />
<glyph unicode="Y" horiz-adv-x="1011" d="M20 1458h119l371 -737l362 737h119l-430 -854v-604h-110v604z" />
<glyph unicode="Z" horiz-adv-x="1144" d="M129 0v117l768 1243h-737v98h856v-98l-774 -1262h774v-98h-887z" />
<glyph unicode="[" horiz-adv-x="593" d="M199 -152v1762h303v-92h-199v-1577h199v-93h-303z" />
<glyph unicode="\" horiz-adv-x="692" d="M0 1610h109l583 -1762h-108z" />
<glyph unicode="]" horiz-adv-x="593" d="M92 -66h205v1590h-205v86h303v-1762h-303v86z" />
<glyph unicode="^" d="M156 864l323 606h94l324 -606h-104l-267 496l-266 -496h-104z" />
<glyph unicode="_" d="M0 -250h1053v-78h-1053v78z" />
<glyph unicode="`" horiz-adv-x="1024" d="M272 1509h138l198 -301h-119z" />
<glyph unicode="a" horiz-adv-x="1073" d="M115 270q0 135 91 210t253 75h319v111q0 121 -65.5 181t-212.5 60q-102 0 -163 -28.5t-110 -96.5l-75 66q61 84 142 117.5t206 33.5q383 0 383 -323v-676h-105v98q-61 -61 -127.5 -85.5t-173.5 -24.5q-203 0 -291 90q-71 71 -71 192zM219 272q0 -98 61.5 -145t196.5 -47 q166 0 246 76q55 53 55 188v127h-307q-252 0 -252 -199z" />
<glyph unicode="b" horiz-adv-x="1105" d="M199 0v1458h104v-598q61 80 131 109.5t162 29.5q156 0 242 -86q127 -127 127 -419.5t-127 -419.5q-86 -86 -242 -86q-92 0 -161.5 29.5t-131.5 109.5v-127h-104zM303 493.5q0 -88.5 10.5 -154t38 -129t86 -97t144.5 -33.5t144 33.5t86 97t38 129t10 154t-10 154t-38 129 t-86 97t-144 33.5t-144.5 -33.5t-86 -97t-38 -129t-10.5 -154z" />
<glyph unicode="c" horiz-adv-x="1009" d="M141 493.5q0 235.5 116 370.5t318 135q104 0 177 -32.5t149 -118.5l-72 -66q-63 70 -118.5 97.5t-135.5 27.5q-174 0 -262 -131q-68 -98 -67.5 -282.5t67.5 -282.5q88 -131 262 -131q78 0 134.5 27.5t119.5 97.5l72 -66q-76 -86 -148.5 -118.5t-177.5 -32.5 q-203 0 -318.5 135t-115.5 370.5z" />
<glyph unicode="d" horiz-adv-x="1105" d="M141 493.5q0 292.5 127 419.5q86 86 242 86q92 0 161.5 -29.5t131.5 -109.5v598h104v-1458h-104v127q-61 -80 -131 -109.5t-162 -29.5q-156 0 -242 86q-127 127 -127 419.5zM246 494q0 -88 10 -154t38 -129.5t86 -97t144 -33.5t144.5 33.5t86 97t38 129.5t10.5 154 t-10.5 153.5t-38 129t-86 97t-144.5 33.5t-144 -33.5t-86 -97t-38 -129t-10 -153.5z" />
<glyph unicode="e" horiz-adv-x="1071" d="M141 494q0 240 104.5 372.5t291 132.5t291 -127t104.5 -354v-47h-686q0 -190 82 -289.5t239 -99.5q86 0 147.5 27.5t125.5 91.5l78 -62q-80 -80 -160 -115.5t-197 -35.5q-205 0 -312.5 129t-107.5 377zM246 555h581q-8 127 -34 186q-33 78 -101.5 122t-154.5 44t-155 -44 t-101 -122q-29 -77 -35 -186z" />
<glyph unicode="f" horiz-adv-x="622" d="M94 909v78h135v213q0 117 62.5 187.5t175.5 70.5h90v-92h-72q-152 0 -151 -164v-215h223v-78h-223v-909h-105v909h-135z" />
<glyph unicode="g" horiz-adv-x="1105" d="M141 493.5q0 292.5 127 419.5q86 86 242 86q92 0 161.5 -29.5t131.5 -109.5v127h104v-1042q0 -190 -107.5 -309t-295.5 -119q-106 0 -176 29.5t-150 101.5l70 69q66 -59 117 -83.5t139 -24.5q150 0 224.5 93t74.5 249v176q-61 -80 -131 -109.5t-162 -29.5q-156 0 -242 86 q-127 127 -127 419.5zM246 494q0 -88 10 -154t38 -129.5t86 -97t144 -33.5t144.5 33.5t86 97t38 129.5t10.5 154t-10.5 153.5t-38 129t-86 97t-144.5 33.5t-144 -33.5t-86 -97t-38 -129t-10 -153.5z" />
<glyph unicode="h" horiz-adv-x="1144" d="M199 0v1458h104v-588q111 129 291 129q170 0 267 -98t97 -270v-631h-104v612q0 143 -69.5 219t-202.5 76t-206 -76.5t-73 -218.5v-612h-104z" />
<glyph unicode="i" horiz-adv-x="501" d="M186 1329v129h129v-129h-129zM199 0v987h104v-987h-104z" />
<glyph unicode="j" horiz-adv-x="501" d="M-25 -379h72q84 0 118 39t34 127v1200h104v-1202q0 -121 -59.5 -188.5t-177.5 -67.5h-91v92zM186 1329v129h129v-129h-129z" />
<glyph unicode="k" horiz-adv-x="1079" d="M199 0v1458h104v-1028l490 557h133l-326 -369l397 -618h-129l-340 543l-225 -260v-283h-104z" />
<glyph unicode="l" horiz-adv-x="587" d="M195 256v1202h104v-1200q0 -88 34 -127t118 -39h71v-92h-90q-119 0 -178 67.5t-59 188.5z" />
<glyph unicode="m" horiz-adv-x="1798" d="M199 0v987h104v-117q111 129 293 129q225 0 317 -180q115 180 336 180q160 0 260 -94q102 -98 103 -274v-631h-103v612q0 143 -69.5 219t-202.5 76q-129 0 -204 -74.5t-75 -201.5v-631h-104v612q0 143 -69.5 219t-202.5 76t-206 -76.5t-73 -218.5v-612h-104z" />
<glyph unicode="n" horiz-adv-x="1144" d="M199 0v987h104v-117q111 129 291 129q166 0 262 -94q102 -98 102 -274v-631h-104v612q0 143 -69.5 219t-202.5 76t-206 -76.5t-73 -218.5v-612h-104z" />
<glyph unicode="o" horiz-adv-x="1077" d="M141 493.5q0 274.5 123 397.5q109 109 275 108.5t274 -108.5q123 -123 123 -397.5t-123 -397.5q-109 -109 -274.5 -108.5t-274.5 108.5q-123 123 -123 397.5zM246 493.5q0 -241.5 88 -329.5q84 -84 204.5 -84t204.5 84q88 88 88 329.5t-88 329.5q-84 84 -204.5 84 t-204.5 -84q-88 -88 -88 -329.5z" />
<glyph unicode="p" horiz-adv-x="1105" d="M199 -471v1458h104v-127q61 80 131 109.5t162 29.5q156 0 242 -86q127 -127 127 -419.5t-127 -419.5q-86 -86 -242 -86q-92 0 -161.5 29.5t-131.5 109.5v-598h-104zM303 493.5q0 -88.5 10.5 -154t38 -129t86 -97t144.5 -33.5t144 33.5t86 97t38 129t10 154t-10 154 t-38 129t-86 97t-144 33.5t-144.5 -33.5t-86 -97t-38 -129t-10.5 -154z" />
<glyph unicode="q" horiz-adv-x="1105" d="M141 493.5q0 292.5 127 419.5q86 86 242 86q92 0 161.5 -29.5t131.5 -109.5v127h104v-1458h-104v598q-61 -80 -131 -109.5t-162 -29.5q-156 0 -242 86q-127 127 -127 419.5zM246 494q0 -88 10 -154t38 -129.5t86 -97t144 -33.5t144.5 33.5t86 97t38 129.5t10.5 154 t-10.5 153.5t-38 129t-86 97t-144.5 33.5t-144 -33.5t-86 -97t-38 -129t-10 -153.5z" />
<glyph unicode="r" horiz-adv-x="837" d="M199 0v987h104v-131q43 68 121 105.5t168 37.5q143 0 237 -94l-75 -76q-45 45 -85 61.5t-102 16.5q-123 0 -193.5 -87t-70.5 -212v-608h-104z" />
<glyph unicode="s" horiz-adv-x="1011" d="M102 129l72 72q115 -121 324 -121q297 0 297 201q0 78 -45 116.5t-144 48.5l-164 15q-297 25 -297 258q0 129 96.5 204.5t258.5 75.5q205 0 346 -104l-70 -70q-115 84 -276 84q-123 0 -187.5 -49t-64.5 -141q0 -78 48 -117t153 -49l159 -14q139 -14 214 -69.5t75 -188.5 q0 -135 -106.5 -214t-288.5 -79q-253 0 -400 141z" />
<glyph unicode="t" horiz-adv-x="665" d="M88 909v78h135v316h105v-316h223v-78h-223v-653q0 -164 151 -164h72v-92h-90q-113 0 -175.5 70.5t-62.5 187.5v651h-135z" />
<glyph unicode="u" horiz-adv-x="1144" d="M186 356v631h105v-612q0 -143 69.5 -219t202.5 -76t206 76.5t73 218.5v612h104v-987h-104v117q-111 -129 -291 -129q-166 0 -262 94q-103 98 -103 274z" />
<glyph unicode="v" horiz-adv-x="880" d="M29 987h114l297 -864l297 864h115l-360 -987h-103z" />
<glyph unicode="w" horiz-adv-x="1458" d="M29 987h114l252 -864l283 864h102l283 -864l252 864h115l-316 -987h-106l-279 823l-278 -823h-107z" />
<glyph unicode="x" horiz-adv-x="942" d="M82 0l334 504l-320 483h127l250 -397l246 397h127l-320 -483l334 -504h-127l-260 416l-264 -416h-127z" />
<glyph unicode="y" horiz-adv-x="880" d="M29 987h114l297 -864l297 864h115l-459 -1255q-29 -82 -67 -115q-66 -63 -187 -63h-49v92h39q82 0 118 28.5t62 106.5l80 219z" />
<glyph unicode="z" horiz-adv-x="925" d="M111 0v98l594 797h-562v92h672v-98l-596 -797h596v-92h-704z" />
<glyph unicode="{" horiz-adv-x="647" d="M102 684v90h37q49 0 88 39q37 37 37 123v424q0 141 53 194q55 55 199 56h29v-92h-27q-94 0 -121 -27q-29 -29 -28 -133v-424q0 -80 -29 -126t-96 -79q68 -33 96.5 -79t28.5 -126v-424q0 -104 28 -133q27 -27 121 -26h27v-93h-29q-143 0 -199 56q-53 53 -53 194v424 q0 86 -37 123q-39 39 -88 39h-37z" />
<glyph unicode="|" horiz-adv-x="649" d="M272 -152v1762h105v-1762h-105z" />
<glyph unicode="}" horiz-adv-x="647" d="M102 -59h27q94 0 121 26q29 29 29 133v424q0 80 28.5 126t95.5 79q-68 33 -96 79t-28 126v424q0 104 -29 133q-27 27 -121 27h-27v92h29q143 0 199 -56q53 -53 53 -194v-424q0 -86 37 -123q39 -39 88 -39h37v-90h-37q-49 0 -88 -39q-37 -37 -37 -123v-424 q0 -141 -53 -194q-55 -55 -199 -56h-29v93z" />
<glyph unicode="~" d="M109 522q80 80 127 103.5t110 23.5q57 0 209 -63q111 -47 156 -47q47 0 78.5 16t91.5 76l63 -64q-80 -80 -127 -103.5t-110 -23.5q-57 0 -209 64q-111 47 -156 47t-78 -16.5t-92 -75.5z" />
<glyph unicode="&#xa1;" horiz-adv-x="622" d="M213 850v137h137v-137h-137zM225 -471l6 1065h101l6 -1065h-113z" />
<glyph unicode="&#xa2;" horiz-adv-x="1019" d="M141 750q0 215 97.5 347t271.5 154v207h88v-203q96 -4 162.5 -36.5t140.5 -114.5l-72 -66q-59 66 -110 93.5t-121 31.5v-827q70 4 121 31.5t110 93.5l72 -66q-74 -82 -140.5 -114.5t-162.5 -36.5v-244h-88v248q-174 23 -271.5 155t-97.5 347zM246 749.5 q0 -184.5 67 -282.5q72 -104 197 -125v815q-125 -20 -197 -125q-67 -98 -67 -282.5z" />
<glyph unicode="&#xa3;" horiz-adv-x="1099" d="M102 700v78h131v250q0 201 119 321.5t316 120.5q195 0 319 -124l-76 -76q-51 51 -103 76.5t-140 25.5q-158 0 -241 -94t-83 -272v-228h324v-78h-324v-602h643v-98h-754v700h-131z" />
<glyph unicode="&#xa4;" horiz-adv-x="1345" d="M174 111l152 151q-98 117 -99 281q0 166 99 282l-152 150l66 65l151 -149q115 96 281 96t280 -96l154 149l65 -65l-151 -150q96 -115 96 -282q0 -166 -96 -281l151 -151l-65 -66l-154 152q-117 -98 -280.5 -98.5t-280.5 98.5l-151 -152zM326 542.5q0 -145.5 101 -245.5 t244.5 -100t245 100t101.5 245.5t-101.5 246t-245 100.5t-244.5 -100.5t-101 -246z" />
<glyph unicode="&#xa5;" horiz-adv-x="1009" d="M20 1458h117l371 -739l366 739h115l-334 -667h222v-78h-261l-55 -109v-108h316v-78h-316v-418h-110v418h-318v78h318v108l-56 109h-262v78h223z" />
<glyph unicode="&#xa6;" horiz-adv-x="671" d="M272 -152v717h105v-717h-105zM272 893v717h105v-717h-105z" />
<glyph unicode="&#xa7;" horiz-adv-x="1159" d="M199 506q0 123 63.5 213t161.5 135q-203 86 -203 289q0 150 103.5 238.5t255.5 88.5q150 0 253 -82.5t111 -226.5h-108q-20 213 -256 213q-119 0 -184.5 -58.5t-65.5 -172.5q0 -166 186 -219l170 -47q127 -37 201 -137.5t74 -233.5q0 -123 -63.5 -213t-162.5 -135 q98 -33 154.5 -112t56.5 -187q0 -150 -102.5 -246t-263.5 -96q-158 0 -261.5 84t-115.5 233h110q20 -219 267 -219q119 0 187.5 63.5t68.5 180.5q0 82 -52.5 143t-140.5 86l-170 47q-129 37 -201.5 136.5t-72.5 234.5zM309 506q0 -131 72 -207q78 -84 198.5 -84t198.5 84 q72 78 72 207q0 135 -72 207q-84 84 -198 84q-121 0 -199 -84q-72 -78 -72 -207z" />
<glyph unicode="&#xa8;" horiz-adv-x="1024" d="M240 1229v157h118v-157h-118zM666 1229v157h118v-157h-118z" />
<glyph unicode="&#xa9;" horiz-adv-x="1472" d="M143 729q0 -246 173 -420t419 -174t420 174t174 420t-174 420t-420 174t-419 -174t-173 -420zM229 729q0 209 149.5 361.5t356.5 152.5q209 0 358.5 -152.5t149.5 -361.5t-149.5 -361.5t-358.5 -152.5q-207 0 -356.5 152.5t-149.5 361.5zM453 729.5q0 -147.5 73.5 -243 t216.5 -95.5q117 0 213 86l-55 55q-74 -63 -160 -63q-209 0 -209 260q0 262 209 262q86 0 160 -65l55 55q-96 88 -213 88q-143 0 -216.5 -96t-73.5 -243.5z" />
<glyph unicode="&#xaa;" horiz-adv-x="915" d="M121 885q0 109 71.5 168t200.5 59h248v86q0 94 -50 140t-165 46q-82 0 -129 -21.5t-84 -76.5l-66 55q51 70 116 96.5t163 26.5q303 0 303 -258v-536h-88v73q-86 -84 -233 -84q-164 0 -230 72q-57 58 -57 154zM209 887q0 -76 47 -112t152 -36q131 0 192 58q41 41 41 147 v96h-238q-194 1 -194 -153z" />
<glyph unicode="&#xab;" horiz-adv-x="1079" d="M86 543l401 401v-135l-266 -266l266 -267v-135zM510 543l401 401v-135l-266 -266l266 -267v-135z" />
<glyph unicode="&#xac;" d="M109 492v96h835v-369h-96v273h-739z" />
<glyph unicode="&#xad;" horiz-adv-x="872" d="M168 492v96h537v-96h-537z" />
<glyph unicode="&#xae;" horiz-adv-x="1081" d="M147 1243q0 -162 115 -277.5t279 -115.5t278.5 115.5t114.5 277.5t-114.5 277.5t-278.5 115.5t-279 -115.5t-115 -277.5zM211 1243q0 139 96 237.5t233.5 98.5t234.5 -98.5t97 -237.5t-97 -237.5t-234.5 -98.5t-233.5 98.5t-96 237.5zM414 1028h59v176h66l98 -176h70 l-105 182q92 29 92 119q0 55 -39 92t-96 37h-145v-430zM473 1253v152h80q35 0 58.5 -21.5t23.5 -54.5t-23.5 -54.5t-58.5 -21.5h-80z" />
<glyph unicode="&#xaf;" horiz-adv-x="1024" d="M209 1245v94h606v-94h-606z" />
<glyph unicode="&#xb0;" horiz-adv-x="780" d="M184 733q0 -96 62 -158q63 -63 159.5 -63t157.5 63q63 63 63.5 157.5t-63.5 158.5q-61 63 -157.5 63t-159.5 -63q-62 -62 -62 -158z" />
<glyph unicode="&#xb1;" d="M109 0v96h835v-96h-835zM109 553v96h370v371h96v-371h369v-96h-369v-373h-96v373h-370z" />
<glyph unicode="&#xb2;" horiz-adv-x="688" d="M102 584v82l344 436q47 63 48 127q0 74 -39 114.5t-111 40.5q-66 0 -108.5 -37.5t-42.5 -117.5h-91q0 106 65.5 171.5t176.5 65.5t176.5 -63.5t65.5 -173.5q0 -88 -70 -178l-305 -385h375v-82h-484z" />
<glyph unicode="&#xb3;" horiz-adv-x="720" d="M102 807h93q4 -76 51 -114t116 -38q74 0 120 45t46 123q0 166 -172 166h-16v80h16q156 0 156 158q0 76 -43 116.5t-109 40.5q-68 0 -108.5 -37.5t-46.5 -105.5h-90q8 104 75.5 164.5t169.5 60.5q109 0 175.5 -64.5t66.5 -172.5q0 -143 -117 -195q133 -49 133 -211 q0 -117 -71.5 -183.5t-184.5 -66.5q-111 0 -183.5 60.5t-76.5 173.5z" />
<glyph unicode="&#xb4;" horiz-adv-x="1024" d="M416 1208l198 301h138l-217 -301h-119z" />
<glyph unicode="&#xb5;" horiz-adv-x="1138" d="M180 -471v1458h105v-612q0 -143 69.5 -219t202.5 -76t206 76.5t73 218.5v612h104v-987h-104v117q-111 -129 -291 -129q-162 0 -260 92v-551h-105z" />
<glyph unicode="&#xb6;" horiz-adv-x="1185" d="M92 1069q0 160 116 274.5t316 114.5h437v-1929h-105v1831h-252v-1831h-104v1151q-186 0 -297 117.5t-111 271.5z" />
<glyph unicode="&#xb8;" horiz-adv-x="1024" d="M371 -451l147 308h113l-131 -308h-129z" />
<glyph unicode="&#xb9;" horiz-adv-x="509" d="M92 1212v105l164 141h90v-874h-90v774z" />
<glyph unicode="&#xba;" horiz-adv-x="925" d="M147 1063q0 217 99 315q86 86 217 86t217 -86q98 -98 98 -315t-98 -315q-86 -86 -217 -86t-217 86q-99 98 -99 315zM236 1062.5q0 -188.5 67 -255.5q66 -66 160 -66t160 66q68 68 67.5 256t-67.5 256q-66 66 -160 65.5t-160 -65.5q-67 -68 -67 -256.5z" />
<glyph unicode="&#xbb;" horiz-adv-x="1079" d="M168 141v135l266 267l-266 266v135l401 -401zM592 141v135l266 267l-266 266v135l401 -401z" />
<glyph unicode="&#xbc;" horiz-adv-x="1548" d="M92 1212v105l164 141h90v-874h-90v774zM344 0l680 1458h92l-680 -1458h-92zM922 137v82l315 655h96l-313 -655h250v246h90v-246h106v-82h-106v-137h-90v137h-348z" />
<glyph unicode="&#xbd;" horiz-adv-x="1564" d="M92 1212v105l164 141h90v-874h-90v774zM313 0l680 1458h92l-679 -1458h-93zM979 0v82l344 436q47 63 47 127q0 74 -39 115t-110 41q-66 0 -109 -38t-43 -118h-90q0 104 65.5 171t176 67t176 -63.5t65.5 -174.5q0 -84 -69 -178l-306 -385h375v-82h-483z" />
<glyph unicode="&#xbe;" horiz-adv-x="1650" d="M102 807h93q4 -76 51 -114t116 -38q74 0 120 45t46 123q0 166 -172 166h-16v80h16q156 0 156 158q0 76 -43 116.5t-109 40.5q-68 0 -108.5 -37.5t-46.5 -105.5h-90q8 104 75.5 164.5t169.5 60.5q109 0 175.5 -64.5t66.5 -172.5q0 -143 -117 -195q133 -49 133 -211 q0 -117 -71.5 -183.5t-184.5 -66.5q-111 0 -183.5 60.5t-76.5 173.5zM467 0l680 1458h92l-680 -1458h-92zM1024 137v82l315 655h97l-314 -655h250v246h90v-246h107v-82h-107v-137h-90v137h-348z" />
<glyph unicode="&#xbf;" horiz-adv-x="905" d="M102 -182q0 63 30 125.5t55.5 93.5t86.5 98q8 8 39 43t40.5 46.5t29.5 42t27.5 52t14.5 55.5t7 70v99h105v-97q0 -80 -28 -150.5t-54.5 -105t-83.5 -96.5q-4 -6 -24.5 -27.5l-28.5 -29.5l-24 -29q-17 -20 -25 -31l-20 -29q-13 -19 -19 -34l-12 -33q-7 -18 -10 -35.5 t-3 -35.5q0 -78 59.5 -139.5t155.5 -61.5q166 0 229 158l92 -48q-102 -203 -317 -202q-129 0 -225.5 78t-96.5 223zM416 850h137v137h-137v-137z" />
<glyph unicode="&#xc0;" horiz-adv-x="1232" d="M31 0l536 1458h99l536 -1458h-119l-127 354h-680l-126 -354h-119zM311 453h611l-306 858zM377 1898h137l199 -301h-119z" />
<glyph unicode="&#xc1;" horiz-adv-x="1232" d="M31 0l536 1458h99l536 -1458h-119l-127 354h-680l-126 -354h-119zM311 453h611l-306 858zM520 1597l199 301h137l-217 -301h-119z" />
<glyph unicode="&#xc2;" horiz-adv-x="1232" d="M31 0l536 1458h99l536 -1458h-119l-127 354h-680l-126 -354h-119zM309 1597l252 301h111l252 -301h-117l-191 224l-190 -224h-117zM311 453h611l-306 858z" />
<glyph unicode="&#xc3;" horiz-adv-x="1232" d="M31 0l536 1458h99l536 -1458h-119l-127 354h-680l-126 -354h-119zM301 1712q98 98 182 98q63 0 142 -49q70 -43 114 -43q53 0 121 68l62 -60q-98 -98 -183 -98q-55 0 -141 49q-74 43 -115 43q-53 0 -121 -67zM311 453h611l-306 858z" />
<glyph unicode="&#xc4;" horiz-adv-x="1232" d="M31 0l536 1458h99l536 -1458h-119l-127 354h-680l-126 -354h-119zM311 453h611l-306 858zM344 1618v158h119v-158h-119zM770 1618v158h119v-158h-119z" />
<glyph unicode="&#xc5;" horiz-adv-x="1232" d="M31 0l536 1458h99l536 -1458h-119l-127 354h-680l-126 -354h-119zM311 453h611l-306 858zM383 1763.5q0 96.5 68.5 165t165 68.5t165 -68.5t68.5 -165t-68.5 -166t-165 -69.5t-165 69.5t-68.5 166zM467 1763.5q0 -61.5 44 -105.5t105.5 -44t105.5 44t44 105.5t-44 104.5 t-105.5 43t-105.5 -43t-44 -104.5z" />
<glyph unicode="&#xc6;" horiz-adv-x="1845" d="M20 0l773 1458h938v-98h-775v-582h660v-98h-660v-582h775v-98h-883v354h-522l-185 -354h-121zM373 453h475v907z" />
<glyph unicode="&#xc7;" horiz-adv-x="1318" d="M168 729.5q0 276.5 21.5 388t113.5 203.5q150 150 365 149q195 0 326.5 -113.5t168.5 -312.5h-112q-33 152 -134.5 240t-248.5 88q-164 0 -277 -112q-74 -74 -93 -176.5t-19 -354.5t19 -354.5t93 -175.5q113 -113 277 -113q147 0 250.5 88t136.5 240h108 q-37 -197 -170 -311.5t-325 -114.5q-215 0 -365 149q-92 92 -113.5 204t-21.5 388.5zM489 -451l148 308h113l-132 -308h-129z" />
<glyph unicode="&#xc8;" horiz-adv-x="1224" d="M225 0v1458h885v-98h-774v-576h659v-98h-659v-588h774v-98h-885zM403 1898h138l198 -301h-118z" />
<glyph unicode="&#xc9;" horiz-adv-x="1224" d="M225 0v1458h885v-98h-774v-576h659v-98h-659v-588h774v-98h-885zM547 1597l198 301h138l-217 -301h-119z" />
<glyph unicode="&#xca;" horiz-adv-x="1224" d="M225 0v1458h885v-98h-774v-576h659v-98h-659v-588h774v-98h-885zM336 1597l252 301h110l252 -301h-116l-191 224l-190 -224h-117z" />
<glyph unicode="&#xcb;" horiz-adv-x="1224" d="M225 0v1458h885v-98h-774v-576h659v-98h-659v-588h774v-98h-885zM371 1618v158h118v-158h-118zM797 1618v158h118v-158h-118z" />
<glyph unicode="&#xcc;" horiz-adv-x="561" d="M55 1898h138l198 -301h-119zM225 0v1458h111v-1458h-111z" />
<glyph unicode="&#xcd;" horiz-adv-x="561" d="M225 0v1458h111v-1458h-111zM225 1597l199 301h137l-217 -301h-119z" />
<glyph unicode="&#xce;" horiz-adv-x="561" d="M-23 1597l252 301h111l252 -301h-117l-190 224l-191 -224h-117zM225 0v1458h111v-1458h-111z" />
<glyph unicode="&#xcf;" horiz-adv-x="561" d="M8 1618v158h119v-158h-119zM225 0v1458h111v-1458h-111zM434 1618v158h119v-158h-119z" />
<glyph unicode="&#xd0;" horiz-adv-x="1411" d="M82 692v86h166v680h491q289 0 426 -235q51 -88 64.5 -169t13.5 -325q0 -252 -15.5 -338t-62.5 -160q-145 -231 -440 -231h-477v692h-166zM358 96h353q242 0 352 166q49 72 59.5 149.5t10.5 307.5q0 233 -12.5 319t-69.5 162q-63 88 -144.5 125t-195.5 37h-353v-584h365 v-86h-365v-596z" />
<glyph unicode="&#xd1;" horiz-adv-x="1513" d="M225 0v1458h111l842 -1263v1263h110v-1458h-110l-842 1268v-1268h-111zM442 1712q98 98 183 98q63 0 141 -49q70 -43 115 -43q53 0 120 68l62 -60q-98 -98 -182 -98q-55 0 -142 49q-74 43 -114 43q-53 0 -121 -67z" />
<glyph unicode="&#xd2;" horiz-adv-x="1335" d="M168 729.5q0 276.5 21.5 388t113.5 203.5q150 150 365 149.5t364 -149.5q92 -92 113.5 -203.5t21.5 -388t-21.5 -388.5t-113.5 -204q-150 -150 -364.5 -149.5t-364.5 149.5q-92 92 -113.5 204t-21.5 388.5zM279 729q0 -252 19 -354.5t93 -175.5q113 -113 276.5 -113 t276.5 113q74 74 93.5 176t19.5 354t-19.5 354.5t-93.5 176.5q-113 113 -276.5 112.5t-276.5 -112.5q-74 -74 -93 -176.5t-19 -354.5zM428 1898h137l199 -301h-119z" />
<glyph unicode="&#xd3;" horiz-adv-x="1335" d="M168 729.5q0 276.5 21.5 388t113.5 203.5q150 150 365 149.5t364 -149.5q92 -92 113.5 -203.5t21.5 -388t-21.5 -388.5t-113.5 -204q-150 -150 -364.5 -149.5t-364.5 149.5q-92 92 -113.5 204t-21.5 388.5zM279 729q0 -252 19 -354.5t93 -175.5q113 -113 276.5 -113 t276.5 113q74 74 93.5 176t19.5 354t-19.5 354.5t-93.5 176.5q-113 113 -276.5 112.5t-276.5 -112.5q-74 -74 -93 -176.5t-19 -354.5zM571 1597l199 301h137l-217 -301h-119z" />
<glyph unicode="&#xd4;" horiz-adv-x="1335" d="M168 729.5q0 276.5 21.5 388t113.5 203.5q150 150 365 149.5t364 -149.5q92 -92 113.5 -203.5t21.5 -388t-21.5 -388.5t-113.5 -204q-150 -150 -364.5 -149.5t-364.5 149.5q-92 92 -113.5 204t-21.5 388.5zM279 729q0 -252 19 -354.5t93 -175.5q113 -113 276.5 -113 t276.5 113q74 74 93.5 176t19.5 354t-19.5 354.5t-93.5 176.5q-113 113 -276.5 112.5t-276.5 -112.5q-74 -74 -93 -176.5t-19 -354.5zM360 1597l252 301h111l252 -301h-117l-190 224l-191 -224h-117z" />
<glyph unicode="&#xd5;" horiz-adv-x="1335" d="M168 729.5q0 276.5 21.5 388t113.5 203.5q150 150 365 149.5t364 -149.5q92 -92 113.5 -203.5t21.5 -388t-21.5 -388.5t-113.5 -204q-150 -150 -364.5 -149.5t-364.5 149.5q-92 92 -113.5 204t-21.5 388.5zM279 729q0 -252 19 -354.5t93 -175.5q113 -113 276.5 -113 t276.5 113q74 74 93.5 176t19.5 354t-19.5 354.5t-93.5 176.5q-113 113 -276.5 112.5t-276.5 -112.5q-74 -74 -93 -176.5t-19 -354.5zM352 1712q98 98 183 98q63 0 141 -49q70 -43 115 -43q53 0 120 68l62 -60q-98 -98 -182 -98q-55 0 -142 49q-74 43 -114 43 q-53 0 -121 -67z" />
<glyph unicode="&#xd6;" horiz-adv-x="1335" d="M168 729.5q0 276.5 21.5 388t113.5 203.5q150 150 365 149.5t364 -149.5q92 -92 113.5 -203.5t21.5 -388t-21.5 -388.5t-113.5 -204q-150 -150 -364.5 -149.5t-364.5 149.5q-92 92 -113.5 204t-21.5 388.5zM279 729q0 -252 19 -354.5t93 -175.5q113 -113 276.5 -113 t276.5 113q74 74 93.5 176t19.5 354t-19.5 354.5t-93.5 176.5q-113 113 -276.5 112.5t-276.5 -112.5q-74 -74 -93 -176.5t-19 -354.5zM395 1618v158h119v-158h-119zM821 1618v158h119v-158h-119z" />
<glyph unicode="&#xd7;" d="M145 223l318 318l-318 317l64 64l317 -318l318 318l63 -64l-317 -317l317 -318l-63 -63l-318 317l-317 -317z" />
<glyph unicode="&#xd8;" horiz-adv-x="1335" d="M168 729.5q0 276.5 21.5 388t113.5 203.5q150 150 365 149q145 0 266 -71l72 149h108l-100 -209l18 -18q92 -92 113.5 -203.5t21.5 -388t-21.5 -388.5t-113.5 -204q-150 -150 -364 -149q-145 0 -267 71l-71 -149h-109l101 209l-19 18q-92 92 -113.5 204t-21.5 388.5z M279 729q0 -240 15 -339t77 -169l518 1084q-90 68 -221 67q-164 0 -277 -112q-74 -74 -93 -176.5t-19 -354.5zM446 154q94 -68 222 -68q164 0 276 113q74 74 93.5 176t19.5 354q0 240 -15.5 339t-76.5 169z" />
<glyph unicode="&#xd9;" horiz-adv-x="1409" d="M205 473v985h110v-971q0 -182 106.5 -291.5t283 -109.5t283 109.5t106.5 291.5v971h110v-985q0 -213 -140 -349t-359.5 -136t-359.5 136t-140 349zM465 1898h137l199 -301h-119z" />
<glyph unicode="&#xda;" horiz-adv-x="1409" d="M205 473v985h110v-971q0 -182 106.5 -291.5t283 -109.5t283 109.5t106.5 291.5v971h110v-985q0 -213 -140 -349t-359.5 -136t-359.5 136t-140 349zM608 1597l199 301h137l-217 -301h-119z" />
<glyph unicode="&#xdb;" horiz-adv-x="1409" d="M205 473v985h110v-971q0 -182 106.5 -291.5t283 -109.5t283 109.5t106.5 291.5v971h110v-985q0 -213 -140 -349t-359.5 -136t-359.5 136t-140 349zM397 1597l252 301h111l252 -301h-117l-190 224l-191 -224h-117z" />
<glyph unicode="&#xdc;" horiz-adv-x="1409" d="M205 473v985h110v-971q0 -182 106.5 -291.5t283 -109.5t283 109.5t106.5 291.5v971h110v-985q0 -213 -140 -349t-359.5 -136t-359.5 136t-140 349zM432 1618v158h119v-158h-119zM858 1618v158h119v-158h-119z" />
<glyph unicode="&#xdd;" horiz-adv-x="1011" d="M20 1458h119l371 -737l362 737h119l-430 -854v-604h-110v604zM410 1597l198 301h137l-217 -301h-118z" />
<glyph unicode="&#xde;" horiz-adv-x="1323" d="M225 0v1458h111v-303h424q195 0 317.5 -111.5t122.5 -308.5q0 -195 -123 -307.5t-317 -112.5h-424v-315h-111zM336 414h412q158 0 250 80.5t92 240.5t-92.5 241t-249.5 81h-412v-643z" />
<glyph unicode="&#xdf;" horiz-adv-x="1126" d="M199 0v1075q0 186 103.5 292t289.5 106q164 0 269.5 -84t105.5 -248t-129 -250q76 -39 103.5 -95.5t27.5 -158.5v-363q0 -129 -80 -204q-78 -70 -195 -70h-110v92h90q76 0 133 45t57 150v366q0 94 -47 140q-47 47 -133 47h-100v92h80q92 0 146 57.5t54 151.5 q0 113 -71 174q-70 66 -213 65q-141 0 -209 -81.5t-68 -223.5v-1075h-104z" />
<glyph unicode="&#xe0;" horiz-adv-x="1073" d="M115 270q0 135 91 210t253 75h319v111q0 121 -65.5 181t-212.5 60q-102 0 -163 -28.5t-110 -96.5l-75 66q61 84 142 117.5t206 33.5q383 0 383 -323v-676h-105v98q-61 -61 -127.5 -85.5t-173.5 -24.5q-203 0 -291 90q-71 71 -71 192zM219 272q0 -98 61.5 -145t196.5 -47 q166 0 246 76q55 53 55 188v127h-307q-252 0 -252 -199zM270 1509h138l198 -301h-119z" />
<glyph unicode="&#xe1;" horiz-adv-x="1073" d="M115 270q0 135 91 210t253 75h319v111q0 121 -65.5 181t-212.5 60q-102 0 -163 -28.5t-110 -96.5l-75 66q61 84 142 117.5t206 33.5q383 0 383 -323v-676h-105v98q-61 -61 -127.5 -85.5t-173.5 -24.5q-203 0 -291 90q-71 71 -71 192zM219 272q0 -98 61.5 -145t196.5 -47 q166 0 246 76q55 53 55 188v127h-307q-252 0 -252 -199zM414 1208l198 301h138l-218 -301h-118z" />
<glyph unicode="&#xe2;" horiz-adv-x="1073" d="M115 270q0 135 91 210t253 75h319v111q0 121 -65.5 181t-212.5 60q-102 0 -163 -28.5t-110 -96.5l-75 66q61 84 142 117.5t206 33.5q383 0 383 -323v-676h-105v98q-61 -61 -127.5 -85.5t-173.5 -24.5q-203 0 -291 90q-71 71 -71 192zM203 1208l252 301h110l252 -301h-117 l-190 224l-191 -224h-116zM219 272q0 -98 61.5 -145t196.5 -47q166 0 246 76q55 53 55 188v127h-307q-252 0 -252 -199z" />
<glyph unicode="&#xe3;" horiz-adv-x="1073" d="M115 270q0 135 91 210t253 75h319v111q0 121 -65.5 181t-212.5 60q-102 0 -163 -28.5t-110 -96.5l-75 66q61 84 142 117.5t206 33.5q383 0 383 -323v-676h-105v98q-61 -61 -127.5 -85.5t-173.5 -24.5q-203 0 -291 90q-71 71 -71 192zM195 1323q98 98 182 98q63 0 141 -49 q70 -43 115 -43q53 0 121 68l61 -60q-98 -98 -182 -98q-55 0 -141 49q-74 43 -115 43q-53 0 -121 -67zM219 272q0 -98 61.5 -145t196.5 -47q166 0 246 76q55 53 55 188v127h-307q-252 0 -252 -199z" />
<glyph unicode="&#xe4;" horiz-adv-x="1073" d="M115 270q0 135 91 210t253 75h319v111q0 121 -65.5 181t-212.5 60q-102 0 -163 -28.5t-110 -96.5l-75 66q61 84 142 117.5t206 33.5q383 0 383 -323v-676h-105v98q-61 -61 -127.5 -85.5t-173.5 -24.5q-203 0 -291 90q-71 71 -71 192zM219 272q0 -98 61.5 -145t196.5 -47 q166 0 246 76q55 53 55 188v127h-307q-252 0 -252 -199zM238 1229v157h118v-157h-118zM664 1229v157h118v-157h-118z" />
<glyph unicode="&#xe5;" horiz-adv-x="1073" d="M115 270q0 135 91 210t253 75h319v111q0 121 -65.5 181t-212.5 60q-102 0 -163 -28.5t-110 -96.5l-75 66q61 84 142 117.5t206 33.5q383 0 383 -323v-676h-105v98q-61 -61 -127.5 -85.5t-173.5 -24.5q-203 0 -291 90q-71 71 -71 192zM219 272q0 -98 61.5 -145t196.5 -47 q166 0 246 76q55 53 55 188v127h-307q-252 0 -252 -199zM276 1386.5q0 96.5 69 165t165 68.5t164.5 -68.5t68.5 -165t-68.5 -166t-164.5 -69.5t-165 69.5t-69 166zM360 1386.5q0 -61.5 44.5 -105.5t105.5 -44t105 44t44 105.5t-44 104.5t-105 43t-105.5 -43t-44.5 -104.5z " />
<glyph unicode="&#xe6;" horiz-adv-x="1708" d="M115 270q0 135 91 210t253 75h319v111q0 121 -65.5 181t-212.5 60q-102 0 -163 -28.5t-110 -96.5l-75 66q61 84 142 117.5t206 33.5q279 0 354 -174q102 174 320 174q186 0 290.5 -127t104.5 -354v-47h-686q0 -190 82 -289.5t239 -99.5q86 0 147.5 27.5t125.5 91.5 l77 -62q-80 -80 -159.5 -115.5t-198.5 -35.5q-250 0 -352 184q-61 -100 -145.5 -142t-221.5 -42q-203 0 -291 90q-71 71 -71 192zM219 272q0 -98 61.5 -145t196.5 -47q166 0 246 76q55 53 55 188v127h-307q-252 0 -252 -199zM883 555h581q-8 127 -35 186q-33 78 -101 122 t-154.5 44t-155 -44t-101.5 -122q-28 -77 -34 -186z" />
<glyph unicode="&#xe7;" horiz-adv-x="1009" d="M141 493.5q0 235.5 116 370.5t318 135q104 0 177 -32.5t149 -118.5l-72 -66q-63 70 -118.5 97.5t-135.5 27.5q-174 0 -262 -131q-68 -98 -67.5 -282.5t67.5 -282.5q88 -131 262 -131q78 0 134.5 27.5t119.5 97.5l72 -66q-76 -86 -148.5 -118.5t-177.5 -32.5 q-203 0 -318.5 135t-115.5 370.5zM371 -451l147 308h113l-131 -308h-129z" />
<glyph unicode="&#xe8;" horiz-adv-x="1071" d="M141 494q0 240 104.5 372.5t291 132.5t291 -127t104.5 -354v-47h-686q0 -190 82 -289.5t239 -99.5q86 0 147.5 27.5t125.5 91.5l78 -62q-80 -80 -160 -115.5t-197 -35.5q-205 0 -312.5 129t-107.5 377zM246 555h581q-8 127 -34 186q-33 78 -101.5 122t-154.5 44t-155 -44 t-101 -122q-29 -77 -35 -186zM301 1509h137l199 -301h-119z" />
<glyph unicode="&#xe9;" horiz-adv-x="1071" d="M141 494q0 240 104.5 372.5t291 132.5t291 -127t104.5 -354v-47h-686q0 -190 82 -289.5t239 -99.5q86 0 147.5 27.5t125.5 91.5l78 -62q-80 -80 -160 -115.5t-197 -35.5q-205 0 -312.5 129t-107.5 377zM246 555h581q-8 127 -34 186q-33 78 -101.5 122t-154.5 44t-155 -44 t-101 -122q-29 -77 -35 -186zM444 1208l199 301h137l-217 -301h-119z" />
<glyph unicode="&#xea;" horiz-adv-x="1071" d="M141 494q0 240 104.5 372.5t291 132.5t291 -127t104.5 -354v-47h-686q0 -190 82 -289.5t239 -99.5q86 0 147.5 27.5t125.5 91.5l78 -62q-80 -80 -160 -115.5t-197 -35.5q-205 0 -312.5 129t-107.5 377zM233 1208l252 301h111l252 -301h-117l-190 224l-191 -224h-117z M246 555h581q-8 127 -34 186q-33 78 -101.5 122t-154.5 44t-155 -44t-101 -122q-29 -77 -35 -186z" />
<glyph unicode="&#xeb;" horiz-adv-x="1071" d="M141 494q0 240 104.5 372.5t291 132.5t291 -127t104.5 -354v-47h-686q0 -190 82 -289.5t239 -99.5q86 0 147.5 27.5t125.5 91.5l78 -62q-80 -80 -160 -115.5t-197 -35.5q-205 0 -312.5 129t-107.5 377zM246 555h581q-8 127 -34 186q-33 78 -101.5 122t-154.5 44t-155 -44 t-101 -122q-29 -77 -35 -186zM268 1229v157h119v-157h-119zM694 1229v157h119v-157h-119z" />
<glyph unicode="&#xec;" horiz-adv-x="501" d="M37 1509h137l199 -301h-119zM199 0v987h104v-987h-104z" />
<glyph unicode="&#xed;" horiz-adv-x="501" d="M199 0v987h104v-987h-104zM199 1208l198 301h138l-218 -301h-118z" />
<glyph unicode="&#xee;" horiz-adv-x="501" d="M-57 1208l252 301h110l252 -301h-117l-190 224l-191 -224h-116zM199 0v987h104v-987h-104z" />
<glyph unicode="&#xef;" horiz-adv-x="501" d="M-20 1229v157h118v-157h-118zM199 0v987h104v-987h-104zM406 1229v157h118v-157h-118z" />
<glyph unicode="&#xf0;" horiz-adv-x="1077" d="M141 493.5q0 274.5 123 397.5q109 109 275 108q96 0 153 -34l-137 231h-240v78h195l-109 184h109l106 -184h162v-78h-116l147 -252q80 -139 103.5 -226t23.5 -224q0 -274 -123 -398q-109 -109 -274.5 -108.5t-274.5 108.5q-123 123 -123 397.5zM246 493.5 q0 -241.5 88 -329.5q84 -84 204.5 -84t204.5 84q88 88 88 329.5t-88 329.5q-84 84 -204.5 84t-204.5 -84q-88 -88 -88 -329.5z" />
<glyph unicode="&#xf1;" horiz-adv-x="1144" d="M199 0v987h104v-117q111 129 291 129q166 0 262 -94q102 -98 102 -274v-631h-104v612q0 143 -69.5 219t-202.5 76t-206 -76.5t-73 -218.5v-612h-104zM266 1323q98 98 183 98q63 0 141 -49q70 -43 115 -43q53 0 120 68l62 -60q-98 -98 -182 -98q-55 0 -142 49 q-74 43 -114 43q-53 0 -121 -67z" />
<glyph unicode="&#xf2;" horiz-adv-x="1024" d="M111 493.5q0 274.5 122 397.5q109 109 275 108.5t274 -108.5q123 -123 123 -397.5t-123 -397.5q-109 -109 -274.5 -108.5t-274.5 108.5q-122 123 -122 397.5zM215 493.5q0 -241.5 88 -329.5q84 -84 205 -84t205 84q88 88 88 329.5t-88 329.5q-84 84 -205 84t-205 -84 q-88 -88 -88 -329.5zM272 1509h138l198 -301h-119z" />
<glyph unicode="&#xf3;" horiz-adv-x="1077" d="M141 493.5q0 274.5 123 397.5q109 109 275 108.5t274 -108.5q123 -123 123 -397.5t-123 -397.5q-109 -109 -274.5 -108.5t-274.5 108.5q-123 123 -123 397.5zM246 493.5q0 -241.5 88 -329.5q84 -84 204.5 -84t204.5 84q88 88 88 329.5t-88 329.5q-84 84 -204.5 84 t-204.5 -84q-88 -88 -88 -329.5zM442 1208l199 301h137l-217 -301h-119z" />
<glyph unicode="&#xf4;" horiz-adv-x="1077" d="M141 493.5q0 274.5 123 397.5q109 109 275 108.5t274 -108.5q123 -123 123 -397.5t-123 -397.5q-109 -109 -274.5 -108.5t-274.5 108.5q-123 123 -123 397.5zM231 1208l252 301h111l252 -301h-117l-190 224l-191 -224h-117zM246 493.5q0 -241.5 88 -329.5 q84 -84 204.5 -84t204.5 84q88 88 88 329.5t-88 329.5q-84 84 -204.5 84t-204.5 -84q-88 -88 -88 -329.5z" />
<glyph unicode="&#xf5;" horiz-adv-x="1077" d="M141 493.5q0 274.5 123 397.5q109 109 275 108.5t274 -108.5q123 -123 123 -397.5t-123 -397.5q-109 -109 -274.5 -108.5t-274.5 108.5q-123 123 -123 397.5zM223 1323q98 98 183 98q63 0 141 -49q70 -43 115 -43q53 0 120 68l62 -60q-98 -98 -182 -98q-55 0 -142 49 q-74 43 -114 43q-53 0 -121 -67zM246 493.5q0 -241.5 88 -329.5q84 -84 204.5 -84t204.5 84q88 88 88 329.5t-88 329.5q-84 84 -204.5 84t-204.5 -84q-88 -88 -88 -329.5z" />
<glyph unicode="&#xf6;" horiz-adv-x="1077" d="M141 493.5q0 274.5 123 397.5q109 109 275 108.5t274 -108.5q123 -123 123 -397.5t-123 -397.5q-109 -109 -274.5 -108.5t-274.5 108.5q-123 123 -123 397.5zM246 493.5q0 -241.5 88 -329.5q84 -84 204.5 -84t204.5 84q88 88 88 329.5t-88 329.5q-84 84 -204.5 84 t-204.5 -84q-88 -88 -88 -329.5zM266 1229v157h119v-157h-119zM692 1229v157h119v-157h-119z" />
<glyph unicode="&#xf7;" d="M109 492v96h835v-96h-835zM455 123v143h143v-143h-143zM455 813v143h143v-143h-143z" />
<glyph unicode="&#xf8;" horiz-adv-x="1077" d="M141 494q0 274 123 397q109 109 275 108q123 0 215 -61l82 139h98l-115 -192q117 -125 117 -391q0 -274 -123 -398q-109 -109 -274 -108q-119 0 -215 59l-82 -137h-99l115 192q-117 126 -117 392zM246 494q0 -217 65 -304l394 666q-72 51 -166 51q-121 0 -205 -84 q-88 -87 -88 -329zM373 131q72 -51 166 -51q121 0 204 84q88 88 88 330q0 217 -65 303z" />
<glyph unicode="&#xf9;" horiz-adv-x="1144" d="M186 356v631h105v-612q0 -143 69.5 -219t202.5 -76t206 76.5t73 218.5v612h104v-987h-104v117q-111 -129 -291 -129q-166 0 -262 94q-103 98 -103 274zM326 1509h137l199 -301h-119z" />
<glyph unicode="&#xfa;" horiz-adv-x="1144" d="M186 356v631h105v-612q0 -143 69.5 -219t202.5 -76t206 76.5t73 218.5v612h104v-987h-104v117q-111 -129 -291 -129q-166 0 -262 94q-103 98 -103 274zM469 1208l199 301h137l-217 -301h-119z" />
<glyph unicode="&#xfb;" horiz-adv-x="1144" d="M186 356v631h105v-612q0 -143 69.5 -219t202.5 -76t206 76.5t73 218.5v612h104v-987h-104v117q-111 -129 -291 -129q-166 0 -262 94q-103 98 -103 274zM258 1208l252 301h111l251 -301h-116l-191 224l-190 -224h-117z" />
<glyph unicode="&#xfc;" horiz-adv-x="1144" d="M186 356v631h105v-612q0 -143 69.5 -219t202.5 -76t206 76.5t73 218.5v612h104v-987h-104v117q-111 -129 -291 -129q-166 0 -262 94q-103 98 -103 274zM293 1229v157h119v-157h-119zM719 1229v157h119v-157h-119z" />
<glyph unicode="&#xfd;" horiz-adv-x="880" d="M29 987h114l297 -864l297 864h115l-459 -1255q-29 -82 -67 -115q-66 -63 -187 -63h-49v92h39q82 0 118 28.5t62 106.5l80 219zM344 1208l199 301h137l-217 -301h-119z" />
<glyph unicode="&#xfe;" horiz-adv-x="1105" d="M199 -471v1929h104v-598q61 80 131 109.5t162 29.5q156 0 242 -86q127 -127 127 -419.5t-127 -419.5q-86 -86 -242 -86q-92 0 -161.5 29.5t-131.5 109.5v-598h-104zM303 493.5q0 -88.5 10.5 -154t38 -129t86 -97t144.5 -33.5t144 33.5t86 97t38 129t10 154t-10 154 t-38 129t-86 97t-144 33.5t-144.5 -33.5t-86 -97t-38 -129t-10.5 -154z" />
<glyph unicode="&#xff;" horiz-adv-x="880" d="M29 987h114l297 -864l297 864h115l-459 -1255q-29 -82 -67 -115q-66 -63 -187 -63h-49v92h39q82 0 118 28.5t62 106.5l80 219zM168 1229v157h119v-157h-119zM594 1229v157h119v-157h-119z" />
<glyph unicode="&#x152;" horiz-adv-x="2041" d="M168 729.5q0 276.5 21.5 388t113.5 203.5q150 150 365 149q240 0 389 -186v174h864v-96h-756q0 -98 1 -291.5t1 -292.5h641v-86h-641q0 -98 -1 -296.5t-1 -299.5h762v-96h-870v174q-150 -186 -389 -186q-215 0 -365 149q-92 92 -113.5 204t-21.5 388.5zM279 729 q0 -252 19 -354.5t93 -175.5q113 -113 276.5 -113t276.5 113q74 74 93.5 176t19.5 354t-19.5 354.5t-93.5 176.5q-113 113 -276.5 112.5t-276.5 -112.5q-74 -74 -93 -176.5t-19 -354.5z" />
<glyph unicode="&#x153;" horiz-adv-x="1761" d="M141 493.5q0 274.5 123 397.5q109 109 275 108q119 0 210 -55t138 -160q98 215 340 215q186 0 290.5 -127t104.5 -354v-47h-686q0 -190 82 -289.5t239 -99.5q86 0 147.5 27.5t125.5 91.5l78 -62q-80 -80 -160 -115.5t-197 -35.5q-264 0 -364 215q-47 -102 -139.5 -158.5 t-208.5 -56.5q-166 0 -275 108q-123 123 -123 397.5zM246 493.5q0 -241.5 88 -329.5q84 -84 204.5 -84t204.5 84q88 88 88 329.5t-88 329.5q-84 84 -204.5 84t-204.5 -84q-88 -88 -88 -329.5zM936 555h582q-8 127 -35 186q-33 78 -101.5 122t-154.5 44t-154.5 -44 t-101.5 -122q-29 -77 -35 -186z" />
<glyph unicode="&#x178;" horiz-adv-x="1011" d="M20 1458h119l371 -737l362 737h119l-430 -854v-604h-110v604zM233 1618v158h119v-158h-119zM659 1618v158h119v-158h-119z" />
<glyph unicode="&#x2c6;" horiz-adv-x="1024" d="M205 1208l252 301h110l252 -301h-117l-190 224l-190 -224h-117z" />
<glyph unicode="&#x2dc;" horiz-adv-x="1024" d="M197 1323q98 98 182 98q63 0 141 -49q70 -43 115 -43q53 0 121 68l61 -60q-98 -98 -182 -98q-55 0 -141 49q-74 43 -115 43q-53 0 -121 -67z" />
<glyph unicode="&#x2013;" d="M109 492v96h835v-96h-835z" />
<glyph unicode="&#x2014;" horiz-adv-x="1787" d="M168 492v96h1452v-96h-1452z" />
<glyph unicode="&#x2018;" horiz-adv-x="501" d="M174 1110h145v152h-73q-2 49 19.5 99t62.5 64v76q-76 -23 -114 -89t-40 -148v-154z" />
<glyph unicode="&#x2019;" horiz-adv-x="501" d="M174 1069q76 20 115 87t39 149v153h-146v-151h74q2 -49 -19.5 -99.5t-62.5 -64.5v-74z" />
<glyph unicode="&#x201a;" horiz-adv-x="542" d="M195 -164v-74q76 20 114.5 87t38.5 149v154h-145v-152h73q2 -49 -19 -99.5t-62 -64.5z" />
<glyph unicode="&#x201c;" horiz-adv-x="770" d="M174 1110h145v152h-73q-2 49 19.5 99t62.5 64v76q-76 -23 -114 -89t-40 -148v-154zM442 1110h146v152h-74q-2 49 19.5 99t62.5 64v76q-76 -23 -115 -89t-39 -148v-154z" />
<glyph unicode="&#x201d;" horiz-adv-x="770" d="M174 1069q76 20 115 87t39 149v153h-146v-151h74q2 -49 -19.5 -99.5t-62.5 -64.5v-74zM442 1069q74 20 113 87t41 149v153h-145v-151h73q2 -49 -19.5 -99.5t-62.5 -64.5v-74z" />
<glyph unicode="&#x201e;" horiz-adv-x="811" d="M195 -164v-74q76 20 114.5 87t38.5 149v154h-145v-152h73q2 -49 -19 -99.5t-62 -64.5zM463 -164v-74q74 20 112.5 87t40.5 149v154h-145v-152h74q2 -49 -19.5 -99.5t-62.5 -64.5z" />
<glyph unicode="&#x2022;" horiz-adv-x="843" d="M225 537h393v393h-393v-393z" />
<glyph unicode="&#x2026;" horiz-adv-x="1482" d="M195 0v152h151v-152h-151zM666 0v152h151v-152h-151zM1137 0v152h151v-152h-151z" />
<glyph unicode="&#x2039;" horiz-adv-x="655" d="M86 543l401 401v-135l-266 -266l266 -267v-135z" />
<glyph unicode="&#x203a;" horiz-adv-x="655" d="M168 141v135l266 267l-266 266v135l401 -401z" />
<glyph unicode="&#x20ac;" horiz-adv-x="1253" d="M102 539v96h205v94v94h-205v99h205q4 154 32 239.5t103 159.5q150 150 365 149q166 0 293 -86l-76 -75q-94 63 -217 63q-164 0 -277 -112q-59 -59 -82.5 -132t-27.5 -206h598v-99h-600v-94v-94h600v-96h-598q4 -133 27.5 -207t82.5 -133q113 -113 277 -113q123 0 215 64 l76 -76q-127 -86 -291 -86q-215 0 -365 149q-76 76 -103.5 162t-31.5 240h-205z" />
<glyph unicode="&#x2122;" horiz-adv-x="1079" d="M147 1405h123v-395h62v395h125v55h-310v-55zM537 1010h61v325l107 -213h59l108 213v-325h60v450h-60l-137 -272l-137 272h-61v-450z" />
<glyph unicode="&#xe000;" horiz-adv-x="985" d="M0 985h985v-985h-985v985z" />
<glyph unicode="&#xfb01;" horiz-adv-x="1120" d="M94 909v78h135v213q0 117 62.5 187.5t175.5 70.5h90v-92h-72q-152 0 -151 -164v-215h223v-78h-223v-909h-105v909h-135zM805 1329v129h129v-129h-129zM817 0v987h105v-987h-105z" />
<glyph unicode="&#xfb02;" horiz-adv-x="1200" d="M94 909v78h135v213q0 117 62.5 187.5t175.5 70.5h90v-92h-72q-152 0 -151 -164v-215h223v-78h-223v-909h-105v909h-135zM807 256v1202h104v-1200q0 -88 34 -127t118 -39h72v-92h-91q-119 0 -178 67.5t-59 188.5z" />
<glyph unicode="&#xfb03;" horiz-adv-x="1746" d="M94 909v78h135v213q0 117 62.5 187.5t175.5 70.5h90v-92h-72q-152 0 -151 -164v-215h223v-78h-223v-909h-105v909h-135zM717 909v78h135v213q0 117 62.5 187.5t175.5 70.5h90v-92h-72q-152 0 -152 -164v-215h224v-78h-224v-909h-104v909h-135zM1432 1329v129h129v-129 h-129zM1444 0v987h104v-987h-104z" />
<glyph unicode="&#xfb04;" horiz-adv-x="1832" d="M94 909v78h135v213q0 117 62.5 187.5t175.5 70.5h90v-92h-72q-152 0 -151 -164v-215h223v-78h-223v-909h-105v909h-135zM717 909v78h135v213q0 117 62.5 187.5t175.5 70.5h90v-92h-72q-152 0 -152 -164v-215h224v-78h-224v-909h-104v909h-135zM1440 256v1202h104v-1200 q0 -88 34 -127t118 -39h71v-92h-90q-119 0 -178 67.5t-59 188.5z" />
</font>
</defs></svg> 