<?xml version="1.0" standalone="no"?>
<!DOCTYPE svg PUBLIC "-//W3C//DTD SVG 1.1//EN" "http://www.w3.org/Graphics/SVG/1.1/DTD/svg11.dtd" >
<svg xmlns="http://www.w3.org/2000/svg">
<metadata>
This is a custom SVG webfont generated by Font Squirrel.
Copyright   : NA
</metadata>
<defs>
<font id="PNCSansBold" horiz-adv-x="1112" >
<font-face units-per-em="2048" ascent="1638" descent="-410" />
<missing-glyph horiz-adv-x="475" />
<glyph unicode=" "  horiz-adv-x="475" />
<glyph unicode="&#x09;" horiz-adv-x="475" />
<glyph unicode="&#xa0;" horiz-adv-x="475" />
<glyph unicode="!" horiz-adv-x="710" d="M229 1458h330l-67 -1001h-197zM242 0v303h305v-303h-305z" />
<glyph unicode="&#x22;" horiz-adv-x="950" d="M139 1026v432h250v-432h-250zM561 1026v432h248v-432h-248z" />
<glyph unicode="#" horiz-adv-x="1171" d="M174 647h107l-48 -291h211l48 291h178l-49 -291h210l48 291h135v189h-105l25 165h135v185h-104l41 272h-209l-43 -272h-179l43 272h-210l-43 -272h-138v-185h109l-25 -165h-137v-189zM520 836l27 165h176l-25 -165h-178z" />
<glyph unicode="$" horiz-adv-x="1267" d="M39 180l184 185q117 -117 326 -123v370l-66 9q-184 25 -282 122q-104 104 -105 285q0 178 114 298t312 140v185h207v-183q246 -14 404 -168l-181 -178q-90 86 -252 99v-357l78 -12q186 -29 279 -115q113 -106 112 -307q0 -182 -120.5 -296t-319.5 -138v-229h-207v221 q-303 10 -483 192zM371 1038q0 -63 43 -104q47 -45 135 -57v342q-86 -12 -132 -61.5t-46 -119.5zM700 246q190 23 191 176q0 80 -45 123q-39 37 -146 53v-352z" />
<glyph unicode="%" horiz-adv-x="1736" d="M106 987v203q0 133 85 206.5t212 73.5t212 -73.5t85 -206.5v-203q0 -133 -85 -206.5t-212 -73.5t-212 73.5t-85 206.5zM299 995q0 -117 104.5 -116.5t104.5 116.5v187q0 117 -104.5 116.5t-104.5 -116.5v-187zM420 0l690 1458h209l-690 -1458h-209zM1036 268v203 q0 133 85 207t212 74t212 -74t85 -207v-203q0 -133 -85 -206.5t-212 -73.5t-212 73.5t-85 206.5zM1229 276q0 -117 104.5 -116.5t104.5 116.5v187q0 117 -104.5 117t-104.5 -117v-187z" />
<glyph unicode="&#x26;" horiz-adv-x="1476" d="M123 430q0 217 262 391q-145 166 -145 309q0 152 104.5 246t284.5 94q170 0 271 -96t101 -248q0 -145 -149 -254q-68 -51 -104 -75l245 -291q68 90 74 256h252q-16 -297 -156 -453l262 -309h-338l-106 127q-53 -43 -84 -63.5t-114 -48t-179 -27.5q-238 0 -359.5 116.5 t-121.5 325.5zM381 434q0 -90 63.5 -147.5t157.5 -57.5q119 0 217 86l-291 342q-76 -53 -111.5 -102t-35.5 -121zM508 1124q0 -25 15.5 -55.5t30.5 -50t50 -57.5l62 40q84 59 84 123q0 51 -33 85t-88 34q-57 0 -89 -33t-32 -86z" />
<glyph unicode="'" horiz-adv-x="530" d="M139 1026v432h252v-432h-252z" />
<glyph unicode="(" horiz-adv-x="686" d="M102 729q0 492 256 920l195 -107q-201 -408 -201 -813q0 -408 201 -815l-197 -104q-254 430 -254 919z" />
<glyph unicode=")" horiz-adv-x="686" d="M133 -86l195 -104q256 434 256 919t-256 920l-195 -107q201 -408 201 -813q0 -407 -201 -815z" />
<glyph unicode="*" horiz-adv-x="1011" d="M113 942l225 119l-225 119l92 163l217 -137l-10 256h188l-8 -256l215 137l94 -163l-227 -119l227 -119l-94 -162l-215 135l8 -256h-188l10 256l-217 -135z" />
<glyph unicode="+" d="M102 442v250h330v328h250v-328h328v-250h-328v-327h-250v327h-330z" />
<glyph unicode="," horiz-adv-x="663" d="M195 303v-303h124q4 -57 -31.5 -106.5t-90.5 -57.5v-125q117 18 193.5 95t78.5 194v303h-274z" />
<glyph unicode="-" horiz-adv-x="872" d="M121 461v248h631v-248h-631z" />
<glyph unicode="." horiz-adv-x="694" d="M195 0v303h305v-303h-305z" />
<glyph unicode="/" horiz-adv-x="825" d="M0 -152l584 1762h250l-584 -1762h-250z" />
<glyph unicode="0" d="M113 422v614q0 201 129 317.5t315 116.5t314 -116.5t128 -317.5v-614q0 -201 -128 -317.5t-314 -116.5t-315 116.5t-129 317.5zM379 424q0 -90 49 -143.5t129 -53.5t128 53.5t48 143.5v608q0 92 -48 145.5t-128 53.5t-129 -54.5t-49 -144.5v-608z" />
<glyph unicode="1" d="M211 913v287l297 258h266v-1458h-266v1171z" />
<glyph unicode="2" d="M121 1044q0 195 126 310.5t318 115.5q197 0 320 -114.5t123 -308.5q0 -98 -35 -166t-121 -168l-408 -473h564v-240h-887v240l545 632q76 90 75 177q0 82 -46 132t-130 50q-76 0 -127 -44t-51 -143h-266z" />
<glyph unicode="3" d="M86 418h266q2 -94 58.5 -142.5t140.5 -48.5q88 0 142.5 53.5t54.5 149.5q0 92 -54.5 146.5t-150.5 54.5h-39v231h39q92 0 138 50.5t46 131.5q0 88 -51 137.5t-127 49.5t-126 -47t-54 -129h-267q4 190 131 302.5t316 112.5q195 0 319.5 -116.5t124.5 -300.5 q0 -209 -168 -299q188 -100 189 -332q0 -209 -132 -321.5t-331 -112.5q-195 0 -329 107.5t-136 322.5z" />
<glyph unicode="4" d="M63 207v252l500 999h291l-500 -999h305v272h256v-272h134v-252h-134v-207h-256v207h-596z" />
<glyph unicode="5" d="M117 408h266q23 -180 178 -181q80 0 127 47q57 57 57 218q0 262 -178 262q-137 0 -176 -119h-244v823h832v-239h-590v-314q78 74 219 74q174 0 273 -98q131 -131 131 -389q0 -133 -27 -221.5t-102 -164.5q-119 -119 -322 -118q-209 0 -325 116q-105 105 -119 304z" />
<glyph unicode="6" d="M98 438q0 139 123 389l307 631h291l-303 -602q45 18 109 18q156 0 269.5 -118.5t113.5 -313.5q0 -211 -128 -332.5t-327 -121.5t-327 119.5t-128 330.5zM365 440.5q0 -98.5 52 -156t136 -57.5t136 57.5t52 155.5q0 96 -52 154.5t-136 58.5t-136 -57t-52 -155.5z" />
<glyph unicode="7" d="M102 989v469h928v-239l-473 -1219h-289l473 1219h-385v-230h-254z" />
<glyph unicode="8" d="M90 424q0 207 182 328q-164 115 -163.5 303t130.5 301.5t318 113.5t317.5 -113.5t129.5 -302t-164 -302.5q184 -123 184 -328t-132 -320.5t-335 -115.5t-335 115.5t-132 320.5zM356 428q0 -84 58.5 -142.5t142.5 -58.5t142.5 58.5t58.5 142.5t-58.5 143.5t-142.5 59.5 t-142.5 -59.5t-58.5 -143.5zM375 1047q0 -80 52 -132.5t130 -52.5t129 52.5t51 132.5q0 78 -51 131t-129 53t-130 -53t-52 -131z" />
<glyph unicode="9" d="M104 1016q0 211 128 332.5t327 121.5t327 -119.5t128 -330.5q0 -143 -121 -389l-309 -631h-289l303 602q-45 -18 -109 -18q-156 0 -270.5 118.5t-114.5 313.5zM371 1018q0 -96 52 -154.5t136 -58.5t136.5 57.5t52.5 155.5t-52.5 155.5t-136.5 57.5t-136 -57.5t-52 -155.5 z" />
<glyph unicode=":" horiz-adv-x="692" d="M195 0v303h303v-303h-303zM195 555v303h303v-303h-303z" />
<glyph unicode=";" horiz-adv-x="663" d="M195 303v-303h124q0 -6 1 -12q0 -51 -32 -94q-36 -49 -91 -58v-125q117 18 193.5 95t78.5 194v303h-274zM195 555h274v303h-274v-303z" />
<glyph unicode="&#x3c;" horiz-adv-x="1392" d="M215 631l963 -408v258l-654 250l654 246v260l-963 -406v-200z" />
<glyph unicode="=" d="M102 238v249h908v-249h-908zM102 682v250h908v-250h-908z" />
<glyph unicode="&#x3e;" horiz-adv-x="1392" d="M215 223v258l653 250l-653 246v260l963 -406v-200z" />
<glyph unicode="?" horiz-adv-x="1034" d="M164 1229q59 115 157.5 178t221.5 63q156 0 272.5 -98t116.5 -270q0 -72 -30 -142.5t-59.5 -107.5t-84.5 -98l-15 -17l-26 -28q-45 -49 -63.5 -73t-35 -66t-16.5 -95v-31h-240v29q0 92 31 172t60.5 120t87.5 101l4 4l18 21q43 47 64.5 73.5t43 67.5t21.5 78q0 49 -38 90 t-107 41q-119 0 -168 -115zM340 0h283v272h-283v-272z" />
<glyph unicode="@" horiz-adv-x="2109" d="M133 440q0 260 125 481.5t339 349.5t466 128q420 0 672 -251t252 -665q0 -145 -34 -254.5t-81 -167t-110.5 -92.5t-107.5 -43t-87 -8q-102 0 -179 47t-108 111q-131 -131 -307 -131q-178 0 -273 94q-88 92 -88 240q0 135 93.5 222t271.5 87h252v41q0 88 -47 128t-152 40 q-76 0 -119 -19.5t-86 -68.5l-170 165q152 147 385 148q217 0 336 -82t119 -211v-459q4 -92 31.5 -125.5t83.5 -33.5q35 0 61.5 18t42 58t24.5 70t12 89.5t3 75.5v67q0 317 -186.5 498.5t-503.5 181.5q-283 0 -490.5 -213t-207.5 -510q0 -299 205.5 -519t486.5 -222v-223 q-383 2 -653.5 282.5t-270.5 675.5zM868 285q0 -123 154 -123q115 0 168 51q39 37 39 135v58h-211q-72 0 -111 -32t-39 -89z" />
<glyph unicode="A" horiz-adv-x="1306" d="M10 0l531 1458h223l532 -1458h-297l-86 258h-518l-88 -258h-297zM475 498h363l-179 530z" />
<glyph unicode="B" horiz-adv-x="1347" d="M170 0v1458h586q211 0 330.5 -110.5t119.5 -298.5q0 -111 -56 -190t-124 -111q201 -94 201 -328q0 -199 -123 -309.5t-324 -110.5h-610zM455 254h297q92 0 141 51t49 129t-49 128t-141 50h-297v-358zM455 868h278q90 0 139.5 46.5t49.5 122t-49.5 121.5t-139.5 46h-278 v-336z" />
<glyph unicode="C" horiz-adv-x="1150" d="M121 729q0 240 24 363q25 125 119 219q160 160 393 159q213 0 356.5 -120.5t180.5 -339.5h-289q-51 207 -246 207q-119 0 -182 -76q-45 -47 -58 -124t-13 -288t13 -287.5t58 -124.5q63 -76 182 -75q195 0 246 207h289q-37 -219 -180.5 -340t-356.5 -121q-233 0 -393 159 q-94 94 -119 220q-24 122 -24 362z" />
<glyph unicode="D" horiz-adv-x="1349" d="M170 0v1458h526q246 0 385 -139q27 -27 48.5 -54.5t36.5 -61.5l27 -58q11 -25 17.5 -67t10.5 -61.5t6 -70.5t2 -66v-74v-71v-70v-75q0 -16 -2 -68.5t-6 -73t-10.5 -63.5t-17.5 -69l-27 -60q-15 -35 -36.5 -62.5t-48.5 -54.5q-139 -139 -385 -139h-526zM455 254h215 q139 0 213 90q39 47 50 130t11 261q0 174 -11 253t-50 126q-74 90 -213 90h-215v-950z" />
<glyph unicode="E" horiz-adv-x="1239" d="M170 0v1458h960v-254h-675v-342h575v-254h-575v-354h675v-254h-960z" />
<glyph unicode="F" horiz-adv-x="1208" d="M170 0v1458h960v-254h-675v-358h575v-254h-575v-592h-285z" />
<glyph unicode="G" horiz-adv-x="1304" d="M121 729q0 240 24 363q25 125 119 219q160 160 393 159q236 0 377.5 -131t171.5 -335h-286q-53 213 -263 213q-115 0 -182 -78q-43 -53 -56 -128t-13 -282q0 -211 13 -285.5t56 -126.5q63 -76 182 -75q127 0 203 82q66 76 66 194v55h-269v238h551v-213 q0 -160 -31.5 -262.5t-107.5 -181.5q-164 -166 -412 -166q-233 0 -393 159q-94 94 -119 220q-24 122 -24 362z" />
<glyph unicode="H" horiz-adv-x="1402" d="M170 0v1458h285v-596h493v596h285v-1458h-285v610h-493v-610h-285z" />
<glyph unicode="I" horiz-adv-x="624" d="M170 0v1458h285v-1458h-285z" />
<glyph unicode="J" horiz-adv-x="1046" d="M6 137l189 187q82 -82 186 -82q106 0 167.5 63.5t61.5 186.5v966h285v-979q0 -231 -149.5 -361t-364.5 -130q-119 0 -207 34.5t-168 114.5z" />
<glyph unicode="K" horiz-adv-x="1361" d="M170 0v1458h285v-635l514 635h346l-484 -579l519 -879h-332l-375 664l-188 -226v-438h-285z" />
<glyph unicode="L" horiz-adv-x="1177" d="M170 0v1458h285v-1204h661v-254h-946z" />
<glyph unicode="M" horiz-adv-x="1660" d="M170 0v1458h281l380 -788l379 788h281v-1458h-285v850l-278 -553h-193l-280 553v-850h-285z" />
<glyph unicode="N" horiz-adv-x="1456" d="M170 0v1458h254l577 -893v893h285v-1458h-254l-577 895v-895h-285z" />
<glyph unicode="O" horiz-adv-x="1318" d="M121 729q0 129 2 182.5t14.5 141.5t43 146t83.5 112q160 160 395 159q233 0 394 -159q53 -53 84.5 -112.5t44 -144.5t14.5 -142.5t2 -182.5t-2 -182.5t-14.5 -142.5t-44 -144t-84.5 -113q-160 -160 -394 -159q-236 0 -395 159q-53 53 -83.5 111.5t-43 147t-14.5 141.5 t-2 182zM406 729q0 -207 13 -284.5t56 -125.5q68 -78 184 -77q115 0 183 77q43 47 57 126t14 284t-14 284t-57 126q-68 78 -183 78q-117 0 -184 -78q-43 -47 -56 -125t-13 -285z" />
<glyph unicode="P" horiz-adv-x="1286" d="M170 0v1458h565q219 0 350.5 -131t131.5 -323.5t-131.5 -323.5t-350.5 -131h-280v-549h-285zM455 805h266q96 0 153.5 54t57.5 144.5t-57.5 145.5t-153.5 55h-266v-399z" />
<glyph unicode="Q" horiz-adv-x="1316" d="M121 729q0 129 2 182.5t14.5 141.5t43 146t83.5 112q160 160 395 159q233 0 394 -159q53 -53 84.5 -112.5t44 -144.5t14.5 -142.5t2 -182.5q0 -143 -3 -208.5t-23.5 -155t-63.5 -152.5l125 -125l-150 -149l-129 129q-123 -80 -295 -80q-236 0 -395 159 q-53 53 -83.5 111.5t-43 147t-14.5 141.5t-2 182zM406 729q0 -207 13 -284.5t56 -125.5q68 -78 184 -77q55 0 95 26l-127 125l151 150l109 -109q27 76 26 295q0 205 -14 284t-57 126q-68 78 -183 78q-117 0 -184 -78q-43 -47 -56 -125t-13 -285z" />
<glyph unicode="R" horiz-adv-x="1339" d="M170 0v1458h571q217 0 345 -129t128 -317q0 -145 -75.5 -243.5t-190.5 -139.5l326 -629h-330l-285 582h-204v-582h-285zM455 819h268q92 0 149.5 53.5t57.5 139.5t-57.5 139t-149.5 53h-268v-385z" />
<glyph unicode="S" horiz-adv-x="1210" d="M39 180l184 185q123 -123 352 -123q258 0 259 180q0 80 -46 123q-41 37 -129 51l-176 25q-186 27 -282 120q-104 104 -105 287q0 199 137.5 320.5t370.5 121.5q295 0 471 -170l-180 -178q-104 100 -299 101q-109 0 -167 -52.5t-58 -132.5q0 -63 43 -104q49 -45 135 -57 l172 -25q184 -27 278 -113q113 -106 113 -309q0 -207 -152.5 -324.5t-388.5 -117.5q-174 0 -301 44t-231 148z" />
<glyph unicode="T" horiz-adv-x="1169" d="M61 1204v254h1047v-254h-381v-1204h-285v1204h-381z" />
<glyph unicode="U" horiz-adv-x="1368" d="M147 500v958h285v-948q0 -125 67.5 -196.5t184.5 -71.5t185.5 71.5t68.5 196.5v948h283v-958q0 -227 -154 -369.5t-383 -142.5t-383 142.5t-154 369.5z" />
<glyph unicode="V" horiz-adv-x="1189" d="M6 1458h295l293 -950l293 950h297l-484 -1458h-213z" />
<glyph unicode="W" horiz-adv-x="1816" d="M12 1458h297l226 -919l266 919h213l266 -919l227 919h297l-391 -1458h-237l-269 885l-268 -885h-238z" />
<glyph unicode="X" horiz-adv-x="1234" d="M10 0l453 748l-424 710h323l254 -471l256 471h322l-424 -710l455 -748h-326l-283 508l-280 -508h-326z" />
<glyph unicode="Y" horiz-adv-x="1171" d="M6 1458h309l273 -588l268 588h309l-438 -860v-598h-283v598z" />
<glyph unicode="Z" horiz-adv-x="1122" d="M82 0v229l623 975h-596v254h931v-225l-624 -979h624v-254h-958z" />
<glyph unicode="[" horiz-adv-x="774" d="M164 -152v1762h526v-240h-260v-1282h260v-240h-526z" />
<glyph unicode="\" horiz-adv-x="825" d="M0 1583h250l575 -1735h-250z" />
<glyph unicode="]" horiz-adv-x="774" d="M86 86h260v1286h-260v238h526v-1762h-526v238z" />
<glyph unicode="^" horiz-adv-x="1232" d="M129 797l365 676h245l365 -676h-279l-209 385l-208 -385h-279z" />
<glyph unicode="_" horiz-adv-x="1232" d="M0 -186h1233v-179h-1233v179z" />
<glyph unicode="`" horiz-adv-x="1024" d="M213 1585h281l131 -348h-179z" />
<glyph unicode="a" horiz-adv-x="1093" d="M74 324q0 135 93 222t271 87h252v53q0 88 -47 128t-151 40q-76 0 -119 -19.5t-86 -68.5l-170 166q76 84 162 115.5t223 31.5q455 0 454 -377v-702h-260v92q-55 -55 -113.5 -78.5t-148.5 -23.5q-178 0 -272 94q-88 93 -88 240zM330 330q0 -123 153 -123q115 0 168 51 q39 37 39 135v58h-211q-72 0 -110.5 -32t-38.5 -89z" />
<glyph unicode="b" horiz-adv-x="1146" d="M150 0v1458h266v-485q96 106 258 106q164 0 260 -96q49 -49 74.5 -133t29.5 -146.5t4 -169t-4 -169t-29.5 -147.5t-74.5 -134q-96 -96 -260 -96q-166 0 -266 112v-100h-258zM416 535q0 -74 6 -123.5t23.5 -94.5t55.5 -67.5t95 -22.5t95 22.5t55.5 67.5t23.5 94.5t6 123.5 q0 152 -34.5 228.5t-145.5 76.5t-145.5 -76.5t-34.5 -228.5z" />
<glyph unicode="c" horiz-adv-x="983" d="M96 534.5q0 124.5 30 222t77 157t111.5 98.5t128 53t130.5 14q215 0 353 -143l-181 -180q-78 84 -172 84t-151 -70q-59 -74 -60 -235q0 -164 60 -238q57 -70 151.5 -70t171.5 84l181 -178q-139 -145 -353 -145q-68 0 -131 15t-127.5 53t-111.5 98.5t-77 158t-30 222z" />
<glyph unicode="d" horiz-adv-x="1148" d="M104 534.5q0 106.5 4.5 169t30 146.5t74.5 133q96 96 260 96t260 -106v485h266v-1458h-260v100q-100 -113 -264 -112q-166 0 -262 96q-49 49 -74.5 134t-30 147.5t-4.5 169zM371 535q0 -74 6 -123.5t23.5 -94.5t55.5 -67.5t95 -22.5q111 0 146.5 78t35.5 229.5 t-35.5 228.5t-146.5 77t-145.5 -76.5t-34.5 -228.5z" />
<glyph unicode="e" horiz-adv-x="1122" d="M96 535q0 256 127 400t338 144q217 0 341 -142t124 -368v-118h-668q0 -106 62.5 -172t171.5 -66q84 0 136 23.5t106 76.5l161 -157q-88 -88 -178 -128t-227 -40q-102 0 -185 25.5t-155 85t-113 170t-41 266.5zM358 633h406q-2 63 -25 115q-49 111 -178 110.5t-178 -110.5 q-23 -52 -25 -115z" />
<glyph unicode="f" horiz-adv-x="700" d="M72 834v202h110v133q0 125 80 215.5t232 90.5h151v-226h-104q-92 0 -92 -96v-117h196v-202h-196v-834h-267v834h-110z" />
<glyph unicode="g" horiz-adv-x="1136" d="M104 563q0 164 19.5 258t89.5 164q94 94 256 94q158 0 260 -112v100h258v-1028q0 -195 -128 -318.5t-341 -123.5q-127 0 -217 30.5t-170 108.5l166 168q84 -82 209 -82q111 0 163 64.5t52 156.5v109q-96 -106 -254 -107q-160 0 -254 94q-70 70 -89.5 165t-19.5 259z M371 563.5q0 -61.5 5 -104.5t21.5 -86t53 -65.5t94 -22.5t94.5 22.5t53.5 65.5t22.5 86t6 104q0 129 -35 203t-141 74q-57 0 -93 -21.5t-53.5 -64.5t-22.5 -86t-5 -104.5z" />
<glyph unicode="h" horiz-adv-x="1165" d="M150 0v1458h266v-489q109 111 256 110q170 0 263 -107.5t93 -281.5v-690h-266v651q0 98 -51.5 143.5t-123 45.5t-121.5 -46t-50 -143v-651h-266z" />
<glyph unicode="i" horiz-adv-x="563" d="M145 1249v217h273v-217h-273zM150 0v1067h266v-1067h-266z" />
<glyph unicode="j" horiz-adv-x="563" d="M-47 -174h102q94 0 95 96v1145h266v-1161q0 -125 -79 -215t-233 -90h-151v225zM145 1249v217h273v-217h-273z" />
<glyph unicode="k" horiz-adv-x="1144" d="M150 0v1458h266v-827l354 436h322l-381 -430l409 -637h-329l-263 444l-112 -127v-317h-266z" />
<glyph unicode="l" horiz-adv-x="665" d="M139 305v1153h267v-1136q0 -96 94 -97h102v-225h-151q-154 0 -233 90t-79 215z" />
<glyph unicode="m" horiz-adv-x="1794" d="M150 0v1067h260v-98q106 111 266 110q184 0 282 -135q129 135 320 135q168 0 262 -94q117 -117 117 -303v-682h-266v645q0 100 -52.5 147.5t-124 47.5t-125 -46t-53.5 -143v-651h-266v645q0 100 -52 147.5t-124 47.5q-74 0 -126 -47.5t-52 -147.5v-645h-266z" />
<glyph unicode="n" horiz-adv-x="1173" d="M150 0v1067h260v-98q104 111 266 110q158 0 252 -94q109 -109 108 -303v-682h-266v645q0 100 -52 147.5t-124 47.5q-74 0 -126 -47.5t-52 -147.5v-645h-266z" />
<glyph unicode="o" d="M104 535q0 152 26 247t95 166q123 131 330 131q209 0 332 -131q70 -72 95.5 -167t25.5 -246q0 -154 -26 -249.5t-95 -166.5q-123 -131 -332 -131q-207 0 -330 131q-70 72 -95.5 167t-25.5 249zM371 535q0 -199 61 -261q47 -47 123 -47q78 0 125 47q61 61 61 261 q0 197 -61 258q-47 47 -125 47q-76 0 -123 -47q-61 -61 -61 -258z" />
<glyph unicode="p" horiz-adv-x="1146" d="M150 -391v1458h258v-100q100 113 266 112q164 0 260 -96q49 -49 74.5 -133t29.5 -146.5t4 -169t-4 -169t-29.5 -147.5t-74.5 -134q-96 -96 -260 -96q-162 0 -258 106v-485h-266zM416 535q0 -74 6 -123.5t23.5 -94.5t55.5 -67.5t95 -22.5t95 22.5t55.5 67.5t23.5 94.5 t6 123.5q0 152 -34.5 228.5t-145.5 76.5t-145.5 -76.5t-34.5 -228.5z" />
<glyph unicode="q" horiz-adv-x="1148" d="M104 534.5q0 106.5 4.5 169t30 146.5t74.5 133q96 96 262 96q164 0 264 -112v100h260v-1458h-266v485q-96 -106 -260 -106t-260 96q-49 49 -74.5 134t-30 147.5t-4.5 169zM371 535q0 -74 6 -123.5t23.5 -94.5t55.5 -67.5t95 -22.5q111 0 146.5 78t35.5 229.5t-36 228.5 t-146.5 77t-145 -76.5t-34.5 -228.5z" />
<glyph unicode="r" horiz-adv-x="931" d="M150 0v1067h260v-102q41 49 113.5 81.5t154.5 32.5q152 0 252 -100l-201 -203q-63 63 -141 64q-68 0 -120 -51.5t-52 -145.5v-643h-266z" />
<glyph unicode="s" horiz-adv-x="1026" d="M45 141l174 174q100 -100 285 -100q78 0 133 27.5t55 83.5q0 88 -112 98l-168 16q-311 31 -312 299q0 160 120 250t292 90q274 0 408 -125l-164 -166q-80 72 -248 72q-76 0 -114 -29.5t-38 -72.5q0 -82 111 -92l168 -17q156 -14 236.5 -95t80.5 -218q0 -170 -127 -259 t-325 -89q-147 0 -255 30.5t-200 122.5z" />
<glyph unicode="t" horiz-adv-x="720" d="M61 834v202h113v316h266v-316h189v-202h-189v-512q0 -96 92 -97h97v-225h-146q-152 0 -230.5 90t-78.5 215v529h-113z" />
<glyph unicode="u" horiz-adv-x="1173" d="M137 385v682h266v-645q0 -100 52.5 -147.5t124.5 -47.5q74 0 126 47.5t52 147.5v645h266v-1067h-260v98q-104 -111 -266 -110q-158 0 -252 94q-109 108 -109 303z" />
<glyph unicode="v" horiz-adv-x="1009" d="M8 1067h281l217 -659l215 659h280l-391 -1067h-209z" />
<glyph unicode="w" horiz-adv-x="1554" d="M8 1067h283l172 -659l217 659h194l220 -659l172 659h280l-325 -1067h-220l-223 670l-223 -670h-219z" />
<glyph unicode="x" horiz-adv-x="1079" d="M25 0l368 545l-354 522h319l181 -305l182 305h319l-354 -522l369 -545h-320l-196 319l-195 -319h-319z" />
<glyph unicode="y" horiz-adv-x="1011" d="M8 1067h281l221 -659l213 659h281l-457 -1239q-35 -92 -80 -137q-82 -82 -229 -82h-105v239h62q57 0 84.5 19.5t48.5 77.5l45 131z" />
<glyph unicode="z" horiz-adv-x="978" d="M76 0v203l473 624h-447v240h787v-203l-479 -624h479v-240h-813z" />
<glyph unicode="{" horiz-adv-x="935" d="M88 610v238h94q68 0 107 39q35 35 35 123v297q0 141 86 227q76 76 229 76h209v-240h-109q-88 0 -116 -29q-33 -35 -33 -131v-276q0 -68 -26.5 -114t-51.5 -61.5t-63 -29.5q39 -14 63.5 -29.5t51 -61.5t26.5 -114v-276q0 -96 33 -131q29 -29 116 -29h109v-240h-209 q-154 0 -229 76q-86 86 -86 228v297q0 88 -35 122q-39 39 -107 39h-94z" />
<glyph unicode="|" horiz-adv-x="716" d="M225 -152v1762h267v-1762h-267z" />
<glyph unicode="}" horiz-adv-x="935" d="M88 88h109q88 0 116 29q33 35 33 131v276q0 68 26.5 114t51.5 61.5t63 29.5q-39 14 -63.5 29.5t-51 61.5t-26.5 114v276q0 96 -33 131q-29 29 -116 29h-109v240h209q154 0 229 -76q86 -86 86 -227v-297q0 -88 35 -123q39 -39 107 -39h94v-238h-94q-68 0 -107 -39 q-35 -35 -35 -122v-297q0 -141 -86 -228q-76 -76 -229 -76h-209v240z" />
<glyph unicode="~" horiz-adv-x="1241" d="M76 600q98 98 170.5 137t165.5 39q109 0 239 -69q94 -49 166 -50q92 0 178 86l170 -168q-96 -96 -170.5 -136t-167.5 -40q-109 0 -239 70q-94 49 -168 49q-90 0 -176 -86z" />
<glyph unicode="&#xa1;" horiz-adv-x="710" d="M154 -391l65 1001h199l65 -1001h-329zM178 795v272h281v-272h-281z" />
<glyph unicode="&#xa2;" horiz-adv-x="1021" d="M96 749.5q0 227.5 104.5 363.5t274.5 171v174h207v-174q160 -29 279 -154l-177 -172q-63 66 -131 84v-585q68 18 131 84l177 -172q-119 -125 -279 -154v-215h-207v215q-170 35 -274.5 171t-104.5 363.5zM362 749.5q0 -155.5 64 -235.5q31 -41 78 -53v577q-43 -12 -78 -53 q-64 -80 -64 -235.5z" />
<glyph unicode="&#xa3;" horiz-adv-x="1185" d="M82 608v205h125v166q0 231 149.5 361t364.5 130q119 0 206 -34.5t167 -114.5l-187 -186q-82 82 -186 82q-106 0 -169 -63.5t-63 -186.5v-154h232v-205h-232v-354h605v-254h-887v608h-125z" />
<glyph unicode="&#xa4;" horiz-adv-x="1370" d="M119 197l151 149q-68 115 -67.5 240t67.5 239l-151 150l176 176l151 -150q111 66 238 66q129 0 240 -66l151 150l174 -176l-149 -150q66 -111 65.5 -239.5t-65.5 -239.5l149 -149l-174 -177l-151 150q-111 -66 -240 -66q-127 0 -238 66l-151 -150zM444 585.5 q0 -100.5 70 -170t170 -69.5t171 69.5t71 170t-71 170t-171 69.5t-170 -69.5t-70 -170z" />
<glyph unicode="&#xa5;" horiz-adv-x="1169" d="M6 1458h309l271 -590l270 590h307l-278 -553h151v-205h-256l-53 -102v-104h309v-205h-309v-289h-283v289h-311v205h311v104l-53 102h-258v205h154z" />
<glyph unicode="&#xa6;" horiz-adv-x="722" d="M225 -152v717h267v-717h-267zM225 893v717h267v-717h-267z" />
<glyph unicode="&#xa7;" horiz-adv-x="1087" d="M125 543q0 104 57.5 185t128.5 120q-156 82 -155 268q0 150 102 252t291 102q193 0 292 -98t101 -254h-250q-6 125 -143 125q-70 0 -106.5 -33.5t-36.5 -87.5q0 -90 137 -135l127 -41q154 -49 226.5 -139t72.5 -246q0 -102 -57.5 -184t-127.5 -121q166 -84 166 -285 q0 -178 -119.5 -276t-285.5 -98t-286 91t-122 273h256q4 -57 44 -93t108 -36q70 0 109.5 36t39.5 95q0 104 -143 152l-127 43q-154 51 -226.5 139t-72.5 246zM381 551q0 -88 49 -137q43 -43 117 -43q72 0 115 43q51 51 51 137q0 88 -51 139q-47 43 -115 43q-74 0 -117 -43 q-49 -49 -49 -139z" />
<glyph unicode="&#xa8;" horiz-adv-x="1024" d="M172 1241v256h227v-256h-227zM625 1241v256h227v-256h-227z" />
<glyph unicode="&#xa9;" horiz-adv-x="1472" d="M143 729q0 246 174.5 420t420 174t418.5 -174t173 -420t-173 -420t-418.5 -174t-420 174t-174.5 420zM291 729q0 -184 131 -317t315 -133q182 0 313.5 133t131.5 317t-131 318.5t-314 134.5q-184 0 -315 -134.5t-131 -318.5zM442 729q0 -154 85 -240t214 -86 q121 0 217 86l-92 93q-63 -51 -125 -52q-76 0 -117.5 53.5t-41.5 145.5t42 145.5t117 53.5q66 0 125 -51l92 92q-98 86 -217 86q-131 0 -215 -85t-84 -241z" />
<glyph unicode="&#xaa;" horiz-adv-x="929" d="M98 864q0 109 75 178.5t216 69.5h199v41q0 70 -37 101.5t-121 31.5q-59 0 -93 -15.5t-69 -53.5l-137 133q61 68 131 93t178 25q362 0 363 -301v-561h-211v74q-82 -82 -207 -82q-141 0 -215 78q-72 71 -72 188zM307 870q0 -94 117 -94q92 0 133 39q31 29 31 105v47h-166 q-55 0 -85 -26t-30 -71z" />
<glyph unicode="&#xab;" horiz-adv-x="1286" d="M70 563l510 508v-317l-193 -191l193 -190v-318zM639 563l512 508v-317l-197 -191l197 -190v-318z" />
<glyph unicode="&#xac;" d="M94 489v248h924v-544h-248v296h-676z" />
<glyph unicode="&#xad;" horiz-adv-x="872" d="M121 461v248h631v-248h-631z" />
<glyph unicode="&#xae;" horiz-adv-x="1081" d="M147 1253.5q0 -163.5 115 -278.5t279 -115t278.5 115t114.5 278.5t-114.5 278.5t-278.5 115t-279 -115t-115 -278.5zM258 1253q0 127 80 207t203 80q121 0 200.5 -80t79.5 -207t-79.5 -207.5t-200.5 -80.5q-123 0 -203 80.5t-80 207.5zM389 1049h113v151h33l61 -151h127 l-76 170q66 33 66 106q0 53 -38 93t-102 40h-184v-409zM502 1284v82h55q43 0 43 -41t-43 -41h-55z" />
<glyph unicode="&#xaf;" horiz-adv-x="1024" d="M188 1290v178h648v-178h-648z" />
<glyph unicode="&#xb0;" horiz-adv-x="780" d="M184 733q0 -96 62 -158q63 -63 159.5 -63t157.5 63q63 63 63.5 157.5t-63.5 158.5q-61 63 -157.5 63t-159.5 -63q-62 -62 -62 -158z" />
<glyph unicode="&#xb1;" d="M102 0v250h908v-250h-908zM102 698v248h330v330h250v-330h328v-248h-328v-329h-250v329h-330z" />
<glyph unicode="&#xb2;" horiz-adv-x="733" d="M88 584v174l320 350q45 47 45 96q0 41 -22.5 64.5t-63.5 23.5q-86 0 -86 -90h-193q0 123 79 193.5t200 70.5q123 0 200.5 -70.5t77.5 -191.5q0 -61 -24.5 -105t-81.5 -108l-215 -233h321v-174h-557z" />
<glyph unicode="&#xb3;" horiz-adv-x="753" d="M88 846h193q0 -47 27.5 -72.5t68.5 -25.5q43 0 69.5 26.5t26.5 75.5q0 43 -27.5 70.5t-72.5 27.5h-27v166h27q45 0 67.5 25.5t22.5 62.5q0 43 -24.5 66.5t-61.5 23.5t-61.5 -22.5t-24.5 -63.5h-193q0 119 80 189.5t199 70.5q121 0 199.5 -72.5t78.5 -185.5 q0 -117 -92 -172q102 -66 103 -192q0 -129 -83 -199t-206 -70q-121 0 -205 68t-84 203z" />
<glyph unicode="&#xb4;" horiz-adv-x="1024" d="M399 1237l131 348h281l-233 -348h-179z" />
<glyph unicode="&#xb5;" horiz-adv-x="1179" d="M143 -391v1458h267v-645q0 -100 52 -147.5t124 -47.5q74 0 126 47.5t52 147.5v645h266v-1067h-260v98q-104 -111 -266 -110q-55 0 -94 28v-407h-267z" />
<glyph unicode="&#xb6;" horiz-adv-x="1368" d="M72 1042q0 199 128 307.5t345 108.5h653v-1849h-266v1595h-205v-1595h-266v1022q-156 0 -272.5 121.5t-116.5 289.5z" />
<glyph unicode="&#xb8;" horiz-adv-x="1024" d="M328 -422l141 299h197l-91 -299h-247z" />
<glyph unicode="&#xb9;" horiz-adv-x="598" d="M78 1081v217l184 160h195v-874h-195v657z" />
<glyph unicode="&#xba;" horiz-adv-x="946" d="M113 1032q0 121 21.5 197t76.5 135q100 104 262 104t262 -104q55 -59 77 -135t22 -197t-20.5 -195.5t-78.5 -134.5q-100 -104 -262 -104t-262 104q-57 59 -77.5 134t-20.5 196zM328 1032q0 -158 47 -205q37 -37 98.5 -36.5t97.5 36.5q47 47 47 205q0 160 -47 207 q-37 37 -98 37t-98 -37q-47 -47 -47 -207z" />
<glyph unicode="&#xbb;" horiz-adv-x="1286" d="M137 55v318l195 190l-195 191v317l510 -508zM707 55v318l192 190l-192 191v317l512 -508z" />
<glyph unicode="&#xbc;" horiz-adv-x="1712" d="M78 1081v217l184 160h195v-874h-195v657zM381 0l690 1458h209l-690 -1458h-209zM1018 117v182l293 575h211l-295 -575h151v127h185v-127h67v-182h-67v-117h-185v117h-360z" />
<glyph unicode="&#xbd;" horiz-adv-x="1765" d="M78 1081v217l184 160h195v-874h-195v657zM373 0l690 1458h207l-690 -1458h-207zM1120 0v174l320 350q47 49 47 97q0 41 -23.5 64.5t-64.5 23.5q-84 0 -84 -91h-195q0 123 79 194t200 71q123 0 200.5 -71t77.5 -191q0 -61 -24.5 -105.5t-81.5 -107.5l-215 -234h321v-174 h-557z" />
<glyph unicode="&#xbe;" horiz-adv-x="1771" d="M88 846h193q0 -47 27.5 -72.5t68.5 -25.5q43 0 69.5 26.5t26.5 75.5q0 43 -27.5 70.5t-72.5 27.5h-27v166h27q45 0 67.5 25.5t22.5 62.5q0 43 -24.5 66.5t-61.5 23.5t-61.5 -22.5t-24.5 -63.5h-193q0 119 80 189.5t199 70.5q121 0 199.5 -72.5t78.5 -185.5 q0 -117 -92 -172q102 -66 103 -192q0 -129 -83 -199t-206 -70q-121 0 -205 68t-84 203zM446 0l691 1458h209l-691 -1458h-209zM1077 117v182l293 575h211l-295 -575h152v127h184v-127h68v-182h-68v-117h-184v117h-361z" />
<glyph unicode="&#xbf;" horiz-adv-x="1036" d="M102 -35q0 72 30 142.5t59.5 107.5t84.5 98l17 17l26 30q43 47 61.5 71t35 66t16.5 95v31h242v-29q0 -90 -32 -171t-61.5 -120t-86.5 -102l-2 -4l-19 -21q-43 -45 -65.5 -72.5t-43 -68.5t-20.5 -78q0 -49 38 -90t107 -41q121 0 166 115l217 -103q-59 -115 -157.5 -178 t-220.5 -63q-158 0 -275 98t-117 270zM412 795h282v272h-282v-272z" />
<glyph unicode="&#xc0;" horiz-adv-x="1306" d="M10 0l531 1458h223l532 -1458h-297l-86 258h-518l-88 -258h-297zM350 1948h281l131 -349h-178zM475 498h363l-179 530z" />
<glyph unicode="&#xc1;" horiz-adv-x="1306" d="M10 0l531 1458h223l532 -1458h-297l-86 258h-518l-88 -258h-297zM475 498h363l-179 530zM537 1599l131 349h280l-233 -349h-178z" />
<glyph unicode="&#xc2;" horiz-adv-x="1306" d="M10 0l531 1458h223l532 -1458h-297l-86 258h-518l-88 -258h-297zM272 1599l271 347h213l270 -347h-207l-170 187l-170 -187h-207zM475 498h363l-179 530z" />
<glyph unicode="&#xc3;" horiz-adv-x="1306" d="M10 0l531 1458h223l532 -1458h-297l-86 258h-518l-88 -258h-297zM279 1763q68 68 119 94.5t110 26.5q80 0 158 -47q61 -37 112 -37q61 0 121 60l119 -117q-121 -121 -232 -121q-76 0 -157 47q-63 37 -115 37q-61 0 -121 -59zM475 498h363l-179 530z" />
<glyph unicode="&#xc4;" horiz-adv-x="1306" d="M10 0l531 1458h223l532 -1458h-297l-86 258h-518l-88 -258h-297zM309 1604v256h228v-256h-228zM475 498h363l-179 530zM762 1604v256h227v-256h-227z" />
<glyph unicode="&#xc5;" horiz-adv-x="1306" d="M10 0l531 1458h223l532 -1458h-297l-86 258h-518l-88 -258h-297zM381 1810.5q0 110.5 79 189.5t189.5 79t189.5 -78t79 -191q0 -111 -79 -189.5t-189.5 -78.5t-189.5 79t-79 189.5zM475 498h363l-179 530zM530 1810.5q0 -49.5 35 -85t84 -35.5t84 35.5t35 85t-35 84 t-84 34.5t-84 -34.5t-35 -84z" />
<glyph unicode="&#xc6;" horiz-adv-x="2004" d="M6 0l762 1458h1128v-254h-675v-344h577v-254h-577v-352h675v-254h-958v319h-461l-166 -319h-305zM600 559h338v645z" />
<glyph unicode="&#xc7;" horiz-adv-x="1150" d="M121 729q0 240 24 363q25 125 119 219q160 160 393 159q213 0 356.5 -120.5t180.5 -339.5h-289q-51 207 -246 207q-119 0 -182 -76q-45 -47 -58 -124t-13 -288t13 -287.5t58 -124.5q63 -76 182 -75q195 0 246 207h289q-37 -219 -180.5 -340t-356.5 -121q-233 0 -393 159 q-94 94 -119 220q-24 122 -24 362zM438 -422l142 299h196l-90 -299h-248z" />
<glyph unicode="&#xc8;" horiz-adv-x="1239" d="M170 0v1458h960v-254h-675v-342h575v-254h-575v-354h675v-254h-960zM336 1948h280l132 -349h-179z" />
<glyph unicode="&#xc9;" horiz-adv-x="1239" d="M170 0v1458h960v-254h-675v-342h575v-254h-575v-354h675v-254h-960zM520 1599l131 349h281l-234 -349h-178z" />
<glyph unicode="&#xca;" horiz-adv-x="1239" d="M170 0v1458h960v-254h-675v-342h575v-254h-575v-354h675v-254h-960zM258 1599l270 347h213l271 -347h-207l-170 187l-170 -187h-207z" />
<glyph unicode="&#xcb;" horiz-adv-x="1239" d="M170 0v1458h960v-254h-675v-342h575v-254h-575v-354h675v-254h-960zM295 1604v256h227v-256h-227zM748 1604v256h227v-256h-227z" />
<glyph unicode="&#xcc;" horiz-adv-x="624" d="M106 1948h281l131 -349h-178zM170 0v1458h285v-1458h-285z" />
<glyph unicode="&#xcd;" horiz-adv-x="624" d="M170 0v1458h285v-1458h-285zM170 1599l131 349h281l-234 -349h-178z" />
<glyph unicode="&#xce;" horiz-adv-x="624" d="M-66 1599l271 347h213l270 -347h-207l-170 187l-170 -187h-207zM170 0v1458h285v-1458h-285z" />
<glyph unicode="&#xcf;" horiz-adv-x="624" d="M-33 1604v256h228v-256h-228zM170 0v1458h285v-1458h-285zM420 1604v256h227v-256h-227z" />
<glyph unicode="&#xd0;" horiz-adv-x="1396" d="M76 629v217h141v612h526q252 0 404 -172q41 -45 66.5 -98t38 -85t18.5 -117t6 -108v-149q0 -176 -3 -241.5t-32 -155.5t-94 -162q-154 -170 -408 -170h-522v629h-141zM502 252h215q156 0 227 108q31 45 39 107.5t8 257.5q0 190 -9 259t-42 116q-76 106 -223 106h-215 v-360h237v-217h-237v-377z" />
<glyph unicode="&#xd1;" horiz-adv-x="1456" d="M170 0v1458h254l577 -893v893h285v-1458h-254l-577 895v-895h-285zM358 1763q68 68 119 94.5t111 26.5q80 0 157 -47q61 -37 113 -37q61 0 121 60l119 -117q-121 -121 -232 -121q-76 0 -157 47q-63 37 -115 37q-61 0 -121 -59z" />
<glyph unicode="&#xd2;" horiz-adv-x="1318" d="M121 729q0 129 2 182.5t14.5 141.5t43 146t83.5 112q160 160 395 159q233 0 394 -159q53 -53 84.5 -112.5t44 -144.5t14.5 -142.5t2 -182.5t-2 -182.5t-14.5 -142.5t-44 -144t-84.5 -113q-160 -160 -394 -159q-236 0 -395 159q-53 53 -83.5 111.5t-43 147t-14.5 141.5 t-2 182zM360 1948h281l131 -349h-178zM406 729q0 -207 13 -284.5t56 -125.5q68 -78 184 -77q115 0 183 77q43 47 57 126t14 284t-14 284t-57 126q-68 78 -183 78q-117 0 -184 -78q-43 -47 -56 -125t-13 -285z" />
<glyph unicode="&#xd3;" horiz-adv-x="1318" d="M121 729q0 129 2 182.5t14.5 141.5t43 146t83.5 112q160 160 395 159q233 0 394 -159q53 -53 84.5 -112.5t44 -144.5t14.5 -142.5t2 -182.5t-2 -182.5t-14.5 -142.5t-44 -144t-84.5 -113q-160 -160 -394 -159q-236 0 -395 159q-53 53 -83.5 111.5t-43 147t-14.5 141.5 t-2 182zM406 729q0 -207 13 -284.5t56 -125.5q68 -78 184 -77q115 0 183 77q43 47 57 126t14 284t-14 284t-57 126q-68 78 -183 78q-117 0 -184 -78q-43 -47 -56 -125t-13 -285zM547 1599l131 349h280l-233 -349h-178z" />
<glyph unicode="&#xd4;" horiz-adv-x="1318" d="M121 729q0 129 2 182.5t14.5 141.5t43 146t83.5 112q160 160 395 159q233 0 394 -159q53 -53 84.5 -112.5t44 -144.5t14.5 -142.5t2 -182.5t-2 -182.5t-14.5 -142.5t-44 -144t-84.5 -113q-160 -160 -394 -159q-236 0 -395 159q-53 53 -83.5 111.5t-43 147t-14.5 141.5 t-2 182zM283 1599l270 347h213l270 -347h-207l-170 187l-170 -187h-206zM406 729q0 -207 13 -284.5t56 -125.5q68 -78 184 -77q115 0 183 77q43 47 57 126t14 284t-14 284t-57 126q-68 78 -183 78q-117 0 -184 -78q-43 -47 -56 -125t-13 -285z" />
<glyph unicode="&#xd5;" horiz-adv-x="1318" d="M121 729q0 129 2 182.5t14.5 141.5t43 146t83.5 112q160 160 395 159q233 0 394 -159q53 -53 84.5 -112.5t44 -144.5t14.5 -142.5t2 -182.5t-2 -182.5t-14.5 -142.5t-44 -144t-84.5 -113q-160 -160 -394 -159q-236 0 -395 159q-53 53 -83.5 111.5t-43 147t-14.5 141.5 t-2 182zM289 1763q68 68 119 94.5t110 26.5q80 0 158 -47q61 -37 112 -37q61 0 121 60l119 -117q-121 -121 -231 -121q-76 0 -158 47q-63 37 -115 37q-61 0 -121 -59zM406 729q0 -207 13 -284.5t56 -125.5q68 -78 184 -77q115 0 183 77q43 47 57 126t14 284t-14 284t-57 126 q-68 78 -183 78q-117 0 -184 -78q-43 -47 -56 -125t-13 -285z" />
<glyph unicode="&#xd6;" horiz-adv-x="1318" d="M121 729q0 129 2 182.5t14.5 141.5t43 146t83.5 112q160 160 395 159q233 0 394 -159q53 -53 84.5 -112.5t44 -144.5t14.5 -142.5t2 -182.5t-2 -182.5t-14.5 -142.5t-44 -144t-84.5 -113q-160 -160 -394 -159q-236 0 -395 159q-53 53 -83.5 111.5t-43 147t-14.5 141.5 t-2 182zM319 1604v256h228v-256h-228zM406 729q0 -207 13 -284.5t56 -125.5q68 -78 184 -77q115 0 183 77q43 47 57 126t14 284t-14 284t-57 126q-68 78 -183 78q-117 0 -184 -78q-43 -47 -56 -125t-13 -285zM772 1604v256h227v-256h-227z" />
<glyph unicode="&#xd7;" d="M100 297l289 289l-289 288l168 168l287 -288l289 288l168 -168l-289 -288l289 -289l-168 -168l-289 289l-287 -289z" />
<glyph unicode="&#xd8;" horiz-adv-x="1335" d="M121 729q0 129 2 182.5t14.5 141.5t43 146t83.5 112q160 160 395 159q133 0 232 -45l59 123h201l-109 -227l11 -10q53 -53 84.5 -112.5t44 -144.5t14.5 -142.5t2 -182.5t-2 -182.5t-14.5 -142.5t-44 -144t-84.5 -113q-160 -160 -394 -159q-133 0 -231 45l-59 -123h-203 l108 227l-10 10q-53 53 -83.5 111.5t-43 147t-14.5 141.5t-2 182zM406 729q0 -233 18 -309l364 764q-53 33 -129 33q-117 0 -184 -78q-43 -47 -56 -125t-13 -285zM528 276q57 -35 131 -34q115 0 183 77q43 47 57 126t14 284q0 225 -20 309z" />
<glyph unicode="&#xd9;" horiz-adv-x="1368" d="M147 500v958h285v-948q0 -125 67.5 -196.5t184.5 -71.5t185.5 71.5t68.5 196.5v948h283v-958q0 -227 -154 -369.5t-383 -142.5t-383 142.5t-154 369.5zM385 1948h281l131 -349h-179z" />
<glyph unicode="&#xda;" horiz-adv-x="1368" d="M147 500v958h285v-948q0 -125 67.5 -196.5t184.5 -71.5t185.5 71.5t68.5 196.5v948h283v-958q0 -227 -154 -369.5t-383 -142.5t-383 142.5t-154 369.5zM571 1599l131 349h281l-233 -349h-179z" />
<glyph unicode="&#xdb;" horiz-adv-x="1368" d="M147 500v958h285v-948q0 -125 67.5 -196.5t184.5 -71.5t185.5 71.5t68.5 196.5v948h283v-958q0 -227 -154 -369.5t-383 -142.5t-383 142.5t-154 369.5zM307 1599l271 347h213l270 -347h-207l-170 187l-170 -187h-207z" />
<glyph unicode="&#xdc;" horiz-adv-x="1368" d="M147 500v958h285v-948q0 -125 67.5 -196.5t184.5 -71.5t185.5 71.5t68.5 196.5v948h283v-958q0 -227 -154 -369.5t-383 -142.5t-383 142.5t-154 369.5zM344 1604v256h227v-256h-227zM797 1604v256h227v-256h-227z" />
<glyph unicode="&#xdd;" horiz-adv-x="1171" d="M6 1458h309l273 -588l268 588h309l-438 -860v-598h-283v598zM471 1599l131 349h281l-234 -349h-178z" />
<glyph unicode="&#xde;" horiz-adv-x="1296" d="M170 0v1458h285v-268h280q219 0 350.5 -130t131.5 -322.5t-131.5 -323.5t-350.5 -131h-280v-283h-285zM455 537h266q96 0 153.5 55t57.5 145t-57.5 144.5t-153.5 54.5h-266v-399z" />
<glyph unicode="&#xdf;" horiz-adv-x="1175" d="M150 0v1067q0 205 125.5 304t334.5 99q203 0 324 -90t121 -268q0 -156 -125 -231q63 -33 95 -83t32 -141v-327q0 -162 -84 -244q-86 -86 -258 -86h-107v225h54q59 0 92 31q35 31 34 96v295q0 61 -30 92q-33 33 -92 33h-58v209h58q53 0 87.5 30.5t34.5 92.5q0 57 -38 92 q-45 43 -144 43q-102 0 -146 -48t-44 -144v-1047h-266z" />
<glyph unicode="&#xe0;" horiz-adv-x="1093" d="M74 324q0 135 93 222t271 87h252v53q0 88 -47 128t-151 40q-76 0 -119 -19.5t-86 -68.5l-170 166q76 84 162 115.5t223 31.5q455 0 454 -377v-702h-260v92q-55 -55 -113.5 -78.5t-148.5 -23.5q-178 0 -272 94q-88 93 -88 240zM236 1585h280l131 -348h-178zM330 330 q0 -123 153 -123q115 0 168 51q39 37 39 135v58h-211q-72 0 -110.5 -32t-38.5 -89z" />
<glyph unicode="&#xe1;" horiz-adv-x="1093" d="M74 324q0 135 93 222t271 87h252v53q0 88 -47 128t-151 40q-76 0 -119 -19.5t-86 -68.5l-170 166q76 84 162 115.5t223 31.5q455 0 454 -377v-702h-260v92q-55 -55 -113.5 -78.5t-148.5 -23.5q-178 0 -272 94q-88 93 -88 240zM330 330q0 -123 153 -123q115 0 168 51 q39 37 39 135v58h-211q-72 0 -110.5 -32t-38.5 -89zM422 1237l131 348h281l-234 -348h-178z" />
<glyph unicode="&#xe2;" horiz-adv-x="1093" d="M74 324q0 135 93 222t271 87h252v53q0 88 -47 128t-151 40q-76 0 -119 -19.5t-86 -68.5l-170 166q76 84 162 115.5t223 31.5q455 0 454 -377v-702h-260v92q-55 -55 -113.5 -78.5t-148.5 -23.5q-178 0 -272 94q-88 93 -88 240zM158 1237l270 346h213l270 -346h-206 l-170 186l-170 -186h-207zM330 330q0 -123 153 -123q115 0 168 51q39 37 39 135v58h-211q-72 0 -110.5 -32t-38.5 -89z" />
<glyph unicode="&#xe3;" horiz-adv-x="1093" d="M74 324q0 135 93 222t271 87h252v53q0 88 -47 128t-151 40q-76 0 -119 -19.5t-86 -68.5l-170 166q76 84 162 115.5t223 31.5q455 0 454 -377v-702h-260v92q-55 -55 -113.5 -78.5t-148.5 -23.5q-178 0 -272 94q-88 93 -88 240zM164 1401q68 68 119 94.5t110 26.5 q80 0 158 -47q61 -37 113 -37q61 0 120 59l119 -117q-121 -121 -231 -120q-76 0 -158 47q-63 37 -115 36q-61 0 -120 -59zM330 330q0 -123 153 -123q115 0 168 51q39 37 39 135v58h-211q-72 0 -110.5 -32t-38.5 -89z" />
<glyph unicode="&#xe4;" horiz-adv-x="1093" d="M74 324q0 135 93 222t271 87h252v53q0 88 -47 128t-151 40q-76 0 -119 -19.5t-86 -68.5l-170 166q76 84 162 115.5t223 31.5q455 0 454 -377v-702h-260v92q-55 -55 -113.5 -78.5t-148.5 -23.5q-178 0 -272 94q-88 93 -88 240zM195 1241v256h227v-256h-227zM330 330 q0 -123 153 -123q115 0 168 51q39 37 39 135v58h-211q-72 0 -110.5 -32t-38.5 -89zM647 1241v256h227v-256h-227z" />
<glyph unicode="&#xe5;" horiz-adv-x="1093" d="M74 324q0 135 93 222t271 87h252v53q0 88 -47 128t-151 40q-76 0 -119 -19.5t-86 -68.5l-170 166q76 84 162 115.5t223 31.5q455 0 454 -377v-702h-260v92q-55 -55 -113.5 -78.5t-148.5 -23.5q-178 0 -272 94q-88 93 -88 240zM266 1464.5q0 110.5 79 189.5t189.5 79 t189.5 -78t79 -191q0 -111 -79 -189.5t-189.5 -78.5t-189.5 79t-79 189.5zM330 330q0 -123 153 -123q115 0 168 51q39 37 39 135v58h-211q-72 0 -110.5 -32t-38.5 -89zM416 1464q0 -49 34.5 -85t84 -36t84 36t34.5 85t-34.5 84t-84 35t-84 -35t-34.5 -84z" />
<glyph unicode="&#xe6;" horiz-adv-x="1716" d="M74 324q0 135 93 222t271 87h252v53q0 88 -47 128t-151 40q-76 0 -119 -19.5t-86 -68.5l-170 166q76 84 162 115.5t223 31.5q244 0 350 -116q115 117 303 116q217 0 341 -142t124 -368v-118h-668q0 -106 62.5 -172t171.5 -66q84 0 136 23.5t105 76.5l162 -157 q-88 -88 -178 -128t-227 -40q-246 0 -375 149q-82 -90 -167 -119.5t-208 -29.5q-176 0 -272 96q-88 93 -88 240zM330 330q0 -123 153 -123q115 0 168 51q39 37 39 135v58h-211q-72 0 -110.5 -32t-38.5 -89zM952 633h406q-2 63 -25 115q-49 111 -178 110.5t-178 -110.5 q-23 -52 -25 -115z" />
<glyph unicode="&#xe7;" horiz-adv-x="983" d="M96 534.5q0 124.5 30 222t77 157t111.5 98.5t128 53t130.5 14q215 0 353 -143l-181 -180q-78 84 -172 84t-151 -70q-59 -74 -60 -235q0 -164 60 -238q57 -70 151.5 -70t171.5 84l181 -178q-139 -145 -353 -145q-68 0 -131 15t-127.5 53t-111.5 98.5t-77 158t-30 222z M328 -422l141 299h197l-91 -299h-247z" />
<glyph unicode="&#xe8;" horiz-adv-x="1122" d="M96 535q0 256 127 400t338 144q217 0 341 -142t124 -368v-118h-668q0 -106 62.5 -172t171.5 -66q84 0 136 23.5t106 76.5l161 -157q-88 -88 -178 -128t-227 -40q-102 0 -185 25.5t-155 85t-113 170t-41 266.5zM268 1585h281l131 -348h-178zM358 633h406q-2 63 -25 115 q-49 111 -178 110.5t-178 -110.5q-23 -52 -25 -115z" />
<glyph unicode="&#xe9;" horiz-adv-x="1122" d="M96 535q0 256 127 400t338 144q217 0 341 -142t124 -368v-118h-668q0 -106 62.5 -172t171.5 -66q84 0 136 23.5t106 76.5l161 -157q-88 -88 -178 -128t-227 -40q-102 0 -185 25.5t-155 85t-113 170t-41 266.5zM358 633h406q-2 63 -25 115q-49 111 -178 110.5t-178 -110.5 q-23 -52 -25 -115zM455 1237l131 348h280l-233 -348h-178z" />
<glyph unicode="&#xea;" horiz-adv-x="1122" d="M96 535q0 256 127 400t338 144q217 0 341 -142t124 -368v-118h-668q0 -106 62.5 -172t171.5 -66q84 0 136 23.5t106 76.5l161 -157q-88 -88 -178 -128t-227 -40q-102 0 -185 25.5t-155 85t-113 170t-41 266.5zM190 1237l271 346h213l270 -346h-207l-170 186l-170 -186 h-207zM358 633h406q-2 63 -25 115q-49 111 -178 110.5t-178 -110.5q-23 -52 -25 -115z" />
<glyph unicode="&#xeb;" horiz-adv-x="1122" d="M96 535q0 256 127 400t338 144q217 0 341 -142t124 -368v-118h-668q0 -106 62.5 -172t171.5 -66q84 0 136 23.5t106 76.5l161 -157q-88 -88 -178 -128t-227 -40q-102 0 -185 25.5t-155 85t-113 170t-41 266.5zM227 1241v256h228v-256h-228zM358 633h406q-2 63 -25 115 q-49 111 -178 110.5t-178 -110.5q-23 -52 -25 -115zM680 1241v256h227v-256h-227z" />
<glyph unicode="&#xec;" horiz-adv-x="563" d="M-2 1585h281l131 -348h-179zM150 0v1067h266v-1067h-266z" />
<glyph unicode="&#xed;" horiz-adv-x="563" d="M150 0v1067h266v-1067h-266zM150 1237l131 348h280l-233 -348h-178z" />
<glyph unicode="&#xee;" horiz-adv-x="563" d="M-96 1237l270 346h213l270 -346h-206l-170 186l-170 -186h-207zM150 0v1067h266v-1067h-266z" />
<glyph unicode="&#xef;" horiz-adv-x="563" d="M-55 1241v256h227v-256h-227zM150 0v1067h266v-1067h-266zM397 1241v256h228v-256h-228z" />
<glyph unicode="&#xf0;" d="M115 520q0 147 25.5 239.5t92.5 164.5q66 70 183 100q65 17 118 17q19 0 37 -3l-69 127h-234v187h140l-64 123h285l63 -123h189v-187h-95l82 -157q76 -147 101.5 -243.5t25.5 -244.5q0 -150 -25.5 -242t-92.5 -163q-123 -127 -322 -127t-322 127q-68 72 -93 163.5 t-25 241.5zM381 520q0 -188 57 -248q45 -45 117 -45q74 0 119 45q55 57 55 248q0 188 -55 246q-45 45 -119 45q-72 0 -117 -45q-57 -60 -57 -246z" />
<glyph unicode="&#xf1;" horiz-adv-x="1173" d="M150 0v1067h260v-98q104 111 266 110q158 0 252 -94q109 -109 108 -303v-682h-266v645q0 100 -52 147.5t-124 47.5q-74 0 -126 -47.5t-52 -147.5v-645h-266zM223 1401q68 68 119 94.5t111 26.5q80 0 157 -47q61 -37 113 -37q61 0 121 59l119 -117q-121 -121 -232 -120 q-76 0 -158 47q-63 37 -114 36q-61 0 -121 -59z" />
<glyph unicode="&#xf2;" d="M104 535q0 152 26 247t95 166q123 131 330 131q209 0 332 -131q70 -72 95.5 -167t25.5 -246q0 -154 -26 -249.5t-95 -166.5q-123 -131 -332 -131q-207 0 -330 131q-70 72 -95.5 167t-25.5 249zM250 1585h280l132 -348h-179zM371 535q0 -199 61 -261q47 -47 123 -47 q78 0 125 47q61 61 61 261q0 197 -61 258q-47 47 -125 47q-76 0 -123 -47q-61 -61 -61 -258z" />
<glyph unicode="&#xf3;" d="M104 535q0 152 26 247t95 166q123 131 330 131q209 0 332 -131q70 -72 95.5 -167t25.5 -246q0 -154 -26 -249.5t-95 -166.5q-123 -131 -332 -131q-207 0 -330 131q-70 72 -95.5 167t-25.5 249zM371 535q0 -199 61 -261q47 -47 123 -47q78 0 125 47q61 61 61 261 q0 197 -61 258q-47 47 -125 47q-76 0 -123 -47q-61 -61 -61 -258zM444 1237l131 348h281l-233 -348h-179z" />
<glyph unicode="&#xf4;" d="M104 535q0 152 26 247t95 166q123 131 330 131q209 0 332 -131q70 -72 95.5 -167t25.5 -246q0 -154 -26 -249.5t-95 -166.5q-123 -131 -332 -131q-207 0 -330 131q-70 72 -95.5 167t-25.5 249zM180 1237l271 346h213l270 -346h-207l-170 186l-170 -186h-207zM371 535 q0 -199 61 -261q47 -47 123 -47q78 0 125 47q61 61 61 261q0 197 -61 258q-47 47 -125 47q-76 0 -123 -47q-61 -61 -61 -258z" />
<glyph unicode="&#xf5;" d="M104 535q0 152 26 247t95 166q123 131 330 131q209 0 332 -131q70 -72 95.5 -167t25.5 -246q0 -154 -26 -249.5t-95 -166.5q-123 -131 -332 -131q-207 0 -330 131q-70 72 -95.5 167t-25.5 249zM186 1401q68 68 119 94.5t111 26.5q80 0 157 -47q61 -37 113 -37 q61 0 121 59l119 -117q-121 -121 -232 -120q-76 0 -157 47q-63 37 -115 36q-61 0 -121 -59zM371 535q0 -199 61 -261q47 -47 123 -47q78 0 125 47q61 61 61 261q0 197 -61 258q-47 47 -125 47q-76 0 -123 -47q-61 -61 -61 -258z" />
<glyph unicode="&#xf6;" d="M104 535q0 152 26 247t95 166q123 131 330 131q209 0 332 -131q70 -72 95.5 -167t25.5 -246q0 -154 -26 -249.5t-95 -166.5q-123 -131 -332 -131q-207 0 -330 131q-70 72 -95.5 167t-25.5 249zM217 1241v256h227v-256h-227zM371 535q0 -199 61 -261q47 -47 123 -47 q78 0 125 47q61 61 61 261q0 197 -61 258q-47 47 -125 47q-76 0 -123 -47q-61 -61 -61 -258zM670 1241v256h227v-256h-227z" />
<glyph unicode="&#xf7;" d="M94 461v248h924v-248h-924zM424 37v266h266v-266h-266zM424 866v267h266v-267h-266z" />
<glyph unicode="&#xf8;" d="M104 535q0 152 26 247t95 166q123 131 330 131q125 0 215 -45l72 123h164l-123 -207l4 -2q31 -14 52.5 -35.5t34.5 -58.5t20 -61.5t10.5 -82t3.5 -80.5v-95q0 -154 -26 -249.5t-95 -166.5q-123 -131 -332 -131q-119 0 -213 47l-74 -125h-162l121 207l-2 2 q-70 70 -95.5 165t-25.5 251zM371 535q0 -119 14 -177l270 455q-43 27 -100 27q-76 0 -123 -47q-61 -61 -61 -258zM457 254q43 -27 98 -27q78 0 125 47q61 61 61 261q0 109 -16 174z" />
<glyph unicode="&#xf9;" horiz-adv-x="1173" d="M137 385v682h266v-645q0 -100 52.5 -147.5t124.5 -47.5q74 0 126 47.5t52 147.5v645h266v-1067h-260v98q-104 -111 -266 -110q-158 0 -252 94q-109 108 -109 303zM281 1585h280l131 -348h-178z" />
<glyph unicode="&#xfa;" horiz-adv-x="1173" d="M137 385v682h266v-645q0 -100 52.5 -147.5t124.5 -47.5q74 0 126 47.5t52 147.5v645h266v-1067h-260v98q-104 -111 -266 -110q-158 0 -252 94q-109 108 -109 303zM467 1237l131 348h281l-234 -348h-178z" />
<glyph unicode="&#xfb;" horiz-adv-x="1173" d="M137 385v682h266v-645q0 -100 52.5 -147.5t124.5 -47.5q74 0 126 47.5t52 147.5v645h266v-1067h-260v98q-104 -111 -266 -110q-158 0 -252 94q-109 108 -109 303zM203 1237l270 346h213l270 -346h-206l-170 186l-170 -186h-207z" />
<glyph unicode="&#xfc;" horiz-adv-x="1173" d="M137 385v682h266v-645q0 -100 52.5 -147.5t124.5 -47.5q74 0 126 47.5t52 147.5v645h266v-1067h-260v98q-104 -111 -266 -110q-158 0 -252 94q-109 108 -109 303zM240 1241v256h227v-256h-227zM692 1241v256h228v-256h-228z" />
<glyph unicode="&#xfd;" horiz-adv-x="1011" d="M8 1067h281l221 -659l213 659h281l-457 -1239q-35 -92 -80 -137q-82 -82 -229 -82h-105v239h62q57 0 84.5 19.5t48.5 77.5l45 131zM387 1237l131 348h281l-234 -348h-178z" />
<glyph unicode="&#xfe;" horiz-adv-x="1150" d="M150 -391v1849h266v-485q96 106 258 106q164 0 260 -96q49 -49 74.5 -133t29.5 -146.5t4 -169t-4 -169t-29.5 -147.5t-74.5 -134q-96 -96 -260 -96q-162 0 -258 106v-485h-266zM416 535q0 -74 6 -123.5t23.5 -94.5t55.5 -67.5t95 -22.5t95 22.5t55.5 67.5t23.5 94.5 t6 123.5q0 152 -34.5 228.5t-145.5 76.5t-145.5 -76.5t-34.5 -228.5z" />
<glyph unicode="&#xff;" horiz-adv-x="1011" d="M8 1067h281l221 -659l213 659h281l-457 -1239q-35 -92 -80 -137q-82 -82 -229 -82h-105v239h62q57 0 84.5 19.5t48.5 77.5l45 131zM160 1241v256h227v-256h-227zM612 1241v256h228v-256h-228z" />
<glyph unicode="&#x152;" horiz-adv-x="1978" d="M121 729q0 125 2 183.5t14.5 145.5t43 146.5t83.5 112.5q154 154 387 153q166 0 262 -102v90h953v-252h-670q0 -31 1 -174t1 -172h569v-250h-569q0 -29 -1 -178t-1 -180h672v-252h-955v90q-96 -102 -262 -102q-233 0 -387 153q-53 53 -83.5 112.5t-43 146.5t-14.5 145.5 t-2 183.5zM406 729q0 -207 13 -284.5t56 -125.5q68 -78 184 -77q115 0 183 77q43 47 57 126t14 284t-14 284t-57 126q-68 78 -183 78q-117 0 -184 -78q-43 -47 -56 -125t-13 -285z" />
<glyph unicode="&#x153;" horiz-adv-x="1767" d="M104 535q0 152 26 247t95 166q123 131 330 131q217 0 330 -141q117 141 321 141q217 0 341 -142t124 -368v-118h-667q0 -106 62 -172t171 -66q84 0 135 23.5t105 76.5l163 -157q-88 -88 -178 -128t-227 -40q-236 0 -356 135q-111 -135 -324 -135q-207 0 -330 131 q-70 72 -95.5 167t-25.5 249zM371 535q0 -199 61 -261q47 -47 123 -47q78 0 125 47q61 61 61 261q0 197 -61 258q-47 47 -125 47q-76 0 -123 -47q-61 -61 -61 -258zM1004 633h403q-2 68 -23 115q-49 111 -178 110q-131 0 -180 -110q-20 -47 -22 -115z" />
<glyph unicode="&#x178;" horiz-adv-x="1171" d="M6 1458h309l273 -588l268 588h309l-438 -860v-598h-283v598zM244 1604v256h227v-256h-227zM696 1604v256h228v-256h-228z" />
<glyph unicode="&#x2c6;" horiz-adv-x="1024" d="M135 1237l271 346h212l271 -346h-207l-170 186l-170 -186h-207z" />
<glyph unicode="&#x2dc;" horiz-adv-x="1024" d="M141 1401q68 68 119 94.5t111 26.5q80 0 157 -47q61 -37 113 -37q61 0 121 59l119 -117q-121 -121 -232 -120q-76 0 -157 47q-63 37 -115 36q-61 0 -121 -59z" />
<glyph unicode="&#x2013;" d="M102 461v248h908v-248h-908z" />
<glyph unicode="&#x2014;" horiz-adv-x="2103" d="M121 463v256h1861v-256h-1861z" />
<glyph unicode="&#x2018;" horiz-adv-x="595" d="M176 915h246v304h-115q0 135 115 176v114q-111 -16 -180 -97q-66 -76 -66 -183v-12v-302z" />
<glyph unicode="&#x2019;" horiz-adv-x="598" d="M174 864q109 14 179.5 96t68.5 197v301h-248v-303h115q0 -135 -115 -176v-115z" />
<glyph unicode="&#x201a;" horiz-adv-x="598" d="M174 0h115q0 -135 -115 -176v-115q109 14 179.5 96t68.5 197v301h-248v-303z" />
<glyph unicode="&#x201c;" horiz-adv-x="966" d="M176 915h246v304h-115q0 135 115 176v114q-111 -16 -180 -97q-66 -76 -66 -183v-12v-302zM547 915h246v304h-115q0 135 115 176v114q-111 -16 -181 -97q-66 -76 -65 -183v-12v-302z" />
<glyph unicode="&#x201d;" horiz-adv-x="968" d="M174 864q109 14 179.5 96t68.5 197v301h-248v-303h115q0 -135 -115 -176v-115zM545 864q111 14 180.5 96t67.5 197v301h-248v-303h114q0 -135 -114 -176v-115z" />
<glyph unicode="&#x201e;" horiz-adv-x="968" d="M174 0h115q0 -135 -115 -176v-115q109 14 179.5 96t68.5 197v301h-248v-303zM545 0h114q0 -135 -114 -176v-115q111 14 180.5 96t67.5 197v301h-248v-303z" />
<glyph unicode="&#x2022;" horiz-adv-x="843" d="M225 537h393v393h-393v-393z" />
<glyph unicode="&#x2026;" horiz-adv-x="1732" d="M139 0v289h291v-289h-291zM721 0v289h289v-289h-289zM1305 0v289h288v-289h-288z" />
<glyph unicode="&#x2039;" horiz-adv-x="716" d="M70 563l510 508v-317l-193 -191l193 -190v-318z" />
<glyph unicode="&#x203a;" horiz-adv-x="716" d="M137 55v318l195 190l-195 191v317l510 -508z" />
<glyph unicode="&#x20ac;" horiz-adv-x="1298" d="M102 498v170h205v61v66h-205v170h213q6 66 17 127q25 125 119 219q160 160 393 159q172 0 299 -77l-195 -195q-47 18 -102 19q-119 0 -182 -76q-53 -59 -66 -176h350v-170h-356v-66v-61h356v-170h-350q10 -123 66 -181q63 -76 182 -75q53 0 104 20l195 -194 q-131 -80 -301 -80q-233 0 -393 159q-94 94 -119 220q-12 68 -17 131h-213z" />
<glyph unicode="&#x2122;" horiz-adv-x="1196" d="M147 1350h111v-342h123v342h111v108h-345v-108zM555 1008h125v231l70 -139h106l70 139v-231h123v450h-123l-123 -221l-123 221h-125v-450z" />
<glyph unicode="&#xe000;" horiz-adv-x="1065" d="M0 1065h1065v-1065h-1065v1065z" />
<glyph unicode="&#xfb01;" horiz-adv-x="1232" d="M63 834v202h111v133q0 125 80 215.5t231 90.5h152v-226h-102q-94 0 -95 -96v-117h197v-202h-197v-834h-266v834h-111zM815 1249v217h275v-217h-275zM819 0v1036h266v-1036h-266z" />
<glyph unicode="&#xfb02;" horiz-adv-x="1327" d="M63 834v202h111v133q0 125 80 215.5t231 90.5h152v-226h-102q-94 0 -95 -96v-117h197v-202h-197v-834h-266v834h-111zM815 305v1153h266v-1136q0 -96 95 -97h102v-225h-152q-154 0 -232.5 90t-78.5 215z" />
<glyph unicode="&#xfb03;" horiz-adv-x="1964" d="M72 834v202h110v133q0 125 80 215.5t232 90.5h151v-226h-104q-92 0 -92 -96v-117h196v-202h-196v-834h-267v834h-110zM772 834v202h111v133q0 125 79.5 215.5t231.5 90.5h152v-226h-105q-92 0 -92 -96v-117h197v-202h-197v-834h-266v834h-111zM1546 1249v217h273v-217 h-273zM1550 0v1067h267v-1067h-267z" />
<glyph unicode="&#xfb04;" horiz-adv-x="2066" d="M72 834v202h110v133q0 125 80 215.5t232 90.5h151v-226h-104q-92 0 -92 -96v-117h196v-202h-196v-834h-267v834h-110zM772 834v202h111v133q0 125 79.5 215.5t231.5 90.5h152v-226h-105q-92 0 -92 -96v-117h197v-202h-197v-834h-266v834h-111zM1540 305v1153h266v-1136 q0 -96 95 -97h102v-225h-152q-154 0 -232.5 90t-78.5 215z" />
</font>
</defs></svg> 