<?xml version="1.0" standalone="no"?> <!DOCTYPE svg PUBLIC "-//W3C//DTD SVG 1.0//EN" "http://www.w3.org/TR/2001/REC-SVG-20010904/DTD/svg10.dtd" > 
<svg xmlns="http://www.w3.org/2000/svg" width="100%" height="100%">
<metadata version="1.0"><uniqueid id="com.myfonts.marksimonson.proxima-nova.black.wfkit1.5h6k"/><vendor name="MyFonts" url="http://www.myfonts.com/"/><credits><credit name="Mark Simonson" url="http://www.myfonts.com/person/simonson/mark/"/></credits><description><text lang="en">This is a Webfont from MyFonts. Full information about this font:
http://www.myfonts.com/fonts/marksimonson/proxima-nova/black//
</text></description><license url="http://new.myfonts.com/license/910,1146"/><copyright><text lang="en">Copyright (c) Mark Simonson, 2005. All rights reserved.</text></copyright><trademark><text lang="en">Proxima Nova is a trademark of Mark Simonson.</text></trademark></metadata>
<defs >
<font id="ProximaNova-Black" horiz-adv-x="469" ><font-face
    font-family="Proxima Nova Bl"
    units-per-em="1000"
    panose-1="2 0 5 6 3 0 0 2 0 4"
    ascent="786"
    descent="-214"
    alphabetic="0" />
<missing-glyph horiz-adv-x="459" d="M405 -90H54V752H405V-90ZM373 -60V722H85V-60H373Z" />
<glyph unicode=" " glyph-name="space" horiz-adv-x="255" />
<glyph unicode="!" glyph-name="exclam" horiz-adv-x="280" d="M222 248H60L33 667H247L222 248ZM184 -11T141 -11T67 20T35 95Q35 139 66 170T141 202T215 171T247 95Q247 52 216 21Z" />
<glyph unicode="&quot;" glyph-name="quotedbl" d="M163 339H89Q34 562 34 585Q34 623 61 650T126 677T191 650T218 585Q218 575 204 514T176 396L163 339ZM380 339H307Q252 562 252 585Q252 623 279 650T344 677T408 650T435 585Q435 575 422 514T394 396L380 339Z" />
<glyph unicode="#" glyph-name="numbersign" horiz-adv-x="646" d="M377 0H250L303 158H224L172 0H45L98 158H12L47 267H135L178 399H91L125 507H215L268 667H395L342 507H420L473 667H600L546 507H634L601 399H510L466 267H557L523 158H429L377 0ZM339 267L383
399H305L262 267H339Z" />
<glyph unicode="$" glyph-name="dollar" horiz-adv-x="635" d="M262 -100V-8Q114 6 18 94L123 244Q213 158 338 158Q412 158 412 194Q412 211 374 220T281 239T172 268T79 335T40 456Q40 536 98 597T262 673V768H390V672Q513 655 600 584L492 441Q405 507 296
507Q245 507 245 477Q245 461 283 451T375 430T485 400T578 335T616 220Q616 124 557 65T390 -8V-100H262Z" />
<glyph unicode="%" glyph-name="percent" horiz-adv-x="784" d="M198 341Q118 341 69 389T20 508Q20 580 69 628T198 677Q279 677 328 629T378 508Q378 437 329 389T198 341ZM228 0H131L557 667H655L228 0ZM665 -12T585 -12T456 36T407 155Q407 227 456 275T585
324T714 276T764 155Q764 84 715 36ZM198 447Q224 447 240 462T256 508Q256 540 240 555T198 571Q173 571 158 556T142 508Q142 477 157 462T198 447ZM585 94Q643 94 643 155Q643 187 627 202T585 218Q528 218 528 155Q528 94 585 94Z" />
<glyph unicode="&amp;" glyph-name="ampersand" horiz-adv-x="652" d="M664 0H442L411 32Q334 -12 245 -12Q143 -12 78 40T12 189Q12 309 152 376Q115 450 115 512Q115 582 174 629T328 677Q409 677 468 636T527 526Q527 457 486 418T369 347Q390 317 407 298L443
252Q476 304 492 358L631 292Q588 203 536 141L664 0ZM272 126Q296 126 319 136Q288 172 269 197Q245 227 220 263Q200 238 200 207Q200 172 221 149T272 126ZM291 507Q291 479 310 441Q376 473 376 515Q376 531 365 541T337 552Q317 552 304 540T291 507Z" />
<glyph unicode="&apos;" glyph-name="quotesingle" horiz-adv-x="252" d="M163 339H89Q34 562 34 585Q34 623 61 650T126 677T191 650T218 585Q218 575 204 514T176 396L163 339Z" />
<glyph unicode="(" glyph-name="parenleft" horiz-adv-x="346" d="M328 -110L214 -199Q135 -129 86 -4T37 243T86 490T214 685L328 598Q275 511 253 428T230 243Q230 142 252 59T328 -110Z" />
<glyph unicode=")" glyph-name="parenright" horiz-adv-x="347" d="M132 -199L18 -110Q71 -25 93 58T116 243Q116 345 94 428T18 598L132 685Q211 615 260 490T309 243T260 -4T132 -199Z" />
<glyph unicode="*" glyph-name="asterisk" horiz-adv-x="363" d="M222 343H141L145 448L57 392L17 462L109 510L17 558L57 628L145 572L141 677H222L217 572L305 628L346 558L253 510L346 462L305 392L217 448L222 343Z" />
<glyph unicode="+" glyph-name="plus" horiz-adv-x="510" d="M481 285H313V92H197V285H29V390H197V575H313V390H481V285Z" />
<glyph unicode="," glyph-name="comma" horiz-adv-x="281" d="M254 73Q254 -59 129 -147L56 -88Q81 -77 109 -48T147 8Q137 4 121 4Q84 4 59 30T34 97Q34 140 65 171T138 202Q186 202 220 167T254 73Z" />
<glyph unicode="-" glyph-name="hyphen" horiz-adv-x="300" d="M270 167H30V317H270V167Z" />
<glyph unicode="." glyph-name="period" horiz-adv-x="283" d="M184 -12T141 -12T66 20T34 95T66 170T141 202T216 170T248 95T216 20Z" />
<glyph unicode="/" glyph-name="slash" horiz-adv-x="362" d="M125 -20H0L237 687H362L125 -20Z" />
<glyph unicode="0" glyph-name="zero" horiz-adv-x="628" d="M410 -12T314 -12T150 37T50 163T18 333Q18 478 95 577T314 677T533 578T610 333Q610 240 579 164T479 38ZM221 166T314 166T407 333Q407 499 314 499T221 333Q221 166 314 166Z" />
<glyph unicode="1" glyph-name="one" horiz-adv-x="483" d="M429 0H227V410L114 298L0 417L255 667H429V0Z" />
<glyph unicode="2" glyph-name="two" horiz-adv-x="613" d="M586 0H41V157Q166 245 224 287T321 363T367 412T375 447Q375 470 353 484T298 499Q204 499 122 430L12 564Q66 622 141 649T294 677Q423 677 501 613T580 447Q580 377 533 315T369 176H586V0Z" />
<glyph unicode="3" glyph-name="three" horiz-adv-x="617" d="M300 -12Q205 -12 131 16T12 92L111 230Q147 199 198 183T292 166Q339 166 364 179T389 211T369 238T286 247Q209 247 189 245V424Q202 423 286 423Q378 423 378 456Q378 499 279 499Q186 499 116
441L21 567Q121 677 301 677Q436 677 507 627T579 492Q579 439 538 397T432 344Q493 337 541 295T590 188Q590 99 510 44T300 -12Z" />
<glyph unicode="4" glyph-name="four" horiz-adv-x="636" d="M541 0H339V107H18V262L261 667H541V283H618V107H541V0ZM339 283V493L213 283H339Z" />
<glyph unicode="5" glyph-name="five" horiz-adv-x="626" d="M311 -12Q136 -12 32 82L140 224Q210 166 309 166Q356 166 379 182T403 221Q403 245 381 260T315 276Q240 276 191 230L52 262V667H562V491H254V397Q307 448 393 448Q482 448 545 388T608 230Q608 119
529 54T311 -12Z" />
<glyph unicode="6" glyph-name="six" horiz-adv-x="625" d="M336 -12Q179 -12 99 83T18 332Q18 496 113 586T368 677Q491 677 576 619L491 463Q440 499 368 499Q312 499 267 469T222 383V381Q275 449 377 449Q473 449 543 390T613 228Q613 121 535 55T336 -12ZM323
166Q360 166 384 182T408 220Q408 249 380 263T315 278Q256 278 221 251Q224 214 249 190T323 166Z" />
<glyph unicode="7" glyph-name="seven" horiz-adv-x="575" d="M341 0H120L331 491H18V667H563V527L341 0Z" />
<glyph unicode="8" glyph-name="eight" horiz-adv-x="630" d="M394 -12T315 -12T172 6T63 69T18 178Q18 231 52 275T145 344Q29 392 29 498Q29 560 73 602T179 660T315 677T450 661T556 602T601 498Q601 392 484 344Q542 320 577 276T612 178Q612 113 568 69T459
7ZM315 422Q347 427 371 440T395 468Q395 488 374 500T315 513Q277 513 256 501T234 468Q234 453 258 440T315 422ZM315 152Q356 152 381 166T407 201Q407 219 379 233T315 253Q279 248 251 234T223 201Q223 180 248 166T315 152Z" />
<glyph unicode="9" glyph-name="nine" horiz-adv-x="625" d="M257 -11Q134 -11 49 47L134 203Q185 167 257 167Q320 167 361 200T403 282V285Q350 217 248 217Q152 217 82 276T12 438Q12 545 90 611T289 678Q446 678 526 583T607 334Q607 170 512 80T257 -11ZM310
388Q369 388 404 415Q401 452 376 476T301 500Q265 500 241 484T217 446Q217 417 245 403T310 388Z" />
<glyph unicode=":" glyph-name="colon" horiz-adv-x="266" d="M184 276T141 276T66 308T34 383T66 458T141 490T216 458T248 383T216 308ZM184 -12T141 -12T66 20T34 95T66 170T141 202T216 170T248 95T216 20Z" />
<glyph unicode=";" glyph-name="semicolon" horiz-adv-x="281" d="M184 276T141 276T66 308T34 384Q34 427 65 458T141 490T216 459T248 384Q248 340 216 308ZM254 74Q254 -58 129 -146L56 -87Q81 -76 109 -47T147 9Q137 5 121 5Q84 5 59 31T34 98Q34 141 65 172T138
203Q186 203 220 168T254 74Z" />
<glyph unicode="&lt;" glyph-name="less" horiz-adv-x="510" d="M481 90L29 270V400L481 580V455L147 334L481 215V90Z" />
<glyph unicode="=" glyph-name="equal" horiz-adv-x="510" d="M481 373H29V478H481V373ZM481 190H29V295H481V190Z" />
<glyph unicode="&gt;" glyph-name="greater" horiz-adv-x="510" d="M481 270L29 90V215L363 334L29 455V580L481 400V270Z" />
<glyph unicode="?" glyph-name="question" horiz-adv-x="450" d="M153 224Q126 261 126 319Q126 356 143 385T182 428T220 455T238 478Q238 499 199 499Q152 499 112 457L0 586Q42 631 101 654T222 677Q323 677 382 634T442 516Q442 477 428 446T392 397T350 364T315
332T300 297Q300 273 311 260L153 224ZM272 -12T228 -12T153 20T121 95T152 170T228 202T303 170T335 95T304 20Z" />
<glyph unicode="@" glyph-name="at" horiz-adv-x="783" d="M352 -70Q216 -70 126 20T35 244Q35 401 155 519T432 638Q573 638 660 552T747 343Q747 279 725 228T669 146T598 101T524 85Q440 85 421 151L419 158Q368 85 290 85Q217 85 175 134T133 259Q133 354
198 425T350 497Q434 497 472 441L481 485H639L593 268Q590 253 590 241Q590 203 618 203Q650 203 673 240T697 343Q697 458 625 526T428 594Q288 594 184 490T80 247Q80 130 159 52T357 -27Q450 -27 536 27L560 -7Q462 -70 352 -70ZM358 209Q400 209 432 250L451
345Q432 373 393 373Q349 373 322 343T295 273Q295 244 312 227T358 209Z" />
<glyph unicode="A" glyph-name="A" horiz-adv-x="710" d="M728 0H499L475 78H235L211 0H-18L228 667H482L728 0ZM421 254L355 469L289 254H421Z" />
<glyph unicode="B" glyph-name="B" horiz-adv-x="697" d="M473 0H54V667H459Q555 667 606 615T657 497Q657 436 625 396T543 344Q598 336 634 291T670 181Q670 106 619 53T473 0ZM412 421Q428 421 440 432T452 461T440 488T412 499H256V421H412ZM418 168Q440 168
452 179T465 210Q465 228 452 240T418 253H256V168H418Z" />
<glyph unicode="C" glyph-name="C" horiz-adv-x="697" d="M385 -12Q227 -12 123 84T18 333Q18 486 122 582T385 678Q505 678 578 622T688 484L514 403Q501 443 465 471T385 500Q313 500 268 452T223 333T268 214T385 166Q429 166 465 194T514 263L688 183Q672
146 648 115T588 53T500 6T385 -12Z" />
<glyph unicode="D" glyph-name="D" horiz-adv-x="736" d="M353 0H54V667H352Q514 667 616 579T718 334T616 89T353 0ZM352 176Q425 176 469 222T513 334Q513 405 472 448T353 491H256V176H352Z" />
<glyph unicode="E" glyph-name="E" horiz-adv-x="596" d="M560 0H54V667H560V491H256V425H553V249H256V176H560V0Z" />
<glyph unicode="F" glyph-name="F" horiz-adv-x="592" d="M256 0H54V667H560V491H256V425H553V249H256V0Z" />
<glyph unicode="G" glyph-name="G" horiz-adv-x="726" d="M385 -12Q229 -12 124 82T18 333T123 583T385 678Q495 678 568 628T678 504L508 417Q492 451 460 475T385 500Q313 500 268 452T223 333T268 214T385 166Q413 166 443 175T489 196V220H365V396H690V123Q568
-12 385 -12Z" />
<glyph unicode="H" glyph-name="H" horiz-adv-x="751" d="M697 0H495V255H256V0H54V667H256V431H495V667H697V0Z" />
<glyph unicode="I" glyph-name="I" horiz-adv-x="310" d="M256 0H54V667H256V0Z" />
<glyph unicode="J" glyph-name="J" horiz-adv-x="498" d="M186 -12Q70 -12 0 42L82 196Q126 166 168 166Q201 166 221 186T242 241V667H444V238Q444 113 375 51T186 -12Z" />
<glyph unicode="K" glyph-name="K" horiz-adv-x="671" d="M689 0H443L293 235L256 185V0H54V667H256V417L431 667H678L426 357L689 0Z" />
<glyph unicode="L" glyph-name="L" horiz-adv-x="536" d="M509 0H54V667H256V176H509V0Z" />
<glyph unicode="M" glyph-name="M" horiz-adv-x="900" d="M846 0H644V401L495 0H405L256 401V0H54V667H333L450 347L567 667H846V0Z" />
<glyph unicode="N" glyph-name="N" horiz-adv-x="750" d="M696 0H502L256 338V0H54V667H262L494 351V667H696V0Z" />
<glyph unicode="O" glyph-name="O" horiz-adv-x="766" d="M539 -12T383 -12T123 84T18 333T122 581T383 678T643 582T748 333T644 85ZM312 166T383 166T498 214T543 333T499 452T383 500T268 452T223 333T267 214Z" />
<glyph unicode="P" glyph-name="P" horiz-adv-x="662" d="M256 0H54V667H410Q523 667 586 602T650 438Q650 341 587 276T410 210H256V0ZM384 386Q411 386 428 399T445 438Q445 464 428 477T384 491H256V386H384Z" />
<glyph unicode="Q" glyph-name="Q" horiz-adv-x="766" d="M383 -12Q227 -12 123 84T18 333T122 581T383 678T643 582T748 333Q748 200 665 107L701 62L561 -50L514 8Q451 -12 383 -12ZM383 166H389L343 224L483 336L533 272Q543 299 543 333Q543 404 499 452T383
500T268 452T223 333T267 214T383 166Z" />
<glyph unicode="R" glyph-name="R" horiz-adv-x="678" d="M651 0H421L329 210H256V0H54V667H410Q523 667 586 602T650 438Q650 360 615 310T530 236L651 0ZM379 386Q407 386 426 399T445 439Q445 464 426 477T379 491H256V386H379Z" />
<glyph unicode="S" glyph-name="S" horiz-adv-x="613" d="M313 -12Q121 -12 3 94L108 244Q198 158 323 158Q397 158 397 194Q397 211 359 220T266 239T157 268T64 335T25 456Q25 547 98 612T302 677Q471 677 585 584L477 441Q390 507 281 507Q230 507 230 477Q230
463 257 453T326 438T415 418T505 383T573 321T601 220Q601 110 525 49T313 -12Z" />
<glyph unicode="T" glyph-name="T" horiz-adv-x="595" d="M399 0H197V491H18V667H577V491H399V0Z" />
<glyph unicode="U" glyph-name="U" horiz-adv-x="767" d="M547 -12T384 -12T138 66T54 274V667H259V281Q259 231 291 199T384 166Q443 166 475 198T508 281V667H713V275Q713 145 630 67Z" />
<glyph unicode="V" glyph-name="V" horiz-adv-x="710" d="M482 0H228L-18 667H211L355 218L499 667H728L482 0Z" />
<glyph unicode="W" glyph-name="W" horiz-adv-x="954" d="M775 0H563L477 378L391 0H179L-12 667H214L300 259L401 667H553L654 259L739 667H966L775 0Z" />
<glyph unicode="X" glyph-name="X" horiz-adv-x="684" d="M702 0H464L342 204L220 0H-18L205 342L-3 667H234L342 477L448 667H687L479 343L702 0Z" />
<glyph unicode="Y" glyph-name="Y" horiz-adv-x="664" d="M434 0H232V265L-18 667H209L333 442L455 667H682L434 265V0Z" />
<glyph unicode="Z" glyph-name="Z" horiz-adv-x="600" d="M564 0H36V160L290 491H36V667H557V508L302 176H564V0Z" />
<glyph unicode="[" glyph-name="bracketleft" horiz-adv-x="317" d="M299 -190H54V678H299V564H179V-76H299V-190Z" />
<glyph unicode="\" glyph-name="backslash" horiz-adv-x="362" d="M237 -20L0 687H125L362 -20H237Z" />
<glyph unicode="]" glyph-name="bracketright" horiz-adv-x="317" d="M263 -190H18V-76H138V564H18V678H263V-190Z" />
<glyph unicode="^" glyph-name="asciicircum" horiz-adv-x="450" d="M431 333H305L225 548L146 333H19L162 667H291L431 333Z" />
<glyph unicode="_" glyph-name="underscore" horiz-adv-x="564" d="M567 -154H-3V-40H567V-154Z" />
<glyph unicode="`" glyph-name="grave" horiz-adv-x="275" d="M275 556H155L0 700H155L275 556Z" />
<glyph unicode="a" glyph-name="a" horiz-adv-x="559" d="M509 0H329V46Q309 20 269 4T183 -12Q121 -12 69 29T17 147Q17 203 44 239T107 288T183 301Q287 301 329 248V298Q329 324 306 341T239 358Q167 358 105 311L44 422Q135 495 272 495Q320 495 360 486T435
455T489 392T509 292V0ZM258 105Q311 105 329 131V158Q311 184 258 184Q195 184 195 144Q195 105 258 105Z" />
<glyph unicode="b" glyph-name="b" horiz-adv-x="596" d="M230 179Q256 147 305 147Q343 147 369 172T395 242Q395 285 369 310T305 336Q257 336 230 303V179ZM230 0H50V667H230V432Q282 495 366 495Q458 495 518 427T579 242Q579 122 519 55T366 -12Q286 -12 230 51V0Z" />
<glyph unicode="c" glyph-name="c" horiz-adv-x="502" d="M288 -12Q171 -12 94 58T17 242Q17 355 94 425T288 495Q363 495 416 468T493 404L377 295Q350 336 296 336Q256 336 229 312T201 242T228 172T296 147Q348 147 377 189L493 79Q469 43 416 16T288 -12Z" />
<glyph unicode="d" glyph-name="d" horiz-adv-x="596" d="M546 0H366V51Q310 -12 230 -12Q138 -12 78 55T17 242Q17 359 77 427T230 495Q314 495 366 432V667H546V0ZM291 147Q339 147 366 180V304Q340 336 291 336Q253 336 227 311T201 242Q201 198 227 173T291 147Z" />
<glyph unicode="e" glyph-name="e" horiz-adv-x="543" d="M286 -12Q170 -12 94 57T17 242Q17 349 91 422T280 495Q389 495 460 422T531 223V186H203Q211 161 238 143T307 125Q330 125 365 135T418 159L492 48Q458 19 401 4T286 -12ZM360 300Q346 358 280 358Q217
358 201 300H360Z" />
<glyph unicode="f" glyph-name="f" horiz-adv-x="371" d="M267 0H87V327H7V483H87V505Q87 581 139 629T271 677Q373 677 422 625L357 525Q341 544 313 544Q295 544 281 533T267 505V483H365V327H267V0Z" />
<glyph unicode="g" glyph-name="g" horiz-adv-x="595" d="M253 -196Q124 -196 33 -124L109 4Q162 -49 253 -49Q296 -49 330 -27T365 52V78Q308 13 229 13Q136 13 77 74T17 254Q17 370 76 432T229 495Q312 495 365 432V483H545V52Q545 -8 526 -54T477 -126T408
-168T330 -190T253 -196ZM291 172Q310 172 331 180T365 203V305Q353 319 332 327T291 336Q251 336 226 316T201 254T226 192T291 172Z" />
<glyph unicode="h" glyph-name="h" horiz-adv-x="608" d="M558 0H378V269Q378 336 308 336Q265 336 231 298V0H51V667H231V428Q290 495 397 495Q477 495 517 454T558 345V0Z" />
<glyph unicode="i" glyph-name="i" horiz-adv-x="280" d="M182 518T140 518T69 547T39 619T68 690T140 720T211 691T241 619T212 548ZM230 0H50V483H230V0Z" />
<glyph unicode="j" glyph-name="j" horiz-adv-x="280" d="M182 518T140 518T69 547T39 619T68 690T140 720T211 691T241 619T212 548ZM29 -196Q-23 -196 -49 -189T-106 -163L-63 -30Q-38 -49 -3 -49Q50 -49 50 21V483H230V21Q230 -77 180 -136T29 -196Z" />
<glyph unicode="k" glyph-name="k" horiz-adv-x="557" d="M569 0H348L265 156L230 109V0H50V667H230V311L341 483H558L392 263L569 0Z" />
<glyph unicode="l" glyph-name="l" horiz-adv-x="280" d="M230 0H50V667H230V0Z" />
<glyph unicode="m" glyph-name="m" horiz-adv-x="897" d="M847 0H667V282Q667 306 654 321T612 336Q571 336 538 298V0H358V282Q358 336 303 336Q263 336 230 298V0H50V483H230V428Q249 452 293 473T390 495Q498 495 529 410Q552 445 597 470T698 495Q767 495
807 459T847 350V0Z" />
<glyph unicode="n" glyph-name="n" horiz-adv-x="607" d="M557 0H377V267Q377 336 307 336Q264 336 230 298V0H50V483H230V428Q289 495 396 495Q476 495 516 453T557 343V0Z" />
<glyph unicode="o" glyph-name="o" horiz-adv-x="577" d="M412 -12T288 -12T91 62T17 242T90 421T288 495T486 422T560 242T486 62ZM288 147Q329 147 352 173T375 242Q375 283 352 309T288 336Q248 336 225 310T202 242Q202 200 225 174T288 147Z" />
<glyph unicode="p" glyph-name="p" horiz-adv-x="595" d="M366 -12Q285 -12 230 51V-184H50V483H230V432Q283 495 366 495Q459 495 518 429T578 242Q578 121 519 55T366 -12ZM304 147Q342 147 368 172T394 242Q394 285 368 310T304 336Q285 336 264 327T230 303V180Q241
166 263 157T304 147Z" />
<glyph unicode="q" glyph-name="q" horiz-adv-x="595" d="M291 147Q309 147 331 156T365 180V303Q353 318 332 327T291 336Q253 336 227 311T201 242Q201 198 227 173T291 147ZM229 -12Q136 -12 77 54T17 242Q17 362 76 428T229 495Q312 495 365 432V483H545V-184H365V51Q310
-12 229 -12Z" />
<glyph unicode="r" glyph-name="r" horiz-adv-x="390" d="M230 0H50V483H230V430Q253 457 295 477T378 497V325Q363 330 337 330Q258 330 230 296V0Z" />
<glyph unicode="s" glyph-name="s" horiz-adv-x="490" d="M246 -12Q180 -12 114 8T9 62L81 183Q110 160 163 141T255 122Q303 122 303 143Q303 153 283 159T232 167T166 179T100 202T50 250T29 330Q29 399 86 447T245 495Q360 495 454 433L388 316Q363 336 325
351T246 366Q227 366 214 360T201 345Q201 335 229 330T297 318T378 297T447 247T475 154Q475 81 413 35T246 -12Z" />
<glyph unicode="t" glyph-name="t" horiz-adv-x="382" d="M253 -12Q172 -12 130 26T87 140V327H7V483H87V615H267V483H365V327H267V192Q267 173 278 160T307 147Q334 147 343 156L375 20Q339 -12 253 -12Z" />
<glyph unicode="u" glyph-name="u" horiz-adv-x="606" d="M556 0H376V54Q316 -12 210 -12Q130 -12 90 30T50 138V483H230V215Q230 147 300 147Q342 147 376 185V483H556V0Z" />
<glyph unicode="v" glyph-name="v" horiz-adv-x="535" d="M363 0H172L-15 483H175L267 207L360 483H550L363 0Z" />
<glyph unicode="w" glyph-name="w" horiz-adv-x="805" d="M677 0H481L402 270L324 0H128L-12 483H173L237 217L322 483H483L567 217L631 483H817L677 0Z" />
<glyph unicode="x" glyph-name="x" horiz-adv-x="521" d="M533 0H336L261 128L184 0H-12L146 248L-2 483H195L260 370L325 483H522L374 248L533 0Z" />
<glyph unicode="y" glyph-name="y" horiz-adv-x="535" d="M45 -188L70 -28Q86 -37 108 -37Q162 -37 171 -18L175 -8L-15 483H175L267 207L360 483H550L340 -60Q310 -138 256 -165T115 -196Q72 -196 45 -188Z" />
<glyph unicode="z" glyph-name="z" horiz-adv-x="486" d="M453 0H33V132L203 327H33V483H449V357L275 156H453V0Z" />
<glyph unicode="{" glyph-name="braceleft" horiz-adv-x="316" d="M299 -190H239Q163 -190 109 -140T54 -6V133Q54 162 41 179T2 197V291Q27 291 40 308T54 355V493Q54 577 108 627T239 678H299V564H239Q213 564 196 545T179 494V335Q179 264 133 244Q179 224
179 153V-5Q179 -37 196 -56T239 -76H299V-190Z" />
<glyph unicode="|" glyph-name="bar" horiz-adv-x="222" d="M168 -20H54V687H168V-20Z" />
<glyph unicode="}" glyph-name="braceright" horiz-adv-x="316" d="M17 -190V-76H77Q102 -76 119 -57T137 -5V153Q137 224 183 244Q137 264 137 335V494Q137 526 120 545T77 564H17V678H77Q153 678 207 628T262 493V355Q262 326 275 309T314 291V197Q289 197 276
180T262 133V-6Q262 -90 208 -140T77 -190H17Z" />
<glyph unicode="~" glyph-name="asciitilde" horiz-adv-x="518" d="M377 667L493 653Q489 601 482 563T458 484T410 423T334 401Q296 401 271 417T235 458T218 506T204 546T185 563Q153 563 143 401L25 414Q29 465 37 504T61 583T109 645T185 667Q223 667 248
650T284 610T301 562T315 521T334 504Q367 504 377 667Z" />
<glyph unicode="&#xa0;" glyph-name="nbspace" horiz-adv-x="255" />
<glyph unicode="&#xa1;" glyph-name="exclamdown" horiz-adv-x="280" d="M33 -184L58 235H220L247 -184H33ZM33 389Q33 432 64 463T139 495T213 464T245 389Q245 345 214 314T139 282T65 313T33 389Z" />
<glyph unicode="&#xa2;" glyph-name="cent" horiz-adv-x="502" d="M229 -100V-7Q135 10 76 77T17 242Q17 339 76 405T229 490V565H355V488Q451 468 493 404L377 295Q350 336 296 336Q256 336 229 312T201 242T228 172T296 147Q348 147 377 189L493 79Q450 15 355
-5V-100H229Z" />
<glyph unicode="&#xa3;" glyph-name="sterling" horiz-adv-x="581" d="M26 270V379H64Q42 421 42 460Q42 528 84 579T185 654T303 677Q403 677 466 646T566 547L406 455Q385 515 329 515Q300 515 282 498T263 456Q263 429 285 379H419V270H310Q308 246 294 222T259
185Q277 191 302 191Q330 191 363 179T416 166Q468 166 492 199L569 40Q521 -12 409 -12Q362 -12 303 9T226 30Q176 30 112 -7L46 125Q131 172 131 221Q131 243 121 270H26Z" />
<glyph unicode="&#xa4;" glyph-name="currency" horiz-adv-x="648" d="M324 79Q255 79 199 104L125 30L20 134L88 202Q53 261 53 333Q53 407 89 465L20 534L125 638L200 562Q258 586 324 586T448 562L524 638L628 534L560 465Q596 404 596 333Q596 260 559 200L628
134L524 30L447 103Q391 79 324 79ZM324 238Q368 238 392 264T417 333Q417 374 393 400T324 427Q281 427 257 401T232 333Q232 291 256 265T324 238Z" />
<glyph unicode="&#xa5;" glyph-name="yen" horiz-adv-x="664" d="M434 0H232V107H25V212H232V265H25V370H166L-18 667H209L333 442L455 667H682L499 370H641V265H434V212H641V107H434V0Z" />
<glyph unicode="&#xa6;" glyph-name="brokenbar" horiz-adv-x="222" d="M168 -20H54V296H168V-20ZM168 371H54V687H168V371Z" />
<glyph unicode="&#xa7;" glyph-name="section" horiz-adv-x="500" d="M475 336Q475 297 455 263T400 208Q475 171 475 85Q475 8 411 -36T246 -81Q109 -81 12 -1L81 111Q112 84 158 63T246 41Q303 41 303 68Q303 86 275 96T207 114T126 135T57 183T29 273Q29 316
54 347T109 394Q29 431 29 524Q29 590 91 633T244 677Q378 677 453 612L388 507Q328 555 253 555Q201 555 201 528Q201 513 229 505T297 489T378 469T447 423T475 336ZM298 298Q298 340 244 351Q201 343 201 303Q201 260 264 249Q298 263 298 298Z" />
<glyph unicode="&#xa8;" glyph-name="dieresis" horiz-adv-x="318" d="M357 655T357 618T331 555T267 529Q230 529 204 555T178 618T204 681T267 707Q305 707 331 681ZM140 656T140 618T114 555T51 529T-12 554T-38 618T-12 681T51 707T114 682Z" />
<glyph unicode="&#xa9;" glyph-name="copyright" horiz-adv-x="778" d="M734 477T734 334T633 90T389 -11T145 90T44 334Q44 477 145 578T389 679T633 578ZM692 209T692 334T603 548T389 637T175 548T86 334Q86 210 175 121T389 31T603 120ZM511 231L549 195Q489
125 397 125Q310 125 250 185T189 335T249 484T397 543Q489 543 547 475L510 438Q467 496 397 496Q332 496 288 451T244 335Q244 266 288 219T397 172Q467 172 511 231Z" />
<glyph unicode="&#xaa;" glyph-name="ordfeminine" horiz-adv-x="392" d="M352 326H225V355Q196 318 129 318Q87 318 54 345T20 421T53 495T129 521Q197 521 225 488V512Q225 531 211 543T168 555Q121 555 82 519L38 601Q101 648 191 648Q352 648 352 509V326ZM183
395Q214 395 225 414V429Q214 447 183 447Q145 447 145 421T183 395Z" />
<glyph unicode="&#xab;" glyph-name="guillemotleft" horiz-adv-x="615" d="M350 63H190L30 243L190 420H350L190 243L350 63ZM585 63H425L265 243L425 420H585L425 243L585 63Z" />
<glyph unicode="&#xac;" glyph-name="logicalnot" horiz-adv-x="527" d="M481 478V190H373V373H29V478H481Z" />
<glyph unicode="&#xad;" glyph-name="uni00AD" horiz-adv-x="300" d="M270 167H30V317H270V167Z" />
<glyph unicode="&#xae;" glyph-name="registered" horiz-adv-x="494" d="M459 465Q459 377 397 315T247 253T97 315T35 465T97 615T247 677Q336 677 397 616T459 465ZM424 465Q424 539 373 590T247 642T122 591T70 465Q70 392 122 340T247 288T372 340T424 465ZM349
343H304L241 439H202V343H165V586H264Q296 586 321 565T346 512Q346 477 324 459T284 440L349 343ZM308 512Q308 531 295 543T264 555H202V471H264Q281 471 294 482T308 512Z" />
<glyph unicode="&#xaf;" glyph-name="overscore" horiz-adv-x="363" d="M363 551H0V648H363V551Z" />
<glyph unicode="&#xb0;" glyph-name="degree" horiz-adv-x="331" d="M314 528Q314 467 271 424T165 380Q104 380 61 423T17 528T60 633T165 677T270 634T314 528ZM224 504T224 528T207 569T165 587T125 570T108 528T124 488T165 471T206 487Z" />
<glyph unicode="&#xb1;" glyph-name="plusminus" horiz-adv-x="510" d="M481 328H313V135H197V328H29V433H197V618H313V433H481V328ZM481 0H29V105H481V0Z" />
<glyph unicode="&#xb2;" glyph-name="twosuperior" horiz-adv-x="407" d="M380 421H42V516Q138 583 180 615T233 659T244 685Q244 723 194 723Q164 723 134 708T88 675L22 759Q87 827 197 827Q280 827 328 792T376 696Q376 657 346 620T232 525H380V421Z" />
<glyph unicode="&#xb3;" glyph-name="threesuperior" horiz-adv-x="407" d="M383 534Q383 481 333 448T202 414Q83 414 23 476L85 563Q108 540 140 529T197 518Q252 518 252 544Q252 562 235 567T179 572Q136 572 130 571V673Q139 672 178 672Q216 672 230 677T245
698Q245 723 188 723Q128 723 86 684L28 761Q91 827 203 827Q288 827 332 797T376 716Q376 685 352 660T287 627Q324 624 353 599T383 534Z" />
<glyph unicode="&#xb4;" glyph-name="acute" horiz-adv-x="275" d="M275 700L120 556H0L120 700H275Z" />
<glyph unicode="&#xb5;" glyph-name="mu" horiz-adv-x="620" d="M230 -4V-184H50V483H230V215Q230 147 300 147Q342 147 376 185V483H556V178Q556 163 566 155T590 147Q600 147 609 150L620 -2Q587 -12 542 -12Q421 -12 386 75Q370 35 340 12T269 -12Q246 -12 230 -4Z" />
<glyph unicode="&#xb6;" glyph-name="paragraph" horiz-adv-x="449" d="M427 -100H347V587H279V-100H199V323Q128 323 78 373T27 495T77 616T199 667H427V-100Z" />
<glyph unicode="&#xb7;" glyph-name="middot" horiz-adv-x="283" d="M247 244Q247 201 216 170T141 138T67 169T35 244Q35 288 66 319T141 351T215 320T247 244Z" />
<glyph unicode="&#xb8;" glyph-name="cedilla" horiz-adv-x="237" d="M119 -200Q42 -200 0 -166L31 -102Q74 -132 114 -132Q156 -132 156 -108Q156 -91 135 -91Q119 -91 109 -103L50 -69L80 11H160L135 -47Q150 -38 169 -38Q197 -38 217 -58T237 -111Q237 -152
203 -176T119 -200Z" />
<glyph unicode="&#xb9;" glyph-name="onesuperior" horiz-adv-x="336" d="M276 421H144V654L74 585L0 663L163 821H276V421Z" />
<glyph unicode="&#xba;" glyph-name="ordmasculine" horiz-adv-x="405" d="M202 318Q120 318 70 366T20 483T70 599T202 648Q286 648 335 600T385 483T336 367T202 318ZM202 418Q255 418 255 483Q255 546 202 546Q151 546 151 483Q151 418 202 418Z" />
<glyph unicode="&#xbb;" glyph-name="guillemotright" horiz-adv-x="615" d="M585 243L425 63H265L425 243L265 420H425L585 243ZM350 243L190 63H30L190 243L30 420H190L350 243Z" />
<glyph unicode="&#xbc;" glyph-name="onequarter" horiz-adv-x="897" d="M276 267H144V500L74 431L0 509L163 667H276V267ZM884 71H837V0H706V71H509V158L652 400H837V173H884V71ZM706 173V291L638 173H706ZM692 667L265 0H168L594 667H692Z" />
<glyph unicode="&#xbd;" glyph-name="onehalf" horiz-adv-x="927" d="M276 267H144V500L74 431L0 509L163 667H276V267ZM692 667L265 0H168L594 667H692ZM900 0H562V95Q658 162 700 194T753 238T764 264Q764 302 714 302Q684 302 654 287T608 254L542 338Q607
406 717 406Q800 406 848 371T896 275Q896 236 866 199T752 104H900V0Z" />
<glyph unicode="&#xbe;" glyph-name="threequarters" horiz-adv-x="964" d="M951 71H904V0H773V71H576V158L719 400H904V173H951V71ZM773 173V291L705 173H773ZM759 667L332 0H235L661 667H759ZM383 380Q383 327 333 294T202 260Q83 260 23 322L85 409Q108 386
140 375T197 364Q252 364 252 390Q252 408 235 413T179 418Q136 418 130 417V519Q139 518 178 518Q216 518 230 523T245 544Q245 569 188 569Q128 569 86 530L28 607Q91 673 203 673Q288 673 332 643T376 562Q376 531 352 506T287 473Q324 470 353 445T383 380Z"
/>
<glyph unicode="&#xbf;" glyph-name="questiondown" horiz-adv-x="401" d="M297 259Q324 222 324 164Q324 127 307 98T268 55T230 28T212 5Q212 -16 251 -16Q298 -16 338 26L450 -103Q408 -148 349 -171T228 -194Q127 -194 68 -151T8 -33Q8 6 22 37T58 86T100
119T135 151T150 186Q150 210 139 223L297 259ZM178 495T222 495T297 464T329 388T298 313T222 281T147 312T115 388T146 463Z" />
<glyph unicode="&#xc0;" glyph-name="Agrave" horiz-adv-x="710" d="M422 723H302L147 867H302L422 723ZM728 0H499L475 78H235L211 0H-18L228 667H482L728 0ZM421 254L355 469L289 254H421Z" />
<glyph unicode="&#xc1;" glyph-name="Aacute" horiz-adv-x="710" d="M560 867L405 723H285L405 867H560ZM728 0H499L475 78H235L211 0H-18L228 667H482L728 0ZM421 254L355 469L289 254H421Z" />
<glyph unicode="&#xc2;" glyph-name="Acircumflex" horiz-adv-x="710" d="M524 723H419L355 796L294 723H189L277 867H433L524 723ZM728 0H499L475 78H235L211 0H-18L228 667H482L728 0ZM421 254L355 469L289 254H421Z" />
<glyph unicode="&#xc3;" glyph-name="Atilde" horiz-adv-x="710" d="M408 721Q373 721 340 742T298 764Q274 764 274 727H185Q185 861 303 861Q338 861 371 840T413 818Q437 818 437 855H526Q526 721 408 721ZM728 0H499L475 78H235L211 0H-18L228 667H482L728
0ZM421 254L355 469L289 254H421Z" />
<glyph unicode="&#xc4;" glyph-name="Adieresis" horiz-adv-x="710" d="M553 822T553 785T527 722T463 696Q426 696 400 722T374 785T400 848T463 874Q501 874 527 848ZM336 822T336 785T310 722T247 696T184 722T158 785T184 848T247 874T310 848ZM728 0H499L475
78H235L211 0H-18L228 667H482L728 0ZM421 254L355 469L289 254H421Z" />
<glyph unicode="&#xc5;" glyph-name="Aring" horiz-adv-x="710" d="M728 0H499L475 78H235L211 0H-18L228 667H482L728 0ZM421 254L355 469L289 254H421ZM402 686T356 686T277 719T244 798T277 877T356 910T434 877T466 798T434 719ZM342 763T356 763T380 773T390
798T380 822T356 833T332 823T321 798T331 774Z" />
<glyph unicode="&#xc6;" glyph-name="AE" horiz-adv-x="989" d="M959 0H453V78H246L205 0H-25L370 667H959V491H655V425H952V249H655V176H959V0ZM453 254V469L340 254H453Z" />
<glyph unicode="&#xc7;" glyph-name="Ccedilla" horiz-adv-x="697" d="M379 -196Q302 -196 260 -162L291 -98Q334 -128 374 -128Q416 -128 416 -104Q416 -87 395 -87Q379 -87 369 -99L310 -65L331 -8Q193 8 106 101T18 333Q18 486 122 582T385 678Q505 678 578
622T688 484L514 403Q501 443 465 471T385 500Q313 500 268 452T223 333T268 214T385 166Q429 166 465 194T514 263L688 183Q655 107 586 51T408 -11L395 -43Q410 -34 429 -34Q457 -34 477 -54T497 -107Q497 -148 463 -172T379 -196Z" />
<glyph unicode="&#xc8;" glyph-name="Egrave" horiz-adv-x="596" d="M560 0H54V667H560V491H256V425H553V249H256V176H560V0ZM371 723H251L96 867H251L371 723Z" />
<glyph unicode="&#xc9;" glyph-name="Eacute" horiz-adv-x="596" d="M514 867L359 723H239L359 867H514ZM560 0H54V667H560V491H256V425H553V249H256V176H560V0Z" />
<glyph unicode="&#xca;" glyph-name="Ecircumflex" horiz-adv-x="596" d="M475 723H370L306 796L245 723H140L228 867H384L475 723ZM560 0H54V667H560V491H256V425H553V249H256V176H560V0Z" />
<glyph unicode="&#xcb;" glyph-name="Edieresis" horiz-adv-x="596" d="M508 822T508 785T482 722T418 696Q381 696 355 722T329 785T355 848T418 874Q456 874 482 848ZM291 822T291 785T266 722T202 696T139 722T113 785T138 848T202 874T265 848ZM560 0H54V667H560V491H256V425H553V249H256V176H560V0Z"
/>
<glyph unicode="&#xcc;" glyph-name="Igrave" horiz-adv-x="310" d="M256 0H54V667H256V0ZM225 723H105L-50 867H105L225 723Z" />
<glyph unicode="&#xcd;" glyph-name="Iacute" horiz-adv-x="310" d="M256 0H54V667H256V0ZM362 867L207 723H87L207 867H362Z" />
<glyph unicode="&#xce;" glyph-name="Icircumflex" horiz-adv-x="310" d="M321 723H216L152 796L91 723H-14L74 867H230L321 723ZM256 0H54V667H256V0Z" />
<glyph unicode="&#xcf;" glyph-name="Idieresis" horiz-adv-x="310" d="M353 822T353 785T327 722T263 696Q226 696 200 722T174 785T200 848T263 874Q301 874 327 848ZM136 822T136 785T110 722T47 696T-16 722T-42 785T-16 848T47 874T110 848ZM256 0H54V667H256V0Z" />
<glyph unicode="&#xd0;" glyph-name="Eth" horiz-adv-x="757" d="M374 0H75V254H7V413H75V667H373Q535 667 637 579T739 334T637 89T374 0ZM373 176Q446 176 490 222T534 334Q534 405 493 448T374 491H277V413H406V254H277V176H373Z" />
<glyph unicode="&#xd1;" glyph-name="Ntilde" horiz-adv-x="750" d="M426 721Q391 721 358 742T316 764Q292 764 292 727H203Q203 861 321 861Q356 861 389 840T431 818Q455 818 455 855H544Q544 721 426 721ZM696 0H502L256 338V0H54V667H262L494 351V667H696V0Z" />
<glyph unicode="&#xd2;" glyph-name="Ograve" horiz-adv-x="766" d="M452 723H332L177 867H332L452 723ZM539 -12T383 -12T123 84T18 333T122 581T383 678T643 582T748 333T644 85ZM312 166T383 166T498 214T543 333T499 452T383 500T268 452T223 333T267 214Z" />
<glyph unicode="&#xd3;" glyph-name="Oacute" horiz-adv-x="766" d="M587 867L432 723H312L432 867H587ZM539 -12T383 -12T123 84T18 333T122 581T383 678T643 582T748 333T644 85ZM312 166T383 166T498 214T543 333T499 452T383 500T268 452T223 333T267 214Z" />
<glyph unicode="&#xd4;" glyph-name="Ocircumflex" horiz-adv-x="766" d="M554 723H449L385 796L324 723H219L307 867H463L554 723ZM539 -12T383 -12T123 84T18 333T122 581T383 678T643 582T748 333T644 85ZM312 166T383 166T498 214T543 333T499 452T383 500T268
452T223 333T267 214Z" />
<glyph unicode="&#xd5;" glyph-name="Otilde" horiz-adv-x="766" d="M436 721Q401 721 368 742T326 764Q302 764 302 727H213Q213 861 331 861Q366 861 399 840T441 818Q465 818 465 855H554Q554 721 436 721ZM539 -12T383 -12T123 84T18 333T122 581T383 678T643
582T748 333T644 85ZM312 166T383 166T498 214T543 333T499 452T383 500T268 452T223 333T267 214Z" />
<glyph unicode="&#xd6;" glyph-name="Odieresis" horiz-adv-x="766" d="M584 822T584 785T558 722T494 696Q457 696 431 722T405 785T431 848T494 874Q532 874 558 848ZM367 822T367 785T342 722T278 696T215 722T189 785T214 848T278 874T341 848ZM539 -12T383
-12T123 84T18 333T122 581T383 678T643 582T748 333T644 85ZM312 166T383 166T498 214T543 333T499 452T383 500T268 452T223 333T267 214Z" />
<glyph unicode="&#xd7;" glyph-name="multiply" horiz-adv-x="510" d="M389 126L255 260L122 126L47 200L181 334L47 468L122 542L255 408L389 542L463 468L330 334L463 200L389 126Z" />
<glyph unicode="&#xd8;" glyph-name="Oslash" horiz-adv-x="766" d="M383 -12Q273 -12 187 37L156 0H18L105 102Q18 195 18 333Q18 485 122 581T383 678Q476 678 561 638L586 667H724L648 577Q748 480 748 333Q748 181 644 85T383 -12ZM383 166Q454 166 498 214T543
333Q543 384 518 425L311 182Q345 166 383 166ZM223 333Q223 291 238 258L436 491Q412 500 383 500Q312 500 268 452T223 333Z" />
<glyph unicode="&#xd9;" glyph-name="Ugrave" horiz-adv-x="767" d="M547 -12T384 -12T138 66T54 274V667H259V281Q259 231 291 199T384 166Q443 166 475 198T508 281V667H713V275Q713 145 630 67ZM452 723H332L177 867H332L452 723Z" />
<glyph unicode="&#xda;" glyph-name="Uacute" horiz-adv-x="767" d="M590 867L435 723H315L435 867H590ZM547 -12T384 -12T138 66T54 274V667H259V281Q259 231 291 199T384 166Q443 166 475 198T508 281V667H713V275Q713 145 630 67Z" />
<glyph unicode="&#xdb;" glyph-name="Ucircumflex" horiz-adv-x="767" d="M559 723H454L390 796L329 723H224L312 867H468L559 723ZM547 -12T384 -12T138 66T54 274V667H259V281Q259 231 291 199T384 166Q443 166 475 198T508 281V667H713V275Q713 145 630 67Z" />
<glyph unicode="&#xdc;" glyph-name="Udieresis" horiz-adv-x="767" d="M585 822T585 785T559 722T495 696Q458 696 432 722T406 785T432 848T495 874Q533 874 559 848ZM368 822T368 785T342 722T279 696T216 722T190 785T216 848T279 874T342 848ZM547 -12T384
-12T138 66T54 274V667H259V281Q259 231 291 199T384 166Q443 166 475 198T508 281V667H713V275Q713 145 630 67Z" />
<glyph unicode="&#xdd;" glyph-name="Yacute" horiz-adv-x="664" d="M434 0H232V265L-18 667H209L333 442L455 667H682L434 265V0ZM538 867L383 723H263L383 867H538Z" />
<glyph unicode="&#xde;" glyph-name="Thorn" horiz-adv-x="662" d="M256 0H54V667H256V571H410Q523 571 586 505T650 341T587 179T410 114H256V0ZM379 290Q406 290 425 303T445 342T426 381T379 395H256V290H379Z" />
<glyph unicode="&#xdf;" glyph-name="germandbls" horiz-adv-x="688" d="M676 154Q676 79 615 34T460 -12Q338 -12 253 60L322 183Q342 158 382 140T460 122Q504 122 504 143Q504 154 480 160T422 174T353 195T294 244T270 332Q270 366 285 394T320 437T354 465T370
486Q370 518 314 518Q276 518 254 501T231 451V0H51V451Q51 546 122 611T318 677Q413 677 484 632T555 514Q555 475 538 444T499 398T460 368T442 340Q442 332 459 328T503 321T559 309T615 284T658 235T676 154Z" />
<glyph unicode="&#xe0;" glyph-name="agrave" horiz-adv-x="559" d="M341 556H221L66 700H221L341 556ZM509 0H329V46Q309 20 269 4T183 -12Q121 -12 69 29T17 147Q17 203 44 239T107 288T183 301Q287 301 329 248V298Q329 324 306 341T239 358Q167 358 105 311L44
422Q135 495 272 495Q320 495 360 486T435 455T489 392T509 292V0ZM258 105Q311 105 329 131V158Q311 184 258 184Q195 184 195 144Q195 105 258 105Z" />
<glyph unicode="&#xe1;" glyph-name="aacute" horiz-adv-x="559" d="M478 700L323 556H203L323 700H478ZM509 0H329V46Q309 20 269 4T183 -12Q121 -12 69 29T17 147Q17 203 44 239T107 288T183 301Q287 301 329 248V298Q329 324 306 341T239 358Q167 358 105 311L44
422Q135 495 272 495Q320 495 360 486T435 455T489 392T509 292V0ZM258 105Q311 105 329 131V158Q311 184 258 184Q195 184 195 144Q195 105 258 105Z" />
<glyph unicode="&#xe2;" glyph-name="acircumflex" horiz-adv-x="559" d="M446 556H341L277 629L216 556H111L199 700H355L446 556ZM509 0H329V46Q309 20 269 4T183 -12Q121 -12 69 29T17 147Q17 203 44 239T107 288T183 301Q287 301 329 248V298Q329 324 306
341T239 358Q167 358 105 311L44 422Q135 495 272 495Q320 495 360 486T435 455T489 392T509 292V0ZM258 105Q311 105 329 131V158Q311 184 258 184Q195 184 195 144Q195 105 258 105Z" />
<glyph unicode="&#xe3;" glyph-name="atilde" horiz-adv-x="559" d="M328 554Q293 554 260 575T218 597Q194 597 194 560H105Q105 694 223 694Q258 694 291 673T333 651Q357 651 357 688H446Q446 554 328 554ZM509 0H329V46Q309 20 269 4T183 -12Q121 -12 69 29T17
147Q17 203 44 239T107 288T183 301Q287 301 329 248V298Q329 324 306 341T239 358Q167 358 105 311L44 422Q135 495 272 495Q320 495 360 486T435 455T489 392T509 292V0ZM258 105Q311 105 329 131V158Q311 184 258 184Q195 184 195 144Q195 105 258 105Z" />
<glyph unicode="&#xe4;" glyph-name="adieresis" horiz-adv-x="559" d="M509 0H329V46Q309 20 269 4T183 -12Q121 -12 69 29T17 147Q17 203 44 239T107 288T183 301Q287 301 329 248V298Q329 324 306 341T239 358Q167 358 105 311L44 422Q135 495 272 495Q320
495 360 486T435 455T489 392T509 292V0ZM258 105Q311 105 329 131V158Q311 184 258 184Q195 184 195 144Q195 105 258 105ZM471 655T471 618T445 555T381 529Q344 529 318 555T292 618T318 681T381 707Q419 707 445 681ZM254 656T254 618T228 555T165 529T102
554T76 618T102 681T165 707T228 682Z" />
<glyph unicode="&#xe5;" glyph-name="aring" horiz-adv-x="559" d="M509 0H329V46Q309 20 269 4T183 -12Q121 -12 69 29T17 147Q17 203 44 239T107 288T183 301Q287 301 329 248V298Q329 324 306 341T239 358Q167 358 105 311L44 422Q135 495 272 495Q320 495
360 486T435 455T489 392T509 292V0ZM258 105Q311 105 329 131V158Q311 184 258 184Q195 184 195 144Q195 105 258 105ZM323 519T277 519T198 552T165 631T198 710T277 743T355 710T387 631T355 552ZM263 596T277 596T301 606T311 631T301 655T277 666T253 656T242
631T252 607Z" />
<glyph unicode="&#xe6;" glyph-name="ae" horiz-adv-x="851" d="M839 186H520Q547 129 624 129Q683 129 722 163L800 48Q766 19 711 4T603 -12Q497 -12 428 53Q351 -12 230 -12Q136 -12 77 27T17 144Q17 221 65 261T186 301Q233 301 275 287T338 249V298Q338 324
314 340T244 357Q168 357 105 310L44 422Q135 495 272 495Q376 495 428 436Q494 495 598 495Q700 495 769 421T839 223V186ZM518 300H668Q654 358 592 358Q533 358 518 300ZM338 154V157Q317 184 262 184Q235 184 215 175T195 149T212 124T251 115Q286 115 312
127T338 154Z" />
<glyph unicode="&#xe7;" glyph-name="ccedilla" horiz-adv-x="502" d="M293 -198Q216 -198 174 -164L205 -100Q248 -130 288 -130Q330 -130 330 -106Q330 -89 309 -89Q293 -89 283 -101L224 -67L245 -9Q144 3 81 71T17 242Q17 355 94 425T288 495Q363 495 416
468T493 404L377 295Q350 336 296 336Q256 336 229 312T201 242T228 172T296 147Q348 147 377 189L493 79Q472 48 429 23T324 -10L309 -45Q324 -36 343 -36Q371 -36 391 -56T411 -109Q411 -150 377 -174T293 -198Z" />
<glyph unicode="&#xe8;" glyph-name="egrave" horiz-adv-x="543" d="M347 556H227L72 700H227L347 556ZM286 -12Q170 -12 94 57T17 242Q17 349 91 422T280 495Q389 495 460 422T531 223V186H203Q211 161 238 143T307 125Q330 125 365 135T418 159L492 48Q458 19
401 4T286 -12ZM360 300Q346 358 280 358Q217 358 201 300H360Z" />
<glyph unicode="&#xe9;" glyph-name="eacute" horiz-adv-x="543" d="M484 700L329 556H209L329 700H484ZM286 -12Q170 -12 94 57T17 242Q17 349 91 422T280 495Q389 495 460 422T531 223V186H203Q211 161 238 143T307 125Q330 125 365 135T418 159L492 48Q458
19 401 4T286 -12ZM360 300Q346 358 280 358Q217 358 201 300H360Z" />
<glyph unicode="&#xea;" glyph-name="ecircumflex" horiz-adv-x="543" d="M448 556H343L279 629L218 556H113L201 700H357L448 556ZM286 -12Q170 -12 94 57T17 242Q17 349 91 422T280 495Q389 495 460 422T531 223V186H203Q211 161 238 143T307 125Q330 125 365
135T418 159L492 48Q458 19 401 4T286 -12ZM360 300Q346 358 280 358Q217 358 201 300H360Z" />
<glyph unicode="&#xeb;" glyph-name="edieresis" horiz-adv-x="543" d="M479 655T479 618T453 555T389 529Q352 529 326 555T300 618T326 681T389 707Q427 707 453 681ZM262 656T262 618T236 555T173 529T110 554T84 618T110 681T173 707T236 682ZM286 -12Q170
-12 94 57T17 242Q17 349 91 422T280 495Q389 495 460 422T531 223V186H203Q211 161 238 143T307 125Q330 125 365 135T418 159L492 48Q458 19 401 4T286 -12ZM360 300Q346 358 280 358Q217 358 201 300H360Z" />
<glyph unicode="&#xec;" glyph-name="igrave" horiz-adv-x="280" d="M230 0H50V483H230V0ZM210 556H90L-65 700H90L210 556Z" />
<glyph unicode="&#xed;" glyph-name="iacute" horiz-adv-x="280" d="M346 700L191 556H71L191 700H346ZM230 0H50V483H230V0Z" />
<glyph unicode="&#xee;" glyph-name="icircumflex" horiz-adv-x="280" d="M308 556H203L139 629L78 556H-27L61 700H217L308 556ZM230 0H50V483H230V0Z" />
<glyph unicode="&#xef;" glyph-name="idieresis" horiz-adv-x="280" d="M338 655T338 618T312 555T248 529Q211 529 185 555T159 618T185 681T248 707Q286 707 312 681ZM121 656T121 618T96 555T32 529T-31 554T-57 618T-32 681T32 707T95 682ZM230 0H50V483H230V0Z" />
<glyph unicode="&#xf0;" glyph-name="eth" horiz-adv-x="577" d="M84 440L52 518L149 560L102 588L198 731Q268 689 332 641L431 684L464 609L403 582Q560 436 560 258Q560 134 488 61T288 -12Q166 -12 92 50T17 215Q17 315 77 378T225 441Q332 441 387 345Q365
413 233 506L84 440ZM288 147Q329 147 352 165T375 215T352 264T288 283Q248 283 225 265T202 215T225 166T288 147Z" />
<glyph unicode="&#xf1;" glyph-name="ntilde" horiz-adv-x="607" d="M557 0H377V267Q377 336 307 336Q264 336 230 298V0H50V483H230V428Q289 495 396 495Q476 495 516 453T557 343V0ZM357 554Q322 554 289 575T247 597Q223 597 223 560H134Q134 694 252 694Q287
694 320 673T362 651Q386 651 386 688H475Q475 554 357 554Z" />
<glyph unicode="&#xf2;" glyph-name="ograve" horiz-adv-x="577" d="M357 556H237L82 700H237L357 556ZM412 -12T288 -12T91 62T17 242T90 421T288 495T486 422T560 242T486 62ZM288 147Q329 147 352 173T375 242Q375 283 352 309T288 336Q248 336 225 310T202
242Q202 200 225 174T288 147Z" />
<glyph unicode="&#xf3;" glyph-name="oacute" horiz-adv-x="577" d="M493 700L338 556H218L338 700H493ZM412 -12T288 -12T91 62T17 242T90 421T288 495T486 422T560 242T486 62ZM288 147Q329 147 352 173T375 242Q375 283 352 309T288 336Q248 336 225 310T202
242Q202 200 225 174T288 147Z" />
<glyph unicode="&#xf4;" glyph-name="ocircumflex" horiz-adv-x="577" d="M457 556H352L288 629L227 556H122L210 700H366L457 556ZM412 -12T288 -12T91 62T17 242T90 421T288 495T486 422T560 242T486 62ZM288 147Q329 147 352 173T375 242Q375 283 352 309T288
336Q248 336 225 310T202 242Q202 200 225 174T288 147Z" />
<glyph unicode="&#xf5;" glyph-name="otilde" horiz-adv-x="577" d="M341 554Q306 554 273 575T231 597Q207 597 207 560H118Q118 694 236 694Q271 694 304 673T346 651Q370 651 370 688H459Q459 554 341 554ZM412 -12T288 -12T91 62T17 242T90 421T288 495T486
422T560 242T486 62ZM288 147Q329 147 352 173T375 242Q375 283 352 309T288 336Q248 336 225 310T202 242Q202 200 225 174T288 147Z" />
<glyph unicode="&#xf6;" glyph-name="odieresis" horiz-adv-x="577" d="M486 655T486 618T460 555T396 529Q359 529 333 555T307 618T333 681T396 707Q434 707 460 681ZM269 656T269 618T244 555T180 529T117 554T91 618T116 681T180 707T243 682ZM412 -12T288
-12T91 62T17 242T90 421T288 495T486 422T560 242T486 62ZM288 147Q329 147 352 173T375 242Q375 283 352 309T288 336Q248 336 225 310T202 242Q202 200 225 174T288 147Z" />
<glyph unicode="&#xf7;" glyph-name="divide" horiz-adv-x="511" d="M331 505Q331 473 309 451T255 428T202 450T179 505Q179 536 201 558T255 580T309 558T331 505ZM482 285H29V390H482V285ZM331 202T331 170T309 116T255 94T202 116T179 170T201 224T255 246T308 224Z" />
<glyph unicode="&#xf8;" glyph-name="oslash" horiz-adv-x="577" d="M119 0H17L81 71Q17 141 17 242Q17 348 90 421T288 495Q370 495 434 460L455 483H560L495 412Q560 341 560 242Q560 136 486 62T288 -12Q204 -12 141 24L119 0ZM288 147Q329 147 352 173T375
242Q375 258 370 275L257 152Q272 147 288 147ZM202 242Q202 222 206 209L317 332Q305 336 288 336Q248 336 225 310T202 242Z" />
<glyph unicode="&#xf9;" glyph-name="ugrave" horiz-adv-x="606" d="M556 0H376V54Q316 -12 210 -12Q130 -12 90 30T50 138V483H230V215Q230 147 300 147Q342 147 376 185V483H556V0ZM372 556H252L97 700H252L372 556Z" />
<glyph unicode="&#xfa;" glyph-name="uacute" horiz-adv-x="606" d="M508 700L353 556H233L353 700H508ZM556 0H376V54Q316 -12 210 -12Q130 -12 90 30T50 138V483H230V215Q230 147 300 147Q342 147 376 185V483H556V0Z" />
<glyph unicode="&#xfb;" glyph-name="ucircumflex" horiz-adv-x="606" d="M473 556H368L304 629L243 556H138L226 700H382L473 556ZM556 0H376V54Q316 -12 210 -12Q130 -12 90 30T50 138V483H230V215Q230 147 300 147Q342 147 376 185V483H556V0Z" />
<glyph unicode="&#xfc;" glyph-name="udieresis" horiz-adv-x="606" d="M503 655T503 618T477 555T413 529Q376 529 350 555T324 618T350 681T413 707Q451 707 477 681ZM286 656T286 618T260 555T197 529T134 554T108 618T134 681T197 707T260 682ZM556 0H376V54Q316
-12 210 -12Q130 -12 90 30T50 138V483H230V215Q230 147 300 147Q342 147 376 185V483H556V0Z" />
<glyph unicode="&#xfd;" glyph-name="yacute" horiz-adv-x="535" d="M45 -188L70 -28Q86 -37 108 -37Q162 -37 171 -18L175 -8L-15 483H175L267 207L360 483H550L340 -60Q310 -138 256 -165T115 -196Q72 -196 45 -188ZM472 700L317 556H197L317 700H472Z" />
<glyph unicode="&#xfe;" glyph-name="thorn" horiz-adv-x="595" d="M366 -12Q285 -12 230 51V-184H50V667H230V432Q283 495 366 495Q459 495 518 429T578 242Q578 121 519 55T366 -12ZM304 147Q342 147 368 172T394 242Q394 285 368 310T304 336Q285 336 264 327T230
303V180Q241 166 263 157T304 147Z" />
<glyph unicode="&#xff;" glyph-name="ydieresis" horiz-adv-x="535" d="M45 -188L70 -28Q86 -37 108 -37Q162 -37 171 -18L175 -8L-15 483H175L267 207L360 483H550L340 -60Q310 -138 256 -165T115 -196Q72 -196 45 -188ZM465 655T465 618T439 555T375 529Q338
529 312 555T286 618T312 681T375 707Q413 707 439 681ZM248 656T248 618T222 555T159 529T96 554T70 618T96 681T159 707T222 682Z" />
<glyph unicode="&#x152;" glyph-name="OE" horiz-adv-x="1062" d="M1032 0H526V36Q465 -12 360 -12Q212 -12 115 84T18 333T115 581T360 677Q466 677 526 631V667H1032V491H728V425H1025V249H728V176H1032V0ZM526 237V430Q486 499 391 499Q314 499 269 452T223
333T268 214T391 166Q435 166 471 185T526 237Z" />
<glyph unicode="&#x153;" glyph-name="oe" horiz-adv-x="901" d="M889 186H561Q591 124 670 124Q731 124 772 158L850 48Q816 19 759 4T644 -12Q584 -12 544 8T465 64Q389 -12 288 -12Q164 -12 91 62T17 242T90 421T288 495Q383 495 466 418Q539 495 638 495Q747
495 818 422T889 223V186ZM559 300H718Q704 359 638 359Q574 359 559 300ZM375 196T375 242T351 312T288 336T226 312T202 242Q202 196 226 171T288 146T350 171Z" />
<glyph unicode="&#x160;" glyph-name="Scaron" horiz-adv-x="613" d="M379 723H223L132 867H237L301 794L362 867H467L379 723ZM313 -12Q121 -12 3 94L108 244Q198 158 323 158Q397 158 397 194Q397 211 359 220T266 239T157 268T64 335T25 456Q25 547 98 612T302
677Q471 677 585 584L477 441Q390 507 281 507Q230 507 230 477Q230 463 257 453T326 438T415 418T505 383T573 321T601 220Q601 110 525 49T313 -12Z" />
<glyph unicode="&#x161;" glyph-name="scaron" horiz-adv-x="490" d="M325 556H169L78 700H183L247 627L308 700H413L325 556ZM246 -12Q180 -12 114 8T9 62L81 183Q110 160 163 141T255 122Q303 122 303 143Q303 153 283 159T232 167T166 179T100 202T50 250T29
330Q29 399 86 447T245 495Q360 495 454 433L388 316Q363 336 325 351T246 366Q227 366 214 360T201 345Q201 335 229 330T297 318T378 297T447 247T475 154Q475 81 413 35T246 -12Z" />
<glyph unicode="&#x178;" glyph-name="Ydieresis" horiz-adv-x="664" d="M531 822T531 785T505 722T441 696Q404 696 378 722T352 785T378 848T441 874Q479 874 505 848ZM314 822T314 785T288 722T225 696T162 722T136 785T162 848T225 874T288 848ZM434 0H232V265L-18
667H209L333 442L455 667H682L434 265V0Z" />
<glyph unicode="&#x17d;" glyph-name="Zcaron" horiz-adv-x="600" d="M380 723H224L133 867H238L302 794L363 867H468L380 723ZM564 0H36V160L290 491H36V667H557V508L302 176H564V0Z" />
<glyph unicode="&#x17e;" glyph-name="zcaron" horiz-adv-x="486" d="M317 556H161L70 700H175L239 627L300 700H405L317 556ZM453 0H33V132L203 327H33V483H449V357L275 156H453V0Z" />
<glyph unicode="&#x192;" glyph-name="florin" horiz-adv-x="477" d="M196 -161H-10L75 223H35V379H109L137 506Q153 581 216 629T359 677Q454 677 500 628L429 481Q414 501 386 501Q368 501 354 490T334 459L316 379H403V223H282L196 -161Z" />
<glyph unicode="&#x2c6;" glyph-name="circumflex" horiz-adv-x="335" d="M335 556H230L166 629L105 556H0L88 700H244L335 556Z" />
<glyph unicode="&#x2dc;" glyph-name="tilde" horiz-adv-x="341" d="M223 554Q188 554 155 575T113 597Q89 597 89 560H0Q0 694 118 694Q153 694 186 673T228 651Q252 651 252 688H341Q341 554 223 554Z" />
<glyph unicode="&#x2013;" glyph-name="endash" horiz-adv-x="593" d="M563 167H30V317H563V167Z" />
<glyph unicode="&#x2014;" glyph-name="emdash" horiz-adv-x="833" d="M803 167H30V317H803V167Z" />
<glyph unicode="&#x2018;" glyph-name="quoteleft" horiz-adv-x="281" d="M30 458Q30 590 155 678L228 619Q203 608 175 579T137 523Q147 527 163 527Q200 527 225 501T250 434Q250 391 219 360T146 329Q98 329 64 364T30 458Z" />
<glyph unicode="&#x2019;" glyph-name="quoteright" horiz-adv-x="281" d="M254 548Q254 416 129 328L56 387Q81 398 109 427T147 483Q137 479 121 479Q84 479 59 505T34 572Q34 615 65 646T138 677Q186 677 220 642T254 548Z" />
<glyph unicode="&#x201a;" glyph-name="quotesinglbase" horiz-adv-x="281" d="M254 73Q254 -59 129 -147L56 -88Q81 -77 109 -48T147 8Q137 4 121 4Q84 4 59 30T34 97Q34 140 65 171T138 202Q186 202 220 167T254 73Z" />
<glyph unicode="&#x201c;" glyph-name="quotedblleft" horiz-adv-x="528" d="M26 458Q26 590 151 678L224 619Q199 608 171 579T133 523Q143 527 159 527Q196 527 221 501T246 434Q246 391 215 360T142 329Q94 329 60 364T26 458ZM273 458Q273 590 398 678L471
619Q446 608 418 579T380 523Q390 527 406 527Q443 527 468 501T493 434Q493 391 462 360T389 329Q341 329 307 364T273 458Z" />
<glyph unicode="&#x201d;" glyph-name="quotedblright" horiz-adv-x="528" d="M501 548Q501 416 376 328L303 387Q328 398 356 427T394 483Q384 479 368 479Q331 479 306 505T281 572Q281 615 312 646T385 677Q433 677 467 642T501 548ZM254 548Q254 416 129 328L56
387Q81 398 109 427T147 483Q137 479 121 479Q84 479 59 505T34 572Q34 615 65 646T138 677Q186 677 220 642T254 548Z" />
<glyph unicode="&#x201e;" glyph-name="quotedblbase" horiz-adv-x="528" d="M254 73Q254 -59 129 -147L56 -88Q81 -77 109 -48T147 8Q137 4 121 4Q84 4 59 30T34 97Q34 140 65 171T138 202Q186 202 220 167T254 73ZM501 73Q501 -59 376 -147L303 -88Q328 -77
356 -48T394 8Q384 4 368 4Q331 4 306 30T281 97Q281 140 312 171T385 202Q433 202 467 167T501 73Z" />
<glyph unicode="&#x2020;" glyph-name="dagger" horiz-adv-x="291" d="M274 513L185 517L189 327H101L106 517L17 513V594L106 591L101 677H189L185 591L274 594V513Z" />
<glyph unicode="&#x2021;" glyph-name="daggerdbl" horiz-adv-x="291" d="M274 594V513L185 517V342L274 346V265L185 268L189 180H101L105 268L17 265V346L105 342V517L17 513V594L105 591L101 677H189L185 591L274 594Z" />
<glyph unicode="&#x2022;" glyph-name="bullet" horiz-adv-x="358" d="M310 242Q310 189 272 151T180 113T88 151T50 242Q50 296 88 334T180 372T272 334T310 242Z" />
<glyph unicode="&#x2026;" glyph-name="ellipsis" horiz-adv-x="846" d="M811 95Q811 52 780 21T705 -11T631 20T599 95Q599 139 630 170T705 202T779 171T811 95ZM529 95Q529 52 498 21T423 -11T349 20T317 95Q317 139 348 170T423 202T497 171T529 95ZM247 95Q247
52 216 21T141 -11T67 20T35 95Q35 139 66 170T141 202T215 171T247 95Z" />
<glyph unicode="&#x2030;" glyph-name="perthousand" horiz-adv-x="1160" d="M378 508Q378 437 329 389T198 341Q118 341 69 389T20 508Q20 580 69 628T198 677Q279 677 328 629T378 508ZM655 667L228 0H131L557 667H655ZM764 155Q764 84 715 36T585 -12T456 36T407
155Q407 227 456 275T585 324T714 276T764 155ZM256 508Q256 546 240 564T198 583Q142 583 142 508Q142 471 157 453T198 435Q224 435 240 453T256 508ZM643 155Q643 193 627 211T585 230Q528 230 528 155Q528 82 585 82Q611 82 627 100T643 155ZM1140 155Q1140
84 1091 36T961 -12T832 36T783 155Q783 227 832 275T961 324T1090 276T1140 155ZM1019 155Q1019 193 1003 211T961 230Q904 230 904 155Q904 82 961 82Q987 82 1003 100T1019 155Z" />
<glyph unicode="&#x2039;" glyph-name="guilsinglleft" horiz-adv-x="380" d="M350 63H190L30 243L190 420H350L190 243L350 63Z" />
<glyph unicode="&#x203a;" glyph-name="guilsinglright" horiz-adv-x="380" d="M350 243L190 63H30L190 243L30 420H190L350 243Z" />
<glyph unicode="&#x20ac;" glyph-name="Euro" horiz-adv-x="722" d="M410 -12Q285 -12 191 50T61 218H12V313H43V356H12V451H62Q98 555 192 616T410 678Q530 678 603 622T713 484L539 403Q526 443 490 471T410 500Q338 500 292 451H470V356H249Q248 348 248 333Q248
319 249 313H470V218H289Q336 166 410 166Q454 166 490 194T539 263L713 183Q697 146 673 115T613 53T525 6T410 -12Z" />
<glyph unicode="&#x2122;" glyph-name="trademark" horiz-adv-x="454" d="M419 447H391V629L316 447H308L233 629V447H205V667H248L312 507L376 667H419V447ZM169 641H107V447H79V641H17V667H169V641Z" />
</font>
</defs>
</svg>
