<?xml version="1.0" encoding="utf-8"?>
<!-- Generator: Adobe Illustrator 16.0.1, SVG Export Plug-In . SVG Version: 6.00 Build 0)  -->
<!DOCTYPE svg PUBLIC "-//W3C//DTD SVG 1.1//EN" "http://www.w3.org/Graphics/SVG/1.1/DTD/svg11.dtd">
<svg version="1.1" id="Layer_1" xmlns="http://www.w3.org/2000/svg" xmlns:xlink="http://www.w3.org/1999/xlink" x="0px" y="0px"
	 width="640px" height="480px" viewBox="0 0 640 480" enable-background="new 0 0 640 480" xml:space="preserve">
<g id="Layer_1_46_">
	<g>
		
			<line fill="none" stroke="#00A9E0" stroke-width="2" stroke-linecap="round" stroke-miterlimit="10" x1="307.503" y1="232.556" x2="333.503" y2="232.556"/>
		
			<line fill="none" stroke="#00A9E0" stroke-width="2" stroke-linecap="round" stroke-miterlimit="10" x1="307.503" y1="240.5" x2="333.503" y2="240.5"/>
		
			<line fill="none" stroke="#00A9E0" stroke-width="2" stroke-linecap="round" stroke-miterlimit="10" x1="307.503" y1="248.445" x2="333.503" y2="248.445"/>
	</g>
</g>
</svg>
