<?xml version="1.0" encoding="utf-8"?>
<!-- Generator: Adobe Illustrator 18.1.1, SVG Export Plug-In . SVG Version: 6.00 Build 0)  -->
<svg version="1.1" id="Layer_1" xmlns="http://www.w3.org/2000/svg" xmlns:xlink="http://www.w3.org/1999/xlink" x="0px" y="0px"
	 viewBox="6 -96 612 792" enable-background="new 6 -96 612 792" xml:space="preserve">
<g>
	<path fill="#FFB81C" d="M282,2c20.2,0,39.8,0,60,0c0.6,0.6,0.6,1.8,1.2,1.8c5.5,0.6,10.4,0,15.9,2.4c2.4,1.2,6.1,0.6,9.2,0.6
		c1.2,0,2.4,0,3.1,0.6c1.8,2.4,4.3,1.2,6.7,1.8c1.2,0,2.4,0,2.4,0.6c1.8,2.4,4.3,1.2,6.7,1.8c3.7,0.6,7.3,2.4,11.6,2.4
		c0.6,0,0.6,0.6,1.2,0.6c0.6,0.6,1.2,0.6,2.4,1.2c3.1,0.6,6.1,1.8,9.2,2.4l0.6,0.6c0.6,0.6,1.8,1.2,2.4,1.2
		c3.7,1.2,6.7,1.8,10.4,3.1l0.6,0.6c2.4,1.2,4.9,3.1,7.3,3.7s4.3,3.7,6.7,3.1c0,0,0,0.6,0.6,0.6c0.6,0.6,1.8,1.2,2.4,1.2
		c0.6,0.6,1.2,0.6,1.8,0.6c1.2,0.6,1.8,1.2,3.1,1.8c0.6,0,1.2,0,1.8,0.6c1.8,1.2,4.3,3.1,6.1,4.3c2.4,1.2,4.3,1.8,6.7,3.1h0.6
		c2.4,1.8,5.5,4.3,8,6.1c3.1,1.8,6.7,3.7,9.8,5.5c1.2,0.6,2.4,1.8,3.1,2.4c1.2,1.2,3.1,2.4,4.3,3.7c0.6,0.6,1.2,0.6,1.8,1.2
		c3.1,2.4,4.9,5.5,8.6,6.7c1.2,0.6,2.4,1.2,3.1,2.4c1.8,1.8,3.7,4.3,5.5,6.1c2.4,2.4,4.3,4.3,6.7,6.1c1.8,1.2,3.1,2.4,4.9,3.7
		c0.6,0,0.6,0.6,1.2,0.6c1.8,2.4,3.7,5.5,6.1,7.3c2.4,3.1,5.5,5.5,8,8c1.2,0.6,1.8,1.8,2.4,3.1c1.2,1.2,1.8,2.4,3.1,3.7
		c1.8,1.8,3.7,3.1,3.7,5.5c0,0.6,0,0.6,0.6,1.2c3.1,2.4,5.5,4.9,6.7,8.6c0.6,1.2,1.2,2.4,2.4,3.1c1.8,1.8,4.3,3.1,4.3,6.1
		c0,0,0,0.6,0.6,0.6c1.2,1.2,2.4,3.1,3.7,4.3c1.2,1.8,1.8,4.3,3.1,6.7c0,0,0,0,0.6,0.6c1.2,1.2,3.1,3.1,3.7,4.3
		c0.6,2.4,3.7,3.7,3.1,6.7l0.6,0.6c0.6,0.6,1.2,1.2,1.8,1.8s0.6,1.8,1.2,2.4c1.2,2.4,2.4,4.3,3.7,6.7c1.2,2.4,1.8,4.9,3.1,7.3
		c0,0,0,0,0.6,0.6c0.6,1.2,1.2,1.8,1.8,3.1c0,0.6,0,1.2,0.6,1.2c2.4,0.6,1.8,2.4,1.8,3.7c0,0.6,0,1.2,0.6,1.2
		c1.8,0.6,1.8,2.4,1.8,4.3c0,0.6,0,2.4,0.6,2.4c1.8,0.6,1.2,2.4,1.8,3.7c1.2,3.1,1.8,6.1,3.1,9.2c0,0,0,0,0.6,0.6
		c0.6,1.2,1.2,2.4,1.2,3.7c0,0.6,0,1.2,0,1.8c2.4,1.8,1.8,4.3,1.8,6.7c0,1.2,0,2.4,0.6,2.4c3.1,1.8,1.2,4.3,1.8,6.1
		c0,1.2,0,2.4,0.6,3.1c2.4,1.2,1.8,3.1,1.8,4.3s0,3.1,0.6,4.3c2.4,3.1,1.2,6.7,1.8,10.4c0,1.8,0.6,3.7,0.6,5.5
		c0.6,1.8,1.8,4.3,1.2,6.1c0,5.5,1.8,11,2.4,16.5c0,15.3,0,31.2,0,46.5c-0.6,2.4-1.8,5.5-1.8,8c-0.6,5.5-0.6,11-2.4,16.5
		c-1.2,2.4-0.6,6.1-0.6,9.2c0,1.2,0,2.4-0.6,2.4c-2.4,1.8-1.2,4.3-1.8,6.7c0,1.2,0,2.4-0.6,3.1c-1.8,0.6-1.2,2.4-1.2,3.7
		c0,1.8,0.6,4.9-0.6,5.5c-2.4,1.8-1.2,4.3-1.8,6.7c-0.6,2.4-1.8,5.5-2.4,8l0,0c-3.1,0-2.4,2.4-3.1,4.3c0,0.6-0.6,1.8-0.6,2.4
		c-0.6,1.2-1.2,2.4-1.8,3.7c-1.2,3.1-1.2,6.7-3.1,9.2c-1.2,1.8-1.8,3.1-1.8,4.9c0,0,0,0.6-0.6,0.6c-2.4,0-1.8,1.8-1.8,3.1
		c0,0.6-0.6,1.2-0.6,1.2c-0.6,1.2-1.2,1.8-1.8,3.1c0,0.6,0,1.2-0.6,1.8c-1.2,2.4-3.1,4.3-4.3,6.1c-1.8,3.7-3.7,8-4.9,11.6
		c0,0,0,0.6-0.6,0.6c-3.1,0.6-1.8,4.3-4.3,5.5c-1.2,0.6-1.8,1.8-1.8,2.4c-1.2,2.4-2.4,4.9-3.7,7.3l-0.6,0.6
		c-1.2,1.2-1.8,2.4-3.1,3.7c-1.2,1.8-1.2,4.3-3.1,5.5c-3.1,1.8-3.7,6.1-6.7,8c-1.2,0.6-1.2,2.4-2.4,3.1c-1.8,1.2-1.8,3.1-3.1,4.9
		c-1.2,2.4-3.7,3.7-6.1,5.5c-0.6,0.6-1.8,1.8-2.4,2.4c-1.8,1.8-3.1,4.9-4.9,6.1c-1.8,1.8-3.1,3.7-4.3,5.5c-1.8,2.4-4.3,4.3-6.7,6.7
		c-1.2,1.2-3.1,2.4-4.9,4.3c-1.2,1.2-1.8,1.8-3.1,3.1c-1.8,1.8-4.3,3.7-6.1,5.5c-0.6,0.6-1.8,1.8-2.4,2.4c-1.2,1.2-2.4,3.1-3.7,3.7
		c-2.4,0.6-4.3,2.4-5.5,4.3c-1.2,1.2-3.1,1.8-4.3,3.1c-1.8,1.2-3.7,1.8-4.3,3.1c-1.8,1.8-3.1,4.3-6.1,4.3c-0.6,0-0.6,0-0.6,0.6
		c-1.2,1.2-2.4,2.4-4.3,3.7c-2.4,1.2-4.9,2.4-6.7,3.1l-0.6,0.6c-1.8,1.2-3.7,2.4-5.5,3.7c-0.6,0-1.2,0-1.2,0.6
		c-0.6,3.1-4.3,1.8-5.5,3.7c-1.2,1.8-4.9,1.8-7.3,3.1c-0.6,0-0.6,0.6-1.2,0.6c-1.8,1.2-4.3,3.1-6.1,3.7c-2.4,1.2-4.9,1.8-7.3,2.4
		c0,0-0.6,0-0.6,0.6c0,2.4-1.8,1.2-3.7,1.8c-0.6,0-1.2,0-1.2,0.6c-0.6,2.4-2.4,1.8-4.3,1.8c-0.6,0-1.8,0.6-2.4,0.6
		c-0.6,0.6-1.8,1.2-2.4,1.2c-3.7,1.2-6.7,1.8-10.4,3.1l-0.6,0.6c-0.6,0.6-1.8,1.2-2.4,1.2c-3.7,1.2-7.3,3.1-11,2.4H391
		c-1.2,3.1-3.7,1.2-5.5,1.8c-1.2,0-3.1,0-3.7,0.6c-0.6,1.8-2.4,1.2-3.7,1.8c-1.8,0-3.7,0-4.9,0.6c-3.1,2.4-6.1,1.2-9.2,1.8
		c-2.4,0-4.9,0.6-6.7,0.6c-1.8,0.6-4.3,1.8-6.1,1.2c-5.5,0-10.4,1.8-15.9,2.4c-15.3,0-31.2,0-46.5,0c-4.3-0.6-8.6-1.8-12.9-2.4
		c-2.4-0.6-5.5,0.6-7.3-0.6c-3.7-2.4-7.3-1.8-11-1.8c-1.8,0-3.7,0.6-4.9-0.6c-2.4-2.4-4.9-1.2-7.3-1.8c-0.6,0-2.4,0-2.4-0.6
		c-0.6-1.8-2.4-1.2-3.7-1.8c-1.8,0-4.3,0.6-4.9-0.6c-1.8-2.4-3.7-1.2-5.5-1.8s-3.1-1.2-4.9-1.8c-0.6,0-0.6,0-1.2-0.6
		c-3.1-1.2-6.7-1.2-9.8-3.1c-1.8-1.2-4.3-1.8-6.1-1.8c-0.6,0-0.6-0.6-1.2-0.6c-1.2-0.6-1.8-1.2-3.1-1.2c-3.1-1.2-5.5-1.8-8.6-2.4
		c0,0-0.6,0-0.6-0.6c0-1.8-1.8-1.2-3.1-1.8c-0.6,0-1.8,0-1.8-0.6c-0.6-1.8-1.8-1.2-3.1-1.8c-0.6,0-1.2,0-1.8-0.6
		c-1.2-3.1-4.9-1.8-6.7-3.7c-1.2-1.8-4.9-1.8-6.7-3.1c0,0-0.6,0-0.6-0.6c-1.2-3.1-4.9-1.2-6.1-4.3c-0.6-0.6-1.8-1.2-3.1-1.8
		c-1.8-1.2-3.7-1.8-5.5-3.1c-0.6,0-1.2,0-1.2-0.6c-0.6-3.1-4.3-1.2-5.5-4.3c-0.6-1.2-1.8-1.8-3.1-2.4c-3.7,0-5.5-3.7-8-5.5
		c-3.1-1.2-4.9-4.3-8-6.1c-1.2-0.6-2.4-1.8-3.1-2.4c-1.8-1.2-3.7-1.8-4.9-3.1c-1.2-0.6-1.8-1.2-2.4-2.4c-1.2-1.2-1.8-2.4-3.1-3.7
		c-1.8-1.8-4.3-3.7-6.1-5.5c-1.8-1.2-3.7-3.1-4.9-4.3c-2.4-2.4-5.5-4.3-6.7-7.3c0-0.6-0.6-0.6-0.6-1.2c-1.8-1.8-4.3-3.7-6.1-5.5
		c-1.8-1.8-3.1-4.3-4.9-6.1c-0.6-1.2-1.8-1.8-2.4-2.4c-1.8-1.2-3.1-3.1-4.3-4.9c0-0.6-0.6-1.2-1.2-1.8c-1.2-1.2-2.4-2.4-3.1-4.3
		c-1.2-1.8-1.8-3.7-3.1-4.9c-1.2-1.2-3.1-1.8-3.7-3.1c-1.8-2.4-3.1-4.9-4.9-7.3c-1.8-3.1-4.9-6.1-4.9-9.8v-0.6
		c-3.7-1.8-3.7-5.5-6.1-8.6c-1.8-1.8-1.8-4.9-3.1-7.3l-0.6-0.6c-1.2-2.4-3.1-4.3-3.7-6.7c-0.6-2.4-3.7-4.3-2.4-7.3c0,0,0,0-0.6-0.6
		c-2.4-1.2-2.4-4.3-3.7-6.7c-1.8-2.4-1.8-6.1-3.1-9.2l-0.6-0.6c-0.6-0.6-1.2-1.2-1.2-2.4c-1.2-3.7-1.2-7.3-3.1-10.4
		c-1.2-1.8-1.8-3.1-1.8-5.5c0,0,0-0.6-0.6-0.6c-1.8-0.6-1.8-2.4-1.8-4.3c-0.6-4.3-1.8-9.2-2.4-13.5v-0.6c-2.4-1.2-1.8-4.3-1.8-6.1
		c0-1.2,0-2.4-0.6-2.4c-3.1-2.4-1.8-5.5-1.8-8.6c0-2.4,0.6-5.5-0.6-7.3c-1.8-2.4-1.2-4.9-1.8-8c0-1.8,0-4.3-0.6-6.1
		c0-0.6-1.2-1.2-1.8-1.8c0-20.2,0-39.8,0-60c1.8,0,1.8-0.6,1.8-2.4c0-3.1,0-6.1,0-9.2c0-0.6,0-1.8,0.6-2.4c0,1.2,1.2-0.6,1.2-2.4
		c0.6-2.4,0-4.9,0-8c0-1.2,0-2.4,0.6-2.4c1.8-1.2,1.2-3.7,1.8-5.5c0-1.2,0-3.1,0.6-3.7c2.4-1.8,1.8-4.9,1.8-7.3c0-0.6,0-1.8,0.6-1.8
		c2.4-1.8,1.2-4.9,1.8-7.3c0-0.6,0.6-1.8,0.6-2.4c0.6-1.2,1.2-1.8,1.2-3.1c0-0.6,0-1.8,0.6-1.8c2.4-1.2,1.8-3.7,2.4-5.5
		c0-0.6,0.6-1.2,0.6-1.2c0.6-1.2,1.2-1.8,1.2-3.1c1.2-3.1,1.8-6.7,3.1-9.8c0,0,0,0,0.6-0.6c1.2-2.4,3.1-4.9,3.7-7.3s3.7-3.7,3.1-6.7
		c0,0,0.6,0,0.6-0.6c0.6-0.6,1.2-1.2,1.2-1.8s0-2.4,0.6-2.4c3.1-1.2,1.2-4.9,3.7-6.1c1.8-1.2,2.4-4.3,3.1-6.7c0-0.6,0.6-0.6,0.6-0.6
		c1.2-1.8,2.4-3.7,3.7-5.5c0.6-1.2,1.8-1.8,1.8-3.1c1.2-2.4,1.8-4.9,3.7-6.7c1.8-3.1,4.3-5.5,6.1-8.6c0.6-0.6,1.8-1.2,2.4-2.4
		c1.2-1.8,1.8-3.7,3.1-5.5c1.2-1.2,2.4-2.4,3.7-3.7c1.2-1.8,2.4-3.7,3.1-5.5v-0.6c2.4-2.4,5.5-5.5,8-8c1.2-0.6,1.8-1.8,2.4-3.1
		c1.8-2.4,4.3-4.3,6.1-6.7c0.6-0.6,0.6-0.6,1.2-1.2c1.2-1.8,2.4-3.7,4.3-4.9c1.2-1.2,3.1-1.8,4.9-3.7c3.1-2.4,5.5-5.5,8-8.6
		c0.6-0.6,1.8-1.8,3.1-2.4c1.2-1.2,3.1-1.8,3.7-3.1c1.8-3.7,6.1-3.7,8-6.7c0.6-0.6,1.2-1.8,1.8-2.4c1.8-1.2,3.7-1.8,5.5-2.4
		c1.2-0.6,2.4-1.8,3.1-2.4c1.2-1.2,2.4-2.4,4.3-3.7c1.8-1.2,4.3-2.4,6.1-4.3c1.8-1.2,3.7-1.2,5.5-3.1c1.2-1.2,3.7-1.8,5.5-3.1
		c1.8-1.2,3.7-3.1,5.5-4.3c2.4-1.2,4.9-1.8,7.3-3.1c0.6,0,0.6-0.6,0.6-0.6c2.4-1.2,4.3-3.1,6.7-3.7s4.3-3.7,7.3-3.1
		c0,0,0-0.6,0.6-0.6c-0.6,0.6,0,0,0,0c2.4-0.6,4.9-1.8,7.3-2.4c0,0,0,0,0.6-0.6c1.2-0.6,3.1-1.2,4.3-1.8c0.6,0,2.4,0,2.4-0.6
		c0.6-2.4,3.1-1.8,4.3-1.8c0.6,0,2.4,0,2.4-0.6c1.2-1.8,3.1-1.2,4.3-1.8c0.6,0,1.8,0,2.4-0.6c2.4-1.2,4.9-3.1,7.3-3.7
		c3.1-1.2,6.7-0.6,9.8-2.4c2.4-1.2,5.5-0.6,8.6-2.4s6.7-0.6,9.8-2.4c1.8-1.2,4.9-0.6,8-0.6c1.8,0,4.3,0.6,4.9-0.6
		c2.4-1.8,4.9-1.2,7.3-1.8c1.8,0,3.7,0,6.1,0C281.4,3.8,282,3.2,282,2z M484,232.7c-0.6-9.2,1.8-18.4-1.8-27.5
		c-1.2-3.1-0.6-6.1-0.6-9.2c0-0.6-0.6-1.8-0.6-2.4c-0.6-1.2-1.2-3.1-1.2-4.3c-1.2-4.3-1.8-8.6-2.4-12.9c0,0,0-0.6-0.6-0.6
		c-1.8-0.6-1.2-1.8-1.8-3.7c0-0.6,0-1.2,0-1.8c-3.7-1.2-1.8-5.5-4.3-8c-1.8-1.8-1.8-4.9-3.1-7.3v-0.6c-3.7-1.8-3.7-6.1-6.1-9.2
		c-1.2-1.2-1.8-3.7-3.1-4.9c-1.8-1.8-4.3-3.7-5.5-6.1c-1.8-3.7-4.3-6.1-7.3-8.6c-3.1-3.1-6.7-6.1-9.8-9.2c-1.2-0.6-1.8-1.8-3.1-2.4
		c-1.8-1.2-3.7-1.8-5.5-3.1c-1.8-1.8-3.7-3.7-6.7-4.3l-0.6-0.6c-1.8-1.2-3.7-2.4-5.5-3.7c-0.6-0.6-1.8-0.6-1.8-0.6
		c0-1.8-1.8-1.2-3.1-1.8c-0.6,0-1.2-0.6-1.8-1.2c-0.6-0.6-0.6-0.6-1.2-1.2c-2.4-0.6-6.1-1.2-7.3-2.4c-2.4-3.1-6.1-1.8-8.6-4.3
		c-1.8-1.8-6.7-1.8-9.8-2.4c-0.6,0-2.4-0.6-2.4-0.6c-0.6-1.8-1.8-1.2-3.1-1.2s-3.1,0.6-3.7-0.6c-1.8-3.1-4.9-1.8-6.7-1.8
		c-1.2,0-1.8-0.6-3.1-0.6c-1.2-0.6-2.4-1.2-3.7-1.2c-3.1,0-5.5,0-8.6-0.6c-1.2,0-1.8-0.6-3.1-0.6c-1.2-0.6-3.1-1.2-4.3-1.2
		c-17.1,0-33.7,0-50.8,0c-1.2,0-1.8,0-2.4,0c-3.7,3.1-8,1.2-12.2,1.8c-0.6,0-1.8,0-2.4,0.6c-1.2,2.4-3.7,1.2-5.5,1.8
		c-3.7,0.6-6.7,1.8-10.4,2.4c-0.6,0-0.6,0.6-0.6,1.2c-0.6,0.6-1.2,0.6-1.2,0.6c-3.1,0.6-6.1,1.8-9.2,2.4h-0.6
		c-1.8,3.1-6.1,1.2-8.6,4.3c-1.2,1.8-4.9,1.8-6.7,3.1c0,0,0,0-0.6,0.6c-1.8,1.2-3.7,3.7-6.1,3.7c-0.6,0-0.6,0-1.2,0.6
		c-2.4,1.2-4.9,3.1-7.3,4.3c-0.6,0.6-1.2,0.6-1.8,1.2c-1.2,1.2-2.4,1.8-3.7,3.1c-1.8,1.2-4.3,1.2-4.9,3.1c-1.8,2.4-3.7,3.7-6.1,4.9
		c-1.2,0.6-2.4,1.8-3.1,2.4c-2.4,2.4-4.9,5.5-8,8.6c-2.4,2.4-5.5,4.9-8.6,7.3c-1.2,0.6-1.8,1.8-2.4,3.1c-0.6,2.4-2.4,4.3-4.3,5.5
		c-1.2,1.2-1.8,2.4-3.1,3.7c-1.2,1.8-1.2,4.3-3.1,5.5c-2.4,1.2-1.8,4.3-4.3,6.1c-1.2,0.6-1.8,2.4-2.4,3.7c-1.2,2.4-1.8,4.3-3.1,6.7
		v0.6c-2.4,0-1.8,1.8-1.8,3.1c0,0.6,0,1.2-0.6,1.2c-2.4,0.6-1.2,2.4-1.8,3.7c-0.6,2.4-1.8,4.9-2.4,7.3l0,0c-2.4,0.6-1.8,3.1-1.8,4.3
		c0,1.2,0,1.8-0.6,3.1c-0.6,1.8-1.2,3.1-1.8,4.9c-0.6,1.2,0,3.1-0.6,3.7c-2.4,3.1-1.2,6.7-1.8,10.4c0,0.6-0.6,1.8-0.6,2.4
		c-0.6,1.2-1.2,1.8-1.2,3.1c0,13.5,0,27.5,0,41c0,0.6,0,1.2,0.6,2.4c0.6,1.2,1.2,3.1,1.8,4.3c1.2,5.5,1.8,11.6,3.1,17.1
		c0,0.6,0,0.6,0.6,1.2c1.2,2.4,2.4,4.3,3.7,6.7c1.2,2.4,1.8,4.9,2.4,7.3l0.6,0.6c0.6,0.6,1.2,1.8,1.8,2.4c0,0.6,0,1.2,0.6,1.8
		c2.4,1.2,3.7,3.7,4.9,6.1c0.6,1.2,2.4,2.4,3.7,3.1c1.8,1.2,3.7,2.4,4.9,3.7c2.4,2.4,4.3,6.1,8.6,6.1l0.6,0.6
		c0.6,0.6,1.2,1.2,2.4,1.8c0.6,0.6,1.2,0.6,1.8,1.2c2.4,1.8,4.9,3.7,8,3.7c0.6,0,1.2,0,1.8,0.6c1.8,0.6,3.7,1.2,5.5,1.8
		c1.2,0.6,2.4,1.2,4.3,1.2c0.6,0,1.8,0,1.8-0.6c1.8-3.1,3.1-6.7,4.3-9.8c1.2-3.1,1.2-6.1,2.4-9.2c2.4-6.1-1.2-12.2-2.4-17.7
		c-0.6-1.2-1.8-3.1-1.8-4.3c0,0,0-0.6-0.6-0.6c-2.4-1.2-2.4-4.3-4.3-6.7c-1.2-1.2-1.2-4.9-2.4-4.9c-3.1-1.2-1.2-4.9-3.7-6.1
		c-1.8-0.6-1.8-4.3-2.4-6.7c-0.6-3.7-1.8-7.3-1.8-11c-0.6-8.6,0-17.1,0-25.7c0-0.6,0-0.6,0-1.2c0.6-3.1,1.2-5.5,1.8-8.6
		c0.6-4.3,0.6-8.6,3.1-12.2c1.2-2.4,1.8-4.3,1.8-6.7c0-0.6,0.6-0.6,0.6-1.2c0.6-0.6,1.2-1.8,1.2-2.4s0-1.8,0.6-1.8
		c3.1-1.2,1.8-4.9,3.7-6.7c1.8-1.8,1.8-4.9,3.1-6.7c0,0,0-0.6,0.6-0.6c3.7-1.2,3.7-6.1,6.1-8c1.2-0.6,1.2-1.8,2.4-3.1
		c1.2-1.8,2.4-3.1,3.7-4.9c1.2-1.2,2.4-3.1,3.7-4.3c1.2-1.2,1.8-2.4,3.1-3.1c1.2-1.2,2.4-1.8,3.7-3.1c1.2-1.2,2.4-2.4,3.7-3.7
		c2.4-1.8,5.5-3.7,8-5.5c1.8-1.8,3.7-4.3,6.7-4.3c0,0,0.6,0,0.6-0.6c0.6-3.1,4.3-1.8,5.5-4.3c0.6-1.2,1.8-1.8,3.1-1.8
		c2.4-0.6,4.3-3.7,7.3-3.1h0.6c0.6-2.4,2.4-1.2,3.7-1.8c0.6,0,1.2-0.6,1.2-0.6c1.2-0.6,2.4-1.2,3.7-1.8c0.6,0,2.4,0,2.4-0.6
		c1.2-2.4,3.1-1.2,4.9-1.8c3.1-1.2,6.1-2.4,9.2-2.4l0,0c1.8-3.1,4.3-1.8,6.7-1.8c1.8,0,3.1,0,4.9-0.6s3.7-1.2,4.9-1.8
		c9.8,0,19.6,0,28.8,0c0.6,0,1.8,0,2.4,0c3.1,3.1,6.7,1.8,9.8,1.8c0.6,0,1.8,0,2.4,0.6c1.2,0.6,2.4,1.2,3.7,1.8
		c3.1,1.2,6.1,1.8,9.8,2.4h0.6c0,2.4,1.8,1.2,3.7,1.8c0.6,0,1.2,0.6,1.8,1.2s1.2,0.6,1.8,1.2c0.6,0,1.8,0,2.4,0.6
		c1.8,2.4,4.9,3.1,7.3,4.3c1.8,1.2,3.1,1.8,4.9,3.1c1.8,1.8,3.7,4.3,5.5,6.1c2.4,1.8,5.5,3.7,8,5.5c1.2,1.2,2.4,3.1,3.7,4.3
		c1.2,1.2,1.8,3.1,3.1,4.3c1.8,1.8,4.3,3.1,4.3,6.1c0,0.6,0,0.6,0.6,1.2c1.2,1.8,3.1,3.7,3.7,6.1c0.6,3.1,3.7,5.5,3.1,8.6
		c0,0,0,0.6,0.6,0.6c3.1,2.4,1.2,6.1,3.7,9.2c1.8,2.4,1.2,6.1,1.8,9.8c1.8,5.5,2.4,12.2,2.4,18.4c0,9.8,1.2,20.2-1.2,30
		c-1.2,3.7-0.6,8-0.6,12.2c0,0.6,0,2.4,0,2.4c-3.1,1.8-1.8,4.3-1.8,6.1c0,1.2,0,3.1-0.6,3.1c-2.4,1.8-1.8,4.3-1.8,6.7
		c0,1.2,0,2.4-0.6,2.4c-2.4,1.2-1.8,3.7-1.8,5.5c0,0.6,0,1.2-0.6,1.8c-3.1,2.4-1.8,6.7-4.3,9.8c-1.8,2.4-1.8,4.9-3.1,8
		c-0.6,0.6-1.8,1.8-1.8,2.4c0.6,3.1-2.4,4.3-3.1,6.1c-0.6,1.8-3.1,3.7-3.7,5.5c-0.6,2.4-2.4,4.3-4.3,6.1c-1.2,1.2-2.4,3.1-3.1,4.9
		c0,0.6-0.6,0.6-1.2,1.2c-1.8,1.8-3.7,3.7-5.5,6.1c-1.2,1.2-3.1,2.4-4.9,3.7c-1.2,1.2-3.7,1.8-4.3,3.1c-1.2,1.8-3.1,3.1-4.9,3.7
		c-2.4,1.2-5.5,1.8-8,3.1c-0.6,0-0.6,0.6-0.6,0.6c-0.6,0.6-1.8,1.2-2.4,1.2c-1.2,0.6-3.7,0-4.3,0.6c-1.8,1.8-4.3,1.8-6.7,1.8
		c-5.5,0-10.4,0-15.9,0c-3.7,0-6.7-1.2-10.4-2.4l0,0c-1.2-3.1-5.5-1.2-7.3-3.7c-1.8-2.4-4.9-3.1-7.3-5.5c-1.8-1.8-3.7-4.3-4.3-7.3
		c-1.2-3.7-3.1-6.7-3.1-10.4c-0.6-11,0.6-21.4,3.1-31.8c0-0.6,0-0.6,0.6-1.2c0.6-1.2,1.8-2.4,1.2-3.7c0-4.3,3.7-7.3,2.4-11.6v-0.6
		c2.4-0.6,1.2-3.1,1.8-4.3c0.6-3.7,1.8-7.3,2.4-11l0,0c2.4-1.2,1.8-3.7,1.8-5.5c0-0.6,0-1.2,0.6-1.8c0.6-1.2,1.2-2.4,1.8-3.7
		c0.6-1.8,1.2-4.3,1.8-6.1c0.6-3.7,2.4-7.3,3.1-11c0-1.2,0-3.1,0-4.3s1.2-2.4,1.2-3.1s0.6-1.2,0.6-1.8c0-6.7,0-14.1,0-20.8
		c0-0.6,0-1.8-0.6-1.8c-2.4-1.2-1.2-3.7-1.8-5.5c0-0.6-0.6-1.2-0.6-1.8c-1.2-1.2-3.1-2.4-3.7-3.7c-1.2-4.9-5.5-5.5-8.6-8
		c-1.8-1.8-4.9-1.8-7.3-2.4c0,0-0.6,0-0.6-0.6c-1.2-0.6-2.4-1.8-3.7-1.8c-6.1,0-12.9,0-19,0c-0.6,0-1.8,0-2.4,0.6
		c-2.4,1.2-4.3,3.1-6.1,3.7c-3.7,1.2-6.1,3.7-8.6,6.7c-1.2,1.2-2.4,1.8-3.7,3.1c-1.2,1.2-1.8,2.4-3.1,4.3c-1.2,1.8-1.8,3.7-3.1,4.9
		c-1.2,1.8-3.1,3.7-3.7,6.1c-1.2,3.7-1.2,7.3-3.1,10.4c-1.2,2.4-1.8,4.9-2.4,8v0.6c-2.4,1.2-1.8,3.1-1.8,4.9c0,3.1,0,6.1,0,9.2
		c0,0.6,0,1.8-0.6,1.8c-1.8,1.2-1.8,3.1-1.8,4.9c0,3.1,0,6.7,0,9.8c0,0.6,0,1.2,0,1.2c3.1,3.1,1.8,6.7,1.8,10.4
		c0,0.6,0.6,1.8,0.6,2.4c0.6,1.2,1.2,2.4,1.2,3.7c1.2,3.1,1.8,6.1,3.1,9.2l0,0c2.4,0.6,1.2,3.1,1.8,4.3c0,1.8,0.6,4.3-0.6,4.9
		c-4.9-0.6-4.9,0.6-4.9,2.4c0,1.2,0,3.1-0.6,3.7c-2.4,2.4-1.8,6.1-2.4,9.2c0,0.6,0,1.8-0.6,1.8c-2.4,1.8-1.2,4.9-1.8,7.3
		c0,1.2-0.6,1.8-1.2,3.1c-0.6,1.2-1.2,1.8-1.2,2.4c-0.6,1.8,0.6,4.9-0.6,6.1c-1.8,1.8-1.2,3.7-1.8,5.5c0,1.2-0.6,2.4-0.6,3.7
		c-0.6,1.2-1.2,2.4-1.2,4.3c-1.2,4.9-1.8,9.2-3.1,14.1v0.6c-1.8,1.2-1.2,3.1-1.8,5.5c-0.6,4.3-1.8,8.6-2.4,12.9v0.6
		c-3.1,1.2-1.2,4.3-1.8,6.1c0,1.2-0.6,2.4-1.2,3.1c-0.6,1.2-1.2,1.8-1.2,3.1c-0.6,1.8,0,4.3-0.6,5.5c-1.8,2.4-1.2,4.9-1.8,7.3
		c0,1.8,0,3.1-0.6,4.9s-1.2,3.1-1.8,4.9c-0.6,2.4,0.6,4.9-0.6,6.7c-2.4,3.1-1.8,6.1-1.8,9.2s0.6,6.7-0.6,9.2
		c-1.8,3.7-1.2,7.3-1.8,11c0,7.3,0,15.3-0.6,22.6c0,1.2,0,1.8-0.6,3.1c-2.4,4.9-0.6,10.4-1.2,15.3l0,0c0.6,1.2,1.2,3.1,1.2,4.3
		c0.6,7.3,0.6,14.1,0.6,21.4c0,1.2,1.2,2.4,1.8,2.4c1.2,0,3.1,0,4.3-1.2c1.8-1.8,3.7-4.3,5.5-6.1s4.3-3.7,6.1-5.5
		c0.6-0.6,1.8-1.8,2.4-3.1c2.4-3.7,5.5-7.3,8-11c1.2-1.8,2.4-4.3,3.7-6.1c1.2-2.4,3.1-4.9,4.3-7.3c1.2-2.4,3.7-3.7,3.7-7.3
		c0-2.4,1.8-4.3,2.4-6.7c0.6-1.2,1.2-2.4,1.8-3.7c0-0.6,0.6-1.2,0.6-1.8c0.6-0.6,1.2-1.8,1.2-2.4c0.6-1.2,1.2-3.1,1.8-4.9
		c0-0.6,0.6-1.2,0.6-1.8c0.6-3.1,1.8-6.1,2.4-9.8c0,0,0-0.6,0.6-0.6c1.8-0.6,1.2-2.4,1.8-3.7c0-1.8,0-3.7,0.6-4.3
		c1.8-1.2,1.2-3.1,1.8-4.9c0-0.6,0-1.8,0.6-2.4c2.4-1.2,1.2-3.7,1.8-5.5c0-1.2,0-2.4,0.6-3.1c1.8-1.8,1.8-4.3,1.8-6.1
		c0-1.2,0-3.1,0.6-3.7c2.4-2.4,1.8-5.5,1.8-8.6c0-1.2,0-2.4,0-2.4c2.4-3.1,1.8-6.7,1.8-9.8c0-0.6,0-1.8,0.6-2.4
		c1.8-0.6,1.2-2.4,1.8-4.3c0-1.2,0-3.1,0-4.3c0.6-1.2,1.8-2.4,2.4-3.7c0.6,0.6,1.2,1.2,1.8,1.8c0.6,0,1.2,0,1.2,0.6
		c1.2,0.6,1.8,1.2,2.4,1.8c1.2,1.2,2.4,2.4,3.7,3.1c1.2,0.6,2.4,0.6,3.1,1.8s3.1,1.8,4.9,3.1c0.6,0.6,1.2,0.6,1.8,1.2
		c1.2,1.2,3.1,2.4,4.3,3.1c1.8,1.2,4.9,1.2,6.7,3.1c1.2,1.2,2.4,1.8,4.3,1.8c0.6,0,0.6,0.6,1.2,0.6c0.6,0.6,1.2,1.2,1.8,1.2
		c0.6,0,1.8,0,2.4,0.6c1.8,2.4,4.3,1.8,6.7,1.8c1.2,0,3.1,0,4.3,0.6c2.4,1.8,5.5,1.2,8,1.8c5.5,0,11.6,0,17.1,0c2.4,0,4.3,0,6.7-0.6
		c1.8,0,3.1-1.2,4.3-1.8c3.7-0.6,7.3,0.6,10.4-1.8c1.8-1.2,4.9-0.6,7.3-2.4c1.8-1.2,4.3-0.6,6.7-2.4c1.8-1.8,5.5-1.8,8-3.1
		c0.6,0,1.2,0,1.2-0.6c2.4-1.2,4.3-2.4,6.1-4.3c2.4-1.8,5.5-3.1,8-4.9c0.6-0.6,0.6-1.2,1.2-1.8c3.7-2.4,6.7-4.9,10.4-8
		c1.2-0.6,1.8-1.8,2.4-2.4c1.2-1.2,1.8-2.4,3.1-3.7c1.8-1.8,4.3-3.7,6.1-5.5c2.4-3.1,3.7-6.7,7.3-9.2c1.2-0.6,1.8-2.4,2.4-3.1
		c1.2-1.8,1.8-3.7,3.1-5.5c1.2-2.4,3.1-4.3,4.3-6.7c1.2-1.8,1.8-3.7,3.1-5.5c2.4-2.4,2.4-4.9,3.7-8c1.2-2.4,1.8-5.5,3.1-8
		c0,0,0,0,0.6-0.6s1.2-1.8,1.8-2.4c1.2-3.1,1.8-6.7,2.4-9.8l0,0c2.4-1.2,1.8-3.7,1.8-5.5c0-0.6,0-1.2,0.6-1.8
		c2.4-1.2,1.2-4.3,1.8-6.1c1.2-4.3,2.4-8.6,2.4-12.9v-0.6c0.6-1.8,1.2-3.1,1.2-4.9c0.6-3.1-0.6-6.1,0.6-8.6c1.8-3.7,1.8-7.3,1.8-11
		C484.6,242.5,484,237.6,484,232.7z"/>
</g>
</svg>
