<?xml version="1.0" encoding="utf-8"?>
<!-- Generator: Adobe Illustrator 18.1.1, SVG Export Plug-In . SVG Version: 6.00 Build 0)  -->
<!DOCTYPE svg PUBLIC "-//W3C//DTD SVG 1.1//EN" "http://www.w3.org/Graphics/SVG/1.1/DTD/svg11.dtd">
<svg version="1.1" id="Layer_1" xmlns="http://www.w3.org/2000/svg" xmlns:xlink="http://www.w3.org/1999/xlink" x="0px" y="0px"
	 width="35px" height="35px" viewBox="-288 379 35 35" enable-background="new -288 379 35 35" xml:space="preserve">
<g>
	<g>
		<defs>
			<rect id="SVGID_1_" x="-288" y="379" width="35" height="35"/>
		</defs>
		<clipPath id="SVGID_2_">
			<use xlink:href="#SVGID_1_"  overflow="visible"/>
		</clipPath>
		<path clip-path="url(#SVGID_2_)" fill="#FDB71D" d="M-270.5,379.5c9.5,0,17,7.8,17,17.1c-0.1,9.3-7.9,16.9-17.1,16.8
			c-9.4-0.1-16.9-7.8-16.9-17C-287.5,386.9-279.7,379.4-270.5,379.5 M-262.5,390.2c0,0-0.1-0.1-0.1-0.1c-0.3,0.2-0.6,0.4-0.9,0.4
			c-0.5,0.1-0.9,0.3-1.5-0.1c-1.1-0.8-2.4-1-3.6-0.3c-1.1,0.6-1.8,1.7-1.9,3c0,0.2,0,0.5,0,0.8c-0.5,0-0.9,0-1.3-0.1
			c-0.7-0.2-1.5-0.5-2.2-0.8c-0.9-0.4-1.7-1-2.5-1.6c-0.3-0.3-0.5-0.8-1-0.8c-0.8,1.6-0.2,2.9,0.8,4.2c-0.5,0-0.9-0.1-1.3-0.1
			c0.2,0.7,0.3,1.4,0.8,1.9c0.5,0.5,1,0.9,1.5,1.4c-0.3,0-0.6,0.1-0.9,0.1c0.3,1.6,1.7,1.8,2.8,2.5c-1.3,1-2.9,1.2-4.4,1.5
			c0.4,0.2,0.8,0.3,1.2,0.5c0.6,0.3,1.3,0.6,2,0.6c0.1,0,0.3,0,0.4,0c0.7,0,1.4,0.2,2.1,0.1c0.7-0.1,1.4-0.3,2.1-0.5
			c0.6-0.2,1.3-0.4,1.9-0.8c0.7-0.4,1.3-1,1.9-1.6c0.9-0.8,1.6-1.8,2-2.9c0.1-0.3,0.2-0.7,0.3-1c0.2-0.7,0.5-1.4,0.5-2.1
			c0-0.8,0.2-1.5,0.9-2c0.3-0.2,0.4-0.5,0.7-0.7c0,0-0.1-0.1-0.1-0.1c-0.4,0.1-0.7,0.2-1.1,0.3c0-0.1-0.1-0.1-0.1-0.2L-262.5,390.2z
			"/>
	</g>
</g>
</svg>
