<?xml version="1.0" encoding="utf-8"?>
<!-- Generator: Adobe Illustrator 18.1.1, SVG Export Plug-In . SVG Version: 6.00 Build 0)  -->
<!DOCTYPE svg PUBLIC "-//W3C//DTD SVG 1.1//EN" "http://www.w3.org/Graphics/SVG/1.1/DTD/svg11.dtd">
<svg version="1.1" id="Layer_1" xmlns="http://www.w3.org/2000/svg" xmlns:xlink="http://www.w3.org/1999/xlink" x="0px" y="0px"
	 width="612px" height="792px" viewBox="0 0 612 792" enable-background="new 0 0 612 792" xml:space="preserve">
<g>
	<path fill="#8095A4" d="M6.7,396C6.7,230.1,140.1,96.7,306,96.7c165.2,0,299.3,134,299.3,299.3S470.6,695.9,305.4,695.9
		C140.8,695.3,6.7,561.2,6.7,396z M306,385.6c-38.6,1.2-77.7,1.2-116.3,7.3c-15.9,2.4-24.5,10.4-26.9,25.7c0,0.6,0,0.6,0,1.2
		c-6.7,32.4-7.3,65.5-4.3,97.9c1.2,14.1,4.3,28.2,6.7,41.6c1.8,9.8,8.6,14.7,17.7,16.5c10.4,1.8,20.8,4.3,31.8,4.9
		c50.2,4.9,99.8,5.5,149.9,2.4c19.6-1.2,39.2-4.3,58.1-6.1c14.7-1.8,23.9-9.2,26.3-24.5c1.8-14.1,4.9-28.2,5.5-42.8
		c2.4-31.2,1.2-62.4-5.5-93.6c-3.1-14.7-11.6-22-26.3-24.5C384.3,386.8,345.2,386.2,306,385.6z M271.7,298.1c0,7.3,0.6,14.7,0,22
		c-1.8,26.9,21.4,34.9,41,28.8c9.2-3.1,15.3-9.8,15.3-19c0.6-20.2,1.2-40.4,0-60.6c-0.6-11.6-10.4-19.6-22.6-20.8
		c-14.7-1.8-28.2,4.3-32.4,14.7c-1.2,3.1-1.8,6.1-1.8,9.8C271.7,281.6,271.7,290.1,271.7,298.1z M196.5,215.5
		c0.6,3.1,1.2,4.9,1.8,6.7c7.3,22,14.7,44.1,21.4,66.1c1.2,4.9,2.4,9.8,2.4,14.7c0,14.7,0,29.4,0,44.7c8,0,14.7,0,22.6,0
		c0-15.9,0-31.8,0-47.1c0-4.9,0.6-9.8,2.4-14.1c6.7-21.4,14.1-42.8,21.4-64.3c0.6-1.8,1.2-4.3,1.8-7.3c-3.1,0-5.5,0-7.3,0
		c-14.7,0-14.7,0-18.4,14.1c-3.1,12.9-6.7,25.7-10.4,39.8c-1.2-3.1-1.8-4.9-1.8-6.7c-3.7-14.1-8-28.8-11.6-42.8
		c-0.6-1.8-2.4-4.3-4.3-4.3C209.3,215.5,203.2,215.5,196.5,215.5z M380.7,340.9c-1.2,7.3,3.1,8.6,9.2,8c1.2,0,3.1,0,4.3,0
		c5.5,0.6,6.7-1.8,6.7-6.7c0-28.2,0-56.3,0-84.5c0-1.8,0-4.3-0.6-6.7c-6.7,0-12.9,0-20.2,0c0,3.1,0,4.9,0,7.3c0,18.4,0,36.7,0,55.7
		c0,2.4,0,5.5,0,8c0,4.3-6.7,10.4-11,9.8c-6.7-0.6-4.9-5.5-4.9-9.8c0-21.4,0-42.8,0-64.3c0-2.4,0-4.9,0-7.3c-7.3,0-13.5,0-19.6,0
		c0,29.4-0.6,58.1,0,86.9c0,8.6,8,14.1,15.9,11.6C368.4,347.7,373.9,344,380.7,340.9z"/>
	<path fill="#8095A4" d="M334.2,539.2c-1.8,5.5-5.5,6.7-17.7,4.3c0-39.2,0-78.3,0-118.1c5.5,0,10.4,0,16.5,0c0,12.2,0,23.9,0,37.3
		c3.1-1.8,4.9-3.7,6.7-4.9c10.4-6.7,22.6-2.4,25.1,10.4c1.2,7.3,1.2,15.3,1.2,22.6c0,11,0,22.6,0,33.7c0,7.3-0.6,14.7-8,18.4
		c-8,3.7-15.3,1.8-22-3.7C335.4,539.8,334.8,539.2,334.2,539.2z M333.5,499.4c0,8.6,0,16.5,0,25.1c0,6.1,4.3,7.3,8.6,7.3
		c4.9,0.6,6.1-3.1,6.1-7.3c0-6.7,0-12.9,0-19.6c0-9.2,0-19,0-28.2c0-4.9-1.8-8-7.3-8s-8,2.4-7.3,8.6
		C333.5,484.7,333.5,492.1,333.5,499.4z"/>
	<path fill="#8095A4" d="M426.6,501.9c-9.8,0-18.4,0-26.9,0c-4.9,0-6.7,1.8-6.1,6.1c0.6,5.5,0,11,0.6,16.5c0,4.9,3.1,7.3,8,7.3
		c4.3,0,6.7-2.4,7.3-6.7c0-3.1,0.6-6.1,1.2-9.2c5.5,0,10.4,0,15.9,0c4.3,14.1-3.7,28.2-17.1,30.6c-17.7,3.7-31.2-4.9-31.8-21.4
		c-1.2-15.9-0.6-32.4,0-48.3c0.6-13.5,12.9-22.6,27.5-22c14.1,0.6,22.6,9.2,23.3,23.9C426.6,485.4,426.6,493.3,426.6,501.9z
		 M408.8,488.4c0-6.7,2.4-13.5-3.7-18.4c-1.8-1.2-7.3-1.2-8.6,0.6c-5.5,4.9-3.1,11.6-2.4,17.7C399,488.4,403.3,488.4,408.8,488.4z"
		/>
	<path fill="#8095A4" d="M285.8,456.6c6.1,0,11,0,16.5,0c0,3.1,0.6,5.5,0.6,8c0,23.9,0,47.7,0,71c0,8.6,0,8.6-9.2,8.6
		c-2.4,0-4.9,0-7.3,0c-0.6-3.1-0.6-5.5-1.2-8c-3.1,2.4-6.1,4.9-9.8,6.7c-12.9,7.3-22,2.4-22-12.2c-0.6-23.3,0-46.5,0-69.8
		c0-1.2,0.6-2.4,0.6-4.3c5.5,0,10.4,0,16.5,0c0,6.7,0,13.5,0,19.6c0,14.7,0,29.4,0,44.7c0,3.7-1.8,8.6,4.3,9.2
		c4.9,0.6,10.4-4.9,10.4-10.4c0-12.2,0-23.9,0-36.1C285.8,474.9,285.8,465.8,285.8,456.6z"/>
	<path fill="#8095A4" d="M205.6,543.5c0-33.7,0-67.3,0-101.6c-6.7,0-12.9,0-19.6,0c0-5.5,0-11,0-16.5c19.6,0,39.2,0,58.8,0
		c0,5.5,0,10.4,0,16.5c-6.7,0-12.9,0-19.6,0c0,34.3,0,67.9,0,102.2C218.5,543.5,213,543.5,205.6,543.5z"/>
	<path fill="#8095A4" d="M308.4,299.3c0,8.6,0,17.1,0,25.7c0,5.5-2.4,8.6-8,8.6c-6.1,0-8-3.7-8-8.6c0-17.1,0-33.7,0-50.8
		c0-5.5,2.4-8.6,8.6-8.6c5.5,0,8,3.1,8,9.2C308.4,282.8,308.4,291.3,308.4,299.3z"/>
</g>
</svg>
